0.00370028,0.0517861,-0.0493643,0.170499,0.0455588,0.138779,-0.0685067,-0.0200119,0.0493908,0.0414751,-0.0201759,0.0599483,-0.0440728,-0.0310777,0.0891762,-0.0135498,0.0864893,-0.0332152,0.0712369,0.0367776,0.0505991,-0.117467,-0.0271831,-0.0413794,-0.0075887,-0.157259,0.0844887,-0.0268933,-0.0254345,0.0263065,-0.0769862,0.0893346,-0.12459,0.0251198,0.0987288,0.0258355,0.0627169,0.0341963,0.0133227,0.0410253,-0.0447591,-0.0804416,0.102925,0.0147336,-0.0131603,-0.0380926,-0.00205611,0.0107224,0.030248,0.0624826,0.0488347,-0.121414,0.0310744,0.0193941,-0.00214477,0.0409454,0.127427,-0.00145405,0.137774,0.0318518
-0.00628329,0.130795,-0.0124091,0.0599403,-0.00699642,0.00912411,0.0251982,0.0491199,-0.00339345,-0.0259056,-0.0507304,0.0747797,-0.039879,0.0601726,-0.0545942,0.0733582,0.051027,-0.0182295,0.0685543,-0.0363956,0.0249305,-0.0108326,-0.132261,-0.0847267,-0.0851144,-0.0204518,0.0357868,0.0470589,-0.0310508,-0.0263465,0.0174524,-0.0259619,-0.0296578,-0.0367425,0.0250989,-0.0404894,0.0209831,0.00777856,0.0581786,0.0890205,0.0213077,-0.0368808,0.0487029,0.0247124,0.046129,-0.00806593,-0.0440039,-0.0931959,-0.0637567,0.0801257,-0.00517029,-0.108178,0.0401561,0.0956042,0.00272647,0.120317,0.0131177,0.0304075,-0.0128356,-0.121221
0.0942826,-0.0331926,-0.0796642,0.137818,-0.0735126,0.01068,0.0699627,-0.0295524,0.0397668,-0.00221639,-0.0428368,-0.0652686,0.0198998,0.0556914,-0.0545586,-0.00942576,0.024158,0.056183,-0.0640916,0.0431256,0.0753517,0.00683198,0.112085,-0.00992222,-0.0287427,0.0165386,0.003195,0.11311,-0.00731816,-0.028191,0.0781226,0.0776794,0.0704581,0.0380301,0.05811,0.00955638,0.0791403,-0.0424232,-0.0857871,0.057657,-0.0436266,-0.0931732,-0.0183819,-0.0901429,0.0894939,-0.0420149,0.0871344,0.0761627,0.0779409,-0.0870299,0.0137435,0.0191856,0.147742,-0.0608786,0.0135238,0.0530473,0.0754726,0.0474739,0.0861267,0.0265985
0.0638085,0.0359841,-0.101713,-0.0373635,0.101605,-0.0266804,0.0224551,-0.0153746,-0.0557084,0.00480205,0.0271431,-0.0514696,0.127074,-0.0051905,0.0585522,0.052945,-0.0175745,0.116929,0.0215919,0.0801215,0.0713395,-0.0230927,0.0949057,0.0601357,0.144212,-0.0551057,-0.0184253,-0.037623,-0.0237668,0.0624327,0.0128264,0.109278,0.0693645,0.021844,0.0461238,-0.0271286,0.0260332,-0.0546899,0.0365905,-0.00381084,0.00372318,0.0813056,0.00034285,-0.0357392,-0.00382006,0.0312822,-0.0288124,0.0218214,0.154231,0.0407892,-0.0665645,-0.0208476,0.160075,0.00121593,0.0776768,0.0270579,0.0707822,-0.0592131,0.0197877,0.0792424
0.0259626,0.062685,0.0272508,-0.0416888,-0.0112524,0.0425657,0.0207097,0.0486597,-0.00616393,0.0479313,-0.00023832,0.0184482,-0.067702,-0.0179895,-0.0584375,-0.0131148,-0.0792921,-0.100073,-0.0208447,-0.0308621,0.105935,-0.00104907,0.0246555,0.1217,-0.0340204,0.0211444,-0.0116122,0.0569675,-0.00101185,-0.0314668,0.106317,0.0241001,0.0283634,0.035501,-0.0314261,-0.03324,0.0866143,-0.037255,0.00211428,-0.0704299,0.109692,0.00959931,-0.0553979,-0.0371982,-0.0680135,-0.0593909,-0.00970442,0.0280791,0.111744,-0.00176304,0.038045,-0.0392652,0.0803874,-0.0588647,0.050356,0.0297829,-0.0128302,0.0922684,0.0274758,0.136415
-0.0716041,0.0666095,-0.00159473,0.0715526,0.111528,0.0864885,0.0490311,0.0986866,-0.0149155,0.0482333,0.000853171,0.0536794,0.0504539,0.17175,0.0665681,0.0478231,-0.0957367,-0.0321227,-0.0820414,0.0134324,0.0417539,0.0232114,0.0829221,0.0228901,0.0328188,0.0637061,-0.0866717,0.0118969,0.0272725,0.0475754,0.00858209,0.0737766,0.06403,0.124564,0.00978915,0.0724858,-0.0222104,0.0105871,0.0358138,0.000920217,0.0936308,0.0234117,0.0165657,0.00156688,0.1238,-0.0378838,-0.0272685,0.101852,-0.025109,-0.0616341,-0.0421008,-0.0454965,-0.0261965,0.0157397,0.0323235,0.0805644,-0.00110537,-0.0642966,0.147456,-0.141818
-0.0264821,0.00914964,-0.037696,0.0243468,0.0232104,-0.00859984,0.0865772,0.0261242,-0.0505409,-0.0474446,0.0668192,0.0338168,0.00305206,0.0350739,-0.0125525,0.0329214,0.0730801,0.0510979,-0.0678806,-0.044597,0.0312138,0.0423291,0.0925027,0.0196836,-0.0322251,0.0350957,0.0333493,0.059835,-0.00547232,0.0549062,0.0223486,0.0582734,-0.0470858,0.00206224,-0.0168582,-0.0226401,0.0942133,-0.0585476,-0.0293512,0.0789546,0.0385517,0.0141317,-0.0166805,-0.120413,0.0128492,0.0541689,-0.0184998,-0.0133164,0.0650951,0.103459,0.0215067,0.0248081,0.0351987,0.0271933,-0.130173,-0.00634693,0.0553429,0.0673411,0.0436694,0.0393171
0.01687,-0.00187654,0.0191497,-0.0322331,-0.0282157,0.0240509,-0.0466558,-0.0157722,-0.0389847,0.0296406,0.0437108,0.0959268,0.0660464,0.0351427,-0.0363742,-0.069212,0.0468541,0.0285196,-0.0618851,-0.0637054,0.0620124,-0.0870735,0.0457672,0.0153351,-0.0563421,-0.0186462,0.0293137,-0.0512966,0.0121108,-0.0504403,0.0163563,-0.018298,0.0643657,0.0212013,-0.0128172,-0.0161814,0.0794256,0.0243032,0.096378,0.0108024,-0.077974,-0.00488117,0.0329059,-0.0367168,-0.0486818,-0.0730808,-0.0803388,0.0576148,-0.00845576,0.139715,-0.000369709,-0.00513385,-0.0106736,0.0326212,0.0168432,0.0168868,-0.0476231,-0.0221669,0.0164842,-0.0339484
0.117552,0.0626754,-0.0832066,-0.0273354,0.0347966,-0.00319803,-0.109644,-0.00849801,0.0180593,0.170774,0.0291579,-0.0220043,0.0185578,-0.100001,0.0540903,0.0778959,0.0409277,0.0444477,-0.0276783,-0.0176291,-0.0041624,0.0297197,0.0446391,0.0174768,0.056662,0.129352,0.0594776,-0.0517159,-0.00950549,-0.041709,-0.051588,-0.0388042,0.0767632,0.0309024,0.106379,0.0277599,0.0172013,0.0294012,0.0403251,0.089562,-0.0283121,0.0739751,-0.0221717,0.1238,0.00941471,0.0377919,-0.0273328,-0.0472038,-0.0511681,0.026821,0.0620323,-0.0130284,0.00449527,-0.0189914,0.0374291,-0.138033,0.119275,-0.0702153,-0.0183044,-0.146846
0.0830191,0.0284973,0.085906,-0.0585152,-0.0280857,-0.0223408,-0.0118426,0.0764824,-0.0202387,-0.108621,0.0463637,0.0103337,-0.0399841,0.0620721,-0.0197542,0.00196258,0.109446,0.0446031,0.0517968,0.0394118,0.0900637,-0.0695161,-0.0545369,-0.0101938,-0.0222252,0.010177,-0.0534316,0.053627,-0.072211,0.0524109,-0.0345726,0.0513547,0.0800309,0.00643547,-0.035966,0.0416009,0.0599402,0.0293545,-0.00959551,0.031528,0.123949,0.156295,0.00184334,0.00490683,0.0361297,-0.0200749,0.128223,0.000582876,0.034146,-0.0122976,-0.0225859,-0.0219444,0.0603501,-0.0514386,0.0634879,0.0670882,0.111751,0.0901835,0.0436633,-0.0855888
-0.0421041,-0.150154,0.0547128,0.0329023,-0.0324003,-0.0764997,-0.0173264,0.124629,-0.0813309,-0.0505892,0.017518,-0.0146977,-0.00139401,-0.0126783,0.0628457,-0.0813295,0.128551,0.011585,-0.00982124,-0.0350656,-0.0267334,0.0281382,-0.00893905,-0.0152798,-0.0205032,0.0496286,0.0891803,-0.0908303,-0.0146148,0.00263604,0.046381,-0.000679482,-0.090655,-0.0213068,-0.00257105,0.117488,-0.020527,-0.148355,-0.0355646,-0.0763802,-0.0325569,0.0760992,-0.0315296,0.0612559,0.0775079,-0.0531977,-0.0304129,-0.00110174,-0.0939688,0.064174,0.123204,0.0534581,0.0655406,0.0366581,0.0227595,0.0332544,0.0438241,0.0693156,0.0314821,0.042195
0.0362558,-0.00992815,0.0336364,-0.022934,0.0622583,0.0596219,-0.0325301,0.00386432,0.0470489,0.0160767,0.0202976,0.0244167,0.0248832,-0.025511,0.0436547,-0.0459903,0.019716,0.0141919,-0.0209585,0.0141305,0.0498844,-0.080186,-0.0616764,-0.0775001,0.036218,-0.00256069,-0.0643107,-0.0715506,0.0399843,-0.0218314,0.0163701,0.0203835,-0.0551896,0.116261,-0.0648932,0.0203404,-0.0760254,0.00606998,0.0531657,0.0615301,0.0557383,0.0966668,0.0909533,-0.0266546,-0.0460667,0.0467987,0.012149,0.127546,0.0471447,-0.0475899,0.0332189,0.0357539,0.0609108,0.0261461,-0.00762582,-0.0739674,0.0920429,-0.0111348,-0.0822631,0.0330146
-0.0126722,0.0256011,0.0975946,-0.0228505,0.135671,0.0408423,0.0559129,0.109012,0.0207783,0.0838341,0.0301647,0.00742204,0.0112843,0.00467608,0.135002,0.151267,0.172335,-0.0240239,0.0708552,-0.0864224,0.0755093,0.0524217,-0.033363,0.0960628,0.0360717,-0.0462911,0.0097696,-0.0987892,-0.0793351,0.0410589,-0.0439303,0.0142815,0.00336804,0.00449673,-0.052942,-0.0502957,-0.000612438,-0.0584745,0.0276725,-0.0494244,0.00546747,0.0423258,0.0414641,0.0462802,0.119312,0.0495789,0.0166419,0.019063,-0.0138904,0.0847029,0.0485183,-0.0197444,-0.0385166,-0.0218235,-0.000896056,0.0480875,-0.0129391,-0.040365,0.069454,-0.0257015
0.0477082,0.0625111,0.00239277,0.092916,0.0151965,0.0146952,-0.0734868,0.0255122,0.0633183,-0.137511,0.0279035,-0.076543,0.0263414,-0.0668756,-0.0418174,0.000724043,0.0922662,0.0426822,-0.0501484,0.0236977,0.00522433,0.0313906,0.0766637,-0.00460387,0.0646823,-0.020755,0.0989291,0.0413533,-0.0610751,0.0318524,-0.0520933,0.00839739,-0.0262543,-0.00488842,-0.0874066,0.100661,0.0268956,0.0330156,0.0486129,0.0200108,0.0481927,0.0251753,0.0271273,0.0293474,0.173864,-0.0495893,0.0307696,0.0579961,-0.0395448,-0.0453387,0.0253322,-0.0351563,-0.0313423,-0.019893,0.119251,-0.0601266,0.0811959,0.0525974,0.0121489,0.0893615
-0.0850113,-0.0282737,0.105971,0.00560998,-0.0161406,-0.0856159,0.0379693,0.0706634,0.039781,0.039659,-0.00208489,0.0509953,-0.0499271,0.0765132,0.0703403,-0.0939782,0.148685,-0.033154,0.072367,0.0847322,0.0188683,-0.0219483,0.0918817,0.017544,-0.0365997,-0.0464598,-0.0594453,-0.0397529,-0.0407247,-0.0393881,-0.0304585,0.0653854,-0.0727793,0.0281402,0.0707407,-0.0686631,-0.0556587,0.0614705,-0.112929,0.045349,-0.0113976,0.0173798,0.1172,0.0846056,-0.0898527,0.0635749,-0.00504989,0.0914335,0.0531841,0.151425,0.000772046,-0.0293933,-0.00964412,0.0808258,-0.0549009,0.0179739,-0.0267074,-0.0589213,0.0151254,0.0396742
-0.0915958,0.0713032,0.0377997,-0.00917139,0.104072,0.0454855,0.0613305,0.0501968,2.55602e-05,-0.00717818,-0.114682,0.0300007,0.0127882,0.0797903,-0.0137871,0.0146611,-0.0319814,0.0679685,-0.0457426,0.0123569,0.026097,0.00510589,0.0236182,-0.0146293,0.0213032,0.123837,-0.0454359,0.0378005,0.0710203,-0.0810016,0.101182,0.0819773,-0.00845418,0.00773571,-0.0281822,0.0434451,0.0273585,0.0653129,-0.0461933,0.0143083,0.11965,0.0429625,0.0831178,-0.0323265,-0.0238038,0.0608837,0.0026238,-0.0797703,0.028928,0.0191477,0.124257,-0.00243872,0.0811773,-0.0983624,0.0133087,-0.0822461,0.0188298,-0.0656423,0.013953,-0.0286011
0.0619563,0.030057,0.0446742,0.00178496,0.0117543,-0.0660211,0.0369281,0.147044,0.00582091,-0.0204048,0.00904477,-0.0113327,-0.0121056,0.0623008,-0.061768,-0.0358076,0.0215343,-0.0380511,-0.0805333,0.0219834,-0.00373146,0.0363091,0.0764097,0.0210302,0.0153851,0.0304105,0.0213753,-0.0127561,-0.0290548,-0.024718,-0.00400541,-0.0423379,0.0463789,-0.0519352,0.0091262,0.014613,-0.0424603,-0.0380648,-0.0809632,0.0254922,-0.0281571,-0.0712618,-0.0748442,0.0208071,-0.0118004,-0.00658565,-0.00706749,-0.0167668,-0.0248295,-0.0367988,-0.0117129,-0.075145,0.0628748,-0.0862455,-0.00146118,-0.0248271,0.0126834,-0.0637124,-0.0597659,-0.0063365
0.0577983,0.0942252,-0.000596556,-0.0248925,0.0164279,-0.100614,-0.00633633,-0.025762,0.0592912,0.0173584,0.0417227,-0.00106073,0.0422093,0.00662239,0.0207796,0.131377,0.00789288,-0.086171,0.0642226,-0.00625786,-0.109385,0.128787,-0.00317474,0.039338,-0.0248759,-0.0739469,-0.088602,-0.0125139,-0.0146711,0.0152909,-0.0118551,0.00383907,0.0795141,-0.00678989,-0.0240588,0.0377785,-0.0744515,-0.0195306,0.0469655,-0.0104877,-0.0130596,-0.0329994,-0.000691033,0.0799557,0.0782752,0.025533,-0.099088,-0.0469078,-0.054976,-0.0228683,0.0753638,-0.0358294,0.0290389,0.0727452,-0.0727379,0.0360079,-0.0981338,-0.0507665,0.0490335,0.12501
0.00674803,0.0599995,-0.0553867,0.0263014,0.00412139,0.0215697,0.0230714,0.0686125,-0.0620801,0.115519,-0.0753382,-0.0305178,0.0471534,-0.0590282,-0.0259845,-0.0107725,0.0240796,0.082762,0.0554407,0.0266191,-0.00429324,0.0796058,-0.0322095,0.0129228,0.0308704,-0.00831769,-0.0479692,-0.0294144,0.0589891,0.0541424,0.0748015,4.53594e-05,-0.0208079,0.00838523,0.0334491,0.029759,-0.0154362,-0.0342188,0.0121167,-0.036089,-0.0174719,-0.05783,0.00386309,0.0312532,0.100368,-0.0254605,0.0591742,0.0140232,-0.000617089,0.0229706,0.021121,0.107946,0.0164377,0.0527654,0.0209485,0.004228,-0.0444345,-0.0109861,0.0625369,0.0507942
-0.0338745,0.0207399,0.0836187,0.0646545,0.0523674,-0.105062,-0.0648403,0.142619,-0.0233887,0.0431275,-0.0391672,0.0586773,-0.066601,0.0642502,-0.00225836,5.67394e-05,-0.00550587,0.0658022,0.0564406,-0.000676311,-0.0735255,-0.0264098,-0.0904098,-0.00151559,0.0962372,0.0918513,0.0718861,0.0804123,0.000223271,-0.0837468,-0.0339025,0.0452523,0.0261926,-0.0499948,-0.0716553,0.0149425,0.0241008,0.0479393,0.057371,-0.0669162,0.0654008,0.0267797,-0.0952629,-0.00391728,0.046287,0.00738177,0.0338958,-0.000465564,0.0436517,0.0875044,-0.00912252,-0.019899,-0.00959727,-0.0793877,-0.0221933,0.0761864,0.0020298,0.0231981,0.0918641,0.0687226
-0.0182816,0.0253779,-0.0109487,0.0782392,0.0316457,-0.00561489,0.0532581,-0.100218,0.0131299,0.0151905,-0.033583,0.0738286,0.0568255,-0.00102725,0.00121328,0.128562,0.0165822,-0.0023675,0.0648351,-0.0527429,-0.0243609,-0.00257428,0.0498783,0.049428,0.0539,-0.0313023,0.0689613,0.0593554,0.106274,0.000486142,-0.0456202,0.0164485,-0.11346,0.0173776,-0.0165927,-0.0275684,0.0479141,-0.0465996,0.0129441,0.0734613,0.0141826,0.0436464,-0.0388969,0.0230233,0.00997349,0.0391543,0.104887,-0.00730956,-0.0115887,0.130468,0.0106611,0.0267907,0.124459,-0.153298,-0.0060491,0.0512504,0.0645759,-0.0447015,0.114753,-0.0673268
0.050004,0.0707546,-0.0668375,0.031011,0.0288689,0.0843329,0.0529858,0.000367438,0.0322052,0.0978362,0.106044,0.0353914,0.053533,0.160019,-0.0268995,0.0339586,-0.0772474,-0.0136587,0.00946175,-0.0426577,0.048463,-0.060443,0.00286384,0.0222594,-0.0502247,0.0713435,0.0327142,0.0179809,-0.0486817,0.00807467,-0.0181998,-0.0319737,0.0656344,0.0680831,0.0599088,-0.0153404,0.0516312,0.0987864,0.0709427,-0.0536125,-0.0390412,0.133057,-0.0191192,0.0141211,0.0418631,-0.0334836,0.0131952,-0.0325972,-0.00318485,0.0331171,-0.0497692,0.00369453,0.00467842,-0.0482347,0.0165613,0.0697735,0.122358,-0.00726748,-0.0721261,0.0227362
0.0352708,-0.0288765,0.0450085,-0.0128091,0.109086,0.1164,0.00540702,0.0349826,-0.109668,-0.0252614,-0.00560598,0.0705218,-0.0303062,0.0612986,0.0684412,0.0833295,0.0713448,0.00591871,0.0486367,0.115941,0.129599,0.0809281,0.0293529,-0.0421907,0.064168,-0.0998713,-0.0600272,0.0975562,0.0546927,-0.0074111,0.0200154,-0.00133301,0.0157314,0.00037671,0.00281247,-0.018651,0.150942,0.0344924,0.10224,0.0862937,-0.0209547,0.0842844,-0.0402022,0.0139464,0.0304884,0.0449073,-0.0153053,0.0173024,-0.0569843,0.0786105,0.0353081,0.07996,-0.111431,0.0740626,-0.0223252,-0.0443451,0.0886344,-0.0151597,-0.0448502,0.10767
-0.0513924,0.00837842,-0.00358619,-0.0211699,0.0564883,0.107428,-0.0209382,-0.0536618,-0.108258,-0.0147387,0.0331019,0.0097627,0.0371643,0.0863925,-0.060225,-0.00611384,0.0538365,-0.0401536,0.0547961,-0.084968,0.0500373,0.0480786,0.0521802,0.000205201,-0.00099205,0.0446556,-0.0118226,-0.0242698,0.0605416,-0.0101348,0.0537473,0.0789698,0.0335771,0.0904626,-0.0582743,-0.00853249,0.0795464,0.0305847,0.126203,0.00187,0.0743662,-0.0687768,0.0151242,0.116673,-0.0940295,0.0520507,0.0312807,0.00900035,-0.0150656,0.0816633,0.0675676,-0.0374752,-0.0260977,-0.0276873,0.0923577,-0.0624113,0.0155057,-0.0527733,0.0233797,0.0702263
-0.0323701,-0.170001,-0.0115659,-0.0036732,0.133557,0.119038,-0.0319072,-0.0725641,0.0243132,-0.0999014,-0.0119163,-0.0604655,-0.0169899,-0.0282608,0.00234829,0.106822,0.0742095,-0.0278398,0.0137827,0.0187835,-0.0276397,-0.0878885,0.0231717,-0.0285729,0.00848176,0.10075,0.0441972,-0.035307,0.0763167,-0.0634164,0.0610349,-0.0301939,-0.216698,0.07541,-0.0316887,0.00560735,0.0853939,0.1137,0.0367923,0.0788369,0.0229969,0.126832,0.00468735,-0.0239755,-0.0572754,0.0477141,0.132614,0.1602,0.0116535,0.0797809,-0.0278504,0.00428097,0.0684351,0.0361082,-0.0318674,0.0191217,0.0400024,0.0691984,0.0406218,0.0387765
-0.0820312,0.0230347,0.0471647,-0.0780762,-0.0288066,0.0592644,0.086889,-0.0916741,0.0290021,0.109106,-0.0759135,-0.0330963,-0.0586081,0.057406,-0.0159256,-0.0364213,-0.00258768,-0.0780892,-0.0349138,-0.0492572,-0.0510593,-0.056927,0.0236825,-0.113128,-0.0164286,0.0518891,-0.0751008,0.0125148,-0.0276649,0.0103444,-0.0375062,0.0140398,0.00760624,-0.0761084,-0.0183078,-0.0949619,0.0669123,-0.0725513,0.0105223,-0.0839502,0.0417127,0.047544,0.00692486,0.0193954,0.106582,0.0162393,-0.0219521,0.0271052,0.0130763,-0.0172403,-0.00816699,0.0363221,0.0279628,-0.0121422,-0.0462497,-0.0494005,0.0275475,0.0122935,-0.0840165,-0.00994055
-0.0531114,0.00696938,0.0094973,-0.0462276,-0.06977,0.0807425,0.0292495,0.0816454,0.00195614,-0.099398,0.00530885,0.0536359,-0.103334,0.0765388,-0.0301169,0.0541802,-0.0804535,0.0567012,-0.0303435,0.0501459,0.0521808,0.0288095,-0.0456715,0.0116682,0.0318269,0.104111,-0.0250111,0.00788113,-0.0434772,0.0598818,0.010986,-0.0407992,-0.0531242,-0.0269745,0.00942824,0.0307442,-0.0171065,-0.00736111,-0.0477556,0.160935,0.0581178,0.0418831,-0.00817165,-0.00775968,-0.000341303,-0.000743629,0.0231494,-0.00255755,0.059817,-0.0395136,-0.0373462,0.1074,0.0410578,0.124444,0.0265666,-0.0230279,0.0158241,-0.0401557,0.0626089,-0.0637955
-0.036374,-0.103559,0.0294757,0.0572446,-0.0105154,-0.0329409,-0.0175265,-0.0675851,0.0699538,0.078607,-0.00771594,-0.015136,0.119636,0.00899388,-0.044321,-0.0194827,0.0168639,0.0151942,0.092779,0.0774479,0.0656775,-0.106412,-0.0332384,-0.00925862,0.00643563,0.0774626,-0.0661566,0.0065092,0.0147657,-0.0387773,0.0237449,0.00637757,0.0467123,0.012312,-0.00737759,0.143665,-0.0131712,-0.0447347,0.105247,-0.0511673,0.102547,0.0214351,0.0615236,-0.10343,0.0382367,-0.105756,0.00870273,0.0809245,0.0320074,0.00232532,-0.00917724,-0.0525188,-0.0139794,0.0267831,0.0616991,-0.0302035,-0.0403492,-0.000442318,0.0418415,0.0657469
-0.0480731,-0.0444757,0.0023113,0.0312501,0.0440179,-0.0988459,-0.0249162,0.00436888,0.0578055,-0.020525,-0.0958608,0.0589409,0.0187204,0.0625368,0.0606183,0.104425,0.00994375,0.0150828,-0.011667,0.0871449,0.0747294,-0.0294982,0.0952666,0.0765418,0.00913654,-0.0399653,-7.69548e-06,-0.054167,-0.0481625,0.0340862,0.0625968,0.0607911,0.0617409,0.166809,-0.0107485,0.0448871,0.0747099,-0.0181509,0.101568,-0.0290135,-0.0414956,-0.0704464,0.106343,0.100508,-0.00440977,0.0528955,0.0532561,0.0272926,0.0796975,0.114207,0.0761403,-0.0128988,-0.0932616,-0.0372577,-0.12221,0.0370189,-0.00142505,-0.0503793,-0.0184119,-0.0636598
-0.0950022,0.089903,-0.00336902,0.0218659,-0.0962581,-0.0219018,-0.0311893,0.0492682,0.0192862,0.129502,-0.0025836,0.0103318,0.0120974,0.0576248,0.0504884,0.0423062,0.0174735,-0.0588801,0.0109093,0.0845092,-0.0553044,0.0624191,0.0726768,-0.0107014,0.00883662,-0.0110625,-0.0153938,0.0958336,0.0535486,0.074266,-0.0226571,-0.073581,0.0178967,0.0315225,0.00026982,0.0206513,-0.00306822,-0.0554066,-0.0369555,0.0345781,0.0697719,0.0360872,0.00287932,-0.018688,0.0194375,-0.0727742,-0.0142653,-0.00533346,0.0978377,-0.0606583,-0.0555546,0.0405513,-0.0013227,-0.103706,0.0267945,0.0580545,0.0026238,0.0521574,0.0121985,0.092106
-0.00890997,-0.0501087,-0.00154397,0.0648266,0.122227,-0.0118076,0.0640303,0.147714,-0.00647102,-0.143033,-0.0357143,0.0337142,-0.0332795,0.040124,-0.00654668,-0.0108313,0.0232312,0.0405532,0.0937768,0.0102356,0.104435,0.0162367,0.0198943,-0.0232363,0.00446331,0.0602494,0.0103289,0.0938314,-0.0725506,-0.0153594,1,0.0206408,0.00616399,-0.0265796,0.0146587,0.0494335,0.0555481,0.0356082,0.0111952,-0.0267067,0.026329,-0.00792848,0.0712954,-0.0786923,0.0679366,0.0267547,0.0358574,0.0286163,0.153551,-0.0451312,-0.0639233,0.0916882,-0.00960852,-0.00606348,0.0375148,0.00419657,0.0627365,-0.0493968,-0.0256832,-0.034236
-0.0814362,-0.0321503,-0.0288551,-0.0137402,-0.00975658,-0.0131229,-0.0220202,0.0386668,0.0385553,0.0458156,-0.0412314,0.0897521,0.119218,-0.0112668,-0.0430739,0.0720048,0.0942842,-0.00623119,0.0950289,0.0376356,0.0547257,0.0566678,-0.0198445,-0.109759,-0.024928,-0.0028633,-0.0136453,0.134956,-0.00544865,-0.0883739,0.0107376,0.00877688,-0.0476505,0.067531,0.120594,0.117117,-0.0453277,-0.050479,0.0733628,0.10501,0.103012,0.0365169,0.0456347,-0.000186514,0.0225424,0.082066,-0.0581537,0.0209239,0.00147527,0.0518277,0.111848,-0.0904356,0.0601458,-0.0753206,-0.0364352,0.00200869,-0.066826,-0.000876413,-0.0312075,0.0783617
-0.0393543,0.0450336,0.05285,-0.0140211,-0.0502124,0.0599274,0.113689,0.0857044,0.0950113,0.0832233,-0.0262448,0.118259,-0.0873709,-0.00186628,-0.0096994,-0.0535598,0.0500544,0.0681765,0.0915494,-0.0178826,0.113825,-0.0232214,0.00894739,-0.147571,0.0717921,-0.024625,0.0137433,0.0124371,0.0393172,-0.0364756,0.0584225,0.0720958,0.00757482,-0.0415738,-0.0614277,-0.015363,-0.045292,-0.0313244,0.0337352,-0.060849,-0.0350239,0.00484429,-0.0310203,-0.143681,0.0213407,0.0533728,-0.0727107,0.0152611,0.0790683,0.0492946,-0.0309051,0.0423913,0.0439741,-0.0367468,0.0960811,0.0378045,0.0227129,0.0709193,0.0135209,0.0374059
0.104268,-0.0463333,-0.0602854,0.0216055,0.0442346,-0.00568499,-0.0683873,-0.167116,-0.104574,0.0383979,-0.0456097,-0.00583649,-0.0349923,0.0565033,0.0343887,-0.0175462,0.0376526,-0.0288102,-0.0134268,-0.0115389,-0.012853,-0.0416175,0.00308564,-0.00204747,-0.0317154,-0.0854043,0.0448664,0.0188708,-0.0176707,-0.077808,0.0704784,-0.0120738,0.0848192,0.134688,0.0337615,-0.0518267,-0.0693467,-0.0971965,0.0634352,-0.0446816,0.0510376,-0.0772258,0.0931638,-0.0480754,-0.00981807,0.0648894,0.0544291,0.0278639,0.0024939,-0.00229631,0.0153734,0.0576451,0.0708552,0.0436722,-0.0729269,-0.0080616,-0.000289034,0.071888,0.0981209,0.0297167
-0.0976559,-0.0696257,0.037476,0.0304244,-0.0697239,0.0623115,-0.0309467,0.00444484,0.0140242,-0.0763037,-0.00240257,-0.00357915,0.0133764,0.0648394,0.140989,0.0238692,0.0741331,0.113107,0.0673495,-0.0864083,-0.0114439,0.145232,0.0100098,-0.0123522,0.0190539,0.0279094,0.0636498,-0.0038546,0.0804521,0.0723651,-0.0269543,-0.0150586,0.0259985,0.0727821,-0.0252428,0.110755,0.000794111,0.106142,0.0221057,0.0444179,-0.0889575,0.0291198,0.139811,-0.0748579,0.0451696,-0.00931788,-0.0116792,0.11729,-0.0647034,0.0211889,0.0486982,0.0867308,-0.0391181,0.0316206,-0.00362248,-0.0360884,0.124264,-0.104246,-0.0638381,-0.0196164
-0.00845205,-0.00884888,-0.00660457,0.0322814,-0.0499195,0.0523843,-0.0320287,-0.00292587,0.177788,0.0187823,0.0432376,-0.00886104,-0.0264994,-0.00819372,-0.0130326,-0.0554767,0.0426072,0.0182536,0.0394629,-0.0720017,-0.00463253,-0.0114109,-0.0354432,0.0456991,-0.00514512,0.050396,-0.0818487,0.0475313,0.0327482,0.0627749,0.00233005,-0.0409021,-0.0272419,-0.0134496,0.0473958,0.0246956,0.0415574,-0.0349418,-0.0113246,0.0604063,-0.0295428,0.114744,-0.00660657,0.0124032,0.0168721,0.0430518,0.0636254,0.0238712,0.0278541,0.0339789,0.0175097,-0.0129466,0.0531482,0.0869199,0.00160483,0.100823,0.0295809,-0.0989402,-0.00400258,0.0454416
0.00331237,0.0156208,0.00193916,0.021669,0.0448721,-0.0278425,0.0101148,0.00035202,0.108519,0.0232653,-0.0375786,0.13816,-0.155301,0.0762457,-0.102737,-0.0304558,0.0391783,0.020485,0.0693158,-0.0280962,0.185954,0.0493665,0.0060469,0.0419624,0.173694,-0.0343157,-0.0309318,-0.0155067,0.144421,0.0342373,-0.029283,0.0330264,0.017269,-0.0284075,0.024958,-0.0407161,0.0458573,-0.00409081,-0.018954,-0.0326696,-0.0492767,-0.00114677,0.00342928,0.00663268,0.069772,0.00470839,-0.0558017,0.056739,-0.0140721,0.0468847,0.0990949,0.0209215,0.0150415,-0.103674,0.130119,-0.0748356,-0.0382394,0.0781572,0.0299381,-0.106465
0.072304,0.0573111,0.0169428,-0.0279129,-0.0853539,-0.0507469,-0.0198264,-0.103015,0.125435,-0.0454901,0.00880424,-0.0575312,0.112187,0.0514241,-0.129744,-0.021268,0.108032,-0.0334699,-0.018512,0.0121606,-0.00299292,0.0971115,-0.0342922,0.0364836,0.0179794,-0.022576,0.044701,-0.072657,-0.0350547,0.000525719,0.0500595,0.0453254,0.0299853,-0.00986672,0.0561213,-0.0105253,-0.0230478,-0.0431931,-0.0230011,0.00160977,-0.0713905,0.0725251,0.079628,0.0712503,-0.0213574,-0.0560981,-0.0395893,-0.0358324,-0.0117158,0.0445794,0.00526519,0.0418697,-0.0173037,-0.0425106,0.0760621,0.0450998,0.0620495,-0.0743955,-0.0411431,0.0868038
0.115674,0.0624979,-0.00975942,-0.0534026,0.0734303,0.00403496,0.129174,-0.0425848,0.0109736,0.0431181,0.0237226,0.0563602,0.0545443,0.020156,0.0440888,-0.0031917,0.0511792,0.0722892,0.0176288,-0.0156022,-0.0189031,-0.0442884,0.0162251,0.0384348,-0.0346694,0.0736999,-0.00700472,0.0110991,-0.0151782,0.0171927,-0.0711405,-0.0475319,0.055182,-0.032388,0.0512584,0.00698278,0.11683,0.00282833,-0.00811168,-0.0154652,0.030759,0.0502599,-0.0659642,0.0579726,0.117203,0.00241938,-0.0118098,-0.0428189,0.064592,0.0246553,0.0258394,0.0542976,-0.0614022,0.0270505,0.0990685,0.0962955,0.0710299,-0.00695071,-0.055251,0.0802329
-0.0126166,0.0318027,-0.0329099,0.103845,0.0326139,-0.0303594,-0.00464506,0.00224476,0.100681,0.014659,0.00174368,-0.00955785,0.0197353,0.0279428,0.00662264,0.0591354,0.0286129,0.0208201,0.0579829,0.0287286,-0.0550386,0.063365,0.0446938,0.0311599,0.0125999,-0.068606,-0.00660611,-0.0129907,-0.0471753,0.011175,0.0488422,-0.0405038,0.0345574,-0.0452533,-0.0127274,0.0392721,0.0355867,0.076452,-0.0519399,0.0906357,-0.110744,0.0572906,0.14674,-0.0115868,0.089799,0.00581031,0.0561779,-0.032461,-0.0408701,-0.00318058,-0.0240142,-0.0497492,-0.0176892,-0.0515173,0.0127941,0.0252923,-0.0659265,-0.0400327,-0.00962126,0.0685469
-0.00937277,-0.0227786,0.0842269,0.0945908,0.022028,-0.0231248,-0.0452894,0.0361979,-0.0297159,0.119983,0.0258555,0.0410793,-0.0375125,0.00545367,0.0676418,0.066343,-0.0075135,-0.0682143,0.0619111,-0.013539,-0.0242023,0.0461876,-0.0587471,-0.0112586,0.0397209,-0.0101463,-0.0169164,0.0232391,-0.135714,-0.0597737,0.0348104,-0.0527129,0.0545948,-0.0764894,0.141311,0.132718,0.0267949,0.130464,0.0352626,-0.0246003,-0.0223106,0.00467034,0.0901343,0.0628394,0.101993,0.0490733,0.0953782,0.0959636,0.0182593,0.0356794,0.0546604,-0.112671,0.0258174,0.0595157,-0.0429115,-0.111979,0.0592026,-0.0862778,0.0203409,-0.0333341
0.00188768,0.0041244,0.0581962,0.0143047,0.00759757,-0.0321088,0.0764875,0.00718988,0.142554,-0.0653725,0.0398382,0.0385491,0.0493146,0.0654541,-0.0191351,-0.0457967,-0.0697261,0.01823,-0.0129728,0.0746688,0.0125464,-0.0350571,0.101996,0.048419,0.0497541,0.0139235,-0.0491644,0.11594,0.0239728,0.0224918,-0.0378965,0.0857648,0.063839,0.162854,0.0568663,0.000533064,0.0737983,-0.0714075,-0.010536,-0.0139728,0.0576701,0.063403,0.0159732,-0.0497301,-0.0146564,0.036831,0.129893,0.0368493,-0.0579988,-0.0608801,-0.0533066,0.0304779,-0.0880692,0.041615,-0.0167124,-0.0378685,0.0311825,-0.0254315,0.0536466,0.00135993
-0.018674,-0.0103398,0.0460336,-0.0642143,0.0175995,0.104366,-0.0944875,0.0699112,-0.00269038,0.0355209,-0.0254384,-0.0213357,0.00506939,-0.133044,0.0140484,0.0376374,0.0470184,0.0462606,0.0401631,0.114031,-0.0265613,-0.0600014,0.0215464,-0.0119748,0.00216419,1.56347e-05,-0.00843845,0.0171619,0.032509,-0.0269617,0.0683184,-0.015912,0.0335158,0.000579369,0.0349244,0.0619775,-0.0191437,0.0170863,-0.0421078,0.0873804,0.11823,0.102791,-0.032474,-0.00424612,0.027462,0.00513642,0.0575827,0.0424588,0.0147766,0.0160625,0.130168,0.0161007,0.103907,0.0936435,0.0141554,0.0341124,0.0242096,0.127165,0.0237359,0.00685698
0.0110278,-0.0174057,0.040619,0.126915,0.0936243,-0.0633482,0.0156729,0.0430912,0.0238569,-0.0109957,-0.0515912,0.0978159,0.0127155,0.0487389,-0.0138132,-0.0214529,0.0129915,-0.0729673,-0.0115742,0.0656391,0.0852071,0.0699098,-0.0167244,0.0312821,-0.0316264,-0.0105531,0.0418219,0.0831837,-0.0604733,0.0285448,-0.0244412,-0.0449526,-0.0162892,0.037797,0.0178485,-0.0733898,-0.0626834,-0.0482332,-0.0944043,0.0770045,-0.00513401,0.0290522,-0.00661448,-0.0666401,0.106745,0.033854,0.0129385,-0.0301254,-0.0372023,0.0854951,0.0120162,0.0359262,0.0807198,-0.103318,0.0642594,0.0779191,-0.00669517,0.0274343,0.0423885,0.030942
0.00372114,-0.0318422,-0.00179842,0.0354793,-0.103809,0.106812,-0.10436,0.0553849,-0.010783,0.00739493,0.062671,0.0174451,0.0098073,-0.0812628,-0.0560004,-0.071943,0.0755454,0.052027,0.00461715,0.0433727,0.0449974,0.0143152,-0.0480221,0.0136239,-0.0668473,0.0265184,0.056175,0.0114333,-0.0196334,0.0434588,0.0973659,0.0478363,0.0628727,-0.0351028,-0.0121858,0.011171,-0.0543889,-0.0841716,0.11146,-0.0384061,-0.0287956,0.0823242,0.0260699,0.0309338,-0.156704,0.034288,-0.00564557,-0.0673262,-0.0269119,-0.0353614,-0.031391,-0.0042605,0.0410149,0.0512115,-0.0381282,0.0161838,-0.0596793,0.0568167,0.091817,0.0487798
0.0482433,0.0816744,0.148191,-0.00998268,0.0482229,0.0104457,-0.0529478,0.0340653,-0.126015,0.0151838,0.0374094,0.0246828,0.0159994,0.16196,0.0161592,-0.0414117,-0.028839,-0.06317,0.0191626,-0.0134177,-0.0235771,0.0983792,-0.0249982,0.0493302,-0.000648588,0.062404,0.0797026,0.00297039,-0.029005,0.0737198,-0.111333,0.132722,0.000671482,0.0655896,-0.0244315,-0.0801511,0.0535066,-0.0453433,-0.0329694,0.134132,0.0264472,0.0498332,-0.0247917,0.00917033,0.0434153,-0.104839,0.0416856,0.0843567,0.0120493,0.057715,0.00515856,-0.0205481,-0.0270498,-0.00131662,0.142349,0.0203772,-0.104263,-0.0659913,0.0863787,0.044153
-0.0125535,0.0183198,-0.00132679,-0.0304176,0.119778,0.0024918,0.0108178,0.0492892,0.0548683,-0.0187853,-0.0379134,0.0685469,0.0093805,-0.0349417,-0.107535,0.136005,0.0159284,-0.0108165,-0.0397487,-0.0235908,0.0175097,-0.0142448,0.0198245,0.0221594,-0.0974097,-0.0203392,-0.0486005,0.0308159,0.0319714,-0.0932241,-0.0905015,-0.106683,-0.0429217,0.0206556,-0.00795294,-0.0167371,-0.0368819,0.0479732,0.0336064,-0.0286822,-0.0333094,0.0977822,-0.0607032,0.0140461,-0.0331685,0.096168,0.0921631,0.0303646,0.0817066,0.0475699,-0.052524,0.111825,0.0231616,0.000872447,-0.021996,-0.00129038,0.0282103,-0.0459134,-0.000440301,0.00437364
0.0438704,0.0690594,-0.0775353,-0.0678161,0.0789347,0.0827499,-0.0831146,-0.0755993,-0.00893852,0.0236029,0.0831404,-0.0154872,0.0557289,-0.0134511,-0.0332525,-0.0861748,-0.068504,0.0972708,-0.0542002,0.04675,0.0321149,-0.0332886,-0.0591351,0.0410557,0.00492622,0.0532255,-0.0132624,0.0624971,0.0326264,-0.0660685,0.0426454,0.0414474,0.00616157,0.00942752,0.0288674,-0.0449223,0.0544699,0.0326521,-0.0204813,-0.0664778,0.0424998,0.0303683,0.0256861,-0.0197396,0.0141696,0.0539402,-0.0131674,0.0404513,-0.00829718,-0.0384282,-0.0814143,0.0151061,0.0283285,-0.0767982,0.099405,-0.0222293,0.00252722,-0.0361546,0.0654924,0.0486083
0.0369698,-0.0145867,0.102013,0.0110906,-0.0354617,0.0306001,0.024775,-0.0257592,-0.00536649,-0.0449915,-0.0267251,0.0542731,0.0603132,0.0231581,-0.0183383,-0.000554865,-0.0310747,0.107603,-0.0337223,0.115076,0.0769185,0.0161548,0.0194315,0.0741212,0.0546076,-0.0142493,-0.0149618,-0.0434765,-0.115577,0.0267076,0.0104371,0.0604305,-0.0268272,0.0726377,0.0660722,0.119525,-0.0909889,0.0487124,0.0463186,0.0343875,-0.0632856,-0.0592449,0.055948,-0.0756779,0.0729878,-0.10873,-0.0324632,-0.0434,-0.0267109,0.128855,0.102795,-0.0627442,-0.151907,0.00660224,0.07618,0.0193937,0.0323595,0.0888543,-0.0831309,0.0733393
0.0791499,0.0611623,-0.0676028,-0.0251369,-0.00992294,-0.000577884,0.0947015,0.0873118,0.00934025,0.0504638,0.044417,0.0230211,-0.0682763,-0.0425823,0.0184038,-0.0795132,0.0347208,-0.0423216,0.01897,0.0403198,0.0663327,0.0770418,0.0432595,-0.00132475,-0.0278852,0.0618759,0.0594695,-0.00568481,0.0140315,0.0384009,0.0764499,0.021168,0.0300515,0.0508258,0.00242093,0.0137662,0.0694968,-0.0245622,0.0146792,-0.104264,0.0887429,-0.018513,-0.0705476,0.0268914,0.0100364,0.031573,0.0735792,-0.0518361,-0.0190505,-0.0143627,-0.00739607,0.0392798,-0.00380382,0.0427084,-0.0061779,0.046082,0.0961475,0.0433991,0.114834,-0.0802667
0.0770481,-0.0456903,0.0170071,-0.0525262,0.0305844,0.0194976,-0.00886752,0.0803306,0.0531791,0.0494261,-0.0175772,0.0697295,-0.0554906,0.0620075,-0.00496393,0.0600112,0.00948802,-0.00820165,-0.0504729,-0.0679183,0.0827875,0.00342265,0.0102918,0.0509317,0.0244168,-0.00810275,-0.0300276,0.00570275,-0.0524548,0.013689,0.0940465,-0.0503435,-0.0138838,-0.0806204,-0.0803295,0.029636,-0.000110815,0.0763194,0.0276402,-0.0018923,0.144944,0.0517163,-0.114694,-0.0475412,0.0172303,0.0118578,-0.0104782,0.0481128,-0.0537231,0.0105039,-0.0427917,0.00965388,0.0354007,0.0399711,0.0583923,-0.101344,-0.00410788,-1.60094e-05,-0.0333823,-0.0105756
-0.0948373,0.00933562,-0.0553081,-0.0376716,-0.0366871,0.0270062,0.0431405,-0.0659632,0.044309,0.0292265,0.0372791,0.0427878,0.0591321,0.0589802,0.0527799,-0.0373879,0.0582149,-0.00571084,0.0258064,0.00968929,-0.0326133,-0.00101279,-0.0238105,0.0403432,0.0295209,0.0242949,-0.0765477,0.0687886,0.0765371,-0.0836087,0.0458651,-0.00151351,-0.0436109,-0.0441378,0.012686,-0.00934971,0.0188863,0.0159705,0.0621611,0.0680925,-0.0219839,-0.0345572,0.0962818,0.00601986,-0.0191924,-0.0211644,0.00446399,-0.0370357,0.0728812,0.0664558,0.0500713,0.00617446,0.0519246,-0.077391,0.0396244,0.0572956,-0.013557,-0.0483836,0.0891868,-0.0102334
0.0162373,0.131326,0.122992,0.0860263,0.0865442,-0.0616552,-0.0335226,-0.095149,-0.102452,0.122039,0.111237,0.0767355,-0.084878,0.0743723,0.0375882,0.0603455,-0.0472738,-0.0845596,-0.0159435,0.0259558,-0.0635721,0.0770364,-0.0350952,-0.00485459,0.0558831,0.0595949,-0.0776894,0.0565894,-0.0210834,0.0700596,-0.0264619,0.049404,0.0542777,0.0180046,-0.00706348,-0.0207407,0.0402966,0.0755152,0.0404711,-0.0195224,0.0464845,0.0188278,0.0686447,-0.0250943,0.0443114,-0.0142323,-0.115296,0.0824227,0.0558502,0.0393826,0.0793608,-0.131757,0.0438852,-0.0455446,-0.00206719,-0.00287475,-0.043918,0.0244381,-0.00749185,-0.0148165
-0.00815703,-0.0382548,-0.0606782,-0.0103592,0.0144141,0.0247116,0.0791402,0.0401364,0.0640545,-0.114521,0.0200719,0.0153285,0.119823,-0.00744042,0.152167,0.107041,0.059322,-0.0358871,-0.101302,0.0129279,-0.0631179,0.0423615,-0.081028,-0.0368643,0.171671,-0.0247358,0.0869125,0.0583679,0.0688334,0.0139587,0.127804,-0.0835225,0.075423,-0.0282301,0.0714705,0.0649369,0.0035814,-0.0380254,-0.0368023,-0.0626382,0.0240889,0.00317037,0.0871693,-0.00949625,-0.049303,0.0487672,0.0241882,0.0464702,-0.0190678,0.067727,-0.0744649,0.0281365,0.0690953,-0.063268,-0.0746432,-0.0394216,0.0298623,0.108703,0.143475,0.038869
-0.0174934,-0.0143719,0.00566157,-0.0269074,0.0067724,-0.0527587,0.0878341,-0.020219,-0.0424461,-0.0203791,0.0159983,0.04795,-0.01069,0.022662,-0.0114468,-0.00240139,0.0305052,-0.104272,0.0595385,0.106659,0.0561667,-0.015415,0.0107358,0.000197438,0.0100064,0.087741,0.00181752,-0.0961453,0.0434638,0.0319355,0.00763002,0.00177689,-0.119032,0.0487852,0.0401442,0.013789,-0.0140696,0.0307758,0.0301471,-0.00573778,0.0338332,0.0916014,-0.0271163,-0.0253204,-0.0336454,0.00458423,-0.0586218,0.035655,0.0517979,0.0129784,0.00587959,-0.0240416,0.007519,-0.000731918,0.0131017,-0.0619327,-0.00377452,-0.00880546,0.0383606,-0.0851966
0.106357,-0.0528032,-0.0925081,-0.0859018,-0.042408,0.0262019,-0.0364946,0.030964,-0.0496063,0.0153616,0.0259598,-0.0666676,0.0321498,-0.0286367,-0.00285865,-0.0041537,0.126743,0.04815,-0.0148442,0.00616248,0.121439,-0.0820305,-0.037964,-0.094106,0.0472493,0.0528738,0.136279,0.0728818,-0.12645,0.0823671,0.0625639,0.153836,0.00830894,0.00576047,-0.0747714,0.0945055,-0.0833696,0.016491,-0.0277266,0.0506097,-0.120923,0.0274194,-0.0555692,0.0896081,0.0153118,-0.0096126,0.0342738,-0.00103622,0.0234332,0.0817548,0.0570346,-0.019653,0.0620067,0.106698,0.0659816,0.094781,0.0160946,0.0591069,0.0949368,-0.00577418
-0.0602733,-0.0133374,0.0541862,0.00308288,-0.0177112,-0.0555575,0.0514313,0.0201428,-0.00591171,0.0929938,-0.0297877,-0.0672296,0.0773981,-0.0173589,-0.0714828,0.0580088,0.107538,0.100553,0.155632,-0.00549436,0.0168875,0.025416,0.0688781,0.0833838,-0.0436134,-0.0855872,-0.0456752,-0.0400515,0.0810797,-0.0891549,0.0997104,-0.0665267,-0.0671149,0.0730804,0.0327156,0.00355463,-0.0196408,0.0586542,-0.112248,0.0325394,-0.0296489,-0.0954329,-0.0329636,-0.0447805,-0.0361989,-0.0545592,-0.0115214,-0.004691,-0.0912353,-0.08082,0.0837371,-0.0436799,-0.0414366,0.010763,-0.0635017,0.115394,0.014774,-0.0299673,0.0571382,0.00386974
0.0407792,0.104623,-0.0283342,0.023115,-0.00506067,0.0321311,-0.0595588,0.0130282,-0.0478961,-0.0181654,-0.0542258,0.10346,-0.0272855,0.0670807,0.0691632,-0.0621154,0.00718547,0.0217156,-0.0459891,0.0486407,0.0695488,0.0663774,0.0755398,0.0522056,-0.0558586,-0.0397122,-0.0916772,-0.0490169,-0.0073411,0.0781724,-0.0171565,0.0541176,0.053291,-0.000867968,-0.026879,-0.00592669,0.0388843,0.0381023,0.0299357,0.0384356,0.0145748,-0.0596728,0.0206165,-0.050894,-0.0440229,-0.0446264,0.024814,-0.059794,-0.0152433,0.0074091,0.0107479,-0.0347118,0.0283403,0.0555031,-0.0372063,-0.00401017,-0.0706216,0.00566191,-0.0157067,0.0423003
0.0593734,-0.0654293,-0.00374748,0.039919,0.00235156,0.0106567,0.0967708,0.115722,0.0485369,0.0277568,0.0258026,0.0483912,0.0127391,0.0504087,0.112014,0.0351593,0.00967497,-0.0472881,0.0398067,0.018908,-0.00261771,0.0742111,0.020632,-0.00255954,0.0364873,-0.0153244,0.05771,-0.0494703,-0.0191934,-0.11736,-0.0270648,0.0264644,0.0442816,0.0317296,0.0428288,-0.0769595,-0.00882435,0.0406299,0.00347567,-0.12931,-0.0772923,-0.00483049,-0.0183453,0.0639432,-0.0081031,0.045188,0.0327682,0.0247216,-0.0301409,0.102272,0.0463749,-0.0574404,-0.0973713,0.0661156,-0.0176411,-0.00670356,0.128998,-0.0107462,0.00797222,-0.0223788
0.0266329,0.0397132,0.0432399,-0.00389861,0.0392836,0.0231793,0.00222647,-0.0732132,0.0336822,0.0313647,0.0244409,0.0136974,-0.0725259,-0.0447143,0.00366261,0.0594353,-0.0101334,0.234887,0.0101674,0.0405612,0.0353363,-0.0249726,0.054876,0.0489714,-0.0577766,-0.108981,-0.00570436,-0.0138001,-0.0133438,-0.0111753,0.0674256,0.0282954,-0.0498512,-0.0376175,0.0215086,-0.02271,-0.00723279,0.0888642,0.0694048,-0.025912,-0.026038,0.0687827,-0.0974275,0.0684363,0.108967,-0.119086,0.00621949,0.0694803,-0.00819224,0.152977,0.0161396,-0.110729,-0.0439557,0.0246023,-0.0261789,0.0240433,0.0552253,0.041842,-0.051631,-0.151003

max: 1
min: -0.216698
avg: 0.0119711
