0.145087,-0.0204581,0.00505839,-0.0081355,-0.0248453,-0.0460331,-0.00493057,0.0229028,0.0305063,0.0126958,-0.0544594,0.0348668,0.027842,0.052869,0.0588664,0.117793,0.0343538,0.00357803,0.00893601,0.0912766,0.0582668,-0.00307434,-0.0483811,0.012255,0.0115189,-0.0258279,-0.0800618,0.014372,0.00339256,-0.00422415,-0.0621515,0.00150334,-0.0468721,-0.087503,0.0103183,-0.0998485,0.00345244,0.01967,0.058306,0.0218542,0.0126367,0.0624185,-0.00997797,-0.0301753,-0.0073581,0.114471,0.0570302,0.0600931,0.036545,0.107079,0.0691477,-0.034572,0.0417664,0.0255173,-0.0426297,-0.103795,0.125474,0.00165585,0.0681179,0.0518891
0.0528057,0.0117964,-0.0277053,-0.0141561,0.0447613,-0.110774,0.0710844,-0.00789711,-0.0458353,0.0315043,0.0158035,0.0460475,-0.0678561,0.00121792,-0.0412552,0.134761,0.0687052,-0.000707995,0.012479,0.0371733,0.113907,-0.0530328,0.0190207,0.0303144,0.0413677,-0.0444352,0.0380744,-0.106579,0.0665373,0.0648183,0.0239837,0.0172694,0.0196585,0.00161906,-0.0870444,0.00339376,0.0409977,0.0697787,-0.0147679,0.0525582,-0.108283,-0.0772584,0.00371767,-0.0530492,0.0141214,0.0328544,-0.0405062,0.0187389,-0.0120958,0.0201857,0.00914859,0.022567,0.00462372,0.0612199,0.0117334,0.0437437,-0.0453775,-0.02425,-0.0665344,-0.118545
-0.00190382,-0.0210046,0.0514972,-0.0180993,-0.00240842,-0.0464886,-0.0834569,-0.103375,0.112864,0.00775517,0.0147968,0.0332768,0.0220927,0.0270656,0.0883597,0.120722,0.0389855,0.00755682,0.0625233,-0.0615597,0.0757272,0.00113781,0.086021,0.00336381,-0.096428,-0.103478,0.0137437,0.0315311,-0.0131103,0.0423796,0.0622489,0.0135261,0.0574934,0.112158,-0.0589812,-0.0695345,0.0609332,0.0100423,0.00426289,-0.0460501,0.0411332,0.00580602,0.0849107,0.0204051,0.0843927,0.0424515,0.113733,0.00265826,-0.0550802,-0.0491794,-0.0652824,0.00133301,0.0294911,0.0301534,-0.0432645,0.141998,-0.0274215,-0.0620432,-0.0396374,-0.0142058
0.0385219,-0.0942752,-0.0768595,-0.0336419,-0.0737196,-0.000182775,-0.0629938,0.0513909,-0.0434176,0.0255341,-0.038895,0.0197782,0.0573908,0.0716502,0.0749636,0.0726671,-0.0975282,0.0839703,0.104816,0.0408997,0.0460174,0.0240177,0.00194199,-0.0384738,-0.0721309,0.0711996,-0.058973,-0.0840755,-0.0400729,0.0631103,0.041526,-0.037863,-0.0439665,-0.133438,0.0643313,0.055732,0.000678513,0.0787514,0.0818366,-0.0339419,0.129155,0.120586,0.0254591,-0.0172544,-0.0344479,-0.0175435,-0.0127011,-0.023748,-0.111595,0.0643798,-0.0232564,0.0464229,0.0283226,0.0397899,-0.0467194,-0.0486701,-0.00671229,-0.0918599,-0.0274672,-0.0380375
0.0212727,0.00422022,0.0830257,-0.00490118,-0.0872157,-0.00866535,-0.0379405,0.0464108,-0.0635171,0.0356781,0.0582745,-0.0564761,-0.0520259,-0.00968495,-0.0256696,0.137423,0.00293606,-0.0535159,0.109454,-0.054835,-0.0406062,-0.0221319,0.00874639,0.0485595,0.0737773,-0.0115154,-0.0616678,0.00812288,-0.148506,-0.0547214,-0.0178049,0.00707283,0.00702216,0.0604584,0.0682762,-0.0854013,0.0128737,0.0424168,0.00165863,0.0130251,-0.0655698,-0.11203,-0.0247059,0.098005,0.0224038,0.00990926,-0.0897664,0.00755593,-0.0713483,-0.0300444,0.0421794,-0.0540253,0.0678771,-0.0692286,0.0108975,-0.0155374,-0.072472,0.064844,0.0404445,-0.0740458
-0.0212824,-0.0115719,0.0576074,-0.055249,0.0921512,0.0423707,-0.112691,0.0265316,-0.0197426,0.079084,0.00355386,-0.0246239,-0.0443488,-0.0159504,-0.0325546,0.0355382,-0.0182952,-0.0204824,-0.0248504,0.00266093,-0.0572564,0.0429314,0.0252592,-0.0323585,-0.113394,0.0440386,0.108465,0.0355956,-0.0234438,0.019901,0.0112754,0.0314801,0.0962638,-0.0414825,-0.00993288,-0.0280071,0.0343541,-0.0298227,0.0117064,0.0106363,-0.0520128,0.108184,0.136522,-0.0290934,0.0526217,0.0647509,0.0484781,0.0162411,-0.0420137,0.0233406,0.0631941,-0.0275026,-0.0894993,0.019173,-0.00516088,0.0327254,0.0119273,-0.0337368,0.016251,0.0450403
-0.0643046,-0.00631598,0.015291,-0.0222601,-0.0475142,0.0673278,-0.101999,0.0855168,0.0702095,0.144206,-0.0372638,0.092826,-0.0533704,0.07572,0.0194353,0.0202485,-0.0127512,-0.0743757,0.0481299,0.00195206,0.0253186,0.0855404,-0.049412,-0.175187,-0.00574917,0.0155873,-0.0420467,-0.0296479,0.0355116,-0.0915026,-0.00156036,0.0714,-0.0320066,-0.0190019,0.164647,0.0587458,0.0165474,-0.0495064,-0.00383729,-0.0543914,-0.0108349,0.00226264,-0.0672301,-0.0720134,-0.0270342,0.0768008,-0.0102137,0.0218924,-0.0268978,0.0149762,0.0838114,0.0292231,-0.0357614,-0.0115185,-0.086907,0.000631161,-0.0580669,0.0896,0.0719838,0.0741779
0.0803661,0.126367,-0.0574337,-0.000610822,-0.0100279,0.022619,-0.0101316,0.0785944,0.0579141,0.0215858,0.0487233,0.0705871,0.0282095,-0.0321833,-0.00702553,0.00666332,0.0992798,0.0587046,-0.0103758,0.113273,-0.0254201,0.00397362,-0.0192509,-0.0164775,0.0222916,-0.0326754,-0.0183504,0.0657556,-0.0292656,-0.0498076,0.063742,-0.00417378,-0.0821779,-0.0305971,-0.0758426,0.0353305,-0.000924774,0.063947,0.0243283,0.115447,0.00896316,-0.0152874,-0.00659614,0.0541862,-0.0176195,0.0139361,0.0305009,-0.0203969,-0.0605981,-0.0554731,-0.00377718,-0.0336143,-0.0444189,-0.0319041,0.0534073,0.10344,-0.0125543,-0.00447424,0.00139617,0.00768875
-0.0902577,0.0730925,0.0595576,0.09902,-0.0329693,-0.0643426,0.0408832,0.0224899,0.00813355,0.0568846,-0.00563608,-0.0892989,-0.0773585,0.00130872,0.0326775,0.0301906,-0.0195677,0.0357916,-0.124976,-0.0331215,-0.0413248,0.129681,0.0715156,-0.0120861,-0.0012695,-0.0007617,0.00832047,0.0402781,-0.0353462,0.00311029,0.0301455,-0.00531019,0.0421767,-0.0871432,-0.0488105,-0.0112478,-0.0396963,0.067112,-0.056046,-0.0761278,0.0101493,0.0105551,0.107875,0.0907286,-0.00613213,0.0128845,-0.0339139,0.000356804,0.0339301,-0.0100638,0.0297217,-0.005856,-0.0743226,-0.046504,0.0267764,0.0542251,-0.0320513,-0.0402137,0.0635512,0.114955
0.067365,-0.0132369,0.00973244,-0.0395007,-0.0966977,0.0267045,-0.015099,0.0161231,-0.0263355,-0.0121492,-0.089786,0.0340493,0.154777,0.0212154,0.095992,0.100486,0.031226,0.00917,-0.0317325,-0.0441277,0.0223054,0.114619,-0.0735929,-0.00560756,-0.103848,-0.0666639,-0.0540362,-0.0242267,0.0532327,0.055901,-0.00423183,0.02025,-0.0116305,0.11089,-0.0172548,0.00801153,-0.029749,0.0953609,-0.00947624,-0.0612881,-0.0213831,0.0136144,0.0331542,-0.00942158,0.00315823,0.040332,-0.0278171,0.0398763,0.0214672,0.00836577,-0.0575713,0.0473389,-0.0326115,-0.160286,0.0425895,-0.0649773,-0.12386,-0.0352396,0.038997,0.0325719
-0.131004,-0.156087,0.0144769,0.0415062,-0.00851447,0.0316758,0.0148096,-0.0158111,-0.0609759,0.00558245,0.0508108,0.0445555,-0.0206205,-0.0516076,-0.0277589,0.0964065,-0.0581705,0.0659527,-0.072078,-0.0287724,-0.0304654,0.0157234,-0.0845321,0.00779739,0.0188521,0.00979854,0.0498552,0.00941608,0.0497566,-0.0488822,0.0467376,-0.026641,-0.0311966,-0.0743799,-0.022741,-0.0991363,0.0563514,-0.00100259,-0.010253,0.0436638,0.0833884,0.0450943,0.102317,0.000305868,0.00801643,0.00126782,0.000870485,0.0534572,-0.0420761,-0.000202443,0.0656019,-0.0651841,-0.00309302,-0.00619199,-0.0497267,-0.0343093,0.0497443,0.0182017,-0.0914855,-0.0266888
0.0411033,0.109077,0.0119206,0.0773245,-0.0200852,-0.0455182,-0.0432412,-0.0838994,-0.0194098,-0.058299,-0.0235875,-0.026849,0.00133281,0.125122,0.00727881,-0.0988978,-0.0512015,-0.0230142,-0.0136506,-0.0711917,0.0789936,0.0574959,-0.0362142,0.0483987,0.0637314,-0.0239473,-0.0213989,0.0432648,0.135517,0.110023,-0.0812297,0.0198691,-0.0753795,0.0466018,0.0349907,-0.0481659,0.00219062,-0.0271332,-0.130386,-0.0365721,0.0670388,-0.0694089,-0.0145537,-0.112595,0.1043,0.0320738,-0.0162255,-0.0335918,-0.0399149,-0.00255033,0.0562437,0.0413131,-0.0844882,-0.0486945,-0.0589768,-0.070365,-0.0182281,-0.0482447,0.0237434,-0.108281
-0.0368819,0.0601329,0.083144,0.16166,-0.0176627,0.0528155,-0.0245391,-0.0461763,-0.0410785,0.00657789,-0.0217671,-0.020777,0.0444587,-0.0167659,-0.00473971,-0.0161139,0.0785088,0.04649,-0.0169293,0.0136919,0.0628649,0.0482365,-0.0623709,-0.00639085,-0.0117878,-0.0478677,-0.121161,-0.0312695,0.0642607,-0.0517384,-0.0543241,0.0181763,0.0963315,0.0279306,0.0336551,-0.00406031,-0.0227775,0.0788332,-0.0304548,-0.00162633,0.0454142,0.020795,0.0537174,-0.0256312,0.0960865,-0.0998782,-0.0296175,0.0252133,0.0314518,0.0530727,0.0741063,-0.103726,0.0263178,-0.131389,-0.125015,-0.00988568,0.0744331,0.155046,-0.0471627,-0.0706571
-0.0138993,0.0383303,0.0186808,0.0089881,0.178349,-0.0166464,-0.0329275,0.00986547,-0.00841278,-0.0638477,-0.103784,-0.00305431,0.0044899,-0.0691458,-0.0362365,0.130658,0.0461943,-0.0395413,0.018978,-0.0500847,0.0158524,0.0195335,0.0804063,-0.0444911,0.0401794,-0.0184687,-0.0298888,0.00518598,-0.016632,0.00837645,0.00666633,0.00749179,-0.0674519,-0.0982698,-0.0943855,0.0471369,0.0144306,0.0640593,-0.0149152,-0.0492654,0.0195261,0.0622725,0.00175906,-0.0540192,0.0436639,0.144978,-0.0361695,0.0449027,0.0158976,-0.0701964,0.0530684,0.00121652,0.0614817,-0.00695099,-0.00239132,0.000797212,0.0203242,-0.066516,0.0673812,0.00665721
0.0367167,0.0375811,0.00823037,0.0805948,0.0147865,0.0203243,-0.065537,0.0417287,0.0206818,0.0567697,-0.059905,0.0475731,-0.0266101,0.0216452,0.0332329,-0.120414,0.0351671,-0.0440928,-0.0459063,-0.022696,-0.0107963,-0.072063,0.076381,-0.0111422,0.101318,0.0108249,0.0604285,-0.0338939,0.0919034,-0.0706231,0.00835912,0.0363382,-0.0488622,-0.0499805,0.0943225,0.0165092,-0.0715168,0.159603,0.0139411,-0.0208549,0.0447284,0.104814,0.0390665,-0.0770995,-0.0173143,0.0191004,-0.136159,-0.0330386,-0.0749965,-0.0905843,-0.0749247,0.0347965,-0.0543321,0.0126707,-0.1113,0.107477,-0.0212459,-0.0419252,0.0436046,-0.0657957
-0.0199435,0.00205694,-0.162888,0.0190834,0.0304183,0.0065668,-0.0524085,0.042228,-0.0684748,0.0837028,0.00535391,-0.00174654,0.0280887,-0.065686,-0.0385591,-0.0235281,-0.00687339,-0.0891136,-0.00689851,0.0194669,-0.00235359,-0.0807285,0.0214352,0.00250825,-0.184528,-0.00431258,0.0139319,-0.0150676,0.0108555,-0.00139756,0.00764519,-0.0492853,0.0274861,-0.0182113,0.104794,-0.0501036,0.0142003,-0.047183,-0.00695605,-0.102158,-0.00477503,-0.0212039,0.0174912,0.0540431,0.0303837,-0.0947362,-0.0263998,0.018488,0.116336,0.0726947,-0.0717552,-0.0372603,0.0501608,0.0823785,-0.00794127,-0.0519104,0.053482,-0.0161408,-0.0287429,0.0248886
0.0584178,-0.137864,0.12434,-0.00171136,0.0670618,-0.0749855,0.0125549,0.0332469,0.0226604,0.0277498,0.110982,-0.0224371,-0.0581263,-0.0785533,0.0420613,-0.0412342,-0.0384203,-0.0661096,0.0179778,-0.00762793,-0.0334922,0.0173575,0.0454615,0.0597022,-0.0932025,-0.0394382,0.0628,0.00216106,-0.0753392,-0.00936046,-0.078459,-0.0253179,-0.082507,0.0573269,-0.0639876,-0.0153993,0.0335839,0.0292368,-0.104278,0.0285742,-0.033347,-0.0368709,0.0790481,0.0640836,-0.0167417,-0.133848,-0.0450143,-0.0686646,0.0446415,-0.063652,0.0448496,-0.0463467,-0.0622712,-0.0226091,0.0705702,0.100447,0.0400828,0.0398788,0.0110914,-0.00566471
0.0543221,-0.0372377,0.0454485,0.160713,0.00502109,-0.0464834,0.0556143,0.0254629,0.0642382,0.0896703,-0.0398746,-0.0520988,0.0717913,-0.00608325,0.0601243,0.144992,-0.0447507,-0.0436085,0.0703337,-0.0340015,0.090369,-0.0759948,0.0958029,0.0204843,0.0283756,0.12271,-0.00841098,0.00119969,0.0497215,0.0790706,-0.0819359,-0.0240052,-0.00177353,-0.0206144,-0.0181393,0.0416302,-0.0712751,-0.0258476,0.02112,0.0748763,0.0407512,-0.0227483,-0.000713105,-0.0430619,0.024537,-0.0717143,0.0218083,0.0324826,0.00692798,0.0325653,0.00888036,-0.0351505,0.0966178,0.0403889,0.0837421,0.0258404,0.0478198,-0.00937157,0.0933277,0.0294782
0.0817333,0.100951,-0.0321377,-0.0334402,0.0243469,0.024379,0.0172898,-0.0037884,0.0678495,-0.0409775,-0.0213506,0.101212,-0.0486669,-0.0264765,-0.060336,-0.000279743,-0.00863239,0.0380042,0.0167175,0.00601816,0.000184874,0.0119163,-0.0524427,0.000566151,-0.139433,0.0336894,0.0791511,0.148794,0.0624539,-0.00551651,-0.0200392,-0.0559291,0.0789524,0.0172927,0.0736466,0.121993,-0.0192554,-0.00707738,0.0382152,0.0227959,-0.101244,-0.00868222,-0.0538003,0.0255654,0.00692114,0.0151288,0.0656136,-0.0430298,0.105504,-0.0526019,0.0708637,-0.0269135,0.084271,0.024832,-0.02203,0.0523054,-0.0287933,0.0600079,0.00684018,-0.0529434
0.0555891,0.0710994,0.0242524,0.0450499,0.00177172,-0.123369,-0.0230788,-0.0626927,-0.0321007,-0.137367,0.0216371,-0.0043631,-0.00169639,0.0629558,-0.153046,0.0209449,0.0245544,0.0453746,0.00941071,-0.0039067,-0.0574621,-0.00929402,-0.0216379,0.0178282,0.0136056,-0.0382922,-0.0404225,-0.0642411,0.104774,0.0887685,0.0526256,0.0156301,-0.0291574,0.0796266,0.0132387,-0.149915,0.0205622,-0.0648715,0.137719,0.0475587,-0.00465795,0.00839064,-0.0400689,-0.0285739,-0.0938675,-0.00563257,-0.0223467,-0.0288376,0.12361,0.0715106,-0.0182705,-0.0112289,0.0135715,0.0541154,0.0492504,-0.0291909,-0.0181541,0.0301198,0.0225325,-0.0702896
0.00970937,-0.0637587,0.0353462,0.129955,0.0656449,0.0279204,-0.0297057,0.0723937,0.086764,0.132909,-0.074924,0.0309794,-0.0656863,0.0034584,-0.0625829,0.011797,-0.0232209,0.0718512,0.124537,-0.0062782,0.0493986,-0.0315109,0.0011878,-0.0295494,-0.0198196,-0.136989,-0.0739739,0.0556369,-0.0153095,0.0868042,0.0189945,0.0135563,-0.000242958,0.0289889,0.0583943,0.0839995,0.0278601,-0.00703656,0.0657451,0.121327,0.0728901,0.010168,0.0351974,-0.0842877,0.054188,0.0144381,-0.0145105,0.0072488,0.0262589,-0.0144111,0.0292457,-0.154832,0.0616479,0.0179875,-0.0363662,0.0114131,-0.08377,0.000937236,0.0740735,0.0278576
-0.00503345,0.0838998,0.0292249,0.0396847,0.0124563,-0.0548542,-0.107663,-0.00896967,-0.0493165,0.0540059,0.0406878,-0.121192,-0.0527632,-0.0108296,0.0770918,0.0787534,0.0122294,-0.0710077,-0.00766752,-0.0888558,-0.0609275,-0.0346576,0.0581029,0.120956,0.0287131,-0.0172285,-0.000116841,0.0128311,-0.036196,-0.047216,-0.0354984,-0.0145293,-0.0209018,-0.00621305,0.0757204,-0.00293014,0.000474445,-0.0395631,0.0110406,-0.0348401,0.0498465,-0.00258977,-0.0295165,-0.00245483,0.0668166,-0.0326187,0.057231,-0.00164943,0.0144467,0.0350484,-0.0624183,-0.151603,0.0701018,0.0501866,0.0508961,-0.00807364,-0.0065808,-0.00626268,0.0304176,-0.0636443
0.0229722,0.0531781,0.0592454,0.0650254,-0.0628588,0.00489627,0.0772675,0.0427694,-0.0980366,-0.0613161,-0.00594308,0.0971828,-0.0304271,0.0316366,-0.0379552,-0.0222374,-0.0304926,0.0192801,-0.0376241,0.0362008,-0.0368515,-0.0627251,0.0606896,-0.00646442,0.00523315,-0.0198751,-0.00554639,0.011538,0.0770516,0.13773,0.00157619,0.171175,-0.199392,-0.112803,-0.0543924,-0.0221819,0.0756006,-0.0377265,-0.0746137,0.00821118,-0.0173507,0.04798,0.0470004,-0.00883513,-0.00426828,-0.00152866,0.0179601,0.0395361,0.0688023,0.039233,-0.00492276,-0.0877777,0.0230389,-0.00828567,0.0798774,0.0314711,-0.0240817,-0.0162264,0.049616,-0.00666009
0.0291942,0.0102361,-0.0468111,-0.0342865,-0.0288705,0.0338439,-0.10958,-0.00917459,-0.00460314,0.0574408,0.0673225,-0.0851846,-0.0596098,0.0459926,0.0983439,0.00787001,0.0801332,0.0322082,0.046746,0.0646246,0.0215895,0.054325,-0.043252,-0.0856062,-0.00655044,-0.0134243,-0.0179928,0.118004,-0.074417,-0.0917733,-0.0314985,-0.0200347,0.0218483,0.0114234,0.0836121,-0.0644142,0.0482401,-0.166811,0.0283101,0.0131706,0.0686838,-0.00962006,0.00480829,-0.0725587,-0.0749919,-0.0656054,0.0452955,0.0760043,0.0692005,0.0548687,-0.0277185,0.11427,0.0262357,-0.00763511,0.0914462,0.0124563,-0.0181667,-0.0119181,0.0592989,-0.0361815
-0.0277979,-0.0687264,0.0526202,-0.0702893,0.0431276,-0.000654581,0.112934,0.0327497,0.0171389,-0.0504896,0.0304171,-0.0476706,0.0840846,0.00061284,-0.00881497,0.061177,0.0230419,0.0178763,-0.13069,-0.058233,-0.0146842,0.00622838,0.102575,0.0386708,-0.0112667,0.029672,0.0598526,-0.00837971,-0.0662468,-0.00756811,-0.0429383,-0.0293547,-0.00713218,-0.0800516,-0.0267178,-0.00604036,-0.022349,0.0262899,0.0647383,-0.111013,0.0391953,-0.0688365,0.104923,0.0823981,-0.00384283,-0.028119,-0.0642252,-0.0136442,0.0385123,0.0546655,0.111801,0.024425,-0.094542,0.0395015,-0.0197509,0.162408,0.0684246,0.0840747,-0.119895,-0.0432578
0.0630472,-0.0430165,0.00310588,0.0400581,0.0726264,0.0512525,0.0144924,-0.00237973,0.00791876,-0.0403388,-0.10154,-0.00283167,0.0392872,-0.0862114,0.0750127,0.0471873,-0.00188837,0.00301942,-0.023176,-0.00854754,-0.0843549,-0.0907526,0.123547,0.028948,0.109908,0.0199178,-0.0586675,0.120865,-0.0177697,-0.0726534,0.0377822,-0.0317767,0.0767344,0.0213846,-0.0548508,0.0623361,-0.0270501,-0.0397776,-0.155638,0.00310748,-0.0223528,0.00713015,-0.027581,0.1017,-0.0575435,-0.0302426,-0.094203,0.0181826,0.0353505,0.0177325,0.0567651,0.0436363,-0.00520322,0.0217292,0.032554,-0.0516029,0.0701079,-0.0178467,-0.070657,0.0886833
0.0150621,-0.0419003,-0.0620147,-0.048157,0.00599432,0.0329303,0.00260023,-0.0518006,0.0298533,-0.0327237,0.0589187,0.0285691,0.0710498,0.0623927,-0.0682044,0.0540732,-0.0486332,0.00650719,-0.0418897,0.0600706,0.141178,-0.0342541,0.0373725,0.061283,-0.0341711,0.048365,0.12216,-0.084887,-0.0558321,0.121858,0.0368095,0.0539517,-0.0396695,-0.0359938,-0.0932118,-0.134516,0.00552495,0.0969353,0.0405521,0.0312745,-0.0360118,0.00431035,0.0431361,-0.00139151,0.0041054,0.000107264,-0.0967653,0.0084193,0.0420985,0.0971995,0.041504,0.0399151,0.0669722,0.0713095,-0.089362,0.0598899,0.0650699,-0.0134377,0.0287133,-0.0666354
0.0565374,-0.00871563,0.0120965,-0.0344431,0.0399189,-0.00235096,-0.0594121,0.0247512,-0.0406824,0.000216342,0.0514162,0.065373,-0.00395357,-0.00649031,0.0506331,-0.0447035,0.0713747,0.114296,-0.106007,0.0672497,0.0307088,0.00337883,-0.0127466,-0.0933841,0.0405418,0.0176665,0.0174421,0.0806538,-0.00359739,0.0592564,-0.0885909,-0.0305503,0.0329708,0.0834002,0.121605,-0.000142844,0.039064,-0.149111,0.0598146,0.0326527,0.000288987,0.0492581,-0.0764356,0.0515487,-0.00954775,0.0203168,-0.0298168,-0.0378312,0.0430047,0.000805757,-0.0441674,-0.0249516,-0.0413667,0.0347673,-0.106817,0.0148123,0.0174928,-0.0206196,-0.0476003,0.0405499
0.0120683,-0.0493782,0.0252521,0.0468925,-0.011235,0.135697,-0.0998043,-0.025178,-0.0341147,-0.0244592,-0.040568,0.164887,0.0367106,-0.0533792,-0.0247316,-0.00693133,-0.0301678,-0.00516533,0.0610772,0.0667391,-0.111436,-0.0406469,0.0299049,0.0895034,0.0326192,-0.0318446,-0.161956,0.0886691,-0.0824132,0.01917,0.0144429,-0.0139796,-0.041957,0.00920764,-0.0245508,0.114203,-0.000685668,0.0146429,0.170549,-0.01128,-0.00183625,0.040571,0.0914561,-0.0200835,0.0690056,0.0105169,-0.0124564,-0.0989912,0.037899,-0.0741502,0.0554339,0.0237131,0.00401904,0.0396571,-0.0584845,-0.0422047,-0.00940029,-0.00109348,-0.0279625,0.0127458
0.0694843,0.021902,-0.0106605,-0.0910635,-0.0539839,-0.0563311,-0.00882801,-0.0589275,-0.0399125,-0.0232195,0.0593634,-0.02671,-0.0940198,-0.0366708,0.0185014,0.0636312,-0.0298523,-0.10264,0.108615,0.0284139,0.0521032,-0.0368963,-0.0960584,0.0868241,0.108916,0.0425359,-0.0397707,0.0179344,-0.00848592,0.0750166,0.0284995,0.0123371,0.0532708,0.0332158,0.0213426,-0.0288759,-0.00910831,-0.0488299,0.083367,0.02153,0.00290768,0.0881637,-0.0688425,-0.0106434,0.0980869,0.0376533,0.071403,-0.126753,0.0950971,0.00814697,-0.00667987,-0.0643276,-0.0647983,-0.0336244,0.053524,-0.0411409,-0.110786,-0.117255,-0.0674325,-0.0731512
-0.0863822,0.0340634,0.0469222,0.0161769,-0.00289722,-0.0759469,0.113438,0.0633662,0.06193,0.0392158,-0.0397739,0.00161609,-0.0673746,0.0507633,-0.115402,0.00259605,-0.0150675,-0.00963248,0.0179884,0.0335833,-0.116701,-0.0117211,0.0153136,-0.040748,-0.0571727,0.0327674,0.00281958,0.050947,0.00744169,0.0772361,1,-0.0640084,-0.0432382,-0.00943674,0.0927079,0.0218998,0.0275437,-0.065918,0.051459,-0.00777454,0.0099777,0.0358212,-0.0538561,0.0271707,-0.0747553,0.0480654,0.00921014,-0.131828,0.0025484,-0.0462663,-0.0541287,-0.121814,-0.0178842,0.0254184,0.0185786,-0.0341626,0.10487,0.00514578,0.0121434,-0.0314567
-9.05739e-05,-0.038795,-0.0166985,0.00685409,0.11394,0.0955715,0.07464,-0.0491537,-0.0195101,-0.0481654,-0.0101527,-0.0417006,0.162143,0.0183985,0.0292655,-0.167883,0.0447925,0.0330839,-0.0107446,0.0418497,0.0726128,-0.0218465,-0.0203602,0.000464827,-0.0524981,0.0268757,0.0768609,0.0279812,0.00965144,-0.0463665,-0.0115936,0.0244993,0.107454,-0.0843073,-0.0541338,0.119118,0.0147533,-0.00888728,-0.00890483,0.048786,0.0514936,0.0513819,-0.0303815,-0.0445205,0.0371015,-0.0676921,0.0612436,0.062761,0.052558,0.0606554,-0.000425626,-0.0107407,-0.0323806,-0.053643,0.0857275,-0.0354891,0.0485202,0.00987006,-0.0170216,-0.00785564
0.00601538,-0.0185902,-0.0637568,-0.0637479,-0.0804804,-0.0410817,-0.109019,0.0544603,0.0249946,-0.0123161,-0.0483502,0.0441635,0.00518766,0.0830139,-0.0636251,0.068457,0.00848223,-0.0595784,-0.0812662,0.0133075,0.0646693,0.0425593,-0.0103552,-0.0560029,-0.0559956,-0.0134668,0.102271,0.0480127,-0.0367641,-0.0241054,-0.0575274,0.0209559,0.0533751,-0.065214,-0.116901,0.0347733,0.0257189,0.0948198,-0.0389222,-0.0479269,0.0122916,-0.0517238,0.0154938,-0.0791946,0.0588858,-0.0286922,-0.0448978,0.0628679,-0.0831223,-0.00170435,-0.0160389,0.00804019,0.000614285,0.0250088,0.028982,-0.0669031,-0.00626589,0.133719,-0.0319391,0.0715631
-0.0929639,-0.0269606,-0.0564439,0.0178055,0.0298485,0.0281674,-0.061194,-0.0102066,0.0350784,0.013381,0.0137514,-0.0491096,0.0395076,0.0255837,-0.0428002,-0.0239316,-0.0322509,0.000643172,-0.0130705,0.0780997,0.00743255,0.0234361,0.0107775,-0.0540908,-0.0427922,-0.0801553,0.0465917,0.0987922,0.0128647,0.10336,0.0423603,-0.0378011,0.0715978,0.0198232,0.0415156,0.0433475,0.0375898,-0.0512233,-0.000120025,0.0202987,0.0984962,0.0558976,0.00285139,0.00834656,0.107479,-0.0152005,0.0143702,0.0383502,-0.0990952,-0.0126556,0.0927912,-0.0155109,0.0384227,-0.0281164,0.0173454,-0.0201772,-0.113379,0.0691849,-0.0309205,0.0260513
0.102819,-0.0734346,-0.0700495,-0.118345,0.0683898,-0.051494,0.0536884,0.0269293,0.0645605,0.063893,0.0503675,0.0392193,0.00294389,-0.0471127,0.0628496,0.0809549,-0.100829,-0.0246087,0.00311508,-0.0413004,-0.0139432,0.0471667,-0.0662948,0.0566176,0.00179908,-0.0709263,0.0443044,-0.00833817,0.0626552,-0.000418073,-0.0335983,0.0276064,-0.013466,0.0199281,0.00240013,0.153174,-0.127737,0.0570274,-0.074296,0.0460217,-0.0593078,0.0591106,0.0356915,0.0566937,0.0851243,0.0905037,-0.0200892,-0.054366,-0.038728,-0.0123125,0.0206491,0.00518836,0.033966,-0.0427655,0.0981664,-0.0153937,-0.0218746,0.00967019,0.0384841,-0.029686
0.085256,0.0766642,0.0353825,0.0427953,-0.0701076,0.0581562,0.0294135,-0.00751953,-0.0572041,-0.0144778,-0.0353478,0.0129341,0.11331,0.036348,-0.0593457,-0.0235764,0.0107214,0.0205045,-0.0489612,0.0293172,0.0869513,0.0531443,-0.0566228,0.050811,0.0121686,0.0107484,0.0747065,0.0661267,-0.0327462,0.0504531,-0.0124542,-0.044729,-0.00395429,-0.0255528,0.00909979,0.00964511,0.10978,0.0214848,-0.0413014,-0.0692135,0.0469971,0.0318215,-0.062065,-0.0656441,-0.00933699,0.00371839,0.0875011,-0.0580031,-0.0245007,-0.0828503,0.064976,-0.0208228,0.0842774,0.0494883,-0.0590927,0.0838069,0.0302302,0.0114156,0.03238,0.0294031
-0.00479582,0.0227993,0.0146615,0.0377263,-0.0478157,0.0122783,0.079917,-0.0539611,-0.0609189,0.108758,0.137401,0.097642,0.0597807,0.0277074,0.00545259,-0.00361716,0.0532505,0.077331,0.100684,0.0584828,0.0522495,-0.0918766,0.0666319,0.0424115,-0.0277499,-0.00761348,-0.0134256,-0.0425908,-5.94803e-05,-0.0319105,-0.0463654,0.0629514,0.0578436,0.0739465,0.0204022,-0.0369288,0.0348228,0.00350382,0.0103687,0.0342739,0.0555084,-0.0601319,-0.00565964,0.0300153,-0.0684255,0.0825299,0.0781233,-0.0151472,0.00015655,0.0469517,-0.0266591,-0.00321216,0.0735066,-0.0645727,-0.00250518,-0.00637772,0.0603851,0.0791501,-0.0677932,-0.0851937
-0.0091569,-0.00606567,0.0243231,0.0527037,-0.105962,0.053144,-0.0546162,-0.0711256,-0.059332,0.0200228,-0.0941356,-0.0104242,-0.0859662,0.0535707,0.0492036,-0.00214227,-0.017102,-0.0130829,0.0342354,0.0786759,0.032978,0.0997859,0.103217,-0.0375969,-0.0520182,7.922e-05,-0.0921105,-0.00237536,0.100591,0.0347691,-0.0226997,-0.0220782,-0.0424816,0.0191372,-0.0554664,0.102678,0.0832964,-0.101764,0.0346338,-0.0553812,0.0409936,-0.063616,-0.0440462,0.0117031,0.0662027,0.174904,-0.0336341,0.0421439,0.0803126,-0.0576948,0.108866,-0.0809204,-0.0417997,-0.056472,0.10829,-0.054549,-0.0542648,0.0133692,0.0107764,0.0715031
-0.0408843,0.134749,0.0198462,0.081689,-0.00151158,-0.0286117,-0.0356159,-0.0385737,-0.0212572,0.0740321,0.0246064,-0.020091,-0.0077864,-0.0457929,-0.0490696,0.0423545,0.0585907,-0.0370882,0.0219705,0.0241488,0.0483614,-0.120828,-0.0240297,-0.0592727,0.0712494,-0.0393379,0.0321319,0.0336269,0.000812651,-5.95368e-05,0.0382795,-0.119823,0.0974963,0.0470771,-0.0693963,-0.0588932,-0.00968978,-0.0627878,0.0819612,-0.0709104,-0.0238132,0.0226526,0.0661536,-0.0882451,0.0275407,0.00831285,0.0325506,0.051493,-0.164288,-0.00986329,0.0260131,0.0242391,-0.069776,-0.0405452,0.00675226,0.0655551,-0.0559325,0.0813597,-0.061509,0.0412442
0.099965,0.0735494,-0.00515747,-0.0107553,-3.21788e-05,-0.0285728,0.0268168,-0.015781,-0.00289143,-0.0752765,0.0449484,0.0640026,-0.0155501,0.0167071,0.050903,0.0705999,0.0524692,0.0306241,-0.0792779,0.0036787,0.0778533,0.0701903,0.0627876,-0.0409223,0.0375259,0.157241,-0.0644763,-0.00792107,0.0593651,0.0299516,-0.000590136,0.0253019,0.0920022,0.0547298,-0.0432744,0.1108,0.0690613,-0.00389373,0.110749,0.112939,0.0314347,0.0197716,0.013432,-0.128718,-0.0869278,0.0118271,-0.0250387,-0.00914276,-0.0477408,-0.0878042,0.0276702,0.00448891,-0.0267231,-0.00687142,-0.0184067,-0.142098,0.0357783,-0.0111493,-0.0046367,-0.0476928
-0.0747231,-0.0464573,-0.0209558,0.00910647,-0.0352685,0.0422267,0.0449391,0.136943,-0.0325548,-0.0199934,-0.0325979,0.062675,0.0197114,-0.0278095,-0.017439,0.000232329,-0.00118014,-0.0763448,-0.0275683,0.0244452,0.0562281,0.0279218,-0.0373773,0.0842755,0.00223284,-0.0163769,0.0734445,0.00627959,0.0434912,0.00101031,0.0772291,0.00174038,0.0304125,0.0230257,0.039176,0.0100708,-0.0511019,-0.00254709,0.0802628,0.0400349,0.00195851,-0.0126144,-0.00662731,0.00846408,-0.031809,-0.017551,-0.0527905,0.0278307,-0.0744356,-0.0136861,0.0903224,0.053296,-0.0423855,-0.0527715,-0.0586821,-0.0222559,0.0746769,0.0303788,0.0524179,-0.0400508
0.0814166,-0.0537064,-0.0554073,0.0239715,-0.0126512,0.0155091,-0.0563456,-0.0812031,-0.0550679,-0.0534048,-0.0838668,-0.0469814,-0.016688,-0.0160788,-0.101058,0.0712278,0.0469079,0.00335609,-0.00741427,0.0939778,0.00841239,0.0128158,-0.0832681,0.00530103,-0.00907648,-0.0448596,0.0738973,0.00167125,-0.0661554,-0.0190059,-0.0769328,0.00124887,-0.0514689,-0.00923968,0.0823078,-0.0972758,0.0469114,0.030907,0.0267341,0.0624076,0.0330712,0.0673892,0.0299113,0.052346,-0.0133627,-0.0545924,0.0103793,0.00627875,-0.0311936,0.0291236,0.0543494,-0.0164415,-0.0293522,-0.0114682,0.0299153,0.0353707,0.0237118,0.0290362,0.0420646,0.0214385
-0.00931276,-0.026437,-0.0383553,-0.0255242,0.00327589,0.071914,-0.0590755,0.066707,0.105971,-0.0664268,-0.0845818,-0.00276329,0.125668,-0.0269118,0.0300917,0.0779437,-0.0421598,-0.0142498,-0.0271561,-0.0574032,-0.0853669,0.0160185,-0.0136552,0.0272037,0.0464327,0.039423,0.0308658,0.0173684,-0.0799848,0.0233113,-0.0254297,0.0535598,0.00854244,-0.0238142,-0.00118567,-0.0227841,0.0327737,0.00675034,0.0321886,-0.101222,-0.0098891,0.000823845,0.0686736,0.085345,-0.00222608,0.112635,0.0360359,0.0206326,-0.0260127,0.107416,0.0449914,-0.0186979,0.0402411,-0.0185588,0.0564903,0.0860924,-0.0478664,-0.0300183,-0.0922543,0.0916777
0.0241358,-0.030648,-0.0172463,-0.084613,-0.0538277,0.0967197,-0.054236,0.0653434,0.0828628,-0.0389404,0.0157225,0.0976896,-0.00259268,-0.01378,-0.0213681,-0.0174751,0.00938333,-0.0208597,0.107088,-0.00538482,0.0166181,0.0559243,-0.00916418,0.0437144,0.0261962,0.0493237,-0.0414151,0.0281957,-0.0101769,-0.0295621,0.119545,0.0832162,0.0243407,0.0304734,0.122903,0.04123,-0.000484957,-0.0610339,0.178163,-0.0854847,-0.0290383,0.102668,-0.0449268,-0.00581458,0.0144053,0.0566222,-0.0073844,-0.00574126,0.0582628,0.0097917,0.0352758,-0.00541667,-0.0431622,0.0120431,-0.0508815,-0.0493697,0.0551531,0.0341677,-0.0165701,0.00902405
-0.0435373,-0.00825824,-0.128452,-0.0543088,0.0804318,0.0852525,0.0085874,0.0908251,-0.0470499,0.0580115,-0.0724623,-0.0753385,-0.0270978,0.00202465,0.0556942,0.0863588,0.112286,-0.00224477,-0.048097,-0.0296106,-0.064732,0.0495622,-0.0205084,-0.107177,0.0294724,-0.0976145,0.0597326,-0.0343238,0.117381,0.135014,0.0435169,-0.0890298,0.0444983,-0.00550904,0.042167,-0.00918365,0.0260615,0.0778892,0.0228579,0.0455114,-0.0617839,-0.0328918,-0.0289361,0.00250853,0.134643,-0.0355369,0.00260281,-0.0608834,0.0903158,0.0544562,0.00885465,-0.036458,-0.0766454,0.110301,-0.0685904,0.0631033,0.0258546,0.0541036,-0.00875607,-0.0953476
0.014469,0.0344802,-0.0953616,-0.0503715,0.0148325,0.0653201,-0.0265814,0.0222564,0.0333286,0.0234986,0.00442911,0.0114569,-0.00451931,0.0132396,0.0721973,0.0660867,-0.0647559,0.0924014,0.0341538,-0.0120226,0.0224714,0.0102908,-0.0669043,0.0102076,-0.0610896,0.0628167,0.0458617,-0.031451,-0.0672054,-0.0967357,-0.0360217,0.0326213,-0.121067,0.00123239,0.010094,0.0639966,-0.00246688,0.022373,0.06295,-0.0281806,-0.0335079,-0.0490688,0.0363355,-0.0661948,0.0567224,0.0300739,-0.039133,0.12446,0.142283,-0.0977135,0.0161109,-0.0438469,0.114208,-0.0105689,-0.103021,-0.00922751,-0.0267251,0.00349039,-0.0349562,0.125281
-0.0823038,-0.0218916,-0.0472756,-0.0372093,0.0086259,0.0214144,-0.00956701,-0.0329488,0.0663492,0.0662413,-0.0318902,-0.0448565,0.028732,-0.0570627,-0.00233229,-0.105134,0.00640475,0.0270979,-0.0402596,-0.0645889,-0.0118465,0.041695,0.0906626,0.0974718,-0.064796,0.0533477,0.0371042,-0.0456179,-0.0464522,-0.0772398,0.021581,0.0657424,0.0733885,-0.139687,0.0205072,0.00169299,-0.0611948,0.0133652,-0.0270459,-0.0511117,0.129987,-0.0256597,0.0311375,0.0528015,0.0174437,0.00825397,0.0108316,-0.00315233,-0.0627547,-0.058782,0.102901,-0.0770584,-0.0442774,-0.0948429,0.0058282,-0.0433785,-0.00771346,0.0848077,-0.0199003,0.0255421
-0.00704885,-0.0396369,0.0399967,-0.0900033,0.0178704,0.0299301,-0.0187771,0.0378911,0.0399162,0.0429386,-0.0826149,0.0424297,-0.0120476,-0.0413102,0.0236469,0.0977032,0.0453422,-0.00825178,0.103327,-0.101578,-0.0136841,0.0822033,0.0300174,0.0115159,-0.0344315,0.00907092,-0.018457,0.133983,0.0367014,-0.0588799,-0.0864783,-0.0646044,-0.06898,0.0232617,-0.013654,0.0873755,0.12174,-0.00592472,0.0165954,0.0169319,0.0915657,0.103107,-0.0544202,0.0519029,-0.00405151,0.0890502,-0.00819847,-0.0464285,0.0525562,0.0148142,0.0437766,0.0690318,0.00467326,0.0376335,-0.0214304,0.0566546,0.104365,0.0502867,0.0475388,0.0388062
0.116957,0.135212,-0.00851062,-0.0395583,0.041742,0.0434997,0.0468917,0.0490536,-0.0255665,0.0994092,-0.0557567,0.0377006,-0.013269,-0.0891497,-0.0500549,0.000838294,-0.0205606,0.018751,0.000242116,0.0264338,-0.0280566,0.057828,0.135274,-0.0506265,0.047717,0.0244009,0.146933,0.0343076,-0.096215,0.0366349,0.0917884,0.0733199,-0.0450776,0.0330837,0.0467883,-0.026018,0.0586963,0.0531465,-0.0647058,-0.00769566,0.0275431,0.0243358,-0.0189098,0.0374007,-0.00300023,-0.00345728,0.0130173,-0.0397281,0.0111351,0.0851594,-0.0279117,0.043332,-0.0884566,-0.00652505,-0.0569236,0.0317631,0.0118227,0.0352886,-0.0603551,0.126543
-0.0315314,-0.0731249,0.0383012,0.0354287,0.0185305,0.0527768,0.0467545,-0.111812,-0.0507986,-0.00571617,0.0873653,0.0431792,0.0172374,0.0761784,0.0566403,-0.00440271,0.00784168,-0.11513,0.0404312,-0.0207052,-0.0172467,-0.0163629,-0.0763764,-0.0666445,0.0625766,0.0465847,-0.0191007,-0.0140704,-0.0305374,0.0300421,0.105352,-0.103502,0.0352876,0.138622,-0.103915,-0.0257513,-0.147521,-0.0267505,0.0218895,-0.0125534,0.0253127,-0.0214979,0.0532871,0.0013618,-0.0582897,-0.00187611,0.00226131,0.0418093,-0.0399144,0.0467277,-0.00895425,-0.00166172,0.00772677,0.0362146,0.0403359,-0.0781751,-0.0814297,-0.00423751,-0.0223961,-0.106222
0.00612277,-0.0524589,0.00807949,-0.0190249,-0.139215,0.0694342,-0.0258577,-0.113112,0.084112,-0.0347968,-0.0125849,0.0437577,-0.0406817,0.00561333,0.0303186,0.111379,-0.0196733,0.000614745,-0.000493728,-0.0550527,-0.0119023,-0.0967772,0.0480864,0.0147503,0.0632547,0.00646145,-0.120709,0.0267222,0.0565314,-0.0158704,-0.063449,-0.0775448,-0.0317653,-0.0811195,0.000689334,0.0403479,-0.0581204,0.0059077,-0.0686903,0.0770929,0.0732933,0.0285039,0.103919,0.0953776,-0.0388482,-0.0880809,-0.0762465,0.0239215,0.0253234,-0.0138782,-0.0173036,-0.00247983,0.0383824,0.0127668,-0.029169,-0.0314906,-0.00594326,-0.0302764,-0.0526592,0.108897
0.0210754,-0.118058,0.000568498,-0.0973993,-0.0183881,0.0589997,0.0181794,4.68647e-05,-0.0527478,0.0289435,0.0116063,0.0885701,0.0332607,-0.00232356,0.0539434,0.00534959,0.0362046,0.0106994,-0.0144268,0.015207,0.0238838,0.0608648,0.00162323,-0.0384818,-0.00486852,-0.0522902,-0.027667,0.0207704,-0.0210617,0.00115725,0.0191539,0.0317436,-0.00214687,-0.0486789,0.046143,0.0557867,-0.0540625,0.00128827,0.0238459,0.0494188,0.0610451,0.096902,-0.00213856,0.0606029,0.112174,-0.0212704,0.0452814,-0.0319488,-0.0572572,0.0817818,0.00928336,-0.0761778,0.0609424,0.0420516,0.0105695,0.0153902,-0.00360798,-0.0345225,-0.0143946,0.0874338
-0.0514188,-0.0932865,0.0400609,-0.0679377,0.0648105,0.0340741,0.031767,-0.0617394,-0.0534907,0.169484,-0.0115257,0.0332419,0.0332401,-0.00719634,0.0506149,0.0401627,0.11338,-0.0639309,0.029552,-0.133888,-0.0581677,0.115552,0.0497003,-0.0376736,0.0175689,0.0227841,-0.00356317,-0.130586,-0.0272538,-0.0811965,-0.112873,-0.00684357,-0.0551387,0.0454403,0.0553716,-0.0242531,0.0932213,-0.0048548,0.0887685,-0.126678,0.0714791,0.0549701,-0.00275293,0.0121416,-0.0494217,0.0195057,0.0987644,0.00375202,-0.0180015,0.0390706,0.0925255,-0.0381708,0.0512313,0.0269316,0.0424301,-0.0109628,-0.0162038,-0.0182226,-0.0769371,-0.00853588
-0.0133458,-0.0263373,-0.0446488,-0.0106689,0.0329793,0.00516161,-0.0395611,0.0187823,-0.00401561,0.10489,0.0274545,-0.0124337,-0.0650099,0.0148222,0.0223436,0.0154902,-0.0150164,0.0481992,-0.0414592,0.0133116,0.0815013,0.0798122,-0.00816826,0.00129627,-0.0576024,-0.034914,-0.040003,-0.0695856,0.0244738,0.0852991,-0.0152432,0.0225145,-0.0764184,0.0365727,-0.0028186,0.000260912,-0.106354,0.0118695,0.00839227,-0.0592374,0.0319411,0.00797013,-0.0552337,-0.011108,-0.00599018,-0.0708427,-0.049049,0.0557537,0.059634,0.0456627,-0.0530314,0.0863671,0.0273567,0.0205942,-0.017458,0.0209975,0.00187759,0.0440871,0.0301737,0.00812211
-0.0427763,0.0244768,-0.0568034,-0.00153568,0.0156771,-0.0902177,0.0987057,0.0735588,0.130059,-0.018401,-0.0218516,-0.0750833,-0.0871277,-0.0736968,0.0219937,-0.0470988,0.106105,0.119778,0.14542,-0.0133786,0.0141858,0.0523181,0.015689,0.0866117,-0.00389566,-0.0618673,0.0199216,-0.0456842,0.0683731,-0.0163485,-0.138931,0.024392,-0.0551979,0.00991034,0.0484873,0.0692153,0.0349261,-0.0993332,0.0086547,-0.0735052,-0.125974,0.040257,0.034488,-0.00491555,-0.0783082,-0.00610515,-0.049688,-0.0619134,0.0564781,-0.147452,0.0934592,0.0271312,-0.0826721,0.00888534,0.00516827,-0.0129509,-0.0267751,0.00184053,0.0270984,0.0274893
-0.0617944,0.0661542,0.0897135,-0.0273087,-0.0479154,0.0848441,-0.000178744,0.100478,-0.0473054,0.0513972,0.0478096,0.0430116,-0.0199341,0.00375754,-0.00318218,0.00741448,-0.053651,-0.0629256,0.0199703,-0.0941032,0.0657736,-0.0320759,0.058437,0.0876324,0.00808363,-0.0357079,0.0240279,0.115508,-0.0796371,0.0903659,0.00943516,0.0248301,-0.066091,-0.0479161,0.104027,-0.0108278,0.00692462,0.0445693,0.101297,0.0504836,-0.0660618,-0.0378182,-0.0185325,-0.126641,0.020711,0.083188,0.0812501,0.027714,-0.00659077,0.0181831,-0.0213426,0.0315675,-0.0646665,0.0377147,-0.0504176,0.0339261,0.0902308,0.0185072,0.0325793,-0.00477541
-0.0792171,0.0185475,0.0781685,0.00937429,-0.0193107,-0.0293866,-0.0074801,-0.0402093,0.0546498,-0.0795593,-0.0862995,-0.0573198,0.00831056,0.020166,0.0115322,0.102939,-0.0248203,-0.0357715,0.0140514,0.0828598,-0.0110451,0.0364214,-0.0577608,-0.0745175,-0.0596351,0.0196153,0.0168886,-0.0472201,-0.0827256,-0.0080427,0.0126441,-0.0688008,-0.0746561,0.0478123,0.125944,0.0714409,-0.00962514,0.0137025,0.0176417,0.0571023,0.0179118,0.0597313,0.0935193,-0.120227,0.102607,-0.00507649,-0.0363325,0.0576332,-0.0349284,-0.057117,0.09151,0.0705539,-0.0153856,0.0623693,0.0510027,0.0483232,-0.0636709,-0.0228912,0.0450938,0.0834869
-0.149355,0.00766486,0.0328885,-0.00239051,-0.0878455,0.0447877,-0.0506606,-0.0170359,-0.0855517,0.0563672,-0.0724045,0.0632069,-0.0453095,-0.122604,0.0280204,-0.0761608,0.0197851,0.0687013,0.0418104,-0.0641697,-0.149457,0.0535378,0.0634252,-0.0628445,0.105144,-0.0296386,0.0546261,0.0608687,-0.0156722,-0.063212,-0.117861,-0.075349,0.0405613,-0.0611705,-0.0584086,0.0516655,0.055077,-0.0358999,0.0205779,0.0616443,0.030347,0.0883102,-0.000855745,0.0565905,-0.0976521,0.0442862,-0.0327007,-0.0503382,0.0358105,-0.0203184,-0.00853319,0.10851,0.0462706,-0.0457726,-0.0339932,0.0120084,0.0917818,-0.0296735,0.0210333,0.0600581
0.0901275,-0.0931778,0.0251191,0.0684134,-0.0631596,-0.011556,0.0545401,0.0616015,0.0497737,0.0161214,-0.0476422,0.0188333,0.0668724,-0.0105484,0.0181726,0.110551,-0.0800178,-0.000203407,-0.0264376,-0.0995681,-0.00398014,0.00681335,0.15865,0.0872232,-0.047443,-0.0526962,0.0676182,-0.0844992,0.0717892,0.00185578,-0.0664172,-0.100596,0.0615037,0.0723151,0.0323212,0.0458863,-0.0551614,-0.0222655,-0.0625249,0.0723456,0.0498498,0.0664576,-0.00213754,-0.0297694,-0.0486533,-0.0402038,0.0458383,-0.036526,0.0811782,0.0338311,-0.0927765,0.10746,-0.0330111,-0.0568981,0.000120658,0.0245915,-0.0512933,-0.0903753,0.0813936,-0.0720451
-0.107402,0.0701112,0.0690831,0.0742105,-0.0402498,0.0307053,0.0155283,0.0975467,0.015618,-0.0373694,0.0198246,-0.0323276,-0.0167195,-0.123907,0.0380617,-0.013308,-0.0273569,0.0106979,0.0119768,-0.0842882,0.0506917,-0.0674673,0.00594402,0.027954,-0.0497943,-0.0669251,0.0461307,0.0528054,-0.0802756,-0.0746509,0.0363259,-0.151579,-0.0374216,0.0532263,0.0668338,-0.111934,0.0355297,0.0259963,-0.0929861,0.101226,-0.00728974,0.0475547,-0.0431425,0.0686304,-0.00611032,-0.0334048,-0.0279389,-0.0613222,-0.118127,-0.00496488,-0.00773762,0.00830188,-0.159248,0.0116981,-0.0353715,-0.149086,0.150565,0.105761,-0.0110591,-0.0242203

max: 1
min: -0.199392
avg: 0.00424754
