0.050491,0.0658814,-0.0758464,0.0551937,0.0315063,0.025959,-0.052839,0.0830062,0.112242,0.020285,-0.0423184,-0.124731,0.0275983,-0.052731,0.0189034,-0.0811219,0.0389684,-0.0188698,-0.0311254,-0.010529,-0.104182,0.0223602,-0.115922,-0.0316928,-0.0600307,0.0506947,-0.0544329,0.127938,-0.0658675,0.044314,0.103086,0.00227407,0.030367,0.00412229,0.0130611,0.0355519,-0.0797524,-0.0166654,0.00529127,-0.00280941,0.105792,-0.0488454,0.0247306,0.00700114,-0.0472742,0.0558676,0.0294201,-0.0702712,0.0895489,0.00934724,0.0183422,0.0354019,-0.0152056,-0.0286486,0.0594823,0.0859407,-0.070042,-0.120599,-0.0731398,-0.0190936
-0.0252181,-0.0185911,-0.0140879,0.030161,-0.00485941,0.0123551,0.0235842,0.116662,-0.0404121,0.0167969,0.0583864,0.146256,0.11479,0.0423906,0.0219621,-0.0122096,-0.0411363,0.0491306,0.0317199,0.00506479,-0.0299382,-0.00878185,0.0265788,0.0558326,0.0348724,-0.0386809,-0.0861568,0.0280828,0.113539,0.0896303,0.0252234,-0.00150007,0.0264662,0.0680316,-0.00135202,-0.0877729,-0.0763839,-0.0257225,0.0187052,0.100561,-0.0513478,-0.0718648,0.00952526,0.0317759,0.0450113,-0.00629965,-0.044181,0.0646895,-0.070779,0.00611144,-0.0263082,-0.00417354,0.0798363,0.125576,-0.0400862,0.0478208,0.0510159,0.0103932,-0.0214149,0.0625546
-0.00132147,-0.0254319,0.0214031,-0.0440161,-0.071379,-0.00199565,0.0816657,0.057754,-0.0673585,-0.0436216,0.0199309,-0.068525,0.0288689,0.0209938,-0.0320808,-0.00804567,0.0324741,-0.0733053,-0.093804,0.0369254,-0.0108112,-0.00699027,0.0380765,-0.0151359,-0.0188704,0.0978987,-0.0770535,0.0793194,-0.0285835,0.0353446,-0.0413478,0.032134,0.01387,0.0290779,0.0398635,0.0253301,0.174218,0.00718395,-0.0741787,0.0997459,0.0599899,-0.000443336,-0.00142323,0.113632,-0.145963,0.0539616,-0.000863778,-0.0891472,-0.104378,-0.017879,-0.0146993,0.028362,0.0276029,0.0463618,0.069019,-0.00116115,0.0568204,0.0308829,0.0134129,0.0772468
0.061841,-0.0195173,0.078843,-0.0786542,-0.0226029,0.0558947,0.0158802,-0.0462029,0.0906742,-0.0642525,0.0560943,-0.044488,-0.0414264,0.0238362,0.0453881,0.0853828,-0.0846081,0.0027007,0.0107198,0.049842,0.057003,-0.0169572,0.0129308,0.0158355,-0.0722895,-0.0606435,-0.0656451,0.029585,-0.00162142,-0.00329308,-0.155888,0.082939,0.0928645,-0.088049,0.0332986,0.0798176,-0.0537582,-0.0049226,-0.0302412,-0.083412,0.0394702,0.0844158,0.0259879,0.0103281,-0.0370009,0.11589,-0.0386036,0.0455296,-0.00805032,0.105842,-0.0757482,-0.12365,0.0397348,0.00252373,0.0155269,0.0485358,-0.0719989,-0.0102713,0.0102959,0.084733
-0.00555065,0.0336297,-0.0215731,-0.0264339,-0.0518071,0.0532964,-0.00833535,-0.0242023,-0.052767,-0.00840509,-0.00764126,0.0322078,0.0926922,-0.132299,-0.0727991,0.163672,-0.0641636,0.0147602,-0.0862352,0.0337469,0.0481817,-0.0447463,-0.00988674,-0.00649863,-0.0213254,-0.0634902,0.0695969,0.14367,0.000511169,-0.0476975,-0.011863,-0.0450037,-0.0148028,-0.00696646,0.0391573,0.0044634,0.0631462,0.085155,-0.0267854,-0.0705959,0.0434773,-0.0286644,0.0559942,0.0718582,0.0211623,0.0391409,0.00453978,-0.0252277,-0.0668356,-0.0398345,-0.0932975,0.0272072,-0.0562803,-0.0229642,0.00810209,0.0674127,0.00100159,-0.000314244,0.0130414,0.0494162
0.0748024,0.0438525,-0.0346987,0.0121551,-0.0257697,-0.00708373,-0.0248108,-0.0911581,0.0700898,-0.0335806,-0.141249,0.0093833,0.0283976,-0.0838382,-0.0799272,0.109087,-0.00198508,-0.0242279,0.0280645,-0.0917286,-0.0779807,-0.0459057,0.00365385,0.0407391,0.0475182,-0.07012,0.0346159,0.112932,-0.0675858,-0.0685588,-0.0134991,0.052463,0.0271274,0.0200906,-0.0342074,0.0168581,0.0518816,0.0654032,-0.0238006,0.0841475,0.0231104,-0.018754,0.0661751,0.0979173,0.0409034,0.0625269,-0.0112927,0.0720709,0.0813036,-0.0557472,-0.0732161,0.0543913,-0.0255699,0.0353434,0.0272347,-0.028659,-0.0883867,0.0212788,-0.039372,0.0924795
0.054536,0.00123804,-0.089452,0.0238412,-0.0540497,0.0419432,-0.0527614,0.0365207,0.0647155,-0.0468488,-0.00418687,-0.0457089,0.00427579,-0.0316795,0.0999345,0.0807927,0.081099,-0.104736,-0.0343596,0.0370898,-0.0654849,-0.106172,0.0568877,0.0313757,0.1147,-0.0006796,-0.073448,-0.00121035,0.180279,-0.122168,0.0993028,-0.0363502,0.0351655,-0.0869056,0.0423136,-0.0036547,-0.0459115,0.0242878,0.0188966,-0.0712572,-0.0537316,-0.0448028,0.024365,0.0351062,0.0618413,-0.0585515,-0.0461776,-0.0157227,0.0209455,-0.0110383,-0.0392967,0.0517655,0.0309456,0.0519889,-0.0246758,0.123307,0.0380247,-0.0167262,-0.015369,0.0978474
-0.00348437,-0.0637423,-0.0199801,0.0785818,0.0623433,-0.0221567,0.109398,0.0807392,-0.0103951,-0.0601335,0.0776772,-0.0578072,-0.0396089,0.049989,0.0254112,-0.0295616,0.0313973,-0.0434727,-0.0650206,-0.0511007,0.033551,-0.0312298,0.00940036,0.038484,0.0480758,0.0556211,0.108651,0.00393023,-0.0284963,0.0455446,0.016869,-0.0444757,-0.0416587,0.110089,-0.0021103,0.0133322,0.0438564,-0.112418,0.0899202,-0.0201803,0.0198342,-0.0187621,0.0557046,0.0256419,0.0750903,0.0094845,0.113094,-0.00104357,-0.0605914,0.115409,-0.133638,-0.0603796,-0.0215121,0.061024,-0.0083372,-0.0871441,0.0539463,-0.0789632,-0.0207697,0.0452953
-0.0142623,-0.0854596,0.00771003,-0.0311283,-0.0496265,-0.0358876,0.00341779,0.139955,-0.0902721,-0.0269781,-0.0597884,-0.0415087,0.0977249,0.0204428,-0.118289,0.154892,-0.0222337,-0.0175833,0.0236506,-0.0171146,0.00787878,-0.0435466,-0.0565523,-0.054747,-0.0142287,-0.0234493,0.119672,0.0372286,-0.0361971,0.0288872,0.0908673,0.080066,0.00597096,0.0290906,-0.0631432,-0.0641883,-0.013328,-0.0606117,-0.0702717,0.130453,-0.0894693,0.106439,0.0401463,0.0252536,0.0293243,0.114774,-0.0268129,-0.042745,-0.0129227,-0.0170717,-0.0102475,0.0151627,-0.0369433,0.0306432,0.0880894,0.0385489,0.0568039,0.0844394,0.0624718,0.0941129
-0.0970235,0.0200052,-0.047479,-0.0593272,0.00204456,0.0698517,-0.0693193,0.0734422,0.010687,-0.0285383,0.0686491,-0.017998,0.0916648,-0.0943639,0.062593,-0.0168212,0.0148792,-0.0275251,-0.0209256,0.00224069,-0.0292001,0.0607385,0.0049946,-0.0903212,0.022382,0.00852259,-0.0108621,-0.0113085,-0.0149468,-0.111546,0.0462923,-0.000241999,0.0166065,-0.0458651,-0.0577686,0.0138694,0.0121505,0.00211273,-0.0252368,0.045336,-0.0362778,0.0133421,-0.0769913,-0.077479,-0.0250144,-0.0100493,0.0858924,-0.00214402,0.0189939,0.0485847,0.018546,0.0066751,0.066727,0.048168,-0.0533314,-0.0466431,0.0315375,0.0941333,0.046458,-0.135277
0.0124244,0.100755,-0.0578256,0.0716255,-0.0276618,0.00314826,-0.0230466,0.0485782,0.135951,-0.0438447,0.00871908,0.110951,-0.0138356,0.0797282,-0.0278418,-0.0256888,-0.00861079,0.0683884,-0.0809288,-0.0243725,0.0339886,0.104057,0.0106974,0.011376,-0.082935,-0.0396144,0.0583555,0.072034,0.0065209,0.104044,0.0664691,-0.121343,0.00910333,0.0187464,-0.0700457,-0.0460839,0.0508885,-0.0476297,0.0388798,-0.080476,0.000262012,-0.0143805,0.0606407,-0.0078634,0.0865875,-0.0163009,0.0249317,0.00216739,0.0386239,-0.0384104,-0.0855825,-0.0235218,0.0281214,-0.0180246,0.00776917,0.0137133,0.0395795,-0.017654,-0.0401313,0.016439
0.0768082,0.0176768,-0.0705167,-0.0670066,0.0529717,-0.00134857,0.114959,-0.0239054,-0.0199161,0.0491833,0.00298893,0.154221,-0.108785,0.0350633,-0.0503875,-0.0509756,0.0344425,-0.0021569,0.0343174,0.0898421,-0.117484,0.00398492,-0.107726,-0.0233436,0.0372235,-0.0376067,-0.0091355,0.0264213,0.0430199,-0.0279614,-0.0217887,-0.00586616,-0.0699542,-0.108285,-0.0337427,-0.088233,0.0962151,0.00840061,0.0697153,-0.179788,-0.100675,-0.0317691,-0.0708693,-0.0170827,-0.019375,-0.0301019,-0.0426996,-0.0475829,0.0125664,0.0146373,0.0367074,0.0479411,0.0281287,-0.00286678,-0.0414827,-0.0191793,0.0245622,0.0343094,0.00889919,0.021014
0.0329684,-0.0730557,0.0357728,-0.0269717,-0.0198141,0.000257879,0.0288038,-0.0989979,0.0440815,0.0764444,0.00458404,0.0101366,-9.32476e-05,0.0581098,0.042416,-0.0179624,0.0396398,0.0295075,-0.0575413,-0.00259821,-0.0377084,0.0600124,0.121071,0.0699198,-0.103102,-0.0330097,0.0563811,-0.0207254,-0.0495631,0.00217439,0.00651162,0.0177005,0.0271412,0.0207985,-0.0588235,-0.144683,0.00135467,0.0907034,0.0337472,0.0760437,0.0558376,-0.0526444,0.0890823,0.0253784,-0.0220815,-0.00790987,0.0503886,0.0158328,0.0772054,0.0183332,-0.0510704,0.0601958,0.00941421,0.0565483,-0.0182424,0.030765,-0.00462824,-0.0937628,0.00886802,-0.0110832
-0.101951,-0.145041,-0.0455742,0.0728255,-0.000207326,0.0175332,0.0157314,-0.0877273,-0.0501864,0.0170108,-0.0275765,-0.00319901,0.10957,-0.0159758,-0.0134965,0.0168277,0.0352261,0.0641819,0.0160902,-0.0212602,0.0406631,-0.0036164,0.0412686,-0.0521714,0.0659957,0.00999109,0.135026,0.0226062,-0.0320653,-0.030821,0.071338,0.00963107,0.0588857,0.03031,0.0275898,0.00266032,-0.0484182,0.0654257,0.0472715,0.0816748,-0.0397804,-0.033143,0.0572629,0.0791673,0.0201211,0.0188186,0.0229369,0.0387104,-0.138847,0.0484791,-0.0312859,-0.0368501,0.0476761,-0.0527849,-0.0396942,-0.0690683,0.0827597,0.0166634,-0.0116605,-0.0577111
-0.0629288,0.081337,-0.0340213,-0.0351722,0.011997,-0.0152679,0.0349874,0.0575835,0.03165,-0.0105776,0.0739149,-0.0115055,0.0468225,0.106152,0.0371142,-0.0111928,0.0295146,0.0708266,0.0267637,-0.067079,-0.041642,0.027101,-0.0313408,0.0313718,-0.047079,0.0783201,-0.00576341,0.00126715,-0.0302161,-0.0428231,-0.114509,-0.0288982,0.0314545,-0.0290166,-0.0235948,0.0156718,0.114982,0.117156,-0.0345307,-0.101158,0.030467,0.137627,0.014033,0.014483,-0.0250039,0.0272778,0.0123786,0.057424,0.0249988,0.0622235,0.0450536,0.0123815,-0.018497,-0.0657132,0.008452,0.011445,0.0618737,-0.00772829,-0.0221187,-0.0825834
-0.00330139,0.0480014,-0.15274,-0.017383,0.00355645,-0.0585415,-0.0934259,-0.058738,0.0866081,0.0579353,0.0298178,-0.0975516,-0.0304664,-0.0957092,-0.0759224,0.0149576,0.0374448,0.0311834,0.0323541,0.0419087,-0.0378137,0.0186829,-0.007014,0.0335402,-0.0274212,0.0052638,-0.0325647,-0.0413155,0.0126205,-0.0122927,0.11698,-0.0221695,-0.0547942,0.0228997,-0.05256,0.0887254,-0.0254239,0.0130022,0.0477888,0.0414694,0.030786,-0.0195454,-0.185601,0.0417104,-0.013995,-0.0409635,0.00720471,0.0183478,0.0936173,0.0246465,0.0828872,0.00682444,-0.0342105,-0.0350205,0.027405,-0.0267865,-0.0711207,0.0529607,0.0209737,-0.0218156
-0.0378523,-0.0552192,0.136607,0.0437886,0.0541391,0.153018,-0.0542228,-0.0272395,0.100088,0.0773779,0.125811,0.0239172,-0.0259747,-0.0171122,0.0689722,0.0247075,0.0426299,0.0325193,0.100109,-0.0305171,0.03472,-0.0466146,-0.0322809,0.0260413,-0.00255173,4.42115e-05,0.0165229,0.0332538,0.0472755,0.0192875,-0.0103435,0.104915,0.0566796,-0.00510604,0.104676,0.058467,-0.0574039,-0.0248323,0.0318038,-0.0767543,-0.0703405,-0.0105276,0.0568475,0.0130597,-0.0620572,0.0724092,-0.0357792,-0.0129287,-0.0221292,-0.0126518,-0.0113725,0.0298469,-0.0525037,-0.0519202,0.0236803,0.0144668,-0.123248,0.0312537,-0.0553239,0.0649764
0.0560659,-0.0152749,0.0210274,0.119798,-0.0566753,-0.0905335,0.0773768,-0.0818831,0.15798,0.00256078,0.0243369,0.00316497,0.108095,0.136075,-0.0518762,0.0115449,-0.00442758,-0.0105444,0.051314,-0.00330677,-0.0543149,-0.0304351,-0.0324602,-0.0294771,0.0172103,-0.0157451,-0.0973234,0.0480926,0.000153612,0.050919,-0.0643798,0.0502825,0.00220263,-0.0068562,0.0333858,0.0996812,-0.0949463,-0.0320759,-0.0353597,0.0308004,-0.0140395,-0.011066,-0.0318331,0.0307147,-0.0139427,-0.0721483,0.111197,-0.101593,0.0449407,-0.0409898,0.0228484,0.157238,-0.0250697,0.070625,0.0182589,-0.00500058,0.0540674,-0.0755947,0.0799884,0.0106681
0.0153535,-0.0148399,-0.0585887,-0.0636056,0.056828,0.0202574,0.000159361,0.0213143,0.0691121,0.138786,0.0016066,0.0113743,0.0498157,-0.0855506,0.00655945,-0.0432191,-0.0970465,-0.0948854,0.0356248,0.0427231,-0.00864971,-0.0695721,0.0228988,0.0225809,0.00615836,0.084862,-0.0529786,-0.0843736,0.0628293,0.0288447,0.00347386,-0.0380592,-0.0105326,-0.0188599,-0.0504723,-0.00104705,-0.109261,0.0411301,-0.0127454,-0.00350885,-0.0297781,-0.0263285,-0.0381072,-0.108084,-0.0631071,-0.0574202,0.0794322,0.0829593,-0.0302838,0.0220266,0.0737898,-0.0105453,0.0428573,-0.072097,0.0388097,0.0235366,0.0500712,0.0133594,0.0117319,0.113668
-0.0535713,0.087274,0.0460416,-0.0356271,-0.00440426,-0.0151172,0.0232457,-0.0344441,-0.0263849,0.0803687,-0.00985325,-0.00574465,0.13151,-0.0651138,0.0352204,0.102613,0.0931253,-0.0169527,-0.0560546,0.0618546,0.0809428,0.127981,-0.00447084,0.0309407,-0.0133458,-0.0299385,0.0202,-0.0433085,0.134434,-0.124502,-0.104245,-0.0558361,0.026271,-0.00793496,-0.105203,0.0153169,0.0499161,-0.0482618,-0.0307801,0.049247,0.0104532,-0.00244507,-0.0134237,-0.0725829,0.0140344,0.0664977,0.0327675,0.00115246,0.0699945,0.0128584,-0.0399289,-0.0965193,-0.0694207,-0.0432797,-0.00333134,0.0579423,0.066707,0.0155753,-0.113633,0.0872
0.0292284,-0.0105338,-0.110774,0.023337,0.0563387,0.0130818,-0.0317356,-0.0265161,0.0581188,-0.0236328,-0.0457168,-0.03559,-0.0102321,0.0555223,0.0618399,0.00159207,-0.0717394,0.0548283,-0.00263764,0.0571785,0.0258567,0.0376115,0.00909352,0.00203478,0.0295787,0.0290749,0.0443337,0.0316601,0.00826162,-0.0898168,-0.0824829,0.0321259,0.023015,0.0420075,-0.0709497,-0.029619,0.0146846,0.0228295,0.0464633,-0.00254276,-0.0496384,0.0446477,-0.0155018,-0.0663432,0.0836958,-0.028747,0.0684263,-0.0611055,0.00338614,0.0834232,0.00755432,0.0308782,-0.0893199,0.00512196,-0.00646053,-0.0847863,0.0596248,0.0498347,-0.0791523,-0.00263668
-0.00248241,0.0522979,-0.0674107,-0.0289873,0.0131158,0.0504632,0.0597061,0.00998276,0.0880214,-0.0558177,0.0462575,-0.0285008,-0.0731171,-0.080506,-0.0178485,0.0176328,-0.10477,0.0403451,0.0621337,0.00221553,0.0423975,0.103586,-0.104678,-0.122181,-0.02693,-0.0676195,0.0183763,0.0747335,0.139729,-0.0391643,-0.0305426,0.00161451,-0.0449771,-0.0751543,0.00666954,0.0457715,-0.00496335,0.121275,0.020726,0.0839076,0.113411,0.0447829,-0.0125022,0.0751369,-0.0214667,-0.117409,0.0598117,0.00128626,0.0535027,0.146031,-0.08054,0.0174455,0.0319953,0.0598134,0.00237586,0.0206663,0.0230268,0.00770891,-0.00208456,0.042843
-0.0650849,0.023303,-0.00566003,0.0349169,0.135455,-0.0743265,0.0359186,0.0656026,0.00419818,0.0549579,0.0421557,-0.0765943,0.00689474,-0.0131061,0.0534069,-0.0240962,0.016558,-0.0590847,-0.0870339,0.0127608,-0.0258218,-0.0945659,-0.00451286,-0.00675741,-0.0438564,0.0179877,0.112572,0.00538286,-0.0372618,0.00589708,0.0267254,0.0440853,-0.0789151,-0.0423672,0.0216012,-0.0401234,0.0748013,0.0826409,0.0235935,0.0739912,0.02871,-0.0908657,-0.0133774,0.00697325,0.0888237,0.0803163,0.0249069,-0.0768296,0.0556645,0.111331,-0.00664651,0.0204298,0.00986971,0.0136783,0.114191,-0.0893441,-0.0445416,-0.0795221,0.0710905,-0.0171186
0.102888,-0.00162592,0.0312928,0.0660634,-0.124105,0.0645128,0.0765469,0.0665593,-0.096487,-0.0921756,0.0036627,0.0325777,-0.032386,0.0154426,-0.0876787,-0.10614,-0.0465391,-0.0102871,0.0261269,0.0108551,-0.0845655,-0.0144147,0.0252194,0.000752273,0.0336287,-0.106307,-0.00952179,0.0509665,-0.0441846,0.030521,0.012287,0.0478834,0.0515445,0.0732369,0.0182729,0.0654368,0.0761914,-0.0505504,-0.00885349,-0.0367574,0.0201573,0.00560137,-0.0716247,0.070003,0.0501236,-0.0054483,-0.0339084,-0.0769049,0.0448513,0.0925098,0.0283033,0.0389571,0.0452115,0.0465802,-0.0418635,-0.0348548,-0.0708339,-0.0678263,0.0258686,-0.0333784
0.0404328,-0.0195639,0.0431945,0.0933462,0.0381785,-0.00408187,-0.0694474,-0.0410615,0.0132241,0.088192,0.0848263,-0.0394325,0.00970561,-0.0255703,0.132824,0.0140726,-0.031431,0.0020761,-0.0664424,0.0759973,-0.0297914,0.0513011,-0.02557,-0.0477443,-0.00602112,-0.0918783,-0.0185416,0.00713828,-0.0231764,0.0176472,0.00294002,-0.0179696,-0.063003,-0.0656458,0.0509526,-0.0208843,-0.0342925,-0.030247,-0.0369917,-0.0875287,0.000711051,-0.0155617,0.0570731,0.00174943,-0.0417366,-0.0401384,0.0107105,0.0707569,-0.00956013,-0.0858021,0.0475937,-0.0485123,0.019916,-0.0483039,-0.0885079,0.0687927,-0.0757889,0.00263642,-0.00606388,-0.00707437
0.0691295,0.0268039,0.0184747,0.0240816,0.0625922,0.0308356,-0.0639783,0.0648686,0.0709582,0.051976,-0.00144932,0.0164294,0.0912559,-0.0130665,-0.112785,0.0150987,0.0996582,0.0452785,-0.0139068,-0.0345419,0.109036,-0.00340323,-0.0276982,0.123049,-0.0305001,0.0252372,-0.065163,0.0394618,-0.0176501,-0.0164768,0.130659,-0.0357213,-0.0599038,-0.0659775,-0.0145147,0.00738136,-0.000448083,-0.0383672,0.0103002,0.0067204,-0.0449982,0.00544676,-0.0508325,0.1253,0.0455103,-0.046746,-0.00575825,-0.000134053,0.0457448,0.0628345,-0.00903195,0.0814428,-0.00357125,0.129906,-0.0230516,-0.085051,-0.00875,-0.00439172,0.14799,0.0305948
-0.0344316,-0.126867,0.0308977,0.0601414,-0.0926623,-0.0141316,-0.0166755,-0.0222921,-0.0929803,0.00803189,0.105801,-0.0420988,-0.0251083,-0.0863076,-0.0269098,0.066455,-0.0684775,-0.00597331,0.0611361,0.021865,0.0732735,-0.0138985,0.0386373,-0.0668967,0.118288,-0.0594804,-0.000457404,-0.00327074,0.0376088,0.0509082,0.0630679,0.0675625,-0.0680704,-0.0626564,0.0672976,-0.0146598,0.0599989,-0.00151256,0.011091,-0.0241793,0.00660041,-0.0788431,0.00221058,-0.0407368,-0.0885091,0.0489512,-0.0299358,-0.00494022,-0.0114486,-0.0183459,-0.0700247,0.0327207,-0.0316113,0.0680399,0.0418744,-0.0233009,0.00168714,0.103699,0.00495918,-0.0843114
0.125957,-0.0131461,-0.101317,-0.0217416,0.0331917,0.034592,0.028056,-0.00614929,-0.0286114,-0.0396904,0.0711838,0.0449423,-0.0319158,0.0268224,0.0779392,0.102342,0.00358027,0.0161282,-0.0166822,0.115258,-0.00532035,0.0492628,0.0694296,-0.0781047,-0.0738074,-0.036782,-0.0116356,-0.08486,-0.0231004,0.033575,0.0698288,0.000756924,-0.0268766,-0.0258369,-0.0579414,0.0132879,0.00757623,0.0528427,0.124751,0.0527134,0.06134,-0.00845485,0.17193,-0.0224028,0.0511473,0.045846,0.103253,0.155911,-0.0606267,-0.0380533,0.0204054,-0.0018217,0.0644922,-0.0477178,0.0504877,-0.0216893,-0.0237141,-0.0420952,-0.00657014,0.149782
0.00740361,-0.0232455,-0.000789424,-0.133452,0.057162,-0.0738257,-0.0195494,-0.00850068,-0.0826027,-0.0326758,0.0578252,0.0869922,-0.0314059,-0.0129144,0.015645,0.0295642,0.0457123,0.0687634,-0.0278934,0.08854,-0.0176219,0.075431,-0.0261986,0.0479691,0.0165066,0.00525322,0.012434,-0.0394842,0.0124883,-0.129778,0.012781,-0.134347,-0.0395,0.0120032,0.0118303,0.0308686,0.0443164,-0.017101,0.0449003,0.0723765,0.0774903,-0.0399794,0.00292902,-0.0156493,0.0591275,0.0861315,0.0871323,0.0194851,0.0828561,-0.0786472,0.090699,-0.0153969,-0.0190691,0.015283,0.0288338,0.132243,-0.0214646,0.0227451,0.0716168,0.0425189
0.000768727,-0.0360613,0.0448774,0.0212789,0.0786578,-0.0277009,-0.0650581,0.015576,-0.0155243,0.025763,0.112009,0.0141231,-0.0753148,-0.068225,-0.0772788,-0.149053,0.00692704,0.0180699,0.0207151,-0.00051305,0.0264643,0.0289247,-0.0239884,-0.0301022,-0.00776486,0.0692594,-0.0645626,-0.0145363,-0.0596191,-0.0907952,0.0273558,0.0112145,-0.00544874,-0.132165,0.0115519,0.0168477,-0.0623066,-0.0532307,-0.0882597,0.0544596,0.0491777,0.0855394,0.0167059,0.0661063,0.0412125,0.0764118,0.0390721,-0.0142831,-0.101683,-0.0835059,-0.054181,0.00472863,0.0292091,0.0307136,0.104718,0.0781165,0.0230613,-0.0121306,0.0763624,0.0949521
0.0402193,0.0236024,0.06319,-0.0165541,-0.045218,0.0651732,0.00313535,-0.107525,0.00388856,0.117765,0.0429252,0.0263214,0.0754876,-0.0467744,-0.0656738,0.00733594,0.0221286,0.0191549,0.0675354,-0.0379951,-0.0420144,0.0644125,-0.0307397,0.113266,0.0160386,-0.0191046,0.0959204,0.0889677,-0.0409059,-0.0648626,1,0.0774166,0.0404244,0.0106169,-0.0197413,0.069841,-0.0282278,0.073474,0.0282572,0.0816103,0.013645,0.0176473,-0.0232694,-0.011015,-0.0240419,0.0122566,0.0469599,0.0406612,-0.028778,0.108399,0.0337677,-0.10361,-0.00678922,-0.0286321,-0.0371378,0.0681288,0.0325433,0.124763,-0.0727985,0.014215
-0.0610945,0.100756,0.0409775,0.00444296,-0.0451247,0.0580768,-0.0390414,-0.00695604,-0.0211558,-0.0342047,-0.0396474,-0.0215449,0.0976801,0.0921542,0.0639914,-0.0699995,0.00938735,0.123993,0.0610955,-0.0179984,0.0414048,0.0449117,-0.0252569,0.101911,-0.0396912,0.0281377,0.0771612,-0.010616,-0.0219283,-0.0154361,0.0185058,0.0976245,0.0786247,0.012828,-0.0889978,0.129568,-0.00366844,0.0766403,0.0325774,-0.0303263,-0.0502965,0.00889277,-0.0355007,0.0940735,0.0415013,0.0721893,0.00321357,-0.0560515,-0.0476616,0.0359885,-0.0138064,0.0188562,-0.0356177,-0.0462083,-0.0372377,-0.031386,0.0532727,-0.0445992,0.104942,0.076163
0.135833,0.0114985,-0.0714027,0.0304985,-0.0264894,-0.064377,-0.0274553,-0.00517074,-0.0335041,0.00660765,-0.0167697,-0.0488505,-0.0396558,0.0587942,-0.00972068,-0.01501,-0.100954,0.0369193,-0.0458701,0.000226653,-0.00123138,0.0740261,-0.0532801,-0.0298183,0.0357598,0.0125208,-0.0299203,0.000954171,-0.0183515,0.0357726,-0.0234234,0.0351893,0.0233762,-0.0540045,-0.0371582,-0.0119754,-0.135702,-0.04864,-0.0208722,-0.0941293,0.00471866,0.0624508,0.00925636,0.024798,-0.0646889,0.0155479,-0.0723305,0.0135723,0.0375039,0.0517747,0.0499479,-0.000550538,0.0144974,-0.0724848,-0.047601,0.046291,0.0284757,-0.0640137,-0.0319106,0.0364391
0.0364563,-0.0738373,0.0863892,0.00103884,0.12993,0.0401508,-0.00989179,-0.0909869,0.0190024,0.0707337,-0.0757019,-0.0665458,-0.0274943,-0.025528,0.0497557,0.0337076,-0.00945609,-0.040297,-0.0307023,0.0433254,0.0269678,-0.0378685,-0.0677668,-0.0894342,0.0515232,0.030674,0.0503826,0.0228942,0.01628,0.170657,-0.0753094,0.0252904,0.0164021,0.0647108,0.00512152,0.0542453,0.000123465,-0.0407309,-0.105729,0.0106829,-0.0231244,0.0189735,-0.015244,-0.0427095,0.104539,0.0312515,-0.0372655,0.0327377,-0.0624565,0.116153,0.0149334,-0.0101752,0.134477,0.0506231,0.0573079,0.0452665,0.0378701,0.134727,-0.0257154,-0.0260727
0.0140943,0.0290109,0.0687874,0.0604781,-0.0800815,0.0463109,0.0290833,-0.0223675,-0.0332768,0.0630097,0.0561474,0.00617093,0.0471753,0.0449832,0.0357909,-0.0407327,0.102694,-0.0541812,0.0167553,-0.0821811,-0.0277309,-0.0675036,0.0128924,-0.166609,-0.00474104,0.0350408,0.0173556,-0.0929715,-0.0531091,-0.00400816,0.0401265,-0.075485,-0.048982,-0.0724171,0.0586093,-0.0766073,-0.028815,0.0221068,-0.0185532,-0.0134821,0.0410616,-0.025808,-0.0146446,-0.0282475,0.0343065,-0.1721,0.064994,0.0721414,-0.0282384,-0.0177527,0.0288467,0.0664635,0.014744,-0.0259533,0.0274858,0.0667742,0.0389461,-0.0190952,0.01669,-0.0498063
0.0267417,0.000642349,0.00998541,0.0589745,-0.0728281,0.0560136,0.0347401,0.0490161,-0.00927042,-0.0349026,0.073426,0.102246,0.101864,-0.0185853,-0.010528,0.0714882,-0.0740143,0.0225593,-0.0500687,0.0491107,-0.0734484,-0.0360039,-0.0258673,0.119125,0.0816125,0.0408065,-0.0647297,-0.0028122,-0.0354209,0.0220873,0.0734368,0.0128934,-0.0457171,0.0599631,0.0757866,-0.069762,0.0329539,0.0287766,0.0548719,-0.0484549,0.0266438,-0.0557948,-0.0555128,0.0895608,-0.0429527,0.0196315,0.0614484,-0.0236106,0.025872,0.0107644,0.0630274,-0.0423945,0.0617688,-0.0393476,0.0434332,-0.145594,-0.00165838,0.0566457,0.00369769,0.0842188
0.0142395,-0.0374858,0.0132636,0.00253204,-0.030816,-0.0636354,-0.0493895,0.0371022,0.06498,0.0250485,-0.0100609,0.115183,0.00872876,0.060851,0.0297257,-0.029067,0.0650153,0.0903527,-0.0578591,-0.00226913,0.0343223,0.0184887,0.020601,-0.0175789,-0.0479881,0.0679672,-0.0636712,-0.0289585,-0.0148891,-0.0756807,0.00585688,0.0173386,-0.0114882,0.0336051,0.00141837,-0.0161737,-0.00736343,-0.0390398,-0.0113123,0.0144504,-0.0337073,0.0488942,-0.0641351,0.0053722,0.031185,0.0656127,0.0650677,0.00590692,-0.0290844,0.0100612,-0.0193796,-0.12679,0.0126205,-0.0165443,0.0110977,0.098596,-0.0546223,0.0605265,0.0134556,0.0377199
-0.0147924,-0.101614,0.0926121,-0.00604879,0.111829,0.00221816,0.0095271,0.117194,-0.0254448,0.0577113,-0.0760995,0.00297987,-0.00647038,-0.0173012,-0.0173366,-0.00475129,-0.0605942,-0.0526446,-0.0729307,0.106084,-0.0365723,0.0603973,-0.006219,0.0265325,-0.0796633,0.00943098,-0.0186156,-0.039291,0.0817211,0.00681499,0.0596287,0.0432938,0.0235895,-0.0304024,-0.00906248,0.047015,-0.094305,-0.0204441,0.101802,0.00768816,-0.0165381,-0.00366833,0.00926514,-0.0144752,-0.0153218,0.0404681,-0.0105492,0.0527242,-0.0593208,0.0574616,-0.077357,0.00243998,0.0112166,-0.0244554,0.0528433,0.0659012,-0.0520348,-0.0122407,-0.0248102,-0.0635341
-0.000168837,-0.076941,0.161661,-0.0569933,-0.0615988,0.015533,0.0615884,0.00999076,0.00187515,-0.017153,0.125232,0.0179593,0.0804253,-0.0124477,-0.0848591,-0.0523574,0.0897473,0.0294221,0.108,0.0460778,0.019586,0.0483192,-0.0129179,-0.0301122,-0.0436471,0.0420107,0.0509054,0.0604981,-0.0551321,0.0338538,-0.0165886,-0.0265901,-0.0660998,0.0879099,0.0382731,0.10432,0.0737892,0.061875,-0.0614825,-0.0217498,-0.0835613,0.031789,-0.0180708,0.0809469,0.00218823,0.0510685,0.0147216,0.0334771,0.0878504,0.0469011,0.00183131,0.00776279,0.0131095,-0.0534367,0.0670773,-0.00680683,0.0459037,0.0247634,0.0419538,-0.0783458
-0.0331432,-0.0164666,0.00559347,-0.0937221,-0.0135067,0.0450198,0.0154674,-0.0580794,0.0455133,0.00288414,0.091008,0.0172748,0.0124434,0.0325978,-0.0560588,-0.0298616,0.0309329,-0.123194,-0.0294396,-0.0597263,-0.0431312,0.0438999,-0.0598296,0.0415521,-0.105046,0.133755,-0.00330387,-0.0340485,-0.0343178,0.0613307,-0.0259444,0.0614849,0.0700235,-0.0354633,-0.106295,0.0744849,-0.0187091,0.029687,-0.0262373,-0.0298525,-0.0514724,-0.0268741,0.0263082,-0.0233647,-0.0701553,-0.0820486,-0.0907522,0.00163651,0.0919432,0.0254059,0.0462612,-0.129394,-0.057698,-0.00372076,-0.0720092,0.0225174,-0.0947425,-0.01772,-0.0903991,-0.0129945
0.0548185,-0.0731261,-0.0919036,-0.0262776,-0.0270841,-0.0708217,-0.068792,0.0944824,-0.0175829,-0.00333945,0.0761442,0.0105486,-0.0532709,0.0139084,0.0347835,-0.00277852,-0.00191084,0.0307116,0.00238219,0.0678536,-0.051288,0.0674828,0.0222912,0.0460058,-0.0426511,0.0432106,0.0229055,-0.0537166,0.0157828,-0.0257628,0.0375429,0.0410318,0.17637,-0.0478101,0.0503732,-0.0118086,0.0358108,-0.0478311,-0.093744,-0.196196,-0.0138876,0.108827,-0.0931965,0.0137296,-0.00275356,-0.0441176,0.0614845,0.0320065,-0.0645229,0.0343239,0.0265589,-0.00287773,-0.0235182,0.064766,0.0104571,0.000891124,-0.0103042,-0.00204628,0.0703615,-0.0497191
-0.0504771,-0.0422632,-0.0243109,0.00347766,0.0568419,0.0390323,-0.0671522,-0.028646,-0.0645685,0.0335404,0.0760534,0.0197296,-0.0418227,0.00592211,-0.0755678,-0.0339243,0.0433512,-0.0800835,0.119292,0.122136,-0.000615755,-0.0147247,0.00110589,-0.0183475,-0.0207659,0.0276392,-0.0100295,0.0572044,0.0150057,0.0690721,0.0480107,-0.102589,0.0175863,0.0633201,-0.148797,-0.00279932,0.0967785,-0.0354892,-0.0502321,0.0782062,-0.0352855,-0.0108337,0.058315,-0.00646127,0.00420683,0.00953213,-0.0225839,0.0393634,0.0435757,0.0628486,0.0136472,0.107101,0.0682898,0.0566687,-0.00569804,-0.0201812,0.0377747,0.0423898,-0.00142551,-0.0172337
0.0206177,0.0132025,-0.0796485,-0.0680413,-0.0280221,0.0222122,0.00905456,-0.0146831,0.131452,0.0580746,-0.0571534,0.0617206,0.0457759,-0.0335577,-0.0856548,-0.0983975,0.00089212,-0.0666278,0.0480527,-0.0135857,0.0396728,-0.0683958,-0.00470098,0.0672503,-0.16562,0.0675441,0.12201,-0.0305206,-0.0246193,0.0054939,0.0307164,-0.0443967,-0.0307902,0.00401069,0.0205823,0.0548278,0.0567314,0.0481414,-0.108416,0.0293088,-0.013023,-0.00725323,-0.0779384,-0.0405726,-0.0155745,-0.0491494,0.0112082,-0.0702595,0.0630323,0.0236272,0.0638382,0.056084,-0.0628713,-0.0208724,-0.0637658,-0.0695721,0.000364474,-0.00757037,-0.0132545,-0.028641
0.0416076,0.0649625,0.190807,-0.0501243,-0.0891511,-0.0252096,-0.0126612,0.0325526,0.0847683,0.0445906,-0.070486,-0.0388245,-0.0103743,0.0181295,0.0595162,0.0256999,0.0185783,0.0463355,0.000622824,0.0179083,-0.0628852,0.0316497,0.101667,0.087333,0.0207559,0.0241547,-0.0762081,-0.00331574,0.0494226,0.0386811,0.0606313,0.155149,-0.0334375,0.024876,-0.030539,-0.0398532,-0.0192324,0.0305598,-0.148718,0.0152117,-0.0828517,-0.0625721,0.0644195,0.0935574,0.00469925,0.0446309,0.043329,-0.12387,0.00326221,-0.0914833,-0.0283371,-0.0336618,-0.0475257,0.00444965,0.0652267,-0.073771,-0.0581539,0.0835284,-0.0454752,-0.122402
-0.02535,-0.0973269,-0.00850163,-0.0916038,0.0528515,0.0541237,0.033697,0.0235419,-0.0380708,-0.0222278,0.078783,0.0440461,0.0653814,0.0178797,0.0278707,0.0480531,0.0631289,-0.089187,0.184638,0.0387714,-0.0441744,0.0446,-0.0197846,-0.0190241,0.0467723,-0.010524,0.0352819,0.0427859,-0.00950346,-0.0260912,-0.00630419,0.00443353,-0.019209,0.185306,0.000558807,0.0377819,-0.0316129,-0.0370318,0.151319,-0.0559197,0.0129936,-0.0153844,-0.00298054,0.0134027,-0.00872527,-0.0516948,-0.0248435,0.0998799,-0.0270288,0.00268402,0.0855282,0.122626,-0.051282,0.007474,0.0292743,-0.059413,0.0952475,-0.0172314,-0.000764097,0.0747924
0.0955297,0.0490848,0.0577154,-0.0735856,-0.0183196,0.0320586,-0.0494065,-0.0313626,-0.0802427,-0.0534741,0.0170289,-0.0457896,-0.0671307,0.0283085,0.0370241,-0.153786,0.0166443,-0.11511,-0.0275112,-0.101315,0.0393619,-0.019843,-0.0900268,0.0983554,-0.0026314,-0.0716036,0.12455,0.0131697,0.0863903,0.0141427,-0.0389931,0.104161,0.119309,0.00317889,0.0150575,0.0208441,0.0691872,0.033204,-0.0410367,-0.0227512,0.0523236,0.03176,0.0817568,0.0995424,-0.0174909,0.0355468,-0.00206706,0.0366735,0.0234204,-0.0375898,-0.0667879,0.0996877,0.0719132,-0.0557577,-0.0525479,0.127028,0.0306761,-0.0858852,-0.0633503,0.0180817
0.0621365,-0.0119627,-0.0902448,-0.00221814,0.0158807,0.120997,-0.0941407,-0.0388353,-0.0222731,0.0417538,-0.0233,0.094139,0.01267,0.105494,-0.0101675,-0.0071339,0.0638595,0.0875839,0.0496223,0.00316889,-0.0172074,0.0118604,-0.108943,0.113018,-0.0359222,-0.0504583,0.0625142,0.00199372,0.054778,0.0584651,-0.00557938,0.0207372,0.00656041,-0.00450548,-0.0170059,-0.0773604,0.0381451,0.0927343,0.0631409,-0.0221266,-0.0482155,-0.00601633,-0.0356119,0.00900334,-0.0731098,-0.0912275,-0.00679627,0.0324146,-0.00604733,0.0605939,-0.0590299,0.0218772,0.0219364,-0.0208165,0.00528246,0.0536256,-0.00459393,0.0297275,0.0174842,-0.00340509
0.040068,0.0353077,0.0392794,0.0723532,0.0432416,0.107249,-0.0112464,-0.0136645,-0.0201645,0.0269423,-0.00963776,0.00454702,0.0253042,0.10811,0.00225238,0.0683294,-0.00263427,-0.0987415,0.051341,0.138364,-0.0669963,0.0566817,-0.147313,-0.17156,-0.120532,0.0755228,0.0361832,0.0312226,-0.0121434,0.0542831,0.0164095,0.0467819,0.0933218,0.0493573,-0.0103455,0.0444772,0.0177849,0.0281479,0.0317139,0.0127132,0.00270942,-0.052853,0.000580297,-0.0351515,-0.0434965,0.0128962,-0.0423378,-0.0264258,-0.123434,0.0391997,-0.106586,-0.0329534,-0.0154968,-0.0955882,-0.0111716,0.00578405,-0.0785567,0.0407501,0.00996431,0.0647745
0.00319514,0.0505331,0.0362604,0.0501105,0.130235,0.0432521,0.0311145,-0.0274292,-0.0199858,-0.0263605,-0.0269396,-0.093512,0.00589279,-0.0528473,-0.0126765,-0.00224114,-0.0187052,0.0775226,0.0181446,0.018971,-0.018225,-0.0340134,0.0583894,0.0125733,0.065534,0.0181511,0.0258783,-0.0974204,-0.0314206,0.119618,-0.0856673,-0.064912,0.0206859,0.019076,0.0119505,-0.10762,0.0544589,-0.0878008,-0.0103029,-0.0704487,-0.0706092,0.0192473,-0.0408593,-0.198618,-0.0782758,0.0105119,-0.0173282,0.0892159,0.00415956,-0.0338676,0.15462,0.0407569,0.0546818,-0.0358679,-0.072251,-0.00836166,0.0315983,0.104539,-0.0700778,0.0836504
-0.00979512,-0.021654,0.00863682,0.0417698,-0.00913721,-0.0259201,-0.0631374,0.0683117,-0.0174298,-0.00905093,-0.0433776,0.0373782,0.0547544,0.0396833,0.0361389,-0.0766986,-0.0679232,0.012224,-0.0333382,-0.0712237,0.0259554,-0.0249919,0.095595,-0.079776,0.05437,-0.078059,-0.0667644,-0.0551808,-0.0466175,0.0343104,0.00906819,0.0382517,-0.0475259,-0.0293275,-0.102244,-0.0456992,0.0339112,0.0507909,-0.0201595,-0.0967761,0.0434815,-0.0260502,-0.00249843,-0.00942907,-0.0699891,0.0887112,0.013666,-0.0324848,-0.067255,0.00375624,0.0380767,-0.00462142,-0.0336021,0.0994043,-0.0234367,-0.0365561,0.139169,-0.00421475,-0.0189015,0.0490944
0.0428855,-0.0420876,-0.00786449,-0.00825435,0.0702355,-0.066483,0.00114739,0.0241712,0.0127497,0.0444407,-0.0221967,-0.0262344,0.0410635,-0.0271636,-0.04688,0.0700168,-8.73581e-05,0.0256098,0.002717,0.0373593,0.0214065,0.0277104,0.0245172,-0.0845103,0.027253,-0.0333208,-0.0581582,-0.0460979,-0.0372627,-0.051309,0.0119441,-0.0657118,-0.0992715,0.0129278,0.00278301,0.101488,-0.0180149,0.0550923,-0.0586404,-0.0157159,-0.0275742,0.0455753,0.0600917,-0.0344049,0.0207037,0.0673672,0.0306713,-0.0343981,0.0642531,-0.075064,0.0286911,0.0603508,0.00270282,0.149787,0.0526765,0.0296388,0.0719572,-0.00735115,0.119427,-0.0655767
0.0584242,0.158766,-0.0357879,0.0754134,-0.0172252,0.129923,0.0869896,0.0413094,-0.0303918,-0.0590164,-0.0114766,-0.0680119,0.0751818,0.0122809,0.0362299,0.0112004,0.0993376,-0.00407302,0.0286671,-0.0217678,-0.0427556,-0.0286995,-0.020689,0.0101291,0.00806967,0.101107,-0.0520858,0.0446097,0.00661721,0.0544262,-0.00737713,0.0765788,0.224396,-0.00377561,0.0674581,-0.0786543,0.0541732,0.0741464,0.00565742,0.0520886,0.083853,0.0436714,0.0293069,-0.0184494,0.0370564,-0.0473672,0.0680213,-0.0345067,0.0267373,0.0920378,-0.103039,0.0979869,0.00895008,-0.0113194,0.0528483,-0.00081224,0.0429549,-0.0647495,-0.124286,-0.146789
-0.0741908,-0.0270922,-0.0632438,0.0403685,-0.0652954,0.0534776,0.120932,-0.1061,-0.00440098,-0.0193857,-0.017034,-0.00803939,0.00400464,0.0335327,0.0105253,-0.131999,-0.0225525,-0.0301813,0.0345857,-0.0163394,0.101746,0.0273647,-0.01438,-0.0281647,0.0631496,0.0210243,0.00810978,-0.0556536,0.0157131,-0.0757075,-0.0303336,-0.0137145,0.0420028,0.106881,0.0414107,0.0402426,-0.00127285,0.0179449,-0.00852795,0.0597064,0.0305372,-0.106665,0.0333224,0.0542221,0.0124288,-0.0193512,0.0452053,-0.00525064,0.0429357,-0.0214906,0.136999,-0.0562322,0.00060183,0.0491157,-0.000296771,-0.0412873,0.0208888,-0.0478401,0.0656368,0.0890985
0.0580957,-0.056929,-0.0283973,-0.058794,-0.00214255,0.0616781,0.0377899,-0.0243963,-0.0038262,0.0554539,0.0386428,-0.041183,-0.0325279,0.0466374,0.0481318,-0.0529378,-0.0676269,0.103554,-0.0105323,-0.0500017,-0.00531427,0.0241562,-0.0360594,0.0140316,0.0453041,0.0485995,0.0102421,0.111634,0.0207432,0.0442068,0.0628558,0.0111851,0.0551636,-0.0394973,0.00476606,-0.0118366,0.00117566,-0.0955655,-0.0882708,-0.0338839,0.00220304,-0.0256604,-0.00346077,-0.0687474,0.122056,-0.0951104,-0.0525103,0.0477441,0.0386779,0.0972446,-0.0654393,-0.0609077,-0.01193,-0.0164485,0.0380199,-0.0166756,-0.0239362,0.0237606,0.0504823,-0.138033
-0.0557335,-0.0192945,-0.0618892,0.0877238,0.00625295,0.0694002,-0.0188888,-0.0144925,-0.0113013,0.0856861,-0.0491724,-0.0538046,-0.0379545,0.0258019,-0.00347039,-0.0528427,-0.0943874,0.0207946,-0.0497358,-0.0349581,0.0258352,0.0317322,0.0563535,0.019152,-0.00109951,0.0799624,0.138209,-0.0819215,0.0515175,-0.0046819,-0.076947,0.0457633,-0.0597497,-0.00613721,-0.0455815,-0.0511053,-0.00246888,-0.0267884,-0.0508421,-0.0810679,-0.0153137,0.0349978,-0.007312,0.0700894,0.0284075,0.0977039,-0.071807,0.00755606,0.0481011,0.0682347,0.0263648,-0.0368816,-0.0324602,0.0231748,-0.0554539,0.150212,0.0184101,0.0366942,0.0200805,0.125723
0.00982685,0.0747648,-0.083399,-0.0555072,0.0189398,0.0805553,0.00471958,0.0358903,0.0325746,-0.0858707,-0.0263312,-0.0369691,0.0734522,0.0102856,0.0481997,0.00586227,0.11672,0.0318144,0.0047484,0.0809218,-0.0325955,0.0142142,0.00355177,-0.0422482,0.0272726,0.0293484,0.0094417,0.0126487,-0.0434992,-0.0275453,-0.0953513,0.047113,-0.00993573,0.0858175,-0.0481257,0.0605174,0.0711461,-0.00916305,-0.0187615,0.0240804,-0.00411138,-0.122287,-0.0670877,-0.135899,0.0109267,0.0271679,0.0499789,0.132821,-0.0444822,0.0758667,0.028286,-0.0847726,-0.00570091,-0.0113734,0.0222542,0.0143217,-0.0683659,-0.0148429,0.019221,-0.0159556
-0.0412283,-0.0757168,-0.0271702,-0.00119577,0.0157931,0.0641827,-0.0724375,-0.0233228,-0.0261327,-0.0288029,-0.0370313,-0.0293256,0.0612738,0.106617,-0.0973134,0.164521,-0.0296757,-0.0103174,0.0711293,0.00252514,0.0362305,0.0664244,-0.00615683,0.10909,-0.0740235,0.00642928,-0.0337942,0.0440722,-0.0294008,-0.0805326,0.0562811,0.0491537,0.0427143,0.031912,-0.0873912,0.107434,-0.00850183,-0.0608615,-0.0470971,0.0256992,-0.00233417,0.0777989,-0.00798064,-0.0515519,-0.0633421,0.0249088,0.0685111,-0.0475837,0.117114,0.074889,-0.011126,0.0634395,0.0570806,-0.00282212,0.0252439,-0.0576513,0.0548585,-0.0549554,0.11295,0.00684886
0.0106638,-0.0334165,0.0275889,0.0194754,0.0433453,0.075769,-0.0322308,-0.0331269,0.0757124,0.0374121,-0.0859151,0.0436503,-0.103574,-0.0181418,-0.0461879,-0.0094494,0.0197888,0.0552245,0.0552575,-0.0146065,0.0750553,0.0512245,0.0569002,0.0781665,0.0454317,0.0336533,-0.0345187,-0.0447278,0.0496586,-0.0312197,0.0112993,0.0474663,0.119473,-0.0473969,0.0466381,0.0393141,-0.110746,0.0888407,-0.0803601,-0.0597996,0.0341124,0.141656,0.056348,-0.0074316,0.00290321,0.0598458,0.0953124,0.0262402,-0.0793861,0.0313631,0.0751655,0.0336328,0.072052,0.0776953,0.0350931,0.0201166,0.0319274,0.0530044,-0.0369403,0.0426184
-0.0346204,-0.111937,-0.0792595,0.0217846,0.0180668,-0.00478369,-0.106293,-0.0706675,0.0278501,0.0320813,0.00774447,-0.0061737,0.112568,-0.0319931,0.0551867,-0.0820993,0.0258983,-0.0146084,-0.00985011,-0.00117723,-0.0793896,0.0821769,0.0233442,0.0323949,0.0861115,0.0725749,-0.082881,0.076672,0.0902614,0.0350747,-0.0345674,0.0803636,-0.0625107,0.0246445,-0.0460443,0.0931173,0.0252442,0.0676748,0.0445116,-0.0556944,-0.00776319,0.0183994,-0.0461855,-0.0219072,0.122835,-0.0178631,-0.00178024,0.0223456,0.0215779,-0.031218,-0.0830676,-0.0564964,-0.109329,0.0421196,-0.0155847,0.0310877,0.058996,0.0248716,0.11553,0.0327318
-0.0527855,0.0290474,0.0115487,0.04858,0.0310151,0.0392063,-0.0622541,-0.0781687,-0.140945,0.00551475,-0.0675585,-0.0638835,-0.0532929,0.000602631,0.0911896,-0.0702994,-0.0279056,0.0448116,-0.0534123,0.075031,-0.0351517,-0.000281329,-0.0812751,-0.019856,0.0824544,0.087808,-0.00827789,0.0622843,0.090558,-0.0346482,0.0328139,0.0178444,-0.0336514,0.0357051,0.0132482,-0.0147382,0.0250328,0.0414047,0.0470212,-0.0237784,-0.0191161,-0.00635355,-0.0124915,0.0359099,-0.0294403,-0.0103614,-0.0580574,-0.0202451,-0.0948303,-0.143021,0.0193599,0.0229563,0.0181119,0.0407309,-0.0166903,0.137397,0.0418798,0.0362761,0.0804324,0.00358248

max: 1
min: -0.198618
avg: 0.0052333
