-0.0340956,0.0113431,-0.0241404,0.0947945,-0.0570324,0.135613,0.0598637,-0.0896283,0.0466526,-0.0941596,0.11536,0.0502586,-0.0801682,0.115764,0.0372316,0.0367147,0.0347957,0.0572782,0.0974602,0.0604092,0.0227943,0.0104168,0.0871609,-0.00984532,-0.0375817,0.103724,0.044311,0.0315642,-0.0161657,0.0307802,0.0510817,0.120682,-0.0220548,0.00171442,0.000163798,0.00833801,0.0729802,0.112654,0.0234872,0.0950841,-0.0278603,0.0265272,-0.0199264,0.0659863,0.0501904,0.0170567,-0.0456294,-0.0684649,-0.0725214,-0.00904855,0.0319217,0.0173835,0.0883673,0.0387153,-0.0470815,0.0525738,-0.0272507,0.0251908,-0.024956,-0.0168182
-0.0032888,0.0210663,-0.0294337,0.0800415,0.0532241,0.0132905,-0.033151,0.11753,-0.06961,-0.0113307,0.0528752,0.00677927,-0.129983,-0.157414,-0.0535218,-0.13452,-0.0389996,-0.126218,-0.000884483,-0.00246461,-0.0726968,0.0108194,0.0379035,0.0468933,-0.0595447,0.0679433,0.0334051,-0.159701,-0.0220162,0.0177583,0.0152414,0.0286168,-0.0999423,-0.0367885,-0.0714854,0.0218945,-0.0979254,0.0474831,-0.130961,0.00407387,0.0673236,0.0469515,0.0813921,-0.00714991,-0.058641,0.0333596,-0.00659252,-0.112979,-0.0157327,0.0614858,-0.00470202,0.0454515,-0.139063,0.0409462,0.0422413,0.0148356,0.0307226,-0.00529592,-0.0252239,0.0467629
-0.0325318,0.047603,0.0180813,-0.0257165,0.0795716,-0.0391908,0.0323055,-0.0223881,0.0306386,-0.0280967,-0.0620184,-0.0248586,-0.0300494,0.0570543,-0.00668649,0.0495226,-0.0663633,0.0391307,-0.0212743,-0.00920905,0.0868842,0.0408686,0.0365472,-0.035949,0.151866,0.0014368,-0.0464332,0.00180578,0.059615,0.0130915,-0.073018,-0.0516097,-0.0256516,0.00627481,0.0141016,-0.0171437,0.0318567,-0.0618269,-0.0104815,0.1454,-0.000711168,-0.00965297,0.0331498,0.0634311,-0.0770265,0.0437473,-0.0397658,0.0238887,-0.0159356,-0.0779077,-0.0252606,0.0445131,-0.0811678,-0.0288582,0.0655231,-0.0240702,-0.0181535,-0.0687931,-0.0434665,-0.0792852
-0.052104,0.0127131,0.0627692,-0.0549379,0.0578749,-0.0153314,0.059299,-0.0789455,-0.105033,0.0838325,-0.0153477,0.102896,-0.102283,-0.0685345,0.0667771,-0.0600042,-0.0498396,-0.0591226,-0.101959,-0.00126997,0.0161821,0.0358404,-0.019134,-0.0945226,0.0677224,-0.0943579,0.0381655,-0.0730163,0.0389103,-0.0869487,0.0494285,-0.0369334,0.000161423,-0.0456641,0.0453017,0.128181,-0.0379771,-0.030552,0.0212863,-0.0232607,-0.0436581,0.153285,-0.0649856,0.0289539,0.00141787,0.0634919,-0.0324275,-0.0153302,0.0179071,-0.106212,0.0738957,-0.0817841,0.0100769,-0.0329931,-0.0439541,-0.0556757,-0.0584489,0.0735002,-0.0271518,-0.0585634
0.0344711,-0.006627,0.100735,-0.0877347,0.00178014,-0.124512,-0.0574243,-0.0606137,0.0559122,0.0258566,-0.0954376,0.00868779,-0.0702209,-0.00887191,-0.0460463,0.126189,-0.009469,0.0381996,-0.117818,0.0620289,-0.00421266,0.0641685,-0.0759714,-0.0379033,0.051967,0.144621,0.0281791,0.0398741,-0.0621009,-0.0756588,0.0356755,0.0232703,0.15849,0.0865149,-0.009849,0.0315473,-0.00489948,-0.0136474,-0.069807,-0.0739693,-0.0406985,-0.119546,-0.0273497,0.00110165,0.0210548,0.0774561,0.0288132,-0.0421529,0.0158804,-0.00147254,-0.00254424,-0.05198,-0.0329045,0.0169898,0.147049,-0.0675812,-0.0285985,0.022583,-0.00506408,-0.072636
-0.0105656,0.0217854,0.0365277,-0.0253157,0.0115535,-0.0534666,0.0198679,0.0445989,0.0679353,-0.00427646,0.0679558,-0.0335561,-0.00946032,-0.00757711,0.0102752,0.0865304,-0.0244762,0.0089242,0.00399437,0.0413694,-0.0482184,-0.126078,0.00432039,0.0443404,0.0578141,-0.0446168,-0.0983812,0.017512,-0.0295455,-0.122553,-0.0499803,-0.0561514,-0.0536696,-0.0631399,0.0277451,0.0339455,-0.0869636,-0.070816,0.0316984,0.103795,0.00280891,-0.00896828,-0.00462189,0.0628625,0.0925483,0.00569068,-0.0854426,0.141502,0.13408,-0.00582315,0.123212,0.0842751,0.0284595,-0.0247549,0.0326439,-0.0773276,-0.0533831,-0.0294614,-0.00828707,-0.0917826
0.0285429,-0.0273429,0.0963517,-0.00425902,-0.00740702,0.0895704,0.0348057,-0.0240089,0.00469465,0.0488759,0.0236556,0.0904906,-0.00663113,-0.0480015,-0.0554543,0.0782545,0.0298382,-0.0888716,0.0717866,-0.0369192,0.153828,0.0382114,0.00855562,-0.0203112,-0.029995,0.0132678,0.0300031,0.0456639,-0.0349734,0.0559757,0.0319042,0.101907,-0.0540995,0.0229021,0.0312927,0.0270392,0.030255,-0.0062215,0.0747136,0.00681757,-0.00928044,0.053555,-0.0398426,-0.105471,0.0731622,-0.0673532,-0.0195913,0.019081,0.0953686,0.0278971,-0.0253957,0.156552,-0.0129407,0.0193648,-0.019284,-0.0216724,0.00317998,0.012022,-0.00979263,-0.0333133
0.0321651,0.00371242,-0.0594076,0.0108818,0.0718078,0.0193854,-0.00395273,-0.040746,-0.0283354,0.0230411,-0.0480035,0.0444674,-0.0190608,0.0259776,0.0122864,0.0134545,-0.0546824,-0.0243578,-0.0746272,0.0336169,-0.10304,-0.0230713,0.0706251,0.0087727,-0.0663024,-0.0630922,-0.0130155,0.0497914,0.000310576,0.0343986,-0.104318,-0.062943,-0.035264,-0.0587753,-0.0166667,-0.0825148,0.0887762,-0.0077126,-0.0538746,0.0403709,-0.0506,-0.100179,0.0457472,-0.00669565,0.122827,-0.0152938,0.116713,0.0269982,0.0832023,-0.142596,0.0134491,0.00753336,-0.0192116,0.112322,0.102225,-0.132466,0.0038492,0.149956,-0.0771075,-0.0358739
0.0725257,-0.0160032,-0.0410061,0.0184791,0.0139177,0.0266249,0.106351,-0.0358484,0.189043,0.0661007,-0.0555703,0.0683058,0.00530245,0.0439814,-0.0344129,0.0290037,0.01282,-0.0401655,-0.0609765,0.0209052,0.00013132,-0.0514501,0.018237,0.142303,-0.0561539,0.0154856,0.026554,-0.0219796,-0.000841275,0.0440167,-0.121446,-0.00110253,-0.0389027,-0.0541695,0.0374789,0.0542894,0.134894,-0.0290781,-0.0416663,0.0285428,0.0826502,-0.0510211,0.0700601,0.0403647,-0.0172762,0.0426287,0.0373216,0.105717,0.0873372,-0.0295124,-0.0520863,0.0175334,-0.0202114,0.0441784,0.0072036,-0.0375947,-0.0637175,-0.0410525,-0.0286796,-0.0527153
-0.0271492,-0.0467281,0.047131,0.0201089,0.00849124,-0.0749977,0.0165936,-0.068479,0.0392859,-0.0471157,-0.00861703,0.0390027,-0.104183,-0.106289,-0.010346,-0.0257483,-0.0502544,0.0252843,-0.109748,-0.0668562,-0.034001,0.042508,0.0382702,0.00419684,0.0146268,0.0343967,0.0303066,-0.0231964,0.0584217,0.0238192,0.0477844,0.0421391,-0.00435481,0.202183,0.0628214,-0.0500353,-0.0687125,0.0620066,0.0173665,-0.0465738,0.07317,-0.0370411,0.0429446,0.0382281,-0.0425656,0.0140333,0.0224914,-0.0308068,0.0474422,0.00992394,0.0756177,0.0294098,-0.0508007,0.0318843,0.0271183,0.0722467,0.0484079,0.0906173,0.0124116,0.0418119
0.0280019,0.203538,0.0349674,0.0285322,0.07408,-0.00506734,-0.0264008,0.0113462,0.0612868,-0.0660264,0.120333,-0.0110332,-0.039723,0.0408352,-0.0562346,0.0245495,-0.0219494,0.0239215,0.00307046,0.0399332,-0.0880033,-0.0749536,-0.0456714,0.0277324,0.0851982,-0.0807032,-0.0673346,-0.0579257,0.00746305,0.0204711,0.0437246,0.140911,-0.0250744,0.063301,0.0630517,0.0144353,-0.0304991,0.0448203,-0.0201455,-0.00823426,-0.0522417,-0.0333869,-0.0483029,-0.041219,-0.046287,-0.0373183,0.0247348,-0.000980942,0.0956908,0.0465574,-0.0201496,-0.0464249,-0.0536234,0.0614025,0.0630013,-0.0828441,-0.0970552,-0.0371574,0.0845812,0.0713175
-0.0893962,-0.0349394,0.0337837,-0.118486,-0.110655,-0.0356634,-0.0410742,-0.00446182,-0.00109114,0.0269951,0.00824382,0.153664,0.0718493,0.0381341,-0.109033,0.1088,-0.0115292,0.00749432,0.0239828,0.00261079,-0.0657656,0.0332725,-0.0567297,-0.10629,-0.00945542,0.00827477,0.0248367,-0.00786123,0.210968,0.0238531,0.0137294,-0.0742708,-0.085451,-0.0396032,-0.0246992,0.113106,0.0148461,0.131257,0.0954178,-0.0739753,0.0329699,-0.107892,0.0665984,0.093581,-0.0539298,0.00869112,-0.0705276,-0.0641063,0.106693,-0.0211619,-0.0445886,-0.0167955,-0.00124473,0.0116686,-0.0132997,-0.00214567,0.0372939,-0.0535583,-0.0896555,0.0659954
0.0164678,0.00175097,-0.0913723,0.0878539,0.00920341,0.033248,-0.0492664,0.0360437,0.0042336,0.00909002,-0.073828,-0.0422795,-0.0696091,-0.0363388,-0.00929704,0.0602041,-0.0161116,0.0250904,-0.0764018,0.0216417,0.0215116,-0.00608438,0.0518286,-0.0544463,-0.0432107,0.0265638,-0.0276003,0.00420662,0.0291523,0.0479968,-0.0685285,-0.0765842,-0.0160032,-0.0683437,-0.0190303,0.00706145,0.0460898,0.00194617,-0.00755504,-0.0301304,0.0552075,-0.0210405,0.0405925,-0.0798562,0.064294,-0.0251834,-0.0810749,0.0230612,0.0790946,0.0110541,-0.0490297,-0.0262003,-0.0388719,-0.0599797,0.0113615,0.0682752,0.122891,0.0938484,-0.0270866,0.0679661
0.0491151,-0.0138642,0.0724406,-0.00961539,-0.0850897,0.0744377,-0.021965,0.0127817,0.0744698,0.0889346,-0.074419,0.0910469,-0.0492733,0.00893939,0.0517611,-0.0413515,-0.0727363,0.0841308,0.00167961,-0.0440569,-0.0684222,-0.0888352,-0.00290016,-0.00290202,-0.0522162,-0.139612,-0.030222,0.132945,-0.042403,-0.0199017,0.126594,-0.0339002,-0.0256804,0.00769498,0.0556117,0.0193705,-0.00400747,0.0385833,-0.0264588,0.0221431,-0.0503192,0.00537618,0.0428556,-0.078802,-0.0349342,-0.0610216,-0.0477432,0.0624763,-0.0960762,-0.000974921,0.0298271,0.00257928,-0.0359332,0.0317827,-0.0446992,-0.00345757,-0.0212523,0.0205422,-0.0471167,-0.0442232
0.0227466,0.0818643,0.0409622,0.0681548,-0.0430061,-0.0377425,0.016714,-0.0104018,-0.0925583,-0.123424,-0.0614634,0.0779843,-0.017098,-0.0478145,0.0416864,0.130085,-0.0032949,-0.00079858,0.0280346,0.111783,-0.0591197,-0.00859255,0.0200019,0.0899197,-0.0654098,0.0120954,-0.0932091,-0.0246865,-0.00490087,-0.101062,0.0526245,0.000601269,0.0279386,-0.0650902,0.0958164,0.105863,-0.0417384,-0.0495092,0.0772707,0.0431141,0.00308618,0.0529254,0.0607191,0.0414371,0.0413806,-0.0431964,0.0917251,0.026586,0.0579846,0.0946917,0.0715459,-0.0307451,0.035653,0.0455121,0.10311,-0.0324003,-0.0193931,-0.019756,0.0508511,-0.0544474
0.0461554,-0.0752456,-0.080798,0.109463,0.101196,-0.00269413,-0.0207718,0.00909953,-0.0573428,0.0540933,0.016438,0.0339381,-0.035627,-0.0210455,-0.0561196,0.0690778,0.047579,0.0231965,-0.0406594,-0.0889687,-0.0360945,-0.0637362,-0.0863933,-0.0168646,0.121044,-0.00391618,0.0752391,0.07226,0.0542474,0.0161263,-0.0689426,-0.0339236,0.00637861,0.0219749,0.0437887,-0.0445646,0.0966619,-0.00313106,-0.0328221,0.00990982,0.0288589,-0.0289688,0.0523075,-0.000381655,-0.0521816,0.0226982,-0.010513,-0.016158,0.0359618,0.0107928,-0.012272,-0.067686,-0.0782168,0.101986,0.0651072,0.0749265,0.0166177,0.0514493,0.00205143,-0.0444705
-0.0209064,0.0168325,-0.144337,-0.0251396,0.026192,-0.0104771,-0.0311232,0.0226497,-0.0420409,-0.034888,-0.0386916,0.0573227,0.00464581,-0.0547674,-0.0597002,0.0462996,0.0351284,-0.0550385,0.00986682,0.0186352,-0.0454199,0.00795847,-0.047767,-0.0257906,-0.0129106,-0.0927883,0.0755482,-0.0693432,-0.0272191,-0.0182416,-0.0381199,-0.00832707,-0.0456592,-0.0623686,0.0949706,-0.0474139,-0.0578492,0.0221879,0.0581063,0.0171689,0.0531499,-0.00807478,0.0266124,0.0228414,0.0134118,0.0721952,-0.0626052,0.0653112,0.0461129,-0.0273845,-0.031864,-0.0139112,-0.0172016,0.0592878,0.0893314,0.0174669,0.0612127,0.0811005,0.0106445,0.0834559
0.0714096,0.128948,-0.0079795,-0.00883565,-0.0516598,-0.0888313,-0.0555359,-0.00726825,0.10711,-0.0717451,-0.0101357,-0.0674021,-0.0771675,0.0126661,0.0243103,-0.0428584,-0.0834879,0.0203607,0.0013094,-0.0490573,-0.0465985,0.0147158,-0.0413831,-0.0894682,0.0576526,-0.0638514,0.0286014,-0.0509784,0.0244186,-0.036276,-0.0715228,-0.0279292,-0.0171331,0.0164761,0.00632411,0.0346782,-0.0372168,0.016993,0.0771909,0.0375369,0.010894,0.164383,-0.0165703,0.0801862,0.0122691,0.051564,-0.0449179,0.0760433,-0.0326179,0.0394677,0.0354182,0.00105426,0.0316706,-0.0511036,-0.0736136,0.0631227,-0.0496446,0.00772374,0.0200998,0.0367018
0.0629773,-0.020168,0.0352947,0.0603841,-0.0328495,0.0694796,-0.018769,0.0504614,-0.103235,-0.053802,-0.0518945,0.0503825,-0.0617861,0.0130055,0.00447436,0.0477637,-0.105035,0.0659409,0.0482532,-0.0412248,-0.171503,0.0872381,0.0205832,-0.0309922,-0.0256507,-0.0413143,-0.0940418,-0.0127791,0.0233575,0.0156271,0.0198809,0.12067,-0.0260033,0.0239617,-0.0368774,-0.0158513,-0.0305183,-0.0156122,0.0569103,0.0635279,0.0482067,-0.0592218,0.11808,-0.219532,0.0356484,0.0525567,-0.051054,-0.0384122,-0.0811446,-0.0682788,0.0312023,0.00570784,-0.0593072,-0.0297268,0.0422975,-0.0441919,0.0845014,0.0341692,-0.0278984,-0.0879647
0.0930083,-0.0744073,0.0527817,-0.0210902,0.0013427,-0.0350628,-0.0215985,0.0863617,0.0220898,-0.0449769,0.0371833,-0.0120319,-0.0252541,0.0847818,-0.0813999,0.000969242,0.0187238,0.0138814,-0.0413188,-0.0989798,0.00140318,0.00540441,-0.017987,-0.0321082,-0.0349298,0.0444705,-0.0690171,0.10269,0.0118235,0.0230507,-0.0634903,0.0999386,-0.0171206,0.0366704,-0.0359617,0.048939,-0.0117722,0.0647274,-0.0157739,-0.0780097,0.0765607,0.110283,0.0110673,0.140899,0.0446635,-0.0834592,-0.0502959,-0.00152668,0.00278433,-0.0132062,0.0719991,0.0312002,0.00598636,-0.00790851,0.0519855,0.0109369,0.0461192,-0.0185333,0.0132349,0.0120686
-0.0481611,-0.0227981,0.0323801,-0.0545958,-0.0158174,-0.0404526,-0.0432668,0.0341251,0.132865,-0.00209651,0.0335738,-0.128557,0.00786038,0.0881545,-0.00918777,-0.0289141,-0.0256822,0.0470396,0.0567752,-0.0373708,-0.0728539,0.0646867,-0.046081,0.0769214,-0.00632413,-0.051575,0.0813272,0.020026,-0.0671569,0.0529524,0.0251026,0.0761424,-0.0175448,0.0458738,-0.000141998,-0.0549033,0.0585111,-0.0303852,-0.0845231,-0.102379,0.00474216,-0.0451971,-0.0535885,0.0067844,0.00374032,-0.00471171,-0.0288046,-0.0720238,0.00833131,-0.0223796,-0.0636534,-0.0218308,0.00649537,0.053939,0.00983654,0.0840044,0.027622,0.0224175,0.0119646,-0.0304697
0.0521207,0.0227491,-0.017578,-0.0409478,-0.0354765,-0.0429237,-0.0274419,-0.0591899,0.0233626,-0.0257455,0.0343946,0.0847062,0.0511426,0.0799588,-0.0100181,-0.132666,-0.0264843,0.0683409,-0.0305059,-0.102895,-0.0153862,0.00714504,-0.0602854,-0.0010209,-0.0577938,0.00725394,0.0810549,0.0470624,0.0793335,0.00976779,0.00675688,0.0651085,0.0426163,0.0256166,0.0552993,0.0538376,-0.0935105,0.0923353,-0.000359514,0.0141614,-0.000738949,0.0185289,0.0268356,0.0447512,0.0883294,0.0942208,-0.0870924,0.0057101,-0.0721819,0.000533067,0.129364,-0.0249705,0.0497867,0.138492,-0.0431826,-0.038715,0.0665673,-0.00846669,-0.0274932,-0.0253197
-0.0417624,-0.0060094,0.00730574,0.0528798,-0.00907124,0.0699204,-0.0364763,-0.0848742,-0.038022,-0.0489245,-0.0552405,0.00902608,0.00448829,-0.0349837,-0.0549628,-0.0524338,-0.0435136,-0.0393566,-0.00507151,0.0312119,-0.042679,-0.0607795,0.0745969,0.0817772,-0.0357101,0.0155102,0.0102256,-0.189166,-0.00246977,-0.020236,-0.033873,-0.056907,-0.049785,-0.0250628,-0.0691187,0.0480054,0.154151,0.0961678,-0.0626469,-0.103631,-0.0289684,0.0155005,-0.0131893,0.0195541,0.00925043,-0.0487753,-0.0427235,-0.0160895,0.0419943,-0.0279688,0.0355636,-0.0314951,0.0363022,-0.0431495,-0.0110825,0.00352186,0.0278223,-0.0338011,-0.0843189,0.102051
-0.0491347,0.00310921,-0.0587988,-0.0628164,0.0940212,-0.0844665,0.0398754,0.0389802,-0.00774617,0.0461316,-0.0534886,-0.00741376,0.0264088,-0.0298683,0.0125136,0.0750975,0.0346281,0.0345513,0.0728336,-0.019405,0.0107961,0.0475777,-0.0161131,-0.0999574,-0.106583,-0.107695,0.0279442,-0.0274129,0.0915614,0.0509076,0.0701709,-0.0251064,-0.022747,-0.0225951,-0.0345185,-0.00225372,-0.0343258,0.189066,-0.0334108,0.014914,-0.00858892,0.0824952,0.042049,-0.0171097,0.0789116,0.069118,-0.0187325,0.0600286,-0.0323541,0.0688114,0.0280609,-0.00251741,0.0331175,0.0751588,0.0379349,-0.0570834,-0.0224128,0.0833819,0.0935831,-0.0140305
0.0156763,-0.061053,-0.0080818,0.0243976,0.0408516,-0.07149,-0.00344487,0.0855408,-0.0384269,-0.0943926,-0.0979968,-0.0596984,-0.0111022,-0.154871,0.0552844,-0.074732,-0.0245236,-0.0818368,0.000368933,-0.111537,0.0398798,0.0325162,0.0250681,0.070698,0.0865175,0.0349568,0.0149407,0.0272723,-0.0318137,-0.0689133,0.0553574,-0.0822625,-0.050775,-0.0776604,-0.124196,-0.0457292,-0.0277581,0.00184337,-0.015038,-0.0420041,0.00456264,-0.0340766,-0.0545802,0.0189678,-0.0673597,-0.0375425,0.0364442,0.0892177,0.0784001,-0.100642,-0.0491581,0.0187096,0.0730302,-0.0817962,-0.059364,0.0441572,-0.0181101,0.0190334,0.067547,0.0067136
-0.0340373,-0.094273,-0.0083461,-0.01086,-0.0124315,-0.00829411,-0.0296644,0.0290979,-0.0172254,0.0180441,0.0686821,-0.010108,0.0112363,0.0336723,-0.016126,0.0555255,0.0602847,0.0235122,0.00407203,-0.0399327,0.0112446,-0.0613956,-0.0204899,-0.0408796,-0.0387532,0.0470054,0.0944026,-0.0623923,0.0305227,0.00364863,0.0443434,-0.0196168,-0.0235623,-0.0911811,-0.070886,-0.0446021,-0.0299245,-0.0508294,0.0883356,-0.0171685,0.116896,-0.0516455,0.0783503,0.0467475,0.0309436,0.0747452,-0.0171759,0.084173,-0.0729096,-0.0225099,0.0642311,0.0678105,-0.118397,0.0190651,0.0485164,-0.0652497,-0.0165649,-0.0339085,-0.0575498,0.0309643
-0.0272649,0.0299517,0.0957157,0.0512922,0.000465191,-0.0834629,-0.0287462,0.0471043,-0.0425532,0.0161981,0.0928355,-0.0267027,-0.0361298,0.08447,0.077069,-0.118421,-0.0826044,-0.0830108,-0.00181312,-0.0889357,0.0580738,-0.0733247,-2.93463e-05,0.0187071,-0.041501,0.057567,-0.135014,0.0456623,-0.00734003,-0.0570009,-0.035294,0.0519439,-0.0621491,-0.045647,0.0669692,-0.0438096,-0.0744107,0.00716525,0.0100831,0.000869847,-0.00221915,0.00238971,0.0886057,-0.0769546,0.0151006,0.044855,-0.0328768,0.0431975,-0.0608237,-0.0245989,0.0390808,-0.021352,-0.0121881,0.0183531,-0.0612897,-0.0328323,-0.0864728,-0.121557,0.00866537,-0.0346715
-0.104909,0.0263459,-0.0734903,-0.0118237,0.054389,-0.022084,0.104082,-0.0365651,0.0541824,0.111654,-0.0203568,0.0204181,-0.024673,0.0135258,-0.0900731,0.0218537,0.0363734,0.0349545,0.0386687,-0.101432,-0.0556778,-0.0401733,0.0307419,0.114264,-0.00275669,-0.105018,0.0719552,0.0213872,0.0555821,-0.0327133,-0.0818101,-0.0755463,-0.129641,-0.00247202,0.0540157,0.0824721,-0.0662963,0.0500309,0.0447114,0.0437655,0.00978804,0.0617617,0.0544904,-0.00218648,0.0709176,0.0800531,0.0316222,-0.011941,-0.0202709,-0.0208915,-0.00481263,-0.00239979,0.109937,-0.0414344,0.0237871,-0.0286362,0.0838618,-0.000320403,0.0616153,-0.0459195
0.0380324,-0.0542762,-0.0528572,0.0812938,-0.000793811,0.0473881,0.0125542,0.0215532,-0.00165,0.0554089,0.0163358,0.000299947,-0.0416184,0.0735572,0.100724,0.00823416,0.0619834,-0.00720172,0.00102181,0.0339045,0.0475009,-0.0342569,0.068065,0.104173,0.0600453,-0.104742,-0.00142392,0.121593,-0.0283933,0.0362595,0.0697741,-0.0495896,-0.0813042,0.0519433,-0.0764935,-0.0121557,0.114593,0.0434794,0.0281047,-0.0968462,-0.0036933,-0.00753969,-0.0102295,-0.0446922,-0.0164209,0.00207512,0.0327299,-0.00336477,-0.0139235,0.00293199,0.0141486,0.0696912,0.0640593,0.0301632,0.052204,0.0075189,0.0266793,-0.0333031,0.044877,-0.000860401
-0.0409212,0.00859197,-0.00505971,0.0393458,-0.0257811,0.0229915,0.122379,0.0407453,0.005694,-0.00861354,-0.120172,0.0617087,0.0150313,0.0703415,0.00534838,0.0864475,-0.0467536,0.00833602,0.099904,0.0773857,-0.0342033,0.0123945,0.0116607,-0.0204873,-0.100587,0.0200218,0.00666597,0.0202255,0.0112532,0.0410115,0.00029829,0.0753284,-0.0167694,0.0117574,-0.0832674,-0.0165703,-0.0305543,-0.018611,-0.0249974,-0.0180765,0.0275772,0.00118056,0.0385803,0.0397433,-0.00467794,0.0133039,-0.106942,-0.0891417,0.087965,-0.144402,-0.0600071,0.0115646,-0.0154172,-0.0568786,0.0400794,0.0048457,0.011696,0.0337535,-0.0185551,-0.0176413
0.00888293,0.0936286,-0.0835701,0.106906,-0.00560924,0.0777801,0.0191986,0.0624835,0.0882925,-0.00180809,0.0863198,0.0324321,-0.0490141,0.0478428,0.0526761,0.0796214,-0.0273982,-0.0498154,0.044444,0.0433377,-0.0204807,0.0528972,-0.00670847,0.0185681,0.029502,-0.0771786,0.0972171,-0.022798,0.0435229,0.0552152,1,-0.0325518,0.0365193,-0.054825,0.0333255,0.119793,-0.0328561,0.0479915,-0.10251,-0.00419151,-0.0705891,-0.048339,0.00996604,0.0367019,0.0105759,0.0254284,-0.0422802,-0.086864,0.0189865,-0.119317,0.0533408,-0.0282351,-0.0976768,-0.0435208,0.180182,-0.0489741,0.0993413,-0.0154139,0.0851559,-0.0519121
-0.0418213,0.0535716,0.0629992,0.00787723,-0.112939,-0.0472623,-0.0974638,-0.0196203,0.0337367,-0.0298167,-0.0537914,-0.0321725,0.119637,0.0368762,-0.058859,0.000114383,0.00301517,-0.00684553,0.0687871,-0.0975299,-0.0221936,0.0177579,-0.00474697,-0.00942656,-0.0137116,0.104564,-0.130183,-0.0135932,0.110116,0.0163411,-0.0293035,-0.0106518,0.0794851,-0.00923461,0.0537317,-0.0306754,0.00714483,0.000635267,-0.0829343,0.0615176,-0.0379609,0.0968085,-0.0714917,0.00788876,-0.00616652,0.0800222,-0.0526867,0.0239887,0.0332404,-0.0492275,-0.0587038,-0.0866357,0.0176625,0.0480565,0.0117173,-0.0382827,-0.117346,-0.0693538,-0.00868043,0.062363
-0.0137157,-0.00843892,0.00686548,-0.0822473,0.0455862,0.0240213,-0.140226,0.000834364,-0.0744399,0.0146111,-0.0295587,0.0385243,0.0527075,-0.015854,-0.127208,0.0214964,0.00760883,0.0279297,0.00877633,0.0222545,-0.051486,-0.00223334,0.0166142,-0.0252689,0.0715357,0.0274205,0.0885514,0.0949972,0.0693881,0.0382141,0.031573,0.0749695,-0.0457246,0.00507005,0.00525901,0.0101994,0.0932517,-0.126292,-0.0289703,-0.0279187,-0.00938408,0.0246455,0.0390667,0.0811119,-0.0116466,0.0372205,0.0410192,-0.128827,-0.00815533,-0.0822842,-0.0685769,0.147484,0.147046,0.0818345,-0.00673201,0.00701846,-0.0206855,-0.0685097,-0.0892904,0.0434162
-0.012683,-0.00869663,-0.0144792,0.00106078,0.0109645,-0.0902839,0.0270915,-0.0445965,0.0625635,-0.0410967,0.00320164,-0.0744094,0.0161833,-0.145432,-0.145372,-0.000504745,0.080241,0.0325392,0.0444644,-0.0928675,-0.0978232,0.00683847,0.00293383,-0.0968903,0.103893,-0.101684,-0.0261546,-0.0156204,-0.00699203,0.00873952,-0.0123524,0.0196004,-0.0450362,-0.0827563,-0.0567295,-0.0167872,0.0203856,-0.0494368,0.128115,-0.00774851,-0.0324864,-0.102309,0.00930808,-0.0428524,-0.0241875,0.00989061,0.0218822,0.0979252,-0.0961078,-0.0503,0.0367141,0.000946678,-0.0274207,-0.0254063,-0.032569,0.126241,0.101461,0.0290489,-0.00863826,0.0407315
-0.0368566,-0.0330394,-0.0055228,-0.010047,-0.0239716,-0.0395747,-0.056321,-0.0215917,-0.0559,0.0183178,-0.0498237,0.00836153,-0.0607036,-0.0215061,0.0786229,-0.0552682,0.0023588,-0.129172,-0.0834591,-0.0964546,-0.0540592,-0.0397522,-0.0295084,-0.139795,0.0634012,-0.0829524,0.0774912,-0.0619412,0.0594762,-0.0503914,-0.0911404,-0.0648644,-0.0389391,0.0360349,0.047565,0.0746499,-0.0172259,-0.0167004,0.083623,0.153392,0.0114577,0.0573136,-0.0569554,-0.070183,-0.018664,0.0072944,-0.00210487,0.00715388,0.00699209,0.0397885,0.122849,-0.0162049,-0.0337206,0.0943666,0.0266589,0.0505389,-0.0197836,0.0327533,-0.00878784,0.0531041
-0.0421364,0.0668385,-0.0177952,0.0435749,-0.0119623,0.0376406,-0.013018,0.10862,-0.00776971,0.0626865,-0.0826769,0.0125687,-0.0761336,-0.0228657,-0.0184277,-0.0610544,-0.0781012,-0.0981979,0.0387828,-0.0508592,0.128131,-0.0253506,-0.0111711,-0.00430339,0.0739906,-0.158533,0.178066,-0.0246188,0.0502833,0.0768105,0.0224146,-0.00213281,0.0451851,-0.033676,0.015326,-0.132331,0.0098557,-0.0167668,-0.00895751,0.0418209,0.0015025,-0.0194366,0.023241,0.0924299,0.110614,-0.0113478,0.00190092,-0.0336277,-0.00409011,0.0161294,-0.101968,-0.0277102,-0.0300963,0.0359438,0.0381041,0.00625738,0.0522191,0.00819977,-0.0298325,0.00103726
0.0362333,-0.0136472,-0.0836657,0.063714,0.0534829,-0.0769601,0.062623,0.0704042,0.0123527,-0.0159337,0.0312643,-0.0362611,0.0374748,0.0622076,0.0344451,-0.0389416,-0.0352951,-0.075547,-0.0176293,-0.0776594,-0.013693,0.00242225,0.0593986,-0.0315356,-0.0327929,-0.0785034,0.0431613,-0.035039,-0.0224447,0.032927,-0.0013884,-0.0639892,-0.0221882,-0.14984,0.122486,0.0153735,-0.047659,-0.0715016,0.0273534,-0.101998,0.0115124,-0.0391642,-0.0873126,-0.061677,-0.00212289,0.084199,0.00553576,0.0145943,-0.0240257,-0.0286017,0.0214479,0.0128489,-0.0101937,0.0718701,0.0203366,0.00414876,0.0326521,-0.0629016,0.0993561,0.0613941
0.0224317,0.00909006,0.0236279,0.027576,0.128465,0.077954,-0.0243045,-0.137281,0.0535224,0.013675,-0.107754,-0.000813128,0.0197636,0.123994,-0.00405024,0.00646466,0.0222078,-0.024161,0.0747756,-0.0111093,-0.159112,-0.0717163,-0.0261152,0.0631471,-0.0171359,0.0200465,-0.00626034,0.0084554,-0.0447266,0.0997933,-0.0352391,0.0287636,0.0358633,-0.0900932,0.0154943,0.0151587,0.0300767,0.0707326,0.0241841,-0.025003,0.0267288,0.00901674,0.00132265,-0.118415,0.0987713,0.0339522,-0.07908,0.0827719,-0.0818581,-0.0500612,-0.0888667,-0.040625,-0.00457017,0.0700884,0.00863196,-0.0130281,-0.0531393,0.00237124,-0.0190492,0.00289213
-0.0304506,-0.0217784,-0.0434577,0.01452,0.063151,0.0973986,0.0879516,0.0454736,0.0884382,0.00389741,0.0565099,0.0145704,-0.0336684,-0.0116047,0.135204,0.0761918,0.0325757,0.011936,-0.0340384,-0.0418564,-0.0413671,-0.0347321,-0.00089846,-0.0682766,-0.0233455,0.00842577,0.0441461,0.0722958,0.065401,-0.0526508,-0.0718153,0.0351326,-0.0119433,0.0399258,0.0398913,0.0205831,0.0630488,0.046105,-0.0294672,0.0339843,0.0207177,-0.0616721,0.106948,-0.0757811,0.0486538,0.115732,0.0350743,0.0460165,0.0200356,0.0165688,0.0538475,-0.0328822,0.0368867,-0.0536836,0.0607578,-0.0559176,0.00687691,-0.0152453,0.0519627,0.0168589
-0.039571,-0.0127061,-0.0943027,-0.0713627,0.0805426,-0.00540912,-0.0134485,0.0710573,-0.0904418,-0.0341872,0.029131,-0.127301,-0.0117565,0.0648185,-0.00613424,0.0218676,-0.0747525,0.0280164,0.0742745,0.0740042,0.00582563,0.0576709,0.0843371,-0.0468173,0.0496937,-0.0280753,-0.0245912,-0.022354,-0.0371987,-0.0243723,0.0705322,0.000115607,0.021148,-0.0499698,-0.0853967,-0.0202634,-0.0368235,0.0732052,-0.00617626,-0.0547078,-0.0315612,0.0370047,0.069298,-0.00638848,0.00987379,-0.0517057,-0.054642,-0.0410289,0.0860874,0.0311928,-0.102987,-0.00477254,0.0766623,-0.0454046,-0.00712492,0.0630129,0.0647711,-0.0372097,0.118048,0.000474915
0.0490791,0.0449097,-0.0722723,0.0791365,0.060103,-0.0123883,0.013887,-0.0961975,0.0315826,0.0045217,0.0388162,0.173284,-0.0399752,0.0528362,-0.0672038,-0.12714,0.0213117,-0.013287,0.0153662,-0.0237622,-0.0594864,-0.0732533,-0.0143885,0.0238853,-0.135655,-0.102169,-0.0818327,0.104824,-0.000201713,-0.0207657,0.014102,0.0484739,0.0346044,-0.0204349,-0.0267526,-0.0687349,-0.0211385,-0.129794,-0.0271013,-0.00529786,0.007473,0.0208972,-0.0537464,0.0157226,0.00464446,-0.0842298,-0.0996266,-0.0385757,0.00676193,-0.0052452,0.0368599,0.0484626,-0.0092766,-0.0372272,-0.0397247,0.0435591,0.0691269,-0.0408929,0.0287654,0.0253359
0.0920566,0.0071983,-0.044011,-0.0313652,0.000210867,0.0289178,-0.110233,0.004143,0.0207327,-0.0617962,0.0428478,-0.0506199,-0.0556065,-0.0291219,-0.127291,0.0433306,-0.044939,-0.144647,-0.028027,0.0676458,-0.0433066,-0.0369283,0.0971237,-0.0497364,-0.0408679,0.102469,-0.0245413,-0.0189895,0.000197727,0.0254924,-0.106028,0.00703868,-0.0284507,0.0308477,-0.0650611,0.0738729,0.00810073,-0.0395906,-0.00549031,0.0513736,-0.0608328,-0.0249702,0.00600694,-0.0890072,0.0455208,0.00215239,-0.0191084,0.0224991,-0.0837979,0.0684517,0.00342536,0.0367305,0.0522648,0.0529354,-0.00234703,0.0489157,-0.0338042,-0.0439364,-0.0809045,-0.0401653
-0.0136772,-0.0212295,-0.0370529,-0.0216142,-0.0344075,0.0466166,0.0409299,-0.0130618,-0.0195185,-0.0805543,-0.0642075,-0.0407033,-0.005688,0.0164553,-0.0995376,0.153954,0.00435345,0.0652335,-0.0357464,-0.134285,0.00944275,0.0904515,0.0488155,-0.0453793,-0.044683,0.0811097,0.101142,-0.0632837,-0.0475137,0.0612496,-0.0708749,-0.0520927,0.0177704,0.0432474,-0.114903,-0.0657627,-0.0299207,-0.0264797,0.011471,0.0219699,-0.0239692,-0.0833413,-0.0259883,0.107311,-0.0211064,-0.000197289,0.0531625,0.0275012,-0.0237447,-0.039899,0.124967,-0.00812791,0.0364972,0.0693243,0.0790755,0.078774,-0.0218892,-0.0883528,-0.0190257,-0.0452743
-0.0591959,-0.0958067,0.000817349,-0.0788399,-0.0347916,0.00296997,-0.0840552,-0.0167671,0.0056142,-0.0247091,-0.0363517,0.0268758,-0.0539843,-0.0727793,-0.00154889,-0.00680979,0.0309382,0.0406351,0.119604,0.0246868,-0.0554692,-0.00952181,-0.0226168,0.0975601,-0.102927,-0.0888927,0.0714954,0.0426448,-0.0616615,-0.0794172,-0.0130878,-0.0166598,-0.00325391,0.0147095,0.0394937,-0.00319134,-0.105489,-0.0409002,-0.0854256,0.0965336,-0.0411802,-0.0553655,-0.0973819,-0.0500611,-0.00602644,0.00809793,-0.00649304,-0.0396222,-0.00342212,-0.09354,0.0136308,0.0151903,-0.0111275,0.0869989,-0.0105262,-0.104504,-0.035097,-0.0567649,0.0340069,0.00391766
0.00125181,0.0456086,0.0223131,0.00119347,-0.110127,0.000923577,0.0320184,0.00461338,0.0123621,-0.0559554,-0.0969403,-0.0118916,0.113972,0.110623,0.0468078,0.0312287,0.0327557,0.0313852,0.0764477,-0.0808634,-0.0646336,0.0912669,0.0239335,-0.0394191,-0.0377022,0.00278491,-0.0498802,0.0737647,-0.0102036,0.0726794,-0.00905906,0.12617,0.0171974,-0.0802084,0.0820381,0.0518067,0.0480806,0.0792356,0.0770962,0.0844013,-0.103333,-0.0650698,0.033212,0.0345662,0.000718356,0.0566789,0.00237791,0.0128118,-0.106087,0.0838688,-0.00179827,0.0742944,0.0298592,0.0665571,0.0585138,-0.0942157,0.0609734,0.0496657,0.113564,-0.0689223
0.0837187,0.0886381,-0.0588317,-0.0434935,0.0470597,0.0390127,-0.092121,-0.0346283,-0.0255713,-0.047115,0.0617216,-0.0667274,-0.108113,-0.0434748,0.0388958,0.0501611,-0.0295472,-0.0121605,0.0771076,-0.0679633,-0.0712343,-0.0447647,-0.0905854,0.000371861,-0.0225048,0.0865145,-0.0458468,-0.0225768,-0.0227518,0.0334682,0.0341627,0.00638871,-0.0269978,-0.0525824,-0.0149666,-0.00878518,-0.0214247,0.00287016,-0.0222757,-0.0351147,0.0137621,-0.0604193,0.00521806,0.0301834,0.0216839,-0.0942052,-0.0465327,-0.0128379,-0.0167657,0.0628046,0.092718,-0.0282799,-0.0561816,-0.0370387,0.106036,0.0245498,0.0677363,-0.0108204,0.0364433,-0.0523401
0.0521779,0.0445423,-0.0394466,0.0523744,0.0204879,0.0616147,0.00668262,-0.0213597,-0.0205081,-0.0442958,0.0226791,0.0743201,0.0596135,0.00419151,0.0451179,-0.0294627,0.0874322,-0.114901,-0.0114906,0.0605736,-0.000179898,-0.0268763,-0.0106447,0.00154219,0.040003,0.0451109,-0.0214651,0.0719937,0.0229463,-0.00775612,0.0426748,-0.120794,-0.10007,0.00970888,-0.00902298,0.0229525,-0.0412743,0.0188425,0.0899467,-0.076033,-0.00353698,0.114521,0.0687668,0.0602178,0.0185026,0.0154134,0.00517622,0.0856812,-0.0536057,0.0371842,-0.0128349,-5.44259e-06,0.0571482,0.048202,-0.0150304,-0.055415,0.0615033,0.0880893,-0.0468771,-0.0495058
-0.02292,0.000649048,0.0685368,0.00224062,0.0186035,-0.00382513,0.0148965,0.0278944,0.0804987,0.0151821,0.052357,0.0150575,0.00135088,0.0628438,0.0254601,0.0158891,-0.0224631,0.0508725,-0.00769578,-0.0869953,-0.00840076,0.0781021,-0.0743118,0.0815828,0.0612869,0.0118484,0.0153554,-0.0639983,-0.000757433,-0.00372977,0.0208145,-0.0145523,0.00165392,-0.0530394,0.0583433,0.051552,0.0119784,0.0484589,-0.0750491,-0.0188088,0.0688339,-0.0276459,-0.0108218,-0.0018416,-0.0184901,-0.0563916,0.0514045,-0.106262,0.0513205,0.00307269,0.0466235,-0.0952555,-0.0213305,0.0239315,-0.105739,0.0893563,0.0212079,0.0634962,-0.0818083,-0.0955431
-0.052478,0.0542499,0.0401629,0.00588401,0.0835024,0.0891954,0.00547039,0.00484987,-0.00484737,-0.00418829,-0.114428,0.0237768,0.0523605,-0.0380803,0.00236195,-0.0231443,-0.0457373,0.0357851,-0.0276252,0.0230706,0.0114534,0.0789529,-0.111557,0.0271081,0.0533773,-0.0077646,0.0413589,-0.0110454,0.0727399,0.0165171,-0.036336,0.0429714,-0.0571741,-0.0452215,-0.0708713,-0.0191023,-0.0117824,0.0505759,0.072958,-0.00963116,0.0121232,0.14393,-0.00233207,0.0154566,0.0105925,0.00678725,-0.0200284,0.0177144,-0.0229034,-0.0699173,0.00746087,-0.0322235,0.12454,-0.0511144,0.000425017,-0.0213206,-0.0420523,0.0406621,0.0185487,-0.121962
0.0299211,0.131131,0.053419,-0.0160237,-0.146506,-0.0595914,0.0594253,0.101887,-0.0448154,-0.0617518,0.0105083,0.0141852,-0.0543693,-0.0714146,-0.0447328,-0.069434,-0.0445938,-0.0557239,-0.017465,-0.0569127,0.0384336,0.0952512,-0.00506704,0.0462535,-0.00284962,-0.021761,-0.0872766,0.0199424,-0.105556,0.108364,0.0170145,0.0394625,0.115535,0.014135,-0.0517937,-0.071247,0.0266346,0.0766012,0.0154554,0.044174,0.053029,-0.0576412,0.00797081,0.0103495,0.000432167,-0.00789541,-0.0078915,0.0709377,0.015048,-0.039905,-0.0544535,-0.0128899,0.0290807,-0.0486661,-0.0661767,-0.0951836,0.0658623,-0.0456224,0.0197082,0.0475141
0.00706136,-0.110503,0.0400535,0.0212574,-0.0168023,-0.053276,0.0359481,-0.0430333,-0.0619919,-0.0557179,0.0388805,-0.0612079,-0.0865629,0.0872462,0.00301248,-0.0317362,0.139278,-0.0385144,0.0378733,-0.011429,0.0915014,0.0219172,0.123032,0.0119053,-0.029862,-0.0770714,0.123954,0.0151714,-0.0623295,0.00314125,0.00162317,-0.0817132,0.0339678,0.0176789,-0.0375015,0.10121,0.0187252,0.115384,0.123495,0.128525,-0.0168937,0.0389741,-0.0184793,0.0463907,-0.0257184,-0.0430964,0.0582008,0.00848586,-0.0542004,0.00833956,0.0984872,-0.0835329,-0.0822943,-0.0320527,-0.0382587,-0.0299472,-0.0158535,0.0153525,0.0585782,-0.00295816
-0.0027869,-0.0618943,-0.0580852,0.0380513,-0.0182195,0.0250317,-0.0168418,0.0879208,0.0369959,-0.0198457,-0.0868284,-0.0420673,-0.0661314,0.0805309,-0.104794,0.0461175,0.0772935,-0.0393236,-0.0560497,-0.00741211,-0.0202132,-0.00910194,-0.0672914,0.0231004,0.0911192,-0.00859569,-0.0265928,-0.0174227,-0.00970901,-0.00692978,0.0420142,-0.100946,-0.0144791,-0.00441174,0.0459682,0.0701536,0.00802133,0.00611473,0.0354086,-0.0883029,0.0245595,-0.054872,0.0186584,-0.0338605,-0.0229837,0.00203242,0.0183467,-0.0359135,0.0260496,0.0266142,-0.0264774,-0.0328968,0.0340799,0.0465832,0.156245,0.0814003,-0.0153389,0.0120917,-0.00446107,0.0234019
0.00265241,0.0604545,0.00796673,-0.000646099,-0.0446422,-0.0662695,0.0333099,0.0738351,-0.0860301,0.00156953,-0.0107743,0.0636728,0.016214,-0.00754876,0.0360741,0.00161055,-0.0190527,-0.0106378,0.0410091,0.0490296,-0.00873211,0.0565894,-0.00561053,-0.0275925,-0.0411382,0.00387536,0.070643,-0.0638292,0.0570417,-0.0365473,0.0130844,0.0817567,-0.0942158,0.00263429,0.00779742,-0.0524533,-0.0179726,0.0315057,-0.00604932,0.0518485,0.00898189,-0.0107695,0.0505725,-0.101173,0.0627592,-0.0330692,0.0279258,0.0231348,-0.0141567,0.0105662,0.0348063,-0.033583,-0.0213048,-0.0439131,-0.0200862,0.0886949,0.0426545,-0.0127347,-0.0217971,0.0129109
-0.0365711,0.0657481,-0.0164945,0.0099995,0.0558812,-0.123503,0.0976788,-0.0292424,-0.0240108,-0.0188228,0.0271882,-0.0171773,0.109257,-0.0232135,0.03752,-0.0627944,0.00467841,0.0308964,0.0876891,-0.0269567,0.0336268,-0.0184317,0.065812,0.0218332,-0.0186749,0.017835,-0.053574,-0.0764421,-0.00920271,0.0156185,-0.0721429,0.041282,-0.0572004,-0.0026401,-0.0335036,-0.0557936,-0.0142716,-0.0159058,-0.030768,-0.012541,0.0550625,-0.0515023,0.0204672,-0.0345156,0.0829317,-0.0639274,0.00305475,0.00153172,-0.0136626,0.0504807,-0.0998739,0.088356,-0.0599582,-0.0972783,0.0996041,0.0233198,-0.0713709,-0.0263449,0.053004,-0.0559185
-0.116137,0.0946806,-0.0563114,-0.0273844,0.0157354,-0.0178872,0.073815,-0.0211178,0.0279954,0.0748618,0.0254626,-0.0553614,0.0404373,-0.0323401,-0.101946,-0.0244486,-0.0373138,-0.101125,0.084503,-0.0261896,-0.0986844,0.00437222,0.0447824,0.0969618,-0.019469,-0.0493251,-0.000225929,0.0183739,0.00492451,0.0160578,-0.0902659,-0.054042,0.0172714,-0.0269835,0.0795325,0.00994101,0.00971355,0.0145503,0.0107186,-0.064957,0.0564412,0.00671191,0.0131166,-0.0557577,-0.0290114,0.0334508,0.0311274,-0.0500143,0.0429849,-0.0106449,-0.0744458,0.0381973,-0.0194636,0.00963663,-0.0447094,-0.0113326,0.0332553,-0.0469045,0.0696016,0.0950075
0.112398,-0.0373538,0.139766,0.0588038,-0.0188347,0.106172,-0.0103059,-0.05819,-0.00866814,-0.00315404,0.0345985,-0.0577198,-0.0464693,0.0569317,-0.0277979,-0.0441359,-0.0439921,-0.0791331,0.0566688,0.0333948,0.00183396,-0.0649205,-0.0530183,-0.0166694,0.0359289,0.0305613,0.127048,0.0595012,-0.0665681,-0.0912838,-0.0540022,0.0230998,-0.0291684,0.0847161,-0.0475493,0.0418612,-0.0618842,0.0213031,-0.0344712,-0.0654319,0.0554313,0.0174392,0.0272932,0.0269517,-0.023303,0.0135239,-0.0948619,-0.0881905,-0.015271,-0.148814,-0.00925259,0.0636562,-0.0114889,0.0438183,0.0194662,-0.0140479,-0.0101106,0.0617668,-0.0535651,0.016297
0.0243911,-0.0361718,-0.0654154,-0.00949771,0.0148719,-0.05848,0.0603604,-0.0368601,0.00143879,0.0281351,0.0601773,0.000219247,-0.0131895,-0.0763891,0.0249325,0.110712,-0.0367511,-0.0340562,0.0372872,0.0457948,0.000235549,0.0133733,-0.0174448,0.0091893,0.0588539,0.0600745,-0.0986545,0.00310969,-0.06012,-0.0505997,0.0634609,0.0668327,-0.14342,0.00449967,-0.02777,0.0173365,0.0313704,-0.00307826,-0.0106907,-0.0926017,0.15705,-0.0573172,-0.0096482,-0.000378017,0.0442937,0.0575519,-0.0814971,0.0624623,0.0168459,-0.0221662,0.00753584,0.0217443,0.00926792,-0.0380211,-0.156878,-0.0246409,0.0699154,0.0851591,-0.0359583,0.0298694
-0.0419305,-0.0467453,0.108446,-0.0491868,-0.0635446,-0.0132947,-0.0322677,-0.0186543,-0.0338529,-0.0952227,-0.0130275,-0.00335651,0.0743168,-0.0451752,0.0793727,-0.0311549,-0.118022,-0.00603291,0.0343917,0.0529769,-0.0667888,0.0458343,-0.0541987,0.0545317,0.0119663,0.0376516,0.00537402,0.0439478,-0.0129099,0.0458329,0.0225858,0.0187587,-0.0497512,-0.0288386,0.129758,0.00942381,0.00507467,-0.0254657,-0.113179,0.0425284,-0.0555359,0.0195584,-0.0790207,0.0148435,-0.132426,0.0217336,0.0905593,-0.0608964,0.0260776,-0.0866665,0.0352269,-0.0833238,-0.0521919,0.158159,0.0102895,-0.0443064,-0.00141454,0.0909425,-0.0969186,-0.0204852
-0.107281,0.0513742,-0.0557298,-0.0348646,-0.00613684,0.0244058,-0.0529845,0.0131153,0.0867568,0.0750138,0.0347478,0.00517139,-0.00825434,0.15972,0.0876396,0.0278054,0.0314202,-0.0254968,-0.0463361,-0.0779464,0.0458714,0.0314537,-0.0311995,0.0425821,0.089832,0.00741168,-0.0268628,0.0946684,-0.058091,-0.0666489,-0.00995269,-0.0405908,-0.0584869,0.0545705,0.0706942,0.0317777,-0.0398765,-0.067374,-0.0349352,0.0236375,0.0520544,0.0125252,-0.0724447,-0.044538,0.06627,0.0678061,-0.00366088,0.103778,-0.00246645,-0.0720525,0.00206738,-0.123988,-0.0824752,0.0173245,0.030081,-0.0409924,-0.0273572,-0.0962421,-0.0346107,-0.116177
-0.0358917,0.0063847,-0.122863,0.0411272,-0.00502439,0.0758042,0.037496,0.0384257,0.0665982,-0.0585145,0.0132132,0.00465645,0.00357453,-0.0209094,0.00158643,-0.146679,-0.114875,0.0216164,-0.108426,0.0824955,-0.032101,0.0216899,0.0599272,-0.00610163,0.012892,-0.0138554,0.00529647,-0.00938648,-0.0478318,-0.107134,0.102295,0.0479797,-0.0762135,0.0016575,0.0271901,0.0610745,0.0430607,0.0869056,-0.010376,0.00567576,-0.05904,0.00218014,0.00287457,-0.109248,0.0355955,0.0622693,-0.0701962,-0.0743141,0.0261754,-0.00270204,-0.00687752,-0.00365398,-0.00412177,-0.0422258,-0.0307472,-0.0546469,-0.0749279,-0.0329039,0.066223,0.0821522

max: 1
min: -0.219532
avg: 0.000588742
