0.0690807,0.0257351,-0.00344282,0.0609701,0.0837553,0.0813987,0.110931,0.0287961,-0.0224646,0.04175,-0.0206964,-0.0125223,-0.0597032,-0.0691883,-0.00223278,-0.0373919,-0.0634202,-0.124087,-0.0458541,-0.0560688,0.0538427,-0.0719341,-0.0350941,-0.0126004,0.0964243,0.0332549,0.00314467,0.0109079,0.0197655,-0.071084,-0.0180949,0.0104881,0.0455976,0.00669634,-0.00123629,-0.0460748,0.0588094,-0.00141836,0.0941627,0.0768588,0.00742021,0.00485774,-0.0527319,-0.0105605,-0.0629386,0.000676647,0.0956915,-0.0209552,-0.0225054,0.0656959,-0.0460391,0.0323853,-0.0410766,0.114222,0.0419577,0.0243148,0.0111143,-0.00872308,0.0400428,0.0727666
0.0476932,-0.0437609,-0.0445838,0.0248386,0.0634318,-0.0424332,-0.0148213,0.0717247,0.0268275,-0.00552738,-0.0553895,-0.134114,0.0485146,0.0597081,-0.00865765,-0.0387441,-0.100285,0.0027589,0.0100047,-0.00358886,0.0157705,0.0114487,-0.0263284,0.0264183,-0.0138448,0.0160121,-0.0973788,-0.105124,0.0836614,0.0624916,-0.064077,0.000999145,-0.0235207,0.0437778,-0.00184604,-0.00207069,-0.112682,-0.00617886,0.0254487,0.0245231,0.0876173,0.0606275,0.022344,-0.0704442,0.00345563,-0.0221322,-0.0852385,0.045252,0.0737273,0.00288691,0.0106623,0.00713298,0.0139517,-0.0189323,0.0209607,-0.0294204,0.0387524,0.0952258,-0.0273654,0.00919331
-0.0364261,0.0242852,-0.0421857,-0.0294735,0.0518547,0.063415,-2.0241e-05,0.0368322,-0.0156009,0.0159956,-0.0664874,0.0688293,0.0151451,-0.0681513,-0.0551301,-0.0404295,0.0151434,0.0401532,-0.028064,0.00599718,0.0650306,0.0411032,-0.0508736,0.0559467,-0.039651,0.0416382,0.00618547,-0.0864163,0.00675836,-0.0614531,-0.0194724,-0.059367,0.0780449,-0.00970609,0.0408484,-0.0451074,-0.0436528,-0.0169589,-0.0375142,-0.0685799,-0.0535207,0.0455313,-0.0513293,0.0694522,-0.0967992,0.0614792,0.0374782,-0.0349104,-0.0631001,-0.0470098,0.105239,-0.0660665,-0.00371563,0.0268058,0.0138456,-0.0240759,0.0100197,-0.00946345,-0.0750891,0.042671
-0.0576145,-0.00384766,-0.154869,0.0567104,-0.0554514,0.0420458,0.070479,-0.0409661,-0.0960691,0.146526,-0.0124219,-0.0462004,-0.101403,0.060453,-0.0446811,0.07629,-0.0231833,-0.017158,0.010934,0.0283515,-0.00577147,0.084798,-0.0610689,-0.0256171,-0.0587796,-0.0917271,-0.00208219,0.000869252,-0.0585842,-0.0698098,-0.0781615,0.0446684,-0.0185213,0.0147042,0.0677207,-0.0389464,0.131934,-0.0574759,0.0553757,0.0899021,0.0876065,-0.0418483,0.0213653,0.0652197,0.0033067,-0.00289967,-0.0263148,0.00684289,0.0481578,-0.0369646,0.0438164,-0.0732838,0.00142511,-0.0451469,-0.00147803,-0.0168093,-0.00985792,-0.0739935,-0.0342679,0.0704328
0.00599855,0.0306392,0.101311,-0.0499341,-0.0287293,-0.0935344,0.0379799,-0.0208324,-0.0374406,-0.0354493,0.0020482,-0.0211192,0.0704693,-0.0378194,-0.0826245,-0.0695743,0.0238598,0.0439808,0.0197434,0.0235808,-0.0370456,0.128298,-0.0479397,0.0755866,-0.0138961,-0.0645254,0.0059112,-0.0549362,-0.0439888,-0.0124908,-0.0268227,0.0335927,0.068335,0.0088976,0.0669842,-0.0324244,0.0171046,0.0620738,0.077449,0.0091742,0.00539297,-0.0380471,-0.151214,-0.0391315,0.158906,-0.04902,-0.0395984,0.0218315,-0.0339327,-0.0203004,0.12164,8.30449e-05,-0.0226741,-0.059113,0.0354441,-0.0442413,0.0240265,-0.0700516,-0.0260406,0.119931
0.00088914,0.0401726,-0.123088,0.0377643,0.0688504,0.0845294,0.0348089,0.026877,-0.175509,0.0141385,0.0205476,-0.0575424,0.0212711,-0.0132462,0.0583647,-0.0713596,0.064439,0.0351551,0.095793,0.0827463,-0.0161424,0.0358381,-0.0065336,0.0325395,-0.0448217,-0.0466243,0.104232,-0.103865,0.0456549,-0.0460626,-0.00925546,0.0913808,0.0555773,0.0563698,-0.0224273,-0.0256148,-0.0775944,0.0149324,0.0493778,-0.0018679,0.0140569,-0.000359669,-0.0916014,0.0621903,-0.000127699,-0.0488679,0.0101308,-0.0502717,-0.0621831,0.0860054,-0.00278598,-0.0428117,0.0108224,0.0329567,-0.0643398,-0.0315404,0.0276073,-0.0818351,-0.0290482,0.0617146
0.0362485,-0.0192097,0.032,0.0434062,-0.0666545,-0.0872164,0.126038,0.0315055,0.124781,0.0155482,0.0153433,-0.0415264,0.109524,-0.0206284,0.0721483,0.016449,-0.0564975,-0.0214657,-0.0063348,0.0571679,-0.0335677,0.0704211,0.15059,-0.038883,-0.014402,0.0230462,-0.0462422,-0.0177921,0.136318,0.032416,0.0559456,0.00605325,-0.0796414,-0.0486824,0.0116365,0.0415882,-0.00159623,0.0176756,-0.0197078,0.0347766,0.00160664,0.00463147,-0.0551557,0.0857092,0.0355849,-0.0568808,0.0198695,-0.00515602,0.0134231,-0.020092,0.0192049,0.015732,0.0155162,0.0180529,0.029913,0.0614946,0.133783,0.0697592,0.1055,0.0568312
0.0203323,-0.0575032,0.0376079,-0.00535358,0.0990203,-0.0127803,0.0561098,0.0156955,-0.000688649,0.0848443,0.063708,-0.0317577,-0.0575377,-0.0780385,-0.0282613,-0.0448466,0.0213665,0.0916283,-0.0769694,-0.021072,0.008664,0.0201827,0.07332,0.0661371,0.0345241,-0.0642337,-0.033658,0.0188187,0.0193619,-0.0686752,0.0133899,0.118832,-0.102053,-0.0349192,0.0136952,0.00848444,0.0115836,0.0331213,0.0362555,-0.0578114,0.0884715,0.121302,0.0917485,-0.07265,0.0202406,0.0071718,-0.0283131,0.0629499,-0.0917087,0.0148022,0.00520729,0.0409219,0.0284815,-0.0601848,0.080902,0.0358917,0.0667305,0.0584372,0.0360671,0.103022
0.0359686,0.0285523,0.197107,-0.0125115,-0.0354715,-0.00296911,0.0978843,0.0618769,-0.12946,-0.0837338,-0.0106092,0.0554778,0.0486756,-0.0289228,-0.0503759,-0.0612822,0.0772715,0.022244,0.0313468,-0.0617316,-0.0147747,0.0604428,-0.0301644,0.0510813,-0.00354379,0.00282403,-0.0134123,-0.0103711,0.0220806,0.0374309,-0.0113481,0.0656957,-0.125421,-0.0324266,-0.0325431,0.0080962,0.0446405,-0.0445207,0.00874334,-0.0540268,-0.00745755,0.0608686,0.0269058,-0.0332097,-0.0419879,0.0786988,0.0627528,0.0253168,-0.0295565,0.0236567,-0.00409737,-0.0159701,0.0351729,-0.0418311,0.00758287,-0.0658999,-0.0575306,-0.00857059,-0.00563695,-0.081922
0.0787549,0.014612,0.0423578,-0.0674717,-0.0404838,-0.0577286,-0.0306813,0.0182395,0.0936401,0.0415695,-0.0466344,-0.104189,-0.00651455,0.0481843,-0.00484965,-0.06582,-0.00451304,0.0207026,-0.139891,0.0452139,0.0165447,0.0389436,-0.0199694,0.0861703,-0.0741056,-0.0485669,-0.0649226,0.0525771,-0.00297495,0.0573845,-0.0556397,-0.00397137,0.0915717,0.079077,0.0360128,-0.0546674,0.00428735,-0.0442311,-0.0111443,0.144046,0.0858938,0.0847848,-0.0206163,-0.0557117,-0.0530187,-0.0233131,0.0456215,-0.0528416,0.0373816,-0.054568,0.0716375,-0.00696451,-0.0777811,0.0786938,-0.0187467,0.0230088,0.066732,-0.0267707,0.00667554,-0.0184154
0.091464,-0.0436829,0.0503591,0.0559475,0.0266531,0.0449973,-0.0198178,0.0314469,0.0346698,-0.0205935,-0.071802,0.000796499,0.0175383,-0.0826486,-0.0905963,-0.0654021,-0.00764172,0.0758306,-0.040552,-0.0343929,0.0105881,-0.0243543,0.0508267,-0.0813982,0.00410004,-0.0191145,-0.0247715,0.00742998,-0.0271441,0.00354108,-0.0129211,0.00385633,0.0140516,0.132816,-0.017259,0.0637845,0.0428885,-0.0191068,0.0220908,-0.0699129,0.0485551,-0.0522246,0.0953577,0.00857628,0.039463,0.0323241,-0.0187434,0.117925,0.00709387,0.00304002,-0.0353981,-0.0722239,-0.0444095,-0.126117,0.0710346,0.0289501,0.0414979,0.00967194,0.0129482,0.0420849
0.112052,0.0881005,0.058393,0.0500352,-0.00542184,-0.018525,0.0247647,0.0158373,0.10522,0.0228062,0.0545372,0.0227496,0.0136357,0.000157478,-0.0483333,-0.00782858,0.0380108,0.0507212,-0.128572,0.0057516,0.0539143,-0.0469336,0.091388,0.0435425,0.0999232,0.0720005,0.0453844,0.0250155,0.0115786,-0.0515161,0.0429798,-0.0710876,-0.0448225,0.0611414,0.057051,0.022308,-0.0941886,-0.0118266,-0.00448569,0.0114355,-0.0624381,0.0186318,0.0322127,0.0911764,0.0115098,-0.0114842,-0.0904866,0.0652142,0.0144038,-0.0084986,-0.023601,-0.0661952,0.0827372,0.00250744,0.0397054,0.0108646,0.100909,0.003337,-0.0168649,0.0615617
8.25832e-05,-0.00411879,0.0171495,0.0751433,0.0853241,-0.0221531,0.0738052,-0.00636793,0.0478437,-0.0792862,-0.00128424,-0.00470413,0.0318252,0.0803372,0.0366773,0.0204774,0.0311377,-0.021288,0.0010742,-0.10809,0.0524907,-0.0170191,-0.067685,0.0926481,0.0410324,0.0242317,0.0675321,0.0137268,0.0587331,0.042415,0.00402022,-0.0413998,-0.0946257,-0.0192013,-0.00821112,0.0803619,-0.0647562,0.0693868,-0.0204415,-0.0617147,0.0277701,0.0489248,0.069371,-0.079866,0.0759064,-0.00713514,-0.00178393,0.043413,0.0111975,0.051722,0.0750162,0.0423315,0.0520664,0.0191114,0.0652279,-0.0567873,-0.00551386,0.00955619,0.0479174,-0.0501371
0.0363143,-0.0453047,-0.0418536,-0.00891118,-0.0143845,-0.0590519,-0.0139034,-0.0381702,-0.0148104,0.0136832,-0.0109075,0.1095,-0.0302727,0.0911645,0.0552582,0.0168176,-0.0599332,0.00995036,-0.0202992,-0.0820264,-0.105093,0.068515,-0.0544548,0.0903843,0.00221621,-0.000766647,0.0300847,-0.0563465,-0.00338162,0.0192583,0.0641315,-0.0974983,-0.0713326,0.0394724,0.0328503,-0.00185616,0.0289458,-0.02459,0.00163597,-0.0444784,0.024245,0.0390543,-0.00878195,0.0950244,-0.0400647,-0.0420116,-0.0268028,-0.0214946,-0.0405707,-0.0727387,0.0476372,0.0276419,0.0921542,-0.0404084,-0.0629047,-0.137667,-0.00125061,0.0563385,-0.0273747,0.0312739
0.0888058,-0.0124676,0.02724,-0.0597888,-0.0685829,0.0142698,0.0546188,0.0286899,0.0286045,-0.00272345,-0.0526543,-0.0359458,-0.030982,-0.075595,-0.12734,-0.0158687,0.0663198,0.0401126,-0.000762936,0.0406747,-0.0494886,0.00596855,-0.0424756,-0.025206,-0.0270689,-0.0828725,0.0786627,-0.0454768,-0.059439,0.0633726,0.0282743,0.177514,0.0574708,0.0265215,0.0281038,-0.0434213,0.0181367,-0.0761215,0.021863,-0.0213313,0.0503185,-0.0303084,0.0474703,-0.0815504,-0.111488,0.172023,0.0495583,0.00394287,-0.0744311,-0.0169605,-0.00944265,-0.00221242,0.0353468,0.0765092,0.0554375,0.0407294,-0.113454,0.0308845,-0.115076,-0.0609543
0.0439446,-0.0256272,0.0465053,-0.0722406,0.0090993,-0.131487,-0.0964868,-0.00793566,-0.0314975,-0.0614029,-0.0565827,-0.0175406,-0.155947,0.0415244,0.056945,-0.0218573,-0.0144947,-0.0138751,-0.0323917,-0.000129005,0.0238943,-0.045476,0.0256416,-0.00154829,0.0158578,0.0250753,0.076971,0.0578862,0.0142871,-0.103155,0.000696409,-0.0231259,-0.0925852,0.025482,0.0321362,-0.00212903,0.0136244,0.126694,0.0651936,0.0292439,0.123378,-0.0435341,0.113792,-0.0266178,0.0261233,0.00222319,-0.0357388,-0.0129281,0.118439,0.00951253,-0.0793989,0.00129472,0.0387822,-0.0552911,0.0248498,0.00441049,0.0304832,-0.105423,-0.0774944,0.0293881
-0.0335113,-0.00852072,0.0491248,0.0407196,-0.0243784,0.120486,-0.0535723,0.0928492,0.00309761,-0.0856563,0.0561093,0.129559,-0.0602653,0.039579,0.0897757,-0.0667982,-0.0249703,-0.0709771,-0.0568611,-0.0151048,-0.0192683,-0.0592122,0.0045789,-0.109428,-0.0310597,-0.100602,0.0599421,-0.0549205,-0.0269069,-0.083227,0.00155321,-0.0924043,-0.0211198,0.0217592,0.0732881,0.025818,0.0283817,0.002245,-0.0732465,0.0400011,-0.0222313,-0.0209177,0.0135548,-0.0347958,0.0338592,-0.0773134,-0.0851389,0.0169075,0.0145483,0.041166,0.0234615,0.0754337,-0.0469803,0.0439933,-0.043047,0.0544289,-0.0233979,-0.0672186,-0.0742855,-0.0172578
0.030423,0.0583676,0.0978789,0.0263715,-0.019443,0.0141453,0.0737622,-0.0700824,-0.0540243,-0.015368,-0.0616128,0.0585789,-0.138887,-0.068456,0.0931952,0.0133812,-0.0138747,0.0410073,0.0132268,0.0625258,0.0577517,0.106018,0.0489016,0.0403258,0.0676887,0.0169171,0.120337,-0.0341356,0.0831223,0.1204,0.0420338,0.0223617,0.0431153,0.0652674,-0.0329982,-0.0252354,0.0204256,0.0042326,0.00785347,0.0641934,-0.0269567,-0.0550088,0.0380032,-0.0193761,-0.0375005,0.0428996,-0.0638921,0.0985497,0.146639,0.0136558,-0.0154035,-0.0259484,0.0457996,0.0355469,-0.083731,0.00635519,-0.0111339,0.0302131,-0.0473732,-0.0633729
-0.0206418,0.0266802,0.0550073,0.0403691,-0.0067832,0.0698464,-0.00988184,0.00193115,0.013341,-0.078612,-0.00210323,0.0268033,-0.0389048,0.0795702,0.0401789,0.0266066,0.0782907,0.0194564,-0.0540616,-0.0246804,-0.0291131,-0.00411651,0.052103,-0.0582911,0.0500946,0.0780313,-0.0770413,-0.00521603,-0.0345987,0.0399818,-0.0454459,0.00569637,0.100133,-0.0702556,-0.0331499,0.0850875,0.0779981,0.0259682,-0.0208478,-0.00384192,0.00676205,-0.0184364,-0.0228674,0.107395,-0.0955905,-0.0613411,-0.0319111,0.00959754,0.0126864,0.089494,-0.0555482,-0.037643,0.126472,-0.0103016,0.0218089,-0.0493793,0.16024,0.0369163,0.0696043,-0.0168939
0.0653869,0.0865236,0.0592174,-0.0152543,-0.0445474,-0.00607587,-0.0559312,-0.0203568,0.0431625,0.0359541,0.101057,-0.0891937,0.0652405,0.0430671,-0.0469674,0.0578594,-0.0569223,-0.0761666,0.00523246,-0.0031445,0.0237117,0.00373862,0.0293438,-0.149346,0.00872724,-0.0127661,0.0951081,0.0479315,-0.0518461,-0.0207187,-0.00399735,-0.00231016,0.0822691,0.0675371,0.0338536,-0.00880359,0.0151478,0.0717985,-0.0279628,-0.0335103,0.0214013,0.027097,-0.00205337,-0.0758341,0.0437657,0.00854298,-0.00286961,-0.0724924,-0.00341822,-0.0201017,0.0358107,-0.0292274,0.0615188,-0.0766659,-0.00783311,-0.00353348,0.0755422,0.039074,-0.0816533,0.0989624
-0.0384967,0.0582916,0.0197864,-0.018444,-0.0357009,0.0532194,0.0501344,0.120386,-0.103066,0.0956213,0.0421072,-0.0517382,0.0442565,-0.115065,0.00720787,-0.107296,-0.0187496,0.0582204,-0.0688996,-0.0438817,-0.0194083,-0.0639487,-0.0912213,0.154628,-0.00357063,0.0499716,-0.00815357,0.0252637,0.128327,-0.00570211,0.0126721,-0.039682,0.0532287,-0.0670554,-0.0161673,0.0668339,-0.0325489,0.0436196,-0.116464,0.0196378,0.0677138,0.0209988,-0.00282397,-0.0265691,-0.0489256,-0.0520347,0.0436353,-0.0888963,0.0189602,-0.0154047,0.0225917,-0.0412121,0.0343246,-0.0398217,0.0188756,-0.0504956,0.0373387,0.0189557,0.0434506,-0.036173
0.0353585,-0.0290914,-0.0181171,0.0430344,-0.0353491,0.047678,0.0711705,-0.114026,-0.00242788,-0.0224302,0.014192,0.0165371,0.0440667,-0.011945,0.0305442,-0.0965031,-0.0376935,-0.0215818,0.107809,-0.0351842,0.0510439,0.0314707,-0.0997514,0.0464215,0.0559284,-0.0669785,0.004523,0.0770726,-0.0148794,0.0149541,0.0144578,-0.00112676,0.0633633,-0.0457074,0.123775,0.0808206,-0.0930439,-0.0579236,0.0284995,0.0293386,0.05331,0.0201749,-0.041326,-0.032318,0.0472977,-0.0255041,-0.00811598,-0.0228495,0.112949,-0.0693018,0.0665744,0.0509665,0.0425899,0.0355207,0.00906906,-0.00985707,-0.0224408,0.00344776,-0.0213211,-0.0129793
0.0351753,0.0495574,-0.0124266,-0.0101534,-0.0437651,0.0420928,0.0207482,-0.015063,-0.0238053,0.0242447,0.0652901,0.0895203,0.0776222,-0.0969275,0.018707,-0.00559961,0.0804852,-0.0689416,-0.0327746,-0.059256,0.126171,-0.0125777,0.0339196,0.0520801,-0.0308878,0.0721809,-0.0402386,-0.0493488,0.0055624,-0.141128,-0.0232117,0.068276,0.00952845,-0.0206368,-0.0702418,0.0527214,-0.0652937,0.0421016,-0.0677185,-0.00754401,-0.00713093,0.0766077,-0.0659529,0.015152,0.0489625,0.0141953,0.0107118,-0.0269777,-0.0338738,-0.0114576,0.0573777,-0.0568754,-0.0219493,-0.0507698,-0.0375258,-0.0681005,0.0131889,0.105458,-0.128714,-0.0527189
0.0501991,0.0903304,0.0569247,-0.00842756,0.122177,0.0206536,-0.0284593,0.0441739,0.0123207,0.030288,0.140988,0.0462047,0.0164783,-0.0125954,-0.0615663,0.0426205,0.0530221,0.0334634,-0.0170755,0.0727848,0.0507118,-0.0105709,0.00773066,0.0512911,-0.0262399,0.0995787,0.0239838,0.0221397,-0.024191,0.0130109,-0.0649304,-0.0654733,0.0302484,-0.00988768,-0.0648038,-0.0632053,-0.0375648,0.0917959,-0.0614117,0.0103533,0.105648,-0.0225223,-0.0881767,-0.0317931,-0.0119156,0.0319793,0.0573561,0.0617006,0.0562167,-0.0904865,-0.00798328,-0.00767758,-0.0446245,0.0557233,0.0899836,-0.0453561,-0.0899506,-0.0579973,0.0318334,-0.0462368
-0.0582732,-0.0214907,0.101123,-0.00288283,0.095424,0.000105646,0.023255,-0.106078,-0.0443246,0.110816,-0.0878631,0.00579315,0.0166089,0.0929383,0.0715676,-0.0288477,-0.105577,0.0396198,-0.0448453,-0.0352664,-0.0870856,0.0334097,-0.0960554,0.0243474,-0.055948,-0.0447074,-0.00515331,0.017708,0.0595811,-0.00502391,0.00750827,-0.0511148,0.0159869,0.00634303,-0.00610615,0.0285906,0.00596885,-0.0113519,-0.0767387,-0.163668,-0.00287677,-0.0353753,0.0857472,-0.133988,-0.0326931,0.0745278,-0.0229225,-0.0500569,0.0631921,-0.0120468,0.0677679,0.141183,-0.0490167,0.132141,-0.00704345,0.0422923,-0.0864605,0.0736476,0.00970773,0.0637359
-0.0646814,-0.0443353,-0.0148036,-0.00600984,0.0769957,-0.0134053,-0.0308698,-0.0511629,0.0443858,0.0299803,0.0101232,0.0208223,0.048064,-0.0270972,-0.0284343,-0.0482478,0.0617021,-0.00185281,-0.0332123,0.101058,0.0845019,0.0297022,-0.0430603,0.101574,-0.0148661,-0.0818038,-0.0538511,-0.00677186,0.0200785,-0.00125278,-0.0628368,-0.0845532,0.0109615,-0.00152401,-0.00530189,-0.0203222,0.115518,0.0501648,0.00899894,0.0136276,-0.0149058,-0.0327884,-0.00989468,-0.0108226,0.0721843,-0.063977,0.0988761,0.0302671,-0.0386267,-0.0257278,0.00750049,-0.0253071,0.0832325,-0.0957896,-0.058373,0.00245289,0.00553131,0.0776086,-0.00401733,0.0671107
0.0592178,-0.0332402,-0.0772014,0.0288937,0.0872792,-0.0137064,0.042611,-0.0925526,-0.00490091,0.0255105,-0.0386982,-0.0319642,-0.00305696,0.0479029,0.0338792,0.0141542,-0.041636,0.187529,0.0484886,0.0302159,0.0416512,-0.124894,0.135661,0.0985967,0.0707326,0.110006,0.0449886,-0.0871986,0.0243329,0.0403706,0.0861815,0.0640007,-0.0115654,0.00858532,-0.0776782,0.0259479,0.0708785,-0.0128642,0.0714856,-0.0178849,0.0338196,0.0196718,-0.015218,-0.0534121,0.0311034,-0.0169038,-0.000946574,-0.00834912,-0.0243987,0.0320427,0.033502,0.072372,0.023981,-0.0364505,-0.0306177,0.0681223,0.0357557,0.0516158,-0.0219394,0.0350364
0.00212681,0.00810092,0.098146,0.11326,0.0102015,0.106474,-0.108594,-0.0192414,-0.118406,-0.0494502,0.0607796,0.000333622,0.0229911,0.0194482,0.107632,0.0837446,-0.0128093,0.0491596,0.00212605,-0.0134823,0.046784,-0.0243155,-0.00200092,-0.0430028,-0.0635971,0.0207353,-0.0388346,0.0394329,-0.0606387,-0.0355966,0.112465,-0.06182,0.11604,-0.0934052,-0.0300105,-0.0362632,0.0439668,-0.0133334,0.0591365,0.0207488,-0.0401099,0.0367066,0.0533945,0.0143256,-0.0513078,-0.108602,-0.012499,-0.0509812,-0.10847,-0.0890306,-0.0695088,-0.00189598,0.0871021,-0.0699699,0.0580654,0.0934612,-0.00399072,0.00658978,0.0700926,0.0129816
-0.0597824,-0.0475287,-0.0041476,0.0466468,0.0741747,-0.0949502,0.106428,-0.017943,-0.056219,0.0517841,-0.0473422,0.0778927,-0.101295,-0.0153597,-0.0532834,0.0323713,0.0419452,0.090962,-0.0012959,0.026842,-0.00954633,0.0247011,-0.051832,-0.00352748,-0.000895981,0.00658616,0.0135403,0.0305478,-0.00370398,0.0612155,0.00489908,-0.0131302,0.0668447,-0.0295889,0.0629877,-0.0785391,-0.0522602,-0.00217985,0.0747426,-0.0910728,0.00973744,0.0555809,0.0310617,-0.0536495,0.0309182,-0.0500322,0.0418423,-0.0282762,0.105026,-0.0356955,0.00122843,0.0565981,0.00143132,-0.00531815,-0.0460759,0.0071654,-0.00826381,0.0142394,0.0671705,0.0153031
-0.00900466,0.0165082,-0.0716802,0.0655334,0.0817683,-0.0228683,-0.0442405,-0.0024839,0.0654543,-0.0821989,0.00485203,0.000681767,0.00773729,0.0252044,0.0437048,0.0554606,-0.0721832,-0.0341528,-0.0879863,-0.0494257,0.0742505,0.00792187,-0.057487,-0.0353129,-0.00375147,0.0930167,0.0127953,-0.0948757,-0.0259558,0.0255597,0.0408821,0.0421662,0.115267,-0.057243,0.00220443,0.00593539,0.0169109,-0.0278873,-8.67719e-05,0.0576369,-0.00587854,0.0594543,0.0842469,-0.0259968,0.102995,0.0238786,0.0254758,0.00867947,0.0443805,0.036934,0.133287,-0.0274599,0.00295389,-0.0681886,0.0613318,0.106764,0.0545914,0.0278144,-0.112496,-0.00574749
-0.0488445,0.014985,-0.000352174,0.0330181,0.0147929,-0.00144332,-0.115483,0.10345,0.00206944,0.106542,0.0151069,0.0518746,-0.0574228,-0.0656539,-0.0392687,0.0404184,-0.0452381,0.130244,-0.00294933,0.0927559,-0.0331849,0.0318078,-0.0127828,0.0671263,-0.0524991,0.00132105,-0.0583688,0.0421108,-0.0190064,-0.101473,1,-0.0526048,0.0346998,-0.0165003,-0.0867558,0.137646,0.0703056,0.0606655,-0.163567,0.103788,0.021935,-0.0522813,0.0462527,8.95509e-06,0.0734531,0.107216,0.0451399,-0.0481261,-0.0665427,-0.0390446,0.009904,-0.0699133,-0.0632795,-0.0101658,0.0135628,0.146963,0.0918627,-0.044657,-0.044861,-0.0743798
0.0452992,-0.0578711,0.0513813,0.0110045,0.0417435,0.0498335,-0.043654,0.000802815,-0.0230163,0.0830898,-0.0253279,0.0620023,0.0619921,0.0655346,0.0351869,0.0579492,-0.0821925,-0.0487846,0.00289076,-0.0661271,-0.0494714,-0.0407965,0.0645349,-0.0249304,0.0976897,0.00979262,0.00484199,0.0225377,0.0025736,0.0126657,0.0705281,0.0249971,0.006582,-0.0266697,-0.0168194,0.0827981,0.00937638,-0.0502171,-0.00749859,0.0545277,-0.0299004,-0.0738481,-0.0469037,-0.0728039,-0.0296029,0.0139165,0.0748542,0.0317417,0.0191746,-0.00482095,-0.0641966,-0.0121982,0.0414397,-0.0146252,0.129045,-0.00716912,0.0124492,-0.0961,-0.0317332,0.0443963
-0.0798058,-0.058212,0.0486198,-0.081924,0.0690558,0.0110909,-0.00303691,0.0503333,-0.0146399,0.0873042,0.0245524,0.0372231,0.0485117,0.0235188,0.0258146,-0.0801914,-0.0270948,0.001236,-0.0607044,0.0577662,0.0537718,0.0670365,0.00942619,0.114228,-0.0937443,0.0296413,0.0527753,-0.0214624,0.0714435,0.0550711,-0.0434896,0.140861,0.0817819,0.0268096,0.0586966,-0.0433915,0.10638,-0.009643,-0.0202663,0.0318968,-0.0357934,0.00957683,-0.0231483,0.0306082,0.0221473,0.0580104,0.0281771,0.11452,0.0686979,0.0135106,0.013145,-0.00746175,0.0012254,0.016461,0.00210848,-0.0426875,0.00429982,0.0065616,-0.0122636,0.00253156
-0.0113942,0.0369352,-0.0231399,-0.0196814,0.0371569,0.0575542,-0.046173,-0.0127483,0.00119492,0.0678458,0.0556358,-0.00872795,0.0469718,0.00648239,-0.0206602,-0.0300028,-0.029009,0.0166831,-0.0530569,0.0302811,0.0553249,0.081427,0.0641749,0.0454661,-0.0901395,0.0535853,0.0338802,-0.019109,0.016763,-0.0225096,0.0891055,0.0258458,-0.0474318,0.0861468,-0.0397416,0.0258569,-0.0603921,-0.0238329,0.0301901,0.0482473,-0.00465988,-0.0204037,0.0571313,0.0120991,0.0451826,-0.031587,0.0142024,0.0512807,0.0338071,0.00287833,-0.00698368,-0.0666584,0.126682,-0.00242356,-0.0144645,0.0605248,-0.0554632,-0.0388352,0.0433686,0.0749183
-0.0555882,-0.0120404,0.0621393,-0.0698572,-0.041874,0.0199088,-0.0413814,-0.0735342,0.013499,0.0819076,0.0114868,0.0648972,-0.00399,0.00275424,0.00271487,0.0163981,-0.0253651,0.114116,-0.0297128,-0.0315351,0.00488697,0.0889218,0.0380934,-0.0318565,-0.0782911,0.0387102,0.00345204,0.0186819,-0.0918561,0.068036,0.0567651,0.0544586,0.056605,-0.0110011,-0.064969,0.0946355,0.0408543,-0.0532187,-0.0343999,0.0297442,0.106498,-0.070094,-0.0286084,0.0107357,-0.0672512,-0.0510867,0.0522011,-0.0112232,-0.0424837,-0.00506351,0.00733153,-0.062488,0.0572648,-0.0840161,0.167427,-0.0837956,-0.0813149,-0.0731088,-0.0823028,-0.0854035
0.0726297,-0.139178,-0.0368074,0.00516034,0.00824295,0.0943633,-0.048865,0.010053,0.0233394,-0.0493442,-0.0731401,0.0278085,-0.0648959,0.0512259,-0.055149,0.0606048,-0.0401907,0.00349414,0.00421414,0.0253431,0.100508,0.0426369,-0.0352856,-0.00979653,-0.00987551,-0.0732581,-0.0603168,0.0189774,-0.026136,0.0879643,-0.00712998,-0.00175711,0.0191031,-0.0120433,-0.00523784,0.00102396,0.0273438,-0.0117716,-0.00555578,0.0886504,0.0687773,0.00804997,-0.00716215,-0.0316591,-0.00483329,0.119253,-0.0332794,0.0256807,-0.0352708,0.0767958,0.00145143,0.0290287,0.00165508,0.0754341,-0.0138678,-0.0101502,-0.0246903,-0.00945188,-0.00661128,0.0495801
-0.00805498,0.0826478,-0.0511307,-0.00339601,0.0643516,0.0226784,0.0345104,0.0298486,-0.019189,0.0261316,-0.0298827,0.044143,-0.0862873,-0.0454346,-0.0722027,0.0604925,-0.0778731,0.11699,0.100567,-0.0270262,-0.0595952,-0.0199421,0.011387,0.0606498,-0.0218667,-0.0367317,0.0192343,0.0310682,-0.023314,-0.0184975,-0.0893171,0.0402291,0.0342235,-0.0161177,0.0825301,-0.0207439,0.0522161,-0.118102,-0.00829653,0.0937845,0.035297,0.0439594,0.0652956,-0.0138045,-0.0173837,-0.034585,-0.0583891,0.065978,0.0731478,0.0353349,-0.0407093,0.0444367,-0.0696769,0.0907255,-0.016002,-0.0309347,-0.0160357,0.0407393,0.047538,0.0313972
-0.0140438,0.0461396,0.0165968,-0.0266421,-0.00680625,0.0325216,0.00596917,0.0558739,0.0983251,-0.00372428,0.0639785,-0.0652372,0.0281888,0.0352893,-0.105348,-0.00380277,0.128112,0.0937719,0.0327158,-0.107889,0.102204,-0.0311644,0.0718342,-0.0113037,0.0905188,-0.00959982,0.114613,-0.0309043,0.00492309,0.0332552,-0.0048339,0.0191529,-0.0232265,-0.0777285,-0.054351,-0.0202139,0.0272176,0.0124391,-0.14113,-0.031963,0.122808,0.0286314,-0.0173967,-0.0805514,0.047495,-0.0444494,-0.0464177,-0.0354576,0.080267,-0.00345678,0.0333778,-0.0434312,0.102828,0.0438222,0.0750495,-0.0442998,-0.0340157,-0.0584304,0.0289488,0.00397175
-0.0596919,0.0964391,0.0581116,-0.111138,0.00623869,0.158488,-0.0544592,0.0419409,0.0568704,0.0599351,0.0442612,0.14796,0.0110761,0.0020287,-0.0417094,0.0426976,0.0473415,0.00559241,0.00847719,-0.0529766,0.0170679,-0.137025,0.0189724,0.0449191,-0.052433,-0.00302466,0.0738347,-0.0656873,0.000109887,0.00628127,-0.0983747,-0.0614263,0.0881634,0.0478721,0.0418027,0.0348517,0.0340969,0.159576,-0.0355455,-0.000559639,-0.0255575,-0.00149154,0.00020148,-0.0436414,-0.0071808,0.0678873,0.00657621,-0.0414862,-0.0559524,-0.0417059,0.0293927,0.0229368,-0.0797919,-0.0140835,0.0734424,0.0643018,0.0283849,-0.0506857,-0.109487,-0.0887291
-0.0128795,-0.0102249,-0.0195627,0.0217549,-0.154399,-0.0353131,0.0240761,-0.0489192,-0.00744589,-0.0601052,-0.168881,-0.0280814,-0.0767605,0.075022,-0.000916798,-0.0521163,0.0372569,-0.0373955,-0.0939527,0.0157931,-0.0223861,-0.0327781,-0.0396553,0.0453806,-0.110542,-0.0263374,0.106203,-0.014242,0.0466915,0.0222862,0.0366205,-0.105127,-0.0933312,-0.0364082,-0.0399261,0.0639946,-0.0473368,-0.0752252,-0.0512462,-0.090566,-0.0306381,-0.000243424,-0.0193108,0.0507275,-0.0190476,0.0767934,0.0956611,-0.0418444,0.0537106,0.0125401,0.0410644,0.0421438,-0.0402067,0.00541301,-0.072463,-0.0214779,0.013305,0.113944,0.0123851,-0.0803559
0.0331122,-0.0709485,0.0234461,0.0815501,0.0824176,0.0736541,0.00468497,-0.104191,-0.0868462,-0.0276874,-0.0568413,0.0289053,0.0486758,0.103385,0.115815,-0.0873604,-0.0543607,0.0227618,-0.0299067,-0.0479103,-0.0583419,-0.0128655,0.0688577,-0.0117177,0.15703,0.0857111,0.0683736,-0.00264395,0.121069,0.0141486,-0.0172188,-0.0164706,0.0185519,0.0617434,-0.0426655,-0.00773168,0.0188879,-0.0610966,-0.0838463,0.125998,-0.000767141,0.0645666,0.017464,-0.0128012,-0.0532639,0.0644297,-0.0104017,-0.0046144,-0.0266301,-0.0134862,0.052877,-0.00738887,0.0540487,-0.0348401,0.0377978,0.0179276,0.0234891,0.0154155,-0.0258995,0.0391956
0.00618205,0.0329212,0.0121501,0.054083,-0.018038,0.0460335,-0.071466,0.0816585,-0.00660884,0.0184944,-0.0494661,-0.0303658,0.0145743,-0.0699778,0.0529664,0.0400627,0.00825519,0.127628,0.107876,-0.027346,0.0170525,0.00876733,0.0428846,0.000361356,-0.0125352,-0.00992397,0.00769593,0.00990293,-0.111517,0.0868003,0.00772611,-0.0422911,0.0103515,0.0601047,-0.138459,0.0211009,-0.0388107,0.0212683,-0.0148463,-0.0330684,0.0574258,0.039905,0.0302031,0.0182733,0.0420319,0.0421053,0.0509935,-0.0503086,0.0384683,-0.00197724,0.0548681,0.0134964,-0.0296475,0.0613923,-0.0147538,-0.0333407,-0.0756458,0.0255181,-0.0208858,0.0987339
0.0325669,0.107803,-0.0423779,-0.0452966,-0.00142404,-0.0241037,0.0349048,-0.0285303,0.107512,-0.0103084,-0.000474765,0.0938375,0.00952985,0.0525376,0.0631532,0.0364932,-0.0738562,-0.0517454,-0.0365957,-0.107989,-0.00986198,0.110337,-0.105517,-0.0153773,-0.0217995,0.0896245,0.0708654,0.0242206,0.0121739,-0.0530822,-0.0370549,0.0112442,-0.104737,-0.039,0.00887303,0.0106864,-0.0654227,-0.0547432,0.0244626,-0.0509871,-0.0487604,0.0971863,0.148018,0.0335206,-0.0369002,-0.0237572,-0.018844,0.0720825,0.0349082,0.0692969,-0.0347726,-0.0707771,-0.0398315,-0.0539237,0.0780853,-0.0107513,0.041096,-0.070063,0.0175136,0.0645677
-0.0422277,0.0252428,0.139579,0.0537906,-0.0663339,-0.0248973,-0.0270818,-0.100451,0.0160607,0.0667864,-0.0374148,-0.0536824,0.0144197,0.136273,-0.111696,-0.0212032,-0.018905,0.0114796,-0.0264716,-0.0936445,0.00911984,-0.0333342,-0.0156976,0.0954086,0.0134189,-0.128366,-0.0188215,-0.0429876,-0.0211439,0.028437,-0.0595596,0.0508453,-0.0780279,0.0162195,-0.0640291,0.052667,0.00167354,-0.177554,0.0323901,0.0174384,-0.0191066,0.00326725,0.0250189,0.0719765,-0.0459767,-0.0342423,-0.0467362,-0.0812517,-0.0190612,-0.0183952,-0.0253013,0.0745664,-0.018474,0.0051911,-0.0476349,-0.108128,0.0264398,-0.0643933,-0.0227089,-0.0965916
0.0437184,0.116236,0.0298243,-0.0635756,-0.0881009,0.0546285,0.00451643,-0.0127799,-0.0397786,-0.0392619,-0.078418,0.0329181,0.0173169,0.0993323,0.116491,-0.0349266,-0.0355758,-0.0620293,0.00694442,-0.102531,0.0115018,-0.00305205,-0.139311,-0.0687303,-0.0709519,0.127715,-0.0658197,0.0253688,-0.0138618,0.116292,0.0454087,-0.0341926,-0.0546885,-0.0284343,-0.0243313,0.0732264,0.0638282,0.0466154,-0.061485,0.00998667,0.00431615,0.0259641,-0.0273055,0.043352,0.0561966,0.0519076,0.124386,0.0565974,-0.00139525,-0.0435524,0.142565,0.135378,-0.0837941,-0.0130168,0.0339537,-0.0136483,0.00255449,-0.0897586,-0.00866042,0.0457593
0.0102662,0.113737,-0.100043,0.0628537,-0.00471869,0.0132937,0.067441,0.0111378,-0.0290789,0.0516079,0.052417,-0.0409264,0.0379886,-0.013991,0.0102337,-0.0875751,0.0572801,-0.020179,-0.0627882,-0.00318009,-0.0744163,0.0192449,-0.00612629,-0.0224881,0.0517179,0.00339113,0.0109796,-0.0345986,0.000854594,0.0599903,0.130408,0.133849,0.064995,-0.0757303,0.0695799,0.0371338,-0.0247088,0.0390854,0.0834215,-0.0296875,-0.0388572,0.00662294,0.0677135,0.0208672,-0.0972718,0.00525265,0.0464277,0.0489659,0.0273396,-0.0105174,0.0428181,-0.0278936,-0.0253265,0.0107905,-0.0147874,-0.0305354,0.0625648,0.0275473,0.0155564,0.0697129
-0.00800544,0.0559733,0.0300179,-0.0130381,0.0690987,-0.0484842,0.128838,0.117196,-0.00534526,-0.00784941,0.0284844,0.139098,-0.0231469,0.0528561,0.0649934,-0.0178844,-0.0305356,0.012063,0.0377082,0.062355,0.00764517,-0.009872,0.0380017,-0.0277553,0.023031,0.0187487,0.0288651,-0.0590107,0.0955815,-0.0318772,-0.0189925,0.0746004,-0.0276908,0.00969685,0.0496041,0.00563066,-0.0702606,-0.00438827,-0.0820695,0.0030191,0.0301845,0.0524312,0.00532215,-0.0824008,0.0942766,0.0284156,0.068355,-0.13311,0.0736701,0.059094,-0.036335,0.0601535,0.0580806,0.0587659,-0.036336,-0.00443079,-0.026288,-0.0531116,0.0562743,0.0325858
-0.133634,0.115833,-0.0582953,0.0291561,0.121345,-0.0582458,-0.100759,0.0405618,-0.0614119,0.0236905,0.0723076,-0.053708,0.0589987,0.00723092,0.0910205,-0.0215475,-0.0600878,0.0858236,0.0181869,0.025437,0.065059,0.0942643,0.0129848,0.0292481,-0.0231618,-0.043793,-0.0222241,0.0291972,-0.0589216,-0.0792292,-0.0236228,-0.0595899,-0.0500076,0.0683881,0.00478886,0.000981499,0.0718819,-0.0374952,-0.105074,0.0711778,0.0349096,-0.0452468,0.0424106,-0.02149,0.0766198,0.0140612,-0.0788444,-0.0996127,-0.0667052,0.0173999,-0.0490666,0.0896417,0.0577555,0.00511328,-0.0233352,0.0409748,-0.0333607,-0.0285364,-0.0129449,0.0859234
0.0340088,0.0275337,0.0942957,-0.00941722,-0.0405023,0.0206351,-0.074066,0.0921349,0.0484228,0.0285967,0.0687544,0.00394574,0.118022,-0.0102655,0.0452498,-0.0277457,-0.0341142,-0.0328241,0.00203227,-0.0328641,0.0478054,0.0218114,-0.107413,0.0389236,-0.0160547,-0.0175575,0.0402629,-0.0507017,0.0872161,-0.0514805,0.13914,-0.0477428,-0.0455627,-0.0281304,0.0142604,0.0252859,-0.0746454,-0.0553254,-0.089351,-0.0114356,-0.0186664,0.0778314,0.0931351,0.00327726,0.0431425,0.0800015,-0.0371283,0.0317008,-0.00936865,-0.0181574,-0.0112218,-0.0728365,0.0556081,-0.00956257,-0.0769943,0.0872273,-0.0409093,-0.0403872,-0.00311258,0.0198872
-0.0351965,-0.000273975,-0.0436877,-0.143423,-0.0160102,-0.0115474,0.0564384,0.0880082,-0.0821279,0.0150605,0.0912907,-0.0143651,-0.00641184,-0.0549647,0.0467474,0.0361425,0.00760829,0.0546323,-0.0925341,-0.0298273,-0.00669614,-0.061421,0.0485603,0.0696748,0.0510815,0.0496587,0.00162992,-0.00226664,-0.0423812,-0.00712821,-0.0572991,-0.0931692,0.0417964,-0.0831956,-0.00112301,0.0502229,-0.0929568,-0.168716,-0.0829381,0.0256191,0.149639,-0.0718396,-0.0107319,0.0138579,-0.0379703,-0.0999501,0.0300507,-0.00407764,-0.0354313,0.0492257,-0.00873473,-0.100832,0.0982999,-0.0374545,-0.0173594,-0.00929478,0.0841956,-0.0171483,0.142468,0.116209
0.013399,-0.0863681,0.0257414,0.0503885,-0.000412116,-0.00304231,-0.00455935,-0.0135691,-0.0364918,-0.0465955,0.0242376,0.0213568,0.109249,-0.0433341,-0.0217655,-0.0635739,-0.0499333,0.0289352,0.123794,0.0131712,0.104401,-0.0146708,0.0114528,-0.0105596,-0.0668844,0.010316,0.165311,-0.00288214,0.0212033,-0.0468516,-0.067905,-0.0261939,-0.0305695,-0.0834519,0.0117274,0.0412878,0.0228135,0.0886982,0.0688302,-0.0172022,0.072627,0.0746977,0.0168498,0.118477,-0.0103394,0.0568944,-0.09615,0.0399691,-0.0374211,-0.00770574,-0.0100721,0.0266226,0.0380057,0.0327517,-0.00346521,-0.0168901,0.0539171,-0.0519555,-0.0704835,0.0359061
0.00616728,0.0423755,-0.00642398,0.0431659,0.116192,-0.010925,0.112066,0.040889,-0.0231393,-0.0213065,0.0393913,-0.0134047,-0.0664532,0.0318828,0.0103073,-0.0482025,0.0129321,-0.0540662,0.00840687,-0.0716056,0.0679962,0.066384,-0.0370917,0.046992,0.0540883,0.0604865,-0.0544283,-0.0578893,-0.0342976,-0.0173096,0.0253602,-0.0734419,-0.0722742,0.0940428,-0.112268,0.127785,0.055718,0.0527543,0.0150691,0.0516468,0.128083,-0.0171298,0.104821,0.0121839,-0.0444168,0.0985465,0.101203,0.0555948,0.0493829,0.0259562,-0.0382529,-0.0435772,0.0667756,-0.0102166,0.00706788,0.0126466,-0.0466906,-0.070864,0.0802959,-0.00991948
-0.0466104,0.0945021,0.0473952,-0.0713801,0.0660693,0.0082891,-0.0434338,0.0422853,0.0250484,0.015985,-0.0454847,-0.0154966,-0.0401837,0.00293861,0.00103357,0.0445337,0.0518401,0.0185634,-0.0602474,0.0971934,0.0417352,-0.0349188,-0.0969311,0.0493337,-0.077884,0.0918443,-0.0360979,-0.0974174,0.0313002,0.0544616,0.0998323,0.0267137,0.0156896,-0.0304459,-0.105598,0.0206272,0.0408502,0.0195728,-0.00213328,-0.0452958,0.0201716,-0.109582,-0.0985276,-0.0815582,0.0158182,-0.0454109,-0.0134595,-0.038465,-0.00729338,0.033332,-0.0589997,0.0147147,-0.00477382,-0.0726117,-0.00253089,0.021632,0.0299281,-0.0241385,0.0138047,0.0601882
-0.00715256,0.0168999,0.13362,-0.0617001,-0.118023,-0.0654443,0.0834197,-0.00101353,0.0566166,0.0931842,0.00100719,-0.0572329,-0.0933055,-0.0247787,-0.0483946,-0.0375303,0.0233331,0.0730431,0.041051,0.0311036,-0.0685033,-0.0150753,-0.0105288,0.00273482,0.0794258,-0.0586558,0.0586588,-0.0115647,-0.0818376,0.0634169,0.0578517,-0.019635,0.0335767,0.013649,0.0244889,0.0406568,-0.0610729,0.0675421,-0.0129802,-0.0258841,-0.148036,-0.0750491,-0.0481337,0.0845632,-0.0703227,-0.024559,0.00255629,0.0652644,-0.0287703,-0.118175,0.0394554,-0.0669983,-0.0734193,0.0837145,0.0292245,-0.000861071,0.087911,-0.0491685,-0.0650202,0.0118218
-0.0830675,-0.00807814,-0.00422741,0.0862274,-0.0399765,0.00917529,-0.111306,0.0358334,-0.00202582,0.0339809,0.0979337,0.0263746,-0.0178458,-0.0731816,0.0701467,0.0171984,-0.146358,0.000174682,0.0631748,-0.108118,0.0619512,-0.0129279,0.0895629,-0.0172276,0.232402,0.0957174,-0.0850136,0.0185194,-0.0148202,-0.011491,-0.0131439,-0.0581265,0.0143619,0.0578309,-0.0602536,0.0266848,0.117242,-0.110249,-0.0304807,-0.0336794,-0.0898369,0.0116367,-0.0197516,0.0620531,0.0418453,-0.0408472,0.00867748,0.0196505,-0.0325821,0.0268457,0.00532377,0.0688091,-0.0329287,0.00205561,-0.00794687,0.00471864,-0.0455972,0.00360913,0.0025675,0.00446216
-0.0176168,0.069488,0.0448624,0.0275086,0.0450529,0.0412357,0.0659559,-0.0952537,-0.110999,-0.00184838,0.0475176,0.0504339,0.0323785,-0.0537863,-0.0736271,0.0546935,0.0170996,0.0900283,-0.00516004,-0.0943796,-0.00279531,0.0377871,-0.000457286,-0.144477,-0.0519594,0.0120106,-0.0603682,0.0393048,0.0207898,0.00959839,0.023738,-0.0854285,0.112853,-0.0115716,-0.0373272,0.0389438,-0.00989087,-0.0925475,0.0803934,0.0503082,0.0337482,-0.0768812,0.0933525,-0.00874541,0.038943,-0.0118348,-0.0216856,-0.0316156,0.0953598,0.0435597,-0.0452362,-0.0215974,0.0909129,-0.0595041,-0.0176588,-0.00353213,0.0260628,-0.0257574,0.0549713,0.00688403
-0.0306347,-0.114417,0.00500495,-0.00132886,0.0685855,0.00894838,-0.106009,0.063833,-0.125286,-0.0319182,0.0528319,0.00769581,0.0531059,-0.0194916,0.0281525,0.0287935,-0.0300246,0.0694516,0.0470238,0.0901608,-0.0676988,-0.0385784,-0.091195,-0.0132996,0.0102564,-0.0214018,0.0580863,0.0153907,-0.0671558,-0.0233174,0.0431647,-0.0216802,-0.0246125,-0.0823561,0.0156156,0.0566608,0.0120195,-0.0747262,0.0916321,0.121546,0.00553298,-0.0133972,0.0320185,0.0946623,0.00165241,-0.0455464,0.0406688,0.0574079,-0.0367721,0.111453,-0.0249595,-0.112572,0.0248068,-0.0804452,0.0764752,-0.120418,-0.0142968,-0.00350926,0.156941,-0.00389771
0.00612225,-0.0982113,0.0677981,-0.0675177,0.0631124,-0.00500518,0.13711,-0.0612748,-0.00186521,0.0526734,-0.0308838,0.0342237,0.167234,0.0514587,0.14096,-0.0305394,-0.0676995,-0.0199713,0.108925,0.00285549,0.0248491,0.0170557,-0.00103139,-0.00515172,0.042122,-0.0284033,-0.0873754,-0.00203572,-0.101379,0.0688317,0.00145625,-0.0449345,-0.0155195,0.0490117,-0.0357278,-0.110379,0.045389,0.0826146,0.0129917,0.00467169,0.0551823,-0.00427679,-0.0110367,0.105462,-0.0696603,-0.0862197,0.0380737,0.0163202,-0.0198108,-0.0208309,0.0677684,0.0206526,-0.0213699,-0.00230984,0.016357,0.0258872,-0.0561102,0.11116,0.00893379,0.0654068
-0.0399192,-0.0294236,-0.0657098,0.0671012,-0.0414876,0.0168299,-0.0475268,0.0121819,0.0102359,0.046243,0.0719277,-0.0332342,-0.0356805,-0.0821052,0.00184292,0.0850419,0.0421556,-0.0408812,-0.0680557,0.0483733,-0.0305176,-0.0315976,0.0770928,-0.00311485,-0.0733957,-0.0104043,0.12963,0.104021,0.00443571,0.125779,0.0448746,0.0611746,-0.047609,0.0490181,-0.0353616,0.0393846,-0.0474996,-0.0188964,-0.0688447,0.0364814,-0.0720528,0.0646912,-0.0271465,0.0136957,0.0327425,0.00697015,-0.00664587,0.0419081,0.0734524,-0.0248411,0.00883162,-0.000889793,0.0569782,0.0381085,-0.0291713,-0.046356,0.00767538,-0.00561162,-0.0261472,0.0175044
-0.0744939,0.170478,0.0465717,0.0672752,-0.0366819,-0.127855,0.0967789,0.0463658,-0.0154171,-0.0538965,-0.0138797,-0.00773731,0.053253,-0.0317127,-0.100416,-0.03947,-0.0264023,0.0473894,0.057788,0.0277632,-0.0270858,0.0133192,-0.0860617,0.043335,-0.00394608,0.0296663,0.00923782,-0.00596682,0.0819268,0.0481345,0.0677112,0.0871636,0.0141156,0.0319228,-0.0333265,-0.103008,0.0321589,0.00506717,0.00152836,-0.036138,0.0473371,0.0196951,-0.0397878,-0.00756485,0.0430414,-0.0395054,-0.0573572,-0.0441758,0.0368651,-0.0177134,0.0674419,0.0542612,0.0184377,-0.114804,0.0549565,-0.0098978,-0.0888089,-0.0923602,-0.0420644,0.0542424

max: 1
min: -0.177554
avg: 0.0047168
