1.00321,1.00357,1.00385,1.00331,1.00339,1.00323,1.00314,1.00338,1.00327,1.00349,1.00317,1.00312,1.00314,1.00323,1.00343,1.00329,1.0036,1.0035,1.00325,1.00351,1.0031,1.00378,1.00376,1.00369,1.00336,1.00308,1.0036,1.00333,1.00338,1.00358,1.00373,1.0034,1.00313,1.00379,1.00323,1.00322,1.00335,1.00313,1.00346,1.00326,1.00339,1.00338,1.00363,1.00311,1.00332,1.00323,1.00291,1.00336,1.00334,1.00342,1.00325,1.00345,1.00345,1.00336,1.00353,1.00361,1.00347,1.00316,1.00349,1.00358
1.00354,1.00297,1.00371,1.00348,1.0032,1.00352,1.00319,1.00324,1.00347,1.00346,1.00353,1.00317,1.00341,1.0037,1.00318,1.00348,1.0037,1.00337,1.00319,1.00329,1.00299,1.0032,1.00332,1.00314,1.00349,1.00306,1.00366,1.00338,1.00326,1.00381,1.00303,1.00355,1.00325,1.00321,1.00334,1.00323,1.00323,1.00354,1.00337,1.00354,1.00342,1.00312,1.00341,1.00338,1.00348,1.003,1.00348,1.00317,1.00362,1.00335,1.00322,1.0034,1.00332,1.00308,1.0033,1.00338,1.00325,1.00311,1.00319,1.0039
1.00313,1.0033,1.00324,1.00328,1.0033,1.00351,1.00324,1.00369,1.0034,1.00349,1.00343,1.0038,1.00358,1.00347,1.00332,1.00333,1.00344,1.00315,1.00342,1.00385,1.00328,1.00366,1.00347,1.00325,1.00326,1.00346,1.00306,1.0033,1.00351,1.00356,1.00338,1.00341,1.00321,1.00325,1.00352,1.00314,1.00314,1.00345,1.00332,1.00358,1.00347,1.00319,1.00304,1.00323,1.00362,1.00339,1.00291,1.00328,1.00322,1.00339,1.00346,1.0032,1.0033,1.00368,1.00292,1.00355,1.00364,1.00327,1.00334,1.00326
1.00339,1.00317,1.00321,1.00316,1.00357,1.00322,1.00294,1.00389,1.00331,1.00321,1.0035,1.00351,1.00358,1.0032,1.00348,1.0038,1.00336,1.00357,1.00338,1.00353,1.00355,1.00336,1.0034,1.00346,1.00341,1.00338,1.00368,1.00291,1.00353,1.00378,1.00327,1.00348,1.00309,1.00316,1.0036,1.0034,1.00299,1.00354,1.00296,1.00316,1.00344,1.00346,1.00343,1.0029,1.00331,1.00344,1.00347,1.00341,1.00353,1.00329,1.00312,1.00351,1.00303,1.0036,1.00307,1.00355,1.00332,1.00315,1.00351,1.00337
1.00332,1.00319,1.00335,1.00328,1.00365,1.0032,1.00356,1.00318,1.00341,1.00326,1.00325,1.0035,1.00318,1.00337,1.00311,1.00335,1.00303,1.00306,1.00365,1.00342,1.00363,1.00329,1.00313,1.00332,1.00347,1.00323,1.00327,1.00338,1.00303,1.00353,1.00315,1.00352,1.00355,1.00324,1.00335,1.00315,1.00318,1.00347,1.0035,1.0033,1.00318,1.00282,1.00379,1.00339,1.00335,1.00337,1.00338,1.00362,1.00295,1.0035,1.00323,1.00317,1.00357,1.00314,1.00337,1.00318,1.00335,1.00322,1.00326,1.00338
1.0033,1.00339,1.00323,1.00342,1.00318,1.0031,1.00309,1.0033,1.00299,1.00372,1.0032,1.00333,1.00336,1.00353,1.00311,1.00343,1.00312,1.00335,1.00298,1.00335,1.00355,1.00352,1.00345,1.00338,1.00342,1.00352,1.00326,1.00329,1.00309,1.00336,1.00352,1.00342,1.00361,1.00345,1.00338,1.00371,1.00358,1.00312,1.00346,1.00352,1.00354,1.0035,1.00346,1.00372,1.00312,1.00345,1.0035,1.00318,1.00323,1.00344,1.00323,1.00327,1.00335,1.00333,1.00364,1.00324,1.00307,1.00317,1.00346,1.00375
1.00338,1.00354,1.00331,1.0033,1.00352,1.00333,1.00357,1.00326,1.0031,1.00342,1.0033,1.0034,1.00314,1.00366,1.00342,1.00309,1.0035,1.00331,1.00359,1.00332,1.00326,1.00316,1.00324,1.0037,1.00326,1.00368,1.0032,1.00325,1.00332,1.00315,1.00334,1.00355,1.00337,1.00375,1.00338,1.00362,1.00367,1.00383,1.00335,1.00351,1.00325,1.00354,1.00378,1.00325,1.00345,1.00337,1.00336,1.00363,1.00326,1.0033,1.00344,1.00304,1.00308,1.00306,1.00351,1.00349,1.00353,1.00329,1.00316,1.00315
1.00317,1.00341,1.00337,1.00356,1.00314,1.0035,1.00323,1.00296,1.00393,1.00335,1.00319,1.0034,1.00341,1.00329,1.00327,1.00362,1.00327,1.00327,1.00349,1.00378,1.00324,1.0032,1.0031,1.00341,1.00323,1.00292,1.00375,1.00307,1.00325,1.0034,1.00355,1.00368,1.00345,1.00343,1.00367,1.00353,1.00387,1.00355,1.00348,1.00314,1.00327,1.00326,1.00332,1.00339,1.00356,1.00352,1.00322,1.00358,1.00352,1.0036,1.00307,1.00332,1.0032,1.00339,1.00338,1.00309,1.00337,1.00353,1.00357,1.00369
1.00332,1.00311,1.00376,1.00326,1.00356,1.00321,1.00296,1.00369,1.00343,1.00351,1.00352,1.00303,1.00342,1.00324,1.00343,1.00331,1.00309,1.00329,1.00321,1.00308,1.00332,1.00334,1.00342,1.0035,1.00317,1.00327,1.00334,1.00303,1.00308,1.00331,1.00329,1.00347,1.003,1.00339,1.00322,1.00365,1.00324,1.00311,1.00365,1.00314,1.00336,1.00332,1.00345,1.0034,1.00357,1.0036,1.00324,1.00341,1.00337,1.00326,1.00308,1.00348,1.00308,1.00343,1.00308,1.00306,1.00357,1.00338,1.00319,1.0034
1.0034,1.00342,1.00381,1.00374,1.0034,1.00325,1.00314,1.0033,1.00363,1.00322,1.00325,1.00328,1.00326,1.00354,1.00351,1.00344,1.00349,1.00359,1.00328,1.00335,1.00357,1.00348,1.00358,1.00349,1.00333,1.00315,1.00344,1.00349,1.00324,1.00366,1.00342,1.00341,1.00353,1.0031,1.00337,1.00363,1.00344,1.00324,1.00341,1.00316,1.00306,1.00369,1.00361,1.00322,1.00331,1.00307,1.00364,1.00322,1.00315,1.00354,1.00335,1.00341,1.00312,1.00413,1.00338,1.00296,1.00336,1.00331,1.00346,1.00326
1.00354,1.00337,1.00359,1.00347,1.00356,1.00323,1.00327,1.00367,1.00364,1.00319,1.00349,1.00362,1.00345,1.00334,1.00341,1.00392,1.00313,1.00393,1.00318,1.0033,1.00365,1.00335,1.00352,1.00307,1.00351,1.00329,1.00346,1.00333,1.00332,1.00351,1.00351,1.00337,1.00332,1.00339,1.00337,1.00389,1.00345,1.00332,1.00364,1.00343,1.0035,1.00364,1.00354,1.00342,1.00315,1.00306,1.00318,1.00336,1.00386,1.00316,1.00336,1.0035,1.0038,1.00298,1.00361,1.00358,1.00336,1.00313,1.0033,1.00302
1.0033,1.00341,1.00289,1.00331,1.0034,1.00329,1.00338,1.0034,1.00316,1.00327,1.00319,1.00319,1.00323,1.00325,1.00305,1.00339,1.00336,1.003,1.00357,1.00331,1.00354,1.00321,1.00354,1.00343,1.00325,1.00368,1.00348,1.0033,1.00354,1.00317,1.00362,1.00361,1.0032,1.00311,1.00344,1.00352,1.0033,1.00334,1.00337,1.00313,1.00332,1.00334,1.00306,1.00332,1.00331,1.00363,1.00341,1.0035,1.00328,1.00296,1.00356,1.00325,1.00313,1.00355,1.0034,1.00358,1.00315,1.00312,1.00346,1.00376
1.00296,1.00336,1.00366,1.00344,1.00287,1.00358,1.00341,1.00341,1.00339,1.00341,1.00302,1.00347,1.00343,1.00336,1.00298,1.0034,1.00383,1.00355,1.00345,1.00323,1.00364,1.00347,1.0038,1.00299,1.00339,1.00337,1.00302,1.00305,1.00333,1.00328,1.0033,1.0034,1.00295,1.00336,1.00309,1.00305,1.00312,1.00349,1.00314,1.00327,1.00382,1.0034,1.00333,1.00306,1.00329,1.00374,1.00338,1.0033,1.00344,1.00333,1.00331,1.00367,1.00337,1.00326,1.00346,1.0034,1.0032,1.003,1.00332,1.0037
1.00344,1.00363,1.00345,1.0032,1.00395,1.00327,1.00318,1.00364,1.00353,1.00322,1.0033,1.00355,1.00379,1.0033,1.00329,1.00326,1.00312,1.00319,1.00344,1.00372,1.00333,1.00335,1.00349,1.00327,1.00321,1.00318,1.00378,1.00321,1.00337,1.00319,1.00366,1.00312,1.00359,1.00304,1.0031,1.00327,1.00338,1.00319,1.00305,1.00386,1.00329,1.00342,1.00355,1.00333,1.00333,1.00334,1.00339,1.00359,1.00341,1.00345,1.00326,1.00317,1.00338,1.0034,1.00367,1.00334,1.00319,1.00334,1.00337,1.00352
1.00368,1.00348,1.00309,1.00317,1.00352,1.00345,1.00339,1.00314,1.00323,1.00331,1.0035,1.00315,1.00317,1.00333,1.0035,1.00324,1.0037,1.00317,1.00297,1.00301,1.00321,1.00359,1.00321,1.00306,1.00339,1.00385,1.00343,1.0036,1.00314,1.00354,1.00339,1.00344,1.0035,1.00271,1.00351,1.00314,1.00277,1.00322,1.00344,1.00317,1.00326,1.00315,1.00302,1.0031,1.00323,1.00306,1.00306,1.0035,1.00313,1.00318,1.00314,1.00321,1.00355,1.00323,1.00319,1.00372,1.00295,1.00348,1.00343,1.00307
1.00322,1.00301,1.00322,1.00336,1.00332,1.00306,1.0035,1.00349,1.0035,1.00341,1.00341,1.00323,1.00314,1.00323,1.0035,1.00336,1.0034,1.00324,1.00317,1.00332,1.00328,1.0032,1.00311,1.00347,1.00328,1.00311,1.00342,1.00322,1.00319,1.00333,1.00305,1.00333,1.00303,1.00333,1.0036,1.00331,1.00325,1.00327,1.0035,1.00338,1.00324,1.00329,1.00361,1.00333,1.00345,1.00346,1.00314,1.00354,1.00342,1.00327,1.00333,1.00338,1.00301,1.00342,1.00333,1.00361,1.00331,1.00327,1.00354,1.00339
1.00344,1.00347,1.00315,1.00335,1.00315,1.00344,1.00352,1.00352,1.00348,1.00334,1.00358,1.00294,1.00356,1.00345,1.00334,1.00322,1.00341,1.00381,1.00335,1.00316,1.0034,1.0032,1.00337,1.00318,1.00362,1.00342,1.0033,1.00328,1.00363,1.00314,1.00333,1.00332,1.00342,1.00329,1.00318,1.00335,1.00313,1.00343,1.00346,1.00351,1.00338,1.00307,1.00312,1.00359,1.00326,1.00306,1.00305,1.00348,1.00357,1.00342,1.00361,1.00319,1.00318,1.00319,1.00323,1.00326,1.00339,1.00348,1.00325,1.00357
1.00294,1.0033,1.00313,1.00321,1.00347,1.00353,1.00359,1.00335,1.00361,1.0033,1.00341,1.00332,1.00315,1.00331,1.00352,1.00321,1.0038,1.0029,1.00342,1.00319,1.00344,1.00336,1.00322,1.00299,1.0034,1.00336,1.00332,1.00327,1.00331,1.00326,1.00338,1.00314,1.00342,1.00322,1.0034,1.00321,1.00312,1.00327,1.00275,1.00329,1.00349,1.00342,1.00331,1.00339,1.00351,1.00305,1.00358,1.00362,1.00355,1.00318,1.00343,1.0035,1.00373,1.00362,1.0033,1.00338,1.00333,1.0033,1.00337,1.00339
1.00306,1.00316,1.00334,1.00352,1.00325,1.00357,1.00312,1.00362,1.00316,1.00332,1.00328,1.00325,1.00316,1.00305,1.00335,1.00374,1.00357,1.003,1.00363,1.00366,1.00325,1.00316,1.00328,1.00318,1.00323,1.00384,1.00317,1.00332,1.00315,1.00343,1.00353,1.00334,1.00307,1.00322,1.00315,1.00362,1.00307,1.00329,1.00322,1.00314,1.00309,1.00345,1.00325,1.00326,1.00325,1.00345,1.00328,1.00346,1.00348,1.00357,1.00335,1.00345,1.00284,1.00327,1.00389,1.0034,1.00325,1.00351,1.0032,1.00369
1.00376,1.00298,1.00361,1.00313,1.00301,1.00314,1.00325,1.00321,1.00341,1.0033,1.00318,1.00394,1.00358,1.00318,1.00382,1.0033,1.00344,1.00359,1.00341,1.00314,1.00336,1.00324,1.00343,1.00338,1.0034,1.00337,1.00326,1.00357,1.00332,1.0031,1.00369,1.00298,1.0036,1.00312,1.0035,1.00366,1.00354,1.00335,1.00352,1.00325,1.0032,1.00322,1.0034,1.00354,1.00342,1.00326,1.00351,1.00322,1.00325,1.00325,1.00344,1.0034,1.0033,1.00299,1.00347,1.00349,1.00339,1.00343,1.00323,1.00336
1.00369,1.00324,1.00358,1.00341,1.00341,1.00329,1.00364,1.00331,1.00299,1.0032,1.00349,1.00324,1.0037,1.00349,1.00353,1.00336,1.00374,1.00353,1.00307,1.00372,1.0034,1.00349,1.00403,1.00341,1.00343,1.00378,1.00326,1.00352,1.0034,1.0036,1.00314,1.0031,1.00346,1.00344,1.00323,1.00316,1.00361,1.00326,1.00374,1.00349,1.00342,1.00338,1.00312,1.00314,1.00339,1.00309,1.00312,1.00327,1.00308,1.00299,1.00321,1.00363,1.00343,1.00312,1.00304,1.0036,1.00336,1.00348,1.00353,1.00326
1.00343,1.00301,1.00354,1.0032,1.00303,1.00339,1.00337,1.00321,1.00325,1.00332,1.00373,1.00334,1.00329,1.00343,1.0035,1.00363,1.00353,1.00315,1.00379,1.00329,1.00359,1.00342,1.00382,1.00326,1.00366,1.00351,1.00332,1.00329,1.00321,1.00371,1.0037,1.00341,1.00354,1.00291,1.00309,1.00341,1.00323,1.00317,1.00333,1.00358,1.00359,1.00336,1.00308,1.00327,1.00342,1.00315,1.00305,1.00355,1.00375,1.0032,1.00322,1.00358,1.00327,1.00322,1.0037,1.00344,1.00328,1.00362,1.0035,1.00325
1.00321,1.00309,1.00343,1.00333,1.00332,1.00332,1.00365,1.003,1.00342,1.00351,1.00339,1.00328,1.00333,1.00336,1.00337,1.00329,1.00305,1.00306,1.00334,1.00363,1.00349,1.00366,1.00351,1.00337,1.00287,1.00319,1.00358,1.00352,1.0033,1.00376,1.00344,1.00312,1.00292,1.00337,1.00356,1.00335,1.00339,1.00341,1.00339,1.00347,1.00337,1.00342,1.00362,1.00363,1.00335,1.00321,1.00321,1.0032,1.00336,1.00305,1.00322,1.00336,1.00343,1.0035,1.00317,1.00355,1.00313,1.00315,1.00323,1.00309
1.00345,1.00335,1.00307,1.00345,1.00373,1.00335,1.00375,1.00364,1.00351,1.00343,1.00337,1.00354,1.0032,1.00341,1.00303,1.00334,1.00329,1.00356,1.00331,1.00332,1.00306,1.00347,1.00337,1.00351,1.00313,1.00304,1.00329,1.00354,1.00319,1.0031,1.00348,1.00325,1.00337,1.00362,1.00329,1.00323,1.00318,1.00332,1.00331,1.0035,1.00332,1.00327,1.0033,1.00333,1.00323,1.00352,1.00336,1.00357,1.00327,1.00315,1.0032,1.00337,1.00341,1.00337,1.00333,1.00337,1.00301,1.00385,1.00343,1.00355
1.0035,1.00315,1.00338,1.00314,1.0037,1.00307,1.00311,1.0032,1.00357,1.00323,1.00327,1.00387,1.00323,1.00309,1.00322,1.00347,1.00306,1.00326,1.0033,1.00306,1.00372,1.00353,1.00305,1.00341,1.00337,1.00338,1.00355,1.0033,1.00334,1.00319,1.00304,1.00327,1.00362,1.00346,1.00326,1.00326,1.00333,1.00329,1.00336,1.00324,1.00332,1.00341,1.00345,1.0031,1.00354,1.0034,1.0036,1.00341,1.0034,1.00359,1.00341,1.00333,1.00348,1.00321,1.00358,1.00364,1.00328,1.00323,1.00339,1.00351
1.00363,1.00327,1.00361,1.00348,1.00351,1.00327,1.00349,1.0033,1.00333,1.00338,1.00375,1.00393,1.00297,1.00368,1.00339,1.00353,1.0033,1.00359,1.00378,1.00373,1.00343,1.00305,1.00356,1.00322,1.00351,1.00321,1.00343,1.00358,1.0037,1.00332,1.00314,1.00353,1.00331,1.00335,1.00312,1.0035,1.00381,1.00299,1.00314,1.00365,1.00343,1.00316,1.00344,1.0032,1.00359,1.00305,1.00341,1.00342,1.00353,1.00359,1.00356,1.00388,1.0031,1.00341,1.00342,1.00277,1.00329,1.00376,1.00336,1.00324
1.00368,1.00323,1.003,1.0035,1.00352,1.00393,1.00357,1.00343,1.00332,1.00317,1.0033,1.00309,1.00362,1.00334,1.00325,1.00363,1.00335,1.00296,1.00331,1.00342,1.00361,1.00309,1.00362,1.0032,1.00339,1.00339,1.00341,1.00345,1.00308,1.00319,1.00371,1.00342,1.00348,1.00319,1.00363,1.0037,1.00339,1.00321,1.00348,1.00295,1.00341,1.00332,1.00324,1.00349,1.00308,1.00353,1.0037,1.0034,1.00365,1.00332,1.0035,1.00329,1.00349,1.00316,1.0037,1.00345,1.00341,1.00307,1.0032,1.00336
1.00384,1.00338,1.00324,1.00348,1.00313,1.00354,1.00338,1.00319,1.00358,1.00348,1.00317,1.00319,1.00357,1.0031,1.00362,1.00354,1.00344,1.00324,1.00323,1.00302,1.00324,1.0034,1.0035,1.00325,1.00334,1.0037,1.00334,1.00328,1.00351,1.00328,1.00374,1.00346,1.00342,1.00301,1.00344,1.00305,1.00307,1.00325,1.00333,1.00341,1.00306,1.00302,1.00372,1.00316,1.00345,1.00354,1.00343,1.00376,1.0034,1.00354,1.00341,1.00324,1.00377,1.00359,1.00347,1.00343,1.00335,1.00327,1.00348,1.00338
1.00286,1.00319,1.00329,1.0032,1.00341,1.00322,1.0036,1.00338,1.00338,1.00382,1.00316,1.00327,1.00334,1.00345,1.0032,1.00341,1.00324,1.00315,1.00339,1.00348,1.00354,1.00303,1.00383,1.00329,1.00321,1.00344,1.00312,1.00333,1.00311,1.0032,1.00325,1.00335,1.00319,1.00349,1.00314,1.00321,1.00323,1.00376,1.00315,1.00331,1.00341,1.0035,1.00348,1.00337,1.0031,1.0032,1.00325,1.00326,1.003,1.00315,1.0037,1.00317,1.00372,1.00355,1.00321,1.00382,1.00338,1.00331,1.00366,1.00374
1.00317,1.00336,1.00342,1.00316,1.00324,1.00286,1.00349,1.00361,1.00335,1.00307,1.00325,1.00344,1.00303,1.0029,1.0034,1.00338,1.00336,1.00338,1.00308,1.00345,1.00338,1.00311,1.00326,1.0033,1.00366,1.00372,1.00284,1.00323,1.00349,1.00357,1.00321,1.0034,1.00345,1.00342,1.00341,1.00335,1.00359,1.00293,1.0033,1.0035,1.00361,1.00335,1.0033,1.0032,1.0033,1.0035,1.00311,1.00339,1.00306,1.00304,1.00315,1.00325,1.00364,1.00329,1.00324,1.00323,1.00358,1.00332,1.00349,1.00336
1.00664,1.00349,1.0031,1.00305,1.00308,1.0034,1.00334,1.00357,1.00339,1.00358,1.00329,1.00337,1.00339,1.003,1.00369,1.00333,1.00333,1.00344,1.00327,1.00341,1.00306,1.00319,1.00332,1.00324,1.00351,1.00344,1.00346,1.00354,1.0036,1.00361,1.00338,1.00369,1.00329,1.00317,1.00313,1.00307,1.00334,1.00328,1.00332,1.00338,1.00314,1.00338,1.00317,1.00343,1.00311,1.0033,1.00354,1.00322,1.00328,1.00343,1.00325,1.0036,1.00346,1.00343,1.0032,1.00331,1.0037,1.00323,1.00332,1.00318
1.00353,1.00322,1.00305,1.0032,1.00339,1.00347,1.00366,1.00313,1.00326,1.00319,1.00301,1.00317,1.00338,1.00354,1.00326,1.00376,1.00283,1.00332,1.00327,1.00307,1.00352,1.00341,1.00357,1.00311,1.00317,1.00339,1.003,1.00324,1.00319,1.00331,1.00324,1.00303,1.00332,1.00324,1.00329,1.00344,1.00317,1.00369,1.00337,1.00349,1.0033,1.00355,1.00321,1.0031,1.00318,1.00339,1.00376,1.00304,1.00333,1.00318,1.00345,1.00329,1.00354,1.00338,1.00375,1.00324,1.00302,1.00326,1.00336,1.00341
1.0033,1.00326,1.00353,1.00306,1.0029,1.00351,1.00344,1.00371,1.00312,1.00346,1.00356,1.00358,1.00346,1.00339,1.0034,1.00356,1.00327,1.00318,1.00332,1.00362,1.00329,1.00351,1.00337,1.00359,1.00317,1.00313,1.00338,1.00312,1.00334,1.00367,1.00351,1.00326,1.0032,1.00351,1.00337,1.00345,1.00354,1.00356,1.0033,1.00338,1.00349,1.00318,1.0034,1.0033,1.00301,1.00375,1.00333,1.00354,1.00361,1.00316,1.00374,1.00332,1.00328,1.00334,1.00298,1.00315,1.00275,1.00307,1.00285,1.00341
1.0034,1.00314,1.00357,1.00343,1.00355,1.00373,1.00319,1.00334,1.00302,1.00356,1.00341,1.00303,1.00339,1.00316,1.00337,1.00342,1.00336,1.00356,1.00346,1.00364,1.00307,1.00354,1.00349,1.00355,1.00309,1.0031,1.00376,1.00372,1.00304,1.00346,1.00318,1.00358,1.0029,1.00265,1.00322,1.00392,1.00313,1.00324,1.00348,1.0036,1.00322,1.0032,1.00333,1.00352,1.00336,1.00348,1.00323,1.00337,1.00346,1.00354,1.00327,1.00337,1.00315,1.00312,1.00308,1.0032,1.00311,1.00319,1.00334,1.00334
1.00326,1.00326,1.00333,1.00339,1.00335,1.00344,1.00365,1.00323,1.00354,1.00361,1.00342,1.00338,1.00366,1.00318,1.0033,1.00366,1.00321,1.00355,1.00333,1.00324,1.00344,1.00332,1.00353,1.00375,1.00335,1.00332,1.00343,1.00329,1.00342,1.00338,1.00352,1.0034,1.00312,1.00323,1.00331,1.00322,1.00306,1.0035,1.0032,1.00324,1.00338,1.00355,1.00335,1.00302,1.00361,1.00326,1.00383,1.00348,1.00324,1.0037,1.00323,1.00339,1.00345,1.00339,1.0036,1.00336,1.00372,1.00355,1.00402,1.00351
1.00361,1.0036,1.00304,1.00338,1.00308,1.00326,1.00364,1.00343,1.00346,1.00343,1.00304,1.00355,1.00329,1.00356,1.00344,1.00322,1.00344,1.00323,1.00341,1.00325,1.00354,1.00298,1.00317,1.00364,1.003,1.00331,1.00335,1.00308,1.0031,1.00307,1.00356,1.00359,1.00328,1.00314,1.00321,1.00343,1.00325,1.00367,1.00339,1.00344,1.00381,1.00346,1.00303,1.00342,1.00343,1.00334,1.00332,1.0038,1.00332,1.00345,1.00341,1.00348,1.00335,1.0031,1.00328,1.00327,1.00369,1.00362,1.00321,1.0034
1.00342,1.00343,1.00339,1.00319,1.00331,1.00323,1.00369,1.00346,1.00362,1.00352,1.00311,1.00386,1.00332,1.00373,1.00339,1.00323,1.00334,1.00347,1.00333,1.00293,1.00361,1.00336,1.00318,1.00334,1.00342,1.00346,1.00292,1.00354,1.00333,1.00305,1.00352,1.00322,1.00318,1.00327,1.0033,1.00334,1.00379,1.00326,1.00335,1.00313,1.00333,1.00318,1.00323,1.00354,1.00301,1.003,1.00324,1.00325,1.00314,1.00307,1.0034,1.00324,1.00336,1.00355,1.00313,1.0032,1.00306,1.00335,1.00339,1.00316
1.00332,1.00327,1.0032,1.00338,1.00326,1.00308,1.00339,1.00341,1.00372,1.00325,1.00312,1.00341,1.00316,1.00316,1.00363,1.00355,1.00333,1.00327,1.00334,1.00349,1.00334,1.00307,1.0032,1.00343,1.00352,1.00325,1.00385,1.00352,1.00337,1.00383,1.00266,1.00306,1.00323,1.00324,1.00383,1.00371,1.00321,1.00333,1.0035,1.00338,1.0033,1.00367,1.00339,1.00336,1.00337,1.00351,1.00309,1.00311,1.00327,1.00345,1.0036,1.00282,1.00355,1.00332,1.00343,1.00343,1.00313,1.00277,1.00292,1.00353
1.00339,1.00349,1.00351,1.00349,1.00348,1.00359,1.00333,1.00341,1.00329,1.00331,1.00364,1.00313,1.00343,1.0037,1.00336,1.00323,1.00335,1.00314,1.00323,1.00347,1.00343,1.00366,1.00321,1.00337,1.00331,1.00334,1.00345,1.00327,1.00355,1.00311,1.00321,1.00278,1.00349,1.0032,1.00319,1.00329,1.0033,1.00323,1.00361,1.00345,1.00344,1.00343,1.00337,1.0036,1.00347,1.00321,1.00361,1.00357,1.00325,1.00347,1.00332,1.00311,1.00319,1.00346,1.00332,1.00334,1.00332,1.00312,1.00312,1.00324
1.00314,1.00304,1.00323,1.00333,1.0032,1.00361,1.00334,1.00301,1.00346,1.00355,1.00348,1.00348,1.0032,1.00317,1.00346,1.00352,1.00317,1.00323,1.0033,1.00334,1.00311,1.00341,1.00304,1.0031,1.00349,1.00346,1.00353,1.00346,1.00347,1.00324,1.00329,1.00331,1.00299,1.00326,1.00303,1.00353,1.00321,1.00302,1.00337,1.00311,1.00317,1.00349,1.00351,1.00325,1.00335,1.0035,1.0037,1.00358,1.00321,1.00358,1.00321,1.00328,1.00342,1.00364,1.00358,1.00307,1.0034,1.00348,1.00338,1.00313
1.00357,1.00351,1.00352,1.00366,1.00326,1.00347,1.00341,1.00323,1.00337,1.00309,1.00324,1.0032,1.00358,1.00347,1.00337,1.00322,1.00338,1.00321,1.00308,1.0032,1.00304,1.00311,1.00304,1.0032,1.00336,1.00314,1.00343,1.00332,1.00348,1.00304,1.00305,1.00338,1.00346,1.0035,1.00333,1.00317,1.0034,1.00326,1.00317,1.00335,1.00312,1.00335,1.00319,1.00334,1.00314,1.00317,1.00295,1.0033,1.00327,1.00305,1.00338,1.00341,1.00297,1.0036,1.00328,1.00374,1.00344,1.00349,1.00307,1.00361
1.00365,1.00313,1.00344,1.00347,1.00321,1.00305,1.00348,1.00359,1.00306,1.00317,1.00365,1.00303,1.00314,1.003,1.00314,1.00321,1.00324,1.0035,1.00365,1.00315,1.00351,1.00364,1.00347,1.00328,1.00348,1.00352,1.00353,1.00286,1.00316,1.00339,1.00331,1.00322,1.00316,1.00318,1.00336,1.00355,1.00324,1.00353,1.00334,1.00319,1.00345,1.00338,1.00302,1.00329,1.00327,1.00314,1.0036,1.00319,1.00325,1.00343,1.00311,1.00321,1.00315,1.00365,1.00353,1.00355,1.00302,1.00346,1.0036,1.00329
1.00326,1.00349,1.00326,1.00347,1.00338,1.0034,1.00362,1.0033,1.00349,1.00297,1.00367,1.00348,1.00347,1.00328,1.00347,1.00336,1.00364,1.00339,1.00346,1.00314,1.00351,1.00311,1.00357,1.00353,1.00328,1.00318,1.00305,1.00349,1.00331,1.00313,1.00339,1.00311,1.00309,1.0034,1.00336,1.00318,1.00361,1.00323,1.00353,1.00318,1.0036,1.0031,1.00316,1.0034,1.00361,1.00358,1.00321,1.00374,1.00336,1.00333,1.00349,1.00309,1.00344,1.00343,1.00359,1.00357,1.00326,1.00354,1.00325,1.00383
1.00313,1.00358,1.00341,1.00341,1.00365,1.00334,1.00315,1.00289,1.00348,1.00349,1.00326,1.00341,1.00357,1.0033,1.00312,1.00314,1.0032,1.00311,1.00365,1.00341,1.00305,1.00316,1.00326,1.00316,1.00342,1.00337,1.00336,1.00371,1.00352,1.00356,1.00302,1.00371,1.00333,1.0032,1.0032,1.00349,1.00379,1.00325,1.00315,1.00305,1.00351,1.00308,1.0031,1.00348,1.00337,1.00304,1.00324,1.0035,1.00317,1.00315,1.00327,1.00329,1.00349,1.00377,1.0032,1.00357,1.00334,1.00311,1.00294,1.00342
1.0031,1.00323,1.00327,1.00311,1.00312,1.00348,1.00334,1.00354,1.0031,1.00306,1.00347,1.00339,1.00325,1.0028,1.0035,1.0029,1.00343,1.00335,1.00366,1.00325,1.00297,1.00342,1.00331,1.00293,1.0036,1.00351,1.00327,1.00347,1.00314,1.00352,1.0034,1.00316,1.00351,1.00361,1.00323,1.00334,1.00351,1.00357,1.00349,1.00339,1.0032,1.00364,1.00345,1.00332,1.00325,1.00328,1.00345,1.00337,1.00339,1.00338,1.00342,1.00338,1.00299,1.00357,1.00346,1.00334,1.00291,1.00331,1.00375,1.00368
1.00334,1.00347,1.00357,1.00363,1.00353,1.00366,1.00328,1.00331,1.00338,1.00333,1.00353,1.00317,1.00314,1.00321,1.00324,1.00313,1.00303,1.00353,1.00295,1.00339,1.00337,1.00318,1.00357,1.00309,1.00329,1.00333,1.0035,1.00318,1.0033,1.00295,1.00357,1.00344,1.00344,1.00318,1.00327,1.0036,1.00345,1.00342,1.00355,1.00291,1.00303,1.00325,1.0032,1.00321,1.00355,1.00322,1.00347,1.00317,1.00307,1.00315,1.00367,1.00342,1.0032,1.00316,1.00355,1.00298,1.00335,1.00365,1.0036,1.00363
1.00349,1.00322,1.00359,1.00346,1.00341,1.0034,1.00299,1.00327,1.00321,1.00377,1.00303,1.00326,1.00314,1.00342,1.00327,1.00319,1.00329,1.00347,1.00355,1.00299,1.00327,1.00353,1.00343,1.00332,1.0034,1.00331,1.00329,1.00364,1.00321,1.00328,1.00347,1.00373,1.00368,1.00323,1.00316,1.00319,1.00345,1.00331,1.00353,1.00339,1.00304,1.00306,1.00338,1.00321,1.00316,1.00372,1.00333,1.00335,1.00332,1.00321,1.00357,1.00375,1.00341,1.00352,1.00328,1.00318,1.00324,1.00327,1.00359,1.00359
1.00322,1.00299,1.00323,1.00317,1.00327,1.00314,1.00317,1.00367,1.00333,1.00331,1.00326,1.00339,1.0033,1.00359,1.0037,1.00332,1.00367,1.0034,1.00312,1.00367,1.0032,1.00358,1.00335,1.00272,1.00338,1.00327,1.00345,1.0034,1.00337,1.00317,1.00337,1.00309,1.00379,1.00357,1.0031,1.00334,1.00311,1.00334,1.0033,1.00349,1.00364,1.00339,1.00301,1.00344,1.0034,1.00329,1.00311,1.00353,1.00301,1.00341,1.00319,1.00347,1.00325,1.00328,1.00336,1.00351,1.0032,1.00334,1.00375,1.0036
1.00326,1.00334,1.00369,1.00333,1.00319,1.00356,1.00322,1.00351,1.00323,1.00365,1.00336,1.00352,1.00343,1.00321,1.0036,1.0038,1.0031,1.0033,1.00317,1.00334,1.00341,1.0031,1.00329,1.00359,1.00372,1.00349,1.00316,1.00334,1.00343,1.00339,1.00321,1.00337,1.00288,1.00322,1.00322,1.00305,1.00318,1.00304,1.00326,1.00313,1.00352,1.00336,1.00324,1.00334,1.00314,1.00312,1.00328,1.00346,1.00302,1.00373,1.00323,1.00334,1.00305,1.00347,1.0034,1.00326,1.00342,1.00322,1.00341,1.00329
1.00338,1.00356,1.0034,1.00343,1.00358,1.00349,1.00338,1.00334,1.00316,1.00299,1.00349,1.00338,1.00345,1.00341,1.00316,1.00346,1.00301,1.00343,1.00317,1.00359,1.00357,1.00359,1.00365,1.00327,1.00336,1.00305,1.00319,1.0032,1.00359,1.00346,1.00304,1.00352,1.0032,1.00345,1.00316,1.00336,1.00329,1.00361,1.00296,1.00344,1.00341,1.00306,1.00346,1.00342,1.00354,1.00368,1.00389,1.00318,1.00315,1.00324,1.00349,1.00357,1.00337,1.00294,1.00339,1.00313,1.00343,1.0034,1.00318,1.00336
1.00367,1.00332,1.00349,1.00342,1.00341,1.00307,1.0034,1.00289,1.00327,1.0035,1.00327,1.00329,1.00348,1.00382,1.00366,1.00312,1.00338,1.00299,1.00323,1.00331,1.0036,1.00348,1.00307,1.00325,1.00316,1.00362,1.00339,1.0032,1.00335,1.00351,1.00378,1.00331,1.00363,1.00335,1.003,1.00346,1.00322,1.00381,1.00292,1.00318,1.0037,1.00363,1.00315,1.00326,1.00362,1.00372,1.00359,1.00328,1.00313,1.00335,1.00352,1.00348,1.00322,1.00285,1.00311,1.00336,1.00319,1.00404,1.00312,1.00345
1.00351,1.00323,1.00318,1.00343,1.00333,1.00336,1.00312,1.00328,1.00316,1.00346,1.00352,1.0033,1.00313,1.00347,1.00306,1.00322,1.00345,1.00316,1.00313,1.00316,1.00336,1.00335,1.0034,1.00337,1.00319,1.00355,1.0033,1.00354,1.00301,1.00357,1.0035,1.00319,1.00366,1.00305,1.00345,1.00314,1.0032,1.00313,1.00314,1.00384,1.00333,1.00335,1.00351,1.00335,1.00312,1.00296,1.00326,1.00334,1.00322,1.00333,1.00303,1.00339,1.00342,1.00307,1.00314,1.00345,1.00367,1.00329,1.0037,1.00342
1.00387,1.00314,1.00317,1.00341,1.00326,1.00337,1.00317,1.00329,1.00338,1.00336,1.00333,1.00382,1.00314,1.00347,1.00308,1.00341,1.00357,1.00374,1.0036,1.00304,1.00351,1.00327,1.00345,1.0035,1.00326,1.00343,1.0034,1.00324,1.0032,1.00349,1.00334,1.00325,1.00338,1.00333,1.00324,1.00333,1.00341,1.00347,1.0033,1.00333,1.00342,1.00356,1.00368,1.00354,1.00334,1.00337,1.00338,1.00348,1.00324,1.00356,1.0034,1.00357,1.00372,1.00353,1.00336,1.00332,1.00343,1.00352,1.0033,1.00333
1.00305,1.00339,1.00347,1.00326,1.00349,1.00349,1.00338,1.00373,1.0034,1.00331,1.00333,1.00382,1.00313,1.00324,1.0035,1.00326,1.00334,1.00356,1.00348,1.0035,1.00361,1.00358,1.0032,1.00325,1.00284,1.00357,1.0031,1.00313,1.00335,1.00342,1.00345,1.00332,1.0034,1.00312,1.00353,1.00324,1.0036,1.00311,1.00345,1.00333,1.00332,1.00357,1.00309,1.00309,1.00334,1.00306,1.00292,1.00332,1.00365,1.0032,1.00361,1.00344,1.00355,1.00352,1.00319,1.00308,1.0034,1.00363,1.00323,1.00322
1.00337,1.00332,1.00329,1.00322,1.00366,1.00367,1.00366,1.00313,1.00336,1.00327,1.00309,1.00341,1.00345,1.0036,1.0032,1.00348,1.00336,1.00363,1.00348,1.0032,1.00315,1.00318,1.00331,1.00327,1.0032,1.0036,1.0032,1.00307,1.00339,1.00322,1.00323,1.00308,1.00369,1.0031,1.00313,1.00333,1.00291,1.00322,1.00305,1.00336,1.00364,1.00314,1.00345,1.00335,1.0033,1.00336,1.00342,1.00277,1.00346,1.00297,1.00348,1.00323,1.00288,1.00303,1.00356,1.00317,1.00339,1.00323,1.00352,1.00315
1.00293,1.00316,1.00321,1.00336,1.00344,1.00332,1.00363,1.00357,1.00307,1.00318,1.00378,1.00296,1.00314,1.00345,1.00307,1.0034,1.00343,1.00308,1.00345,1.00356,1.00348,1.0034,1.00337,1.00342,1.00314,1.00334,1.00351,1.00335,1.00347,1.00331,1.00334,1.00292,1.00312,1.00284,1.00323,1.00361,1.00345,1.00296,1.0032,1.00347,1.00331,1.0037,1.00323,1.00342,1.00322,1.00338,1.00364,1.00334,1.00329,1.0032,1.00342,1.00342,1.0033,1.00366,1.00329,1.00332,1.00328,1.00309,1.00326,1.0034
1.00319,1.00357,1.00344,1.00332,1.00386,1.0036,1.00311,1.00345,1.00325,1.00353,1.00329,1.00365,1.00371,1.00344,1.00365,1.00325,1.0036,1.00308,1.00321,1.00333,1.00331,1.00323,1.00358,1.00327,1.00337,1.00337,1.00316,1.00342,1.0038,1.00347,1.00319,1.00353,1.0034,1.00357,1.00374,1.00335,1.00287,1.00311,1.00328,1.0036,1.00376,1.00329,1.0037,1.00363,1.00342,1.00334,1.00312,1.0033,1.00362,1.00357,1.00309,1.00351,1.00326,1.00347,1.00336,1.00364,1.00357,1.00315,1.00323,1.00356
1.00307,1.00329,1.00339,1.00346,1.00326,1.00302,1.00332,1.00302,1.00357,1.00329,1.00358,1.00342,1.00321,1.00304,1.00327,1.00338,1.00348,1.0034,1.00339,1.00345,1.00352,1.00331,1.00347,1.00345,1.00329,1.00353,1.00317,1.00304,1.00292,1.00295,1.0035,1.00356,1.00367,1.00339,1.0032,1.00359,1.00331,1.00362,1.00339,1.00329,1.00334,1.00363,1.00329,1.00328,1.00315,1.00365,1.00343,1.00331,1.00343,1.00324,1.00312,1.0029,1.00341,1.00327,1.00352,1.0031,1.00327,1.00325,1.00324,1.00331
1.00331,1.00358,1.00361,1.00321,1.00337,1.00315,1.00335,1.00334,1.00329,1.00323,1.00321,1.00331,1.0033,1.00308,1.00344,1.00322,1.00327,1.00359,1.00313,1.00372,1.00362,1.00319,1.00321,1.00312,1.0033,1.00348,1.00331,1.00334,1.00329,1.00313,1.00335,1.00317,1.00308,1.00354,1.00288,1.00356,1.00371,1.00341,1.00332,1.00332,1.00332,1.00318,1.00337,1.0034,1.00321,1.00323,1.00334,1.00315,1.00322,1.00324,1.00365,1.00331,1.00333,1.00344,1.00328,1.00338,1.00368,1.00335,1.00343,1.00347
1.00349,1.00378,1.00372,1.00335,1.00347,1.00358,1.00318,1.00335,1.00345,1.00295,1.00352,1.00326,1.00343,1.00334,1.0036,1.00321,1.00341,1.00327,1.0032,1.00333,1.0031,1.00318,1.00348,1.00323,1.00341,1.00341,1.00343,1.00351,1.00331,1.00321,1.00324,1.0036,1.00328,1.00382,1.00323,1.00348,1.00347,1.00324,1.00328,1.00338,1.00365,1.00359,1.00338,1.00337,1.00317,1.00297,1.00319,1.00346,1.00329,1.00326,1.00303,1.00333,1.00344,1.00366,1.00308,1.00308,1.00347,1.00327,1.00355,1.00325

max: 1.00664
min: 1.00265
avg: 1.00335
