File Name,exposure, SOCF
,,Min,Max,Avg
QRNG_Data/Experiment_6/BigLED/ROI80x4_Backgroundremoved/,0,1.05275,1.13216,1.07739
QRNG_Data/Experiment_6/BigLED/ROI80x4_Backgroundremoved/,10,0.990547,1.02011,1.00478
QRNG_Data/Experiment_6/BigLED/ROI80x4_Backgroundremoved/,20,0.992195,1.02336,1.00555
QRNG_Data/Experiment_6/BigLED/ROI80x4_Backgroundremoved/,30,0.989661,1.02045,1.00555
QRNG_Data/Experiment_6/BigLED/ROI80x4_Backgroundremoved/,40,0.990326,1.01903,1.00537
QRNG_Data/Experiment_6/BigLED/ROI80x4_Backgroundremoved/,50,0.985401,1.01811,1.00496
QRNG_Data/Experiment_6/BigLED/ROI80x4_Backgroundremoved/,60,0.993534,1.01586,1.00457
QRNG_Data/Experiment_6/BigLED/ROI80x4_Backgroundremoved/,70,0.994776,1.01932,1.00509
QRNG_Data/Experiment_6/BigLED/ROI80x4_Backgroundremoved/,80,0.995049,1.01643,1.00525
QRNG_Data/Experiment_6/BigLED/ROI80x4_Backgroundremoved/,90,0.993612,1.01522,1.00495
QRNG_Data/Experiment_6/BigLED/ROI80x4_Backgroundremoved/,100,0.989454,1.01785,1.00515
QRNG_Data/Experiment_6/BigLED/ROI80x4_Backgroundremoved/,110,0.994466,1.01252,1.00504
QRNG_Data/Experiment_6/BigLED/ROI80x4_Backgroundremoved/,120,0.996732,1.01566,1.00473
QRNG_Data/Experiment_6/BigLED/ROI80x4_Backgroundremoved/,130,0.997209,1.01246,1.00468
QRNG_Data/Experiment_6/BigLED/ROI80x4_Backgroundremoved/,140,0.996806,1.01303,1.00494
QRNG_Data/Experiment_6/BigLED/ROI80x4_Backgroundremoved/,150,0.997878,1.01156,1.00514
QRNG_Data/Experiment_6/BigLED/ROI80x4_Backgroundremoved/,160,0.998522,1.01299,1.00503
QRNG_Data/Experiment_6/BigLED/ROI80x4_Backgroundremoved/,170,0.999252,1.01033,1.00496
QRNG_Data/Experiment_6/BigLED/ROI80x4_Backgroundremoved/,180,0.997594,1.0103,1.00456
QRNG_Data/Experiment_6/BigLED/ROI80x4_Backgroundremoved/,190,0.99879,1.01273,1.00511
QRNG_Data/Experiment_6/BigLED/ROI80x4_Backgroundremoved/,200,0.999358,1.01501,1.00506
QRNG_Data/Experiment_6/BigLED/ROI80x4_Backgroundremoved/,210,0.998491,1.01016,1.0048
QRNG_Data/Experiment_6/BigLED/ROI80x4_Backgroundremoved/,220,0.998934,1.01158,1.00493
QRNG_Data/Experiment_6/BigLED/ROI80x4_Backgroundremoved/,230,0.998407,1.01067,1.00491
QRNG_Data/Experiment_6/BigLED/ROI80x4_Backgroundremoved/,240,0.998882,1.0122,1.00499
QRNG_Data/Experiment_6/BigLED/ROI80x4_Backgroundremoved/,250,0.999084,1.01111,1.00504
QRNG_Data/Experiment_6/BigLED/ROI80x4_Backgroundremoved/,260,0.999579,1.01037,1.00521
QRNG_Data/Experiment_6/BigLED/ROI80x4_Backgroundremoved/,270,1.00021,1.01063,1.00517
QRNG_Data/Experiment_6/BigLED/ROI80x4_Backgroundremoved/,280,1.00063,1.01072,1.00506
QRNG_Data/Experiment_6/BigLED/ROI80x4_Backgroundremoved/,290,1.00058,1.00937,1.00515
QRNG_Data/Experiment_6/BigLED/ROI80x4_Backgroundremoved/,300,1.00025,1.00946,1.00517
QRNG_Data/Experiment_6/BigLED/ROI80x4_Backgroundremoved/,310,0.995998,1.00924,1.00495
QRNG_Data/Experiment_6/BigLED/ROI80x4_Backgroundremoved/,320,0.999426,1.01041,1.00505
QRNG_Data/Experiment_6/BigLED/ROI80x4_Backgroundremoved/,330,1.00072,1.01043,1.00504
QRNG_Data/Experiment_6/BigLED/ROI80x4_Backgroundremoved/,340,1.00092,1.00932,1.00497
QRNG_Data/Experiment_6/BigLED/ROI80x4_Backgroundremoved/,350,0.999864,1.01012,1.00495
QRNG_Data/Experiment_6/BigLED/ROI80x4_Backgroundremoved/,360,0.999816,1.00991,1.00515
QRNG_Data/Experiment_6/BigLED/ROI80x4_Backgroundremoved/,370,1.00057,1.01027,1.00514
QRNG_Data/Experiment_6/BigLED/ROI80x4_Backgroundremoved/,380,0.999437,1.01203,1.00497
QRNG_Data/Experiment_6/BigLED/ROI80x4_Backgroundremoved/,390,0.999863,1.01039,1.00487
QRNG_Data/Experiment_6/BigLED/ROI80x4_Backgroundremoved/,400,1.00049,1.00868,1.00499
QRNG_Data/Experiment_6/BigLED/ROI80x4_Backgroundremoved/,410,0.999948,1.00958,1.00504
QRNG_Data/Experiment_6/BigLED/ROI80x4_Backgroundremoved/,420,1.00165,1.00916,1.0051
QRNG_Data/Experiment_6/BigLED/ROI80x4_Backgroundremoved/,430,1.00008,1.00961,1.00488
QRNG_Data/Experiment_6/BigLED/ROI80x4_Backgroundremoved/,440,1.00013,1.00911,1.00501
QRNG_Data/Experiment_6/BigLED/ROI80x4_Backgroundremoved/,450,1.00039,1.00973,1.00508
QRNG_Data/Experiment_6/BigLED/ROI80x4_Backgroundremoved/,460,1.00129,1.00921,1.00501
QRNG_Data/Experiment_6/BigLED/ROI80x4_Backgroundremoved/,470,1.00103,1.00928,1.005
QRNG_Data/Experiment_6/BigLED/ROI80x4_Backgroundremoved/,480,1.00081,1.00837,1.00514
QRNG_Data/Experiment_6/BigLED/ROI80x4_Backgroundremoved/,490,0.999914,1.00933,1.00503
QRNG_Data/Experiment_6/BigLED/ROI80x4_Backgroundremoved/,500,0.999279,1.00941,1.00512
QRNG_Data/Experiment_6/BigLED/ROI80x4_Backgroundremoved/,510,1.00074,1.0096,1.00504
QRNG_Data/Experiment_6/BigLED/ROI80x4_Backgroundremoved/,520,1.00089,1.00812,1.00492
QRNG_Data/Experiment_6/BigLED/ROI80x4_Backgroundremoved/,530,1.00061,1.00888,1.00511
QRNG_Data/Experiment_6/BigLED/ROI80x4_Backgroundremoved/,540,1.00212,1.00805,1.00502
QRNG_Data/Experiment_6/BigLED/ROI80x4_Backgroundremoved/,550,1.0015,1.00926,1.00507
QRNG_Data/Experiment_6/BigLED/ROI80x4_Backgroundremoved/,560,1.00097,1.00947,1.00499
QRNG_Data/Experiment_6/BigLED/ROI80x4_Backgroundremoved/,570,1.00115,1.00953,1.00502
QRNG_Data/Experiment_6/BigLED/ROI80x4_Backgroundremoved/,580,1.00128,1.00867,1.00512
QRNG_Data/Experiment_6/BigLED/ROI80x4_Backgroundremoved/,590,1.00118,1.00854,1.00496
QRNG_Data/Experiment_6/BigLED/ROI80x4_Backgroundremoved/,600,1.00166,1.00815,1.00514
QRNG_Data/Experiment_6/BigLED/ROI80x4_Backgroundremoved/,610,1.00161,1.00819,1.00498
QRNG_Data/Experiment_6/BigLED/ROI80x4_Backgroundremoved/,620,1.00101,1.00883,1.00493
QRNG_Data/Experiment_6/BigLED/ROI80x4_Backgroundremoved/,630,1.00198,1.00797,1.00501
QRNG_Data/Experiment_6/BigLED/ROI80x4_Backgroundremoved/,640,1.00193,1.00819,1.00496
QRNG_Data/Experiment_6/BigLED/ROI80x4_Backgroundremoved/,650,1.00044,1.00823,1.00504
QRNG_Data/Experiment_6/BigLED/ROI80x4_Backgroundremoved/,660,1.00124,1.00815,1.00493
QRNG_Data/Experiment_6/BigLED/ROI80x4_Backgroundremoved/,670,1.00112,1.00777,1.00498
QRNG_Data/Experiment_6/BigLED/ROI80x4_Backgroundremoved/,680,1.00163,1.00873,1.00497
QRNG_Data/Experiment_6/BigLED/ROI80x4_Backgroundremoved/,690,1.00197,1.00935,1.00497
QRNG_Data/Experiment_6/BigLED/ROI80x4_Backgroundremoved/,700,1.00137,1.00783,1.00509
QRNG_Data/Experiment_6/BigLED/ROI80x4_Backgroundremoved/,710,1.00117,1.00844,1.00504
QRNG_Data/Experiment_6/BigLED/ROI80x4_Backgroundremoved/,720,1.00163,1.00849,1.00498
QRNG_Data/Experiment_6/BigLED/ROI80x4_Backgroundremoved/,730,1.00222,1.00788,1.00498
QRNG_Data/Experiment_6/BigLED/ROI80x4_Backgroundremoved/,740,1.00246,1.00886,1.00508
QRNG_Data/Experiment_6/BigLED/ROI80x4_Backgroundremoved/,750,1.00189,1.0098,1.00499
QRNG_Data/Experiment_6/BigLED/ROI80x4_Backgroundremoved/,760,1.00273,1.00855,1.00502
QRNG_Data/Experiment_6/BigLED/ROI80x4_Backgroundremoved/,770,1.00206,1.00949,1.00505
QRNG_Data/Experiment_6/BigLED/ROI80x4_Backgroundremoved/,780,1.0021,1.00759,1.00497
QRNG_Data/Experiment_6/BigLED/ROI80x4_Backgroundremoved/,790,1.00175,1.0084,1.00505
QRNG_Data/Experiment_6/BigLED/ROI80x4_Backgroundremoved/,800,1.00174,1.00821,1.00503
QRNG_Data/Experiment_6/BigLED/ROI80x4_Backgroundremoved/,810,1.00181,1.008,1.00507
QRNG_Data/Experiment_6/BigLED/ROI80x4_Backgroundremoved/,820,1.00219,1.00857,1.00501
QRNG_Data/Experiment_6/BigLED/ROI80x4_Backgroundremoved/,830,1.0015,1.00834,1.005
QRNG_Data/Experiment_6/BigLED/ROI80x4_Backgroundremoved/,840,1.00226,1.00818,1.00506
QRNG_Data/Experiment_6/BigLED/ROI80x4_Backgroundremoved/,850,1.00199,1.00774,1.00498
QRNG_Data/Experiment_6/BigLED/ROI80x4_Backgroundremoved/,860,1.00236,1.00748,1.00507
QRNG_Data/Experiment_6/BigLED/ROI80x4_Backgroundremoved/,870,1.00229,1.00808,1.00501
QRNG_Data/Experiment_6/BigLED/ROI80x4_Backgroundremoved/,880,1.00202,1.00777,1.00491
QRNG_Data/Experiment_6/BigLED/ROI80x4_Backgroundremoved/,890,1.00282,1.00853,1.00509
QRNG_Data/Experiment_6/BigLED/ROI80x4_Backgroundremoved/,900,1.00208,1.00759,1.00497
QRNG_Data/Experiment_6/BigLED/ROI80x4_Backgroundremoved/,910,1.00226,1.00791,1.00503
QRNG_Data/Experiment_6/BigLED/ROI80x4_Backgroundremoved/,920,1.00205,1.00791,1.00514
QRNG_Data/Experiment_6/BigLED/ROI80x4_Backgroundremoved/,930,1.00135,1.00775,1.00508
QRNG_Data/Experiment_6/BigLED/ROI80x4_Backgroundremoved/,940,1.00202,1.00841,1.00496
QRNG_Data/Experiment_6/BigLED/ROI80x4_Backgroundremoved/,950,1.0025,1.00793,1.00508
QRNG_Data/Experiment_6/BigLED/ROI80x4_Backgroundremoved/,960,1.00251,1.0083,1.00501
QRNG_Data/Experiment_6/BigLED/ROI80x4_Backgroundremoved/,970,1.00224,1.00804,1.00507
QRNG_Data/Experiment_6/BigLED/ROI80x4_Backgroundremoved/,980,1.00259,1.00773,1.00506
QRNG_Data/Experiment_6/BigLED/ROI80x4_Backgroundremoved/,990,1.00241,1.00824,1.0051
QRNG_Data/Experiment_6/BigLED/ROI80x4_Backgroundremoved/,1000,1.00216,1.00743,1.00502
