1.10124,1.12425,1.04683,1.05841,0.979855,0.9859,1.05011,1.07386,0.980251,1.12036,1.05864,1.09979,1.07513,1.03887,1.05261,1.01679,1.01355,1.06227,1.06076,1.10582,1.0491,1.11098,1.13865,1.12768,1.07379,1.04332,1.0463,1.08127,1.11808,1.05732,1.07509,1.09532,1.15418,1.03472,1.08728,1.14763,1.05918,1.0886,1.02836,1.02459,1.04452,1.09678,1.08553,1.06415,1.10934,1.10369,1.08932,1.07571,1.02627,1.11028,1.04351,1.03851,1.05687,1.08919,1.00539,1.0473,1.05344,1.09406,1.06358,1.07815
1.14267,1.09857,1.04762,1.09598,1.11553,1.09059,1.07541,1.02713,1.03489,1.02976,1.03962,1.09622,1.06135,1.11099,1.03902,1.03313,1.03032,1.11537,1.08665,1.08934,1.07131,1.11839,1.01688,1.05174,1.0544,0.990293,1.06179,1.07594,1.12446,1.02711,1.00871,1.08195,1.07949,1.06634,1.04165,1.04025,1.02488,1.10558,1.09543,1.06607,1.07767,1.06186,1.11334,1.0352,1.08935,1.06715,1.08,1.00114,1.05763,1.07801,1.10841,1.07447,1.03868,1.16179,1.115,0.995885,1.10123,1.07537,1.10926,1.07271
1.16452,1.01258,1.15069,1.02867,1.04464,1.11783,1.1499,1.11067,1.10074,1.04457,1.03827,1.09295,1.0086,1.0318,0.991615,1.07626,1.08257,1.11374,1.05947,1.00338,1.05306,1.03308,1.01357,1.00478,1.04505,1.05786,1.10461,1.04721,0.97644,1.12381,1.1155,1.08901,0.995595,1.08212,1.07488,1.05581,1.02189,1.05993,1.04825,1.05226,1.14459,1.06536,1.12728,1.06056,1.13584,1.05105,1.06164,1.04626,1.12713,1.10158,0.986919,1.0784,1.10278,1.08152,1.00055,1.04872,1.06555,1.05526,1.10884,1.05211
1.07054,1.11395,1.08267,1.02822,1.16205,1.11472,1.09899,1.09245,1.11626,1.10518,1.14201,1.11066,1.0831,1.08389,1.10952,1.05477,1.18622,1.06215,1.02902,1.09495,1.02769,1.11469,1.09387,1.08778,1.03861,1.12609,1.08501,1.1376,1.05678,1.03916,1.12652,1.06164,1.0221,1.14294,1.07937,1.10249,1.05314,1.01615,1.12073,1.05827,1.07239,1.05843,1.08643,1.01424,1.01382,1.05496,1.08121,1.06694,1.07246,1.05469,1.0986,1.09268,1.12167,1.08026,0.986586,1.11925,1.03267,1.07397,1.00513,1.10306
1.13327,1.11099,1.03166,0.961195,1.05554,0.921799,1.04742,1.04397,0.984178,1.05382,1.03926,1.11196,1.0554,1.07812,1.00621,1.04566,1.02631,1.09883,1.1071,1.10917,1.07009,1.03275,1.07567,1.04558,1.00127,0.956175,1.05379,1.09299,1.07568,1.0678,1.06592,1.14869,1.09108,1.05788,1.00022,1.12119,1.07113,1.07178,1.07282,0.996928,1.05991,1.02164,1.03608,1.02161,1.09591,1.0524,1.03592,1.00601,1.07576,1.09146,1.1974,1.09569,1.11708,1.06179,1.0639,1.05075,1.12306,1.08226,1.036,1.0744
1.12308,1.04338,1.08807,1.02423,1.05184,1.05567,0.997105,1.09123,1.04875,1.09706,1.14541,1.07238,1.12564,1.05399,1.11976,1.06918,1.02437,1.04347,1.08941,1.12116,1.05829,0.996766,1.07884,1.0905,1.06568,1.05588,1.15218,1.15335,1.05387,1.11899,1.04273,1.09763,1.02771,1.07011,1.06631,1.13584,1.06653,1.04899,1.01707,1.11814,1.03448,1.0623,1.10296,1.12472,1.06762,1.05913,1.09488,1.06749,1.14697,1.10146,1.01905,1.07542,1.0836,1.01594,1.0958,1.13388,1.09183,1.11523,1.02805,1.16777
1.08519,1.04518,1.14887,1.05056,1.05826,1.20036,1.02796,1.09345,1.16622,0.992693,1.29433,1.07608,1.01315,1.03866,1.12872,1.04419,1.13316,1.01684,1.10545,1.0857,1.12492,1.0353,1.14888,1.05906,1.00092,1.0881,1.0505,1.04368,1.09547,1.112,1.01494,1.10353,1.02623,1.07083,1.03395,1.03827,1.04978,1.0961,1.04064,1.12441,1.0174,1.0793,1.11034,1.10631,1.08143,1.03996,1.00301,1.07419,1.08921,1.10569,0.985857,1.12185,1.02364,1.11246,1.08,0.997336,1.09288,1.14167,1.12908,1.06382
1.08356,1.06799,1.02773,1.09127,1.09563,1.04157,1.00452,1.08047,1.14073,1.12432,1.11408,1.09282,1.01909,1.0288,1.16955,1.13287,1.04033,1.02679,1.16278,1.12561,1.06254,1.10174,1.08167,1.15172,1.04771,1.07421,1.12708,1.0521,1.09194,1.06066,1.0626,0.956968,1.08313,1.07947,1.05086,1.05848,1.02572,1.08618,1.02614,1.08611,1.10511,1.08703,1.03668,1.05007,1.06758,1.05609,1.14304,1.12099,1.06772,1.01003,0.947982,1.04283,1.12781,0.991425,0.944858,1.03688,1.06119,1.06045,1.1002,1.02801
1.03731,1.10987,1.10049,1.02118,1.0365,1.08071,1.08054,1.06843,1.04696,1.06633,1.00898,1.11017,1.10151,1.09626,1.11605,1.09011,0.976049,1.09781,1.0471,1.05652,1.07152,1.10864,1.07047,1.07895,1.11441,1.09038,1.09909,1.1246,1.0933,1.07887,1.00109,1.09145,1.02158,1.06317,1.17358,1.10613,1.09714,1.03252,1.10395,1.07961,1.08036,1.04301,1.16261,1.07084,1.11845,1.00229,1.02707,1.05259,1.0991,1.01741,1.06015,1.13915,1.01816,1.06211,1.01832,1.02193,1.07087,1.07665,1.04277,1.02193
1.16347,1.10602,1.068,1.13344,1.0476,1.05073,1.09727,1.01145,1.04732,1.0224,1.06611,1.03774,1.03403,1.0522,1.08191,1.02519,1.0682,1.1041,1.09426,1.03784,1.12332,1.05345,1.07521,1.10839,1.1287,1.06377,1.03083,1.09162,1.05698,1.08126,1.09064,1.12774,1.11077,1.06597,1.0626,1.19041,1.07713,1.06046,1.10619,1.08269,1.02625,1.06078,1.09593,1.11169,1.08278,1.1245,1.08975,1.01637,1.06825,1.0361,1.15168,1.08729,1.07613,1.05281,1.10718,1.09218,1.10702,1.10032,1.05727,1.07784
0.988278,1.17305,1.10642,1.0503,1.0397,1.04723,1.03949,1.05787,1.07952,1.05193,1.02215,1.05085,1.0158,1.05302,1.04295,1.05876,1.0675,1.09435,1.08942,1.09757,1.14393,1.07135,1.04454,1.06877,1.11226,1.08543,1.03518,1.04008,1.11889,1.02559,1.08855,0.981637,1.18308,1.10835,1.03713,1.08755,1.10649,1.12624,1.09699,1.13655,1.02696,1.01833,1.05374,1.09008,1.07115,1.09024,1.10931,1.09436,1.08653,1.06001,1.06803,1.14997,1.06141,1.08844,1.08758,1.14956,1.07998,1.07807,1.01256,1.1026
1.15188,0.961943,1.03585,1.08876,1.02894,1.1196,1.02056,1.06568,1.08442,1.04178,1.11943,1.06218,1.09482,1.03652,1.04533,1.10701,1.11576,1.07508,1.0056,1.06826,1.02464,1.17415,1.08001,1.02282,1.03812,1.04188,1.0257,0.998842,1.07318,1.0733,1.04665,1.10115,1.01256,1.08546,1.0736,1.10221,1.08894,1.07812,1.12337,1.11519,1.03281,1.11078,1.07022,1.09193,1.04124,1.07975,1.01469,1.04872,1.06382,1.11058,1.09711,1.10735,1.21114,1.05519,1.02134,1.07514,1.06125,1.07675,1.09856,1.0632
1.02249,1.02146,1.07761,1.099,1.05197,1.03667,1.03922,1.04188,1.12991,1.09504,1.00562,1.12865,1.1179,1.05368,1.12989,1.04079,1.04316,1.07118,1.08537,1.0772,1.06511,1.09231,1.07594,1.08313,1.05053,1.50713,1.13607,1.04923,1.04597,1.05448,1.06731,1.07707,1.11429,1.05143,1.08871,1.06454,1.01895,1.05186,1.10457,1.0484,1.03259,1.03295,1.04001,1.09834,1.02683,1.04429,1.116,1.08507,1.09315,1.03873,1.10329,1.03543,1.05986,0.968046,1.15494,1.02963,1.08208,1.08691,1.08322,0.994932
1.05134,1.10591,1.04704,1.14204,1.0846,1.03092,1.06174,1.10101,1.07834,1.08832,0.978776,1.06557,1.06135,1.03537,1.10952,1.09867,1.07165,1.09168,1.07288,1.04715,1.04849,1.07639,1.13175,1.09303,1.09295,1.10111,1.16798,1.0067,1.07835,1.14811,1.08828,1.00869,1.06085,1.02535,1.05781,1.10674,1.12116,1.0023,1.0991,1.04228,1.0649,1.11626,1.02101,1.14985,1.05652,1.54481,1.08832,0.992067,1.0332,1.03612,1.10805,1.06044,1.06563,1.07539,1.08369,1.01607,0.988577,1.10182,1.05489,1.02533
1.15519,1.20031,1.06756,1.04756,1.01073,1.14138,1.09396,1.11646,1.07724,1.13482,1.09242,1.10866,1.07214,1.04655,1.08742,1.01605,1.04799,1.0835,1.08398,1.13392,1.05008,1.01811,1.09318,1.0677,1.07875,1.05975,1.09539,1.11018,1.08813,1.19348,1.06291,1.0562,1.05034,1.02718,1.03852,1.03931,1.10656,1.10781,1.06003,1.04737,1.05062,1.07319,1.03723,1.06137,1.07324,1.11274,1.10998,1.07366,1.09642,1.02885,1.07584,1.05498,1.09699,1.10693,1.12857,1.05562,1.08254,1.11724,1.07025,1.07365
1.04873,1.05259,1.12444,1.06697,1.15701,1.15004,1.04118,1.01223,1.0586,0.998768,1.03761,1.13327,1.01156,1.06132,1.13156,1.06378,1.15139,1.06869,1.05391,1.08983,1.05712,1.09061,1.11067,1.11141,0.997605,1.05862,1.10284,1.04031,1.10374,1.06006,1.10857,1.11462,1.07133,1.11559,1.07477,1.10261,1.16416,1.05951,1.06998,0.982456,1.06419,1.05059,1.00483,1.00164,1.16138,0.991673,1.07221,1.1185,1.09056,1.0213,1.08009,0.943738,1.06059,1.0909,1.0421,1.10603,1.04217,1.0391,1.00986,1.05083
1.07773,1.07806,1.03015,1.05797,1.10646,1.04159,1.10961,1.06309,1.02109,1.04973,1.09302,1.05431,1.04975,1.0436,1.11626,1.01717,1.08471,1.00661,0.980622,1.04929,1.05385,1.16588,1.12262,0.95103,1.09427,1.04468,1.07429,1.17518,1.09307,1.09,1.07621,1.1103,1.08296,1.07456,1.08747,1.06598,1.0724,1.05048,0.95063,1.09391,1.06012,1.0752,1.08904,1.02442,1.015,1.0636,1.01729,1.03473,1.06116,1.09561,1.01881,1.06231,1.00203,1.07279,1.04961,1.08228,1.1236,1.04283,1.04023,1.05683
1.01389,1.07382,1.00779,1.04049,1.0761,1.06108,1.12021,1.06666,1.09433,1.07383,1.00552,1.04475,1.07896,1.00681,1.07947,1.06423,1.08826,1.02807,1.03475,1.08682,1.09307,0.986429,1.02223,1.14002,1.0514,1.01015,1.00725,1.07532,1.12497,1.01511,1.13581,1.14569,1.0726,1.05166,1.05935,1.11169,1.03895,1.10592,1.11038,1.1691,1.06173,1.02209,1.10256,1.08857,1.00488,1.03933,1.03415,1.06593,1.10359,1.14161,1.10079,1.04781,1.06466,1.09396,1.07581,1.04925,1.02873,1.05395,1.06528,1.08337
1.06319,1.01856,1.07844,1.07006,1.05278,1.09964,1.06756,1.07374,1.08395,1.08873,1.07246,0.985393,0.999338,1.05278,1.05846,1.05136,1.1307,1.05284,1.05505,1.07826,1.04573,1.06386,1.05918,1.09357,1.09618,1.01629,1.10594,1.15471,1.00552,1.12348,1.08206,1.07443,1.06761,1.01043,1.07996,1.10622,1.09143,1.03298,1.08656,1.08737,1.085,1.06232,1.09326,1.06004,1.09628,1.11554,1.10964,0.998549,1.12113,0.97427,1.05293,1.12665,1.0578,1.02442,1.08453,1.10172,1.00623,1.13083,1.08001,1.12902
1.12113,0.974367,1.10304,1.02238,1.10387,1.04419,1.11046,1.10377,1.06885,1.11323,1.1125,1.07242,1.05677,1.07145,0.991214,1.03918,1.0998,1.10861,1.07889,1.12928,1.09151,1.04962,1.09267,1.07188,1.13012,1.10599,1.05376,1.1248,1.03456,1.04318,1.10108,1.08094,1.0731,1.0566,1.12896,1.11469,1.06016,1.02644,1.14191,1.07688,1.03654,1.10638,1.00759,1.0813,1.02863,1.0545,1.13435,1.06963,1.07646,1.11693,1.06892,1.02092,1.08589,1.00841,1.04454,1.06582,1.11275,1.08754,1.03525,1.0203
1.10669,1.17426,1.07173,1.10783,1.08903,1.12453,1.04697,1.14487,1.05079,1.09071,1.05983,1.04116,0.985052,1.05912,1.07143,1.08627,1.09023,1.09828,1.09638,1.04125,1.01346,1.09015,1.09602,1.01921,1.04116,1.14082,1.076,0.969788,1.04169,1.02637,1.04145,1.12966,1.0743,1.02759,1.01688,1.01803,1.095,1.08286,1.12742,1.09885,1.0883,1.01903,1.11683,1.03178,1.08929,1.08864,1.1351,1.05618,1.08531,1.17187,1.09775,1.09172,1.0418,1.0055,1.12877,0.998163,1.10887,1.0479,1.08093,1.03784
1.04786,1.05127,1.08507,1.02977,1.06572,1.05228,1.04198,1.06316,1.04283,1.05898,1.07409,1.09303,1.16192,1.10545,1.1024,1.09301,1.07123,1.08769,1.0579,1.09493,1.05337,1.14661,1.01928,1.10273,1.10144,1.08426,1.10184,1.11385,1.10558,1.08326,1.0688,1.00463,1.11648,1.09268,1.06728,1.10761,1.11025,1.07172,1.10522,1.04868,1.0275,1.06657,1.0574,1.10615,1.07213,1.10124,0.955116,1.05443,1.0699,1.12318,1.03932,1.08072,1.0837,1.08809,1.05598,1.0422,1.05138,1.11418,1.02439,1.05549
1.13515,1.04257,1.08299,1.13282,1.06117,1.04088,1.07379,1.09862,1.02688,1.06015,1.02434,1.11673,1.05677,1.02287,1.08822,1.11525,0.976719,1.14519,1.04334,1.05204,1.03905,1.11275,0.965463,0.988589,1.05847,1.08084,1.02956,1.06457,1.09883,1.065,1.06024,1.0115,1.06185,1.06846,1.0909,1.0607,1.08196,1.08143,1.11447,1.03661,1.06738,0.979538,1.08844,1.05721,1.09196,1.07927,1.02981,1.04938,1.04226,1.03582,1.05272,1.06316,1.10118,1.03438,1.08248,0.992007,1.05977,1.09244,0.985217,1.05372
1.01513,1.10727,1.06529,1.05909,1.05914,1.13651,0.992525,1.10073,1.0803,1.08583,1.00366,1.08835,1.0792,1.05948,1.05376,1.03713,1.08775,1.10437,1.04353,1.07467,1.07545,1.02724,1.0397,1.07623,1.08385,1.11822,0.978896,1.08731,0.99112,1.11832,0.975661,1.16296,1.07097,1.14271,1.01614,1.10378,1.07273,1.02334,1.05095,1.01759,1.06655,1.09857,1.06146,1.01063,1.00788,0.981091,1.15375,1.08877,0.989137,1.05161,0.99726,1.07228,1.07387,1.0446,1.05472,1.07217,1.09072,1.11636,1.0384,1.00615
1.0862,1.12749,1.09776,1.03384,1.10678,1.10058,1.08454,1.1107,1.02508,1.05616,1.08798,1.0888,1.09938,1.08937,1.13154,1.0904,1.07997,1.05974,1.03851,1.13193,1.0761,1.04651,1.10999,1.07907,1.08828,1.05477,1.10224,1.15902,1.04978,1.04263,1.01464,1.06188,1.10548,1.03066,1.08584,1.12467,1.10595,1.02116,1.07191,1.10399,1.11867,1.06487,1.06084,1.13788,1.11682,1.09668,1.07748,1.08292,1.0006,1.13139,1.08455,1.06865,1.03735,1.07958,1.0597,1.08842,1.10456,1.05264,1.04927,1.05651
1.05224,1.0506,1.06353,1.04465,1.07704,1.0731,1.12219,1.03336,1.11389,1.10678,1.12745,0.996394,1.02583,0.984962,1.01246,0.98642,1.05937,1.04143,1.08773,1.0607,1.05396,1.04999,1.11089,1.08249,1.09817,1.14925,1.02872,1.0973,1.09609,1.10581,1.16454,1.0694,1.09042,1.0849,1.08986,1.113,1.08811,1.04729,1.07241,1.06661,1.06602,1.00756,1.06323,0.963479,1.06315,1.05383,1.09391,1.12558,1.10591,1.03239,1.02796,1.07608,1.06309,0.995657,1.05932,1.15027,1.03426,0.992707,1.08694,1.04518
1.0743,1.00021,1.09413,1.12803,1.13485,1.07299,1.00444,1.01116,1.17245,1.05006,1.11648,1.08865,1.0674,1.10254,1.10983,1.07856,0.989068,1.05514,1.03697,0.991884,1.08587,1.09913,1.05747,1.06403,1.10045,1.10472,1.03769,0.992055,1.05888,1.15192,1.09629,1.10269,1.08909,0.984881,1.08815,1.16002,1.10936,1.05926,1.07004,1.04535,1.09747,1.08839,1.14533,0.984067,1.04933,1.05288,1.02649,1.06412,1.12352,1.05321,1.1021,1.10126,1.09799,1.04325,1.12208,1.10491,1.04172,1.11776,1.15375,1.09237
1.06019,1.018,1.11336,1.0357,1.06956,1.02906,1.10077,1.10384,1.07106,1.05436,1.01968,1.1381,1.00642,1.07974,1.08412,1.06746,1.06463,1.08475,1.02722,1.12676,1.0559,1.04796,1.00448,1.10029,1.05201,1.07036,1.10277,1.07752,1.01196,1.05859,1.10705,1.09694,1.05974,1.03587,1.04343,1.12756,1.08365,1.06376,1.06497,1.07599,1.08807,1.06693,1.0698,1.09033,1.03695,1.11009,1.04344,1.11121,1.09862,1.03882,1.0624,1.11424,1.00698,1.0632,1.07408,1.09803,1.04107,1.0574,1.11126,1.06022
1.01398,1.14562,1.08053,1.07708,1.08379,1.05578,1.04844,1.10894,1.08957,1.08775,1.07122,1.05794,1.05081,1.12804,1.07904,1.08868,1.01911,1.06464,1.02337,1.0505,1.08876,1.00474,1.07124,1.04399,1.07653,1.0894,1.07879,1.05593,1.03974,1.04469,1.07298,1.06767,0.993335,1.03804,1.06524,1.14815,1.08287,1.06141,1.04887,1.11029,1.14987,1.10099,1.04716,1.01914,1.10241,1.06592,1.03849,1.0217,0.99111,1.07517,1.02543,1.1232,1.0689,1.12163,1.09462,1.06926,1.0277,1.06236,1.00501,1.13582
1.07941,1.08341,1.1476,1.05579,1.10814,1.11484,1.06636,1.11274,1.11194,1.14283,0.97384,1.10971,1.09112,1.07707,1.06623,1.05928,1.10807,1.05677,1.03759,1.03678,1.09098,0.993765,1.06526,1.13208,1.08659,1.09238,1.07858,1.00704,1.07609,1.11321,1.13547,1.02238,1.06132,1.03892,1.0001,1.11174,1.12668,1.07804,1.07623,1.07309,1.03211,1.20313,1.03198,1.10585,1.09367,1.09267,1.12998,1.1073,1.05794,1.19052,1.04409,1.01387,1.05853,1.10421,1.13562,1.10321,1.00701,1.07963,1.06675,1.05112
1.05857,1.12278,1.00955,1.02588,1.0664,1.0075,1.0761,1.10304,1.06265,1.04048,1.03073,1.08117,1.0123,1.09355,1.07415,1.10023,1.14881,1.12833,1.02884,0.981852,1.01817,1.03121,1.09807,1.00811,1.04335,1.06636,1.04507,1.04373,1.07042,1.13383,3.21615,1.08157,1.05322,1.05731,1.02371,0.983424,0.980875,1.07354,1.02163,1.00491,1.18086,1.08057,1.15509,1.05738,1.13598,1.06346,1.07012,1.03647,1.09371,1.08233,1.02106,1.04953,1.07071,1.09398,1.06515,1.0991,1.01535,1.06674,1.0279,1.08451
1.03766,1.06534,1.11965,1.1175,1.05731,1.07014,1.00954,1.03557,1.04055,1.07785,1.07875,1.07186,1.08607,1.10699,1.01596,0.999246,1.10533,1.07149,1.08276,1.03958,1.04177,1.12389,1.06231,1.01189,1.06941,1.09672,1.10691,1.11535,1.05533,1.036,1.13928,1.08916,1.00563,1.03081,1.07611,0.990225,1.0402,1.04492,1.04153,1.07096,1.06749,1.08144,1.05088,1.04466,1.06685,1.06268,1.03934,1.05441,1.0907,1.02877,1.10114,1.07688,1.06649,1.08409,1.1562,1.08316,1.11628,1.04513,0.995072,0.99952
1.11327,1.1402,1.0905,1.06659,1.03067,1.02481,1.04122,1.08182,1.11434,1.11043,1.11211,1.02923,1.04797,1.05343,1.04318,1.11118,1.08986,1.08406,1.0394,0.999963,1.05832,1.10876,1.12951,1.08357,1.09078,1.07226,1.10909,1.07468,1.00188,1.13263,1.12509,1.06426,1.0079,1.10151,1.09643,1.04247,1.04457,1.00306,1.04699,1.03184,1.03521,1.03415,1.0444,1.04214,1.03425,1.05591,1.10328,1.09321,1.06349,1.08596,1.07075,1.02621,1.14797,1.08563,1.03097,1.01657,1.0536,1.08645,1.05056,1.04303
1.0576,1.02966,1.04907,1.07151,1.02582,1.02872,1.10234,1.05964,1.12781,1.08617,1.07998,1.04804,1.00405,1.04745,1.13187,1.02466,0.999881,1.06359,1.04963,1.03301,1.08504,1.0632,1.07919,1.02358,1.09634,1.05852,1.05716,1.11039,1.0663,1.13517,1.02487,1.08269,1.05563,1.14353,1.08797,1.01703,1.07058,1.07091,1.06262,0.993347,1.13054,1.03723,1.03795,1.01059,1.13448,1.04988,1.01497,1.06838,1.15876,1.03834,1.0633,1.03491,1.06792,1.28273,1.16951,1.05691,1.00182,1.0657,1.04568,1.06614
1.03034,1.06064,1.07666,1.04945,1.14802,1.16785,1.08584,1.00468,1.0772,1.11395,1.0863,1.12722,1.10664,1.07215,1.0407,1.00347,1.09917,1.06706,1.09595,1.09283,1.15036,1.07357,1.07914,1.0626,1.05003,1.18386,1.09712,1.08813,1.04847,1.09639,0.957065,1.04059,1.0989,1.09628,1.05023,1.08078,1.04341,1.06594,1.15273,0.98688,1.03731,1.1403,1.13641,1.09567,1.03775,1.04015,1.01762,1.05231,1.08923,1.04381,1.04772,1.13046,1.06435,1.12156,1.10378,1.08466,1.04972,1.00362,1.07417,1.0417
1.06451,1.04617,1.0173,1.06037,1.1186,1.03242,1.02352,1.05341,1.07727,1.05988,1.10869,1.06855,1.11611,1.11938,1.07528,1.09076,1.09871,1.06469,1.06036,1.13216,1.04168,1.1482,1.06139,0.992144,1.02532,1.1866,1.02464,1.08734,1.05934,1.07602,1.07929,1.04456,1.02247,1.06455,1.03444,1.05257,1.05922,1.06809,1.03967,1.06607,1.01573,1.00204,1.06788,1.04091,1.04494,1.05818,1.03585,1.01599,1.1272,1.09736,1.00033,1.09022,1.07673,1.03034,1.07847,1.01613,1.14054,1.07327,1.0958,1.12506
1.09155,1.2119,1.05024,1.11122,1.03612,1.09477,1.05505,1.08748,1.04506,1.13043,1.1091,1.06937,1.13493,1.03847,1.06849,1.08281,1.07509,1.09291,1.06088,1.07104,1.06988,1.0722,1.12226,1.02707,1.10687,1.07869,1.08767,1.04357,1.06426,1.09298,1.09997,1.13378,1.13067,1.06584,1.06517,1.04149,1.07749,1.10725,1.07656,1.10024,1.09368,1.11995,1.06019,1.01648,1.0339,1.07263,1.06385,1.07024,1.05425,1.06283,1.05788,1.07849,1.06703,1.06792,1.0725,1.06921,1.1541,1.0826,0.990112,1.0603
1.09757,1.14422,1.05051,0.999331,1.03485,1.05542,1.08773,0.974761,1.09264,1.00161,1.07249,1.05234,1.14919,1.13797,1.15364,1.06462,1.10414,1.04419,1.05015,1.05606,1.13421,1.00941,1.07604,1.0531,1.07839,1.10033,1.10098,1.12936,1.13942,1.07511,1.07056,1.04488,1.03589,1.05696,1.11429,1.12626,1.00833,1.05101,0.983802,1.03907,1.15933,1.12167,1.04643,1.0669,1.10079,1.10653,1.12184,1.01724,1.04503,0.965328,1.05169,1.01678,1.06558,0.992569,1.04817,1.09552,1.1161,1.01345,0.963847,1.12023
1.03522,1.07011,1.14443,1.00871,1.04143,1.126,1.05726,1.08038,1.06394,1.07978,1.06106,1.1545,1.07173,1.09259,1.06929,1.09157,1.14047,0.936131,1.06528,1.03263,1.07192,1.14342,1.06901,1.14161,1.1156,1.10196,1.11787,1.06422,1.04659,1.06065,1.1303,1.01801,1.08132,1.00569,1.04468,1.06521,1.02492,1.06901,1.05188,1.04764,1.08139,1.12863,1.0059,1.07727,1.03437,1.13051,1.13679,1.07066,1.12431,1.16878,1.0509,1.15039,1.11453,1.01476,1.11853,1.13146,1.02074,1.01765,1.09078,1.00307
1.03561,1.0143,1.10146,1.10121,1.04128,1.02204,1.05065,0.998553,1.03745,1.09349,1.06435,1.04556,1.06779,1.08974,1.05984,1.04275,1.07114,1.04637,1.03425,1.1865,1.06039,1.0924,1.05321,1.06811,1.00769,1.07522,1.10084,1.04279,1.05691,1.08908,1.03346,1.04614,1.07402,1.03776,1.10762,0.991065,1.08476,1.00633,1.02872,1.04211,1.05992,1.05492,1.01922,1.0473,1.08365,1.11506,1.03933,1.07023,1.07108,0.998536,1.10485,1.04699,1.09297,0.984237,1.03586,1.04619,1.09858,0.999345,1.10063,1.0811
1.0337,1.08147,1.09863,1.08155,1.09186,1.07347,1.06243,1.1253,1.04974,1.06854,1.08208,1.06986,1.09147,1.10777,1.1404,1.034,1.12226,1.05125,1.05823,1.10999,1.05061,1.05618,1.09663,1.0232,1.08924,1.07303,1.1149,1.11907,1.10329,1.07113,1.06483,1.04898,1.09851,1.09208,1.11315,1.09795,1.06656,1.07498,1.09187,1.07567,1.09244,1.11765,1.09186,1.03229,1.07396,1.07945,1.05625,1.05119,1.07187,1.0968,1.07991,1.01465,1.03639,1.0176,1.00641,1.00469,1.09695,1.07105,1.0454,1.08573
1.11004,1.13232,1.10854,1.08384,1.00331,1.09153,1.02598,1.1283,1.0772,1.09824,1.03643,1.03249,1.06315,1.08648,0.995401,0.993698,1.06354,1.02962,1.05912,1.10486,1.05016,1.09558,1.03991,1.0838,1.10914,1.14155,1.0463,1.01233,1.09081,1.0487,1.02696,1.13347,1.09765,0.975355,1.07875,1.10969,1.05154,1.01584,1.09872,1.04685,1.07152,1.0818,1.00384,1.15234,1.04123,1.07357,1.10191,1.12176,1.13739,0.999898,1.0347,1.07768,0.994216,1.1256,1.02286,1.05882,1.13332,1.05782,1.06281,1.08089
1.0845,1.04815,1.05872,1.02689,1.06286,1.07835,1.04902,1.05333,1.05292,1.02158,1.05254,1.13117,1.0141,0.986153,1.01247,1.03445,1.06507,1.09048,1.05112,1.04988,1.06807,1.07728,1.05282,1.09922,1.04007,1.0904,1.10576,1.03747,1.14199,1.01681,1.08318,1.06642,1.07694,1.0731,1.05394,1.04998,1.01835,1.08191,1.03745,1.0596,1.10433,1.07512,1.08237,1.09034,1.0694,1.13109,1.05326,1.09568,1.03449,1.09375,1.14221,1.04599,1.0298,1.07575,1.06328,1.12059,1.07173,1.15696,1.03833,1.05532
1.00718,1.08088,1.03623,1.09263,1.01317,1.0472,1.00493,1.06984,1.03579,1.14069,1.15258,1.0815,1.04509,1.00298,1.06925,1.07093,1.1199,1.02343,1.09113,1.08023,0.982353,1.05545,1.10302,1.1275,1.15325,1.04788,1.02326,1.06753,1.08597,1.05616,1.0603,1.06495,1.05766,1.06166,1.09195,1.10614,1.06869,1.0424,1.03965,1.05289,1.11357,1.09282,1.10297,1.07055,1.00526,1.04177,1.02733,1.01591,1.12107,1.0233,1.06916,1.00284,1.12977,1.1137,1.12046,1.05221,1.04549,1.04805,1.14319,1.08773
1.11744,1.0588,1.05649,1.08296,0.987353,1.02812,1.11756,1.0592,1.13302,1.10797,1.04211,1.0504,1.08655,1.07919,1.1548,1.05747,1.03098,1.08905,1.03442,1.05289,1.01941,1.07102,1.0416,1.10382,1.06516,1.08483,1.07549,1.04121,1.17205,1.05496,1.03698,1.05505,1.12383,1.0369,1.12125,0.994368,1.07426,1.03337,1.04936,0.978012,1.09362,1.01547,1.06467,1.04813,1.02798,1.0085,1.08977,1.09679,1.07079,1.10634,1.13009,1.08778,1.04414,1.03124,1.03688,1.04688,1.03748,1.03313,1.06456,1.06751
1.07867,1.03793,1.14491,1.08178,1.04547,1.15298,1.05416,1.15114,1.0572,1.08958,1.05553,1.08784,1.15474,1.06361,1.01752,1.05053,1.0139,0.964348,1.06301,1.11805,1.08067,1.03551,1.11728,0.993573,1.14136,1.04562,1.11356,1.11099,1.10714,1.0181,1.05868,1.10764,1.12609,1.09762,1.12159,1.11478,1.04214,1.01098,1.1072,1.04845,1.02311,1.09791,1.06183,1.03656,1.01153,1.13577,1.02244,1.04609,1.04143,1.02911,1.04469,1.08004,1.11009,1.03734,1.03234,1.0195,1.1763,1.03617,1.08319,1.05639
1.03687,1.06369,1.00725,1.06782,1.12385,1.04552,1.07208,1.15008,1.08886,1.08756,1.10537,1.19925,1.05844,1.05839,1.02837,1.09141,1.14127,1.1252,1.03664,1.06745,1.0323,1.03873,1.11119,1.10681,1.03889,1.07316,1.0158,1.02356,1.0646,1.0677,1.04746,1.04484,1.02812,1.00028,1.01908,1.08843,1.00674,1.08073,1.09132,1.16135,1.13778,1.03034,1.15615,1.04988,1.03314,1.06481,1.10392,1.06847,1.12301,1.11409,1.04307,1.13215,1.06199,1.14513,1.07708,1.10471,1.08692,1.09197,1.0466,1.08315
1.06736,1.03928,1.06089,1.04067,1.07778,1.08958,1.15241,1.11081,1.0628,1.05513,1.07218,1.03572,1.07408,1.0939,1.01852,1.0974,1.09103,1.08071,1.02952,1.0721,1.01318,1.0706,1.06305,1.0761,1.05671,1.09582,1.03365,1.01626,1.05695,1.02567,1.05323,1.11564,1.0881,1.05975,1.10705,1.0387,0.992372,1.04751,1.08898,1.06479,1.03804,1.06716,1.06802,1.01321,1.07751,1.08935,1.08323,1.05453,1.06119,1.04837,1.00297,1.00909,0.997877,0.977933,1.07294,1.03768,1.04451,1.05997,1.07639,1.07279
1.16024,0.997012,1.11235,1.09758,1.07959,1.07714,1.06136,1.02647,1.11979,1.01722,1.08529,1.04747,1.05783,1.04584,1.09516,1.0606,1.05891,1.0576,1.02242,1.04009,1.1324,1.11258,1.02341,1.06569,1.01775,1.01707,1.09007,1.08898,1.09169,1.17388,1.03211,1.04187,1.06892,1.02579,1.05355,1.10459,1.04566,1.11159,0.992333,1.11952,1.01645,1.05169,1.10264,1.04141,1.04844,1.0815,1.043,1.06673,1.05055,1.07843,1.07962,1.03535,1.09926,1.06268,1.00336,1.09504,1.04813,1.10031,1.01703,1.09144
1.00836,1.01161,1.08422,1.03987,1.091,1.09459,1.07088,1.02114,1.06387,1.07021,1.11962,0.985157,1.12735,1.07701,1.06366,1.13649,1.03602,1.02666,1.10077,1.04063,1.07825,1.02303,1.09855,1.10722,1.00131,1.09539,1.06754,1.08105,1.02807,1.09787,1.11351,0.999913,1.11835,1.08489,1.08741,1.09567,1.0597,1.01051,1.08109,1.04048,1.07372,1.10218,1.09323,1.10642,1.21724,1.04657,1.07986,1.07804,1.13956,1.05358,1.08978,1.07648,1.04548,1.1375,1.13507,1.09041,1.01903,1.09677,1.01944,1.0708
1.00616,1.06265,0.986581,1.11763,1.03493,1.03507,1.01255,1.03922,1.14521,1.05313,1.06902,1.06254,1.0706,1.02253,1.08583,1.12143,1.05392,1.1066,1.04002,1.08358,1.04685,1.04969,0.989826,1.03064,1.05814,1.06641,1.07747,1.08751,1.00769,1.11051,1.06204,1.14514,1.03985,1.04775,1.07888,1.08727,1.12251,1.04111,1.11572,1.03803,1.02883,1.05411,1.10843,1.10166,1.12835,0.962891,1.06227,1.07555,1.07405,1.06987,1.03576,1.09191,1.02339,1.02338,0.999212,1.1487,1.0973,1.04635,1.13112,1.0745
1.07154,1.077,1.04025,1.13503,1.20309,1.04712,1.0466,1.03098,1.04432,1.10835,1.02316,1.09332,1.07488,1.05774,1.04581,1.01636,1.10714,1.06764,1.11091,1.10481,0.985866,1.10364,1.11512,1.07077,1.0701,1.13627,1.08196,1.05666,1.09962,1.02211,1.13015,1.05806,1.01223,1.07551,1.07029,1.06628,1.03672,1.08365,1.12534,0.992675,1.07247,1.05531,1.01673,1.10748,0.994346,1.07391,1.10183,0.987585,1.10455,1.03083,1.02915,1.12987,1.00511,1.04859,1.04717,1.11329,1.09674,1.04511,1.02658,1.04732
1.13321,1.01482,1.1356,1.07533,1.06211,1.00109,1.09187,1.02538,0.966156,1.07583,1.08075,1.07475,1.08537,1.10067,1.03798,1.09451,1.12506,1.04514,1.09432,1.0329,1.01633,1.04877,1.13315,1.11431,1.08615,1.16732,1.04143,1.05166,1.13305,1.08731,1.05033,1.08224,1.11697,1.10991,1.06043,1.10494,1.09465,1.08078,1.05325,1.06895,1.04543,1.07513,1.07263,1.11588,1.19705,1.02405,1.06773,1.05833,1.108,1.08935,1.10674,1.09684,1.08571,1.06259,1.03585,1.04594,1.01222,1.09396,1.07754,1.08935
1.07479,1.09542,1.02472,1.15252,1.08134,1.01096,1.02592,1.04034,1.03747,1.06223,0.999881,1.05816,1.0717,1.04305,1.05377,1.08069,1.06038,1.06935,1.04114,1.03792,1.11224,0.990072,0.99595,1.09082,1.12142,1.021,1.06411,1.08128,1.0387,1.0688,1.10973,1.06738,1.12054,1.01588,1.08197,1.08446,1.02072,1.02464,1.10089,1.11189,1.11376,1.0395,1.14669,1.02985,1.07224,1.0903,1.04219,1.08395,1.04817,1.06667,1.05241,1.08326,1.02359,1.12267,0.993141,0.960128,1.06989,1.05425,1.09786,1.07895
1.06348,1.02417,1.10813,1.06199,1.06328,1.05987,1.09806,1.06549,1.03805,1.06673,1.08618,1.07269,1.07248,1.02918,1.01716,1.04162,1.05681,1.03009,1.06425,1.08636,1.09909,1.10869,1.06337,1.08747,1.04542,0.997401,1.17127,1.10102,1.02819,1.00331,1.13783,1.02187,1.0312,1.10621,0.982207,1.08846,1.01352,1.03462,0.985652,1.0634,1.10794,1.09842,1.20024,1.03071,1.05179,1.14794,1.06258,1.04394,1.10701,1.08584,1.12879,1.02976,0.998515,1.0676,1.04674,1.09248,1.08761,1.07649,0.994123,1.08307
1.12152,1.12745,1.09068,1.01184,1.0478,0.988611,1.04124,1.08069,1.08894,1.08327,1.03168,1.00805,1.03887,1.05361,0.98327,1.04976,1.01077,1.08249,1.17278,1.09289,1.10027,1.04332,1.10268,1.16134,1.0751,1.14416,1.0771,1.02049,1.03955,1.02891,0.997322,1.08444,1.07734,1.06876,1.03406,1.04664,1.09693,1.02974,1.0243,1.06551,1.02847,1.06654,1.0695,1.04454,1.04841,1.11087,1.09821,1.05653,1.1234,1.10158,1.03595,1.0782,1.04175,1.04724,1.12525,1.07524,1.07517,1.00367,1.04593,1.11767
1.11328,1.00392,1.04641,1.06423,1.06746,1.05332,1.09517,1.06054,1.08592,1.03508,1.08536,1.08368,1.09757,1.00753,1.02127,1.06054,1.06531,1.08173,1.01915,1.06147,1.12238,1.0654,1.05756,1.00803,1.05326,1.07584,1.11086,1.05491,1.04743,0.984759,1.08309,1.12818,1.06886,1.07371,1.06103,1.10855,1.03812,1.05865,1.09472,1.10616,1.07724,1.06381,1.03487,1.04369,1.05879,1.12818,1.04051,1.11067,1.05468,1.05316,1.05061,1.09365,1.07807,1.07524,1.09213,1.06497,1.08517,1.11742,1.09746,1.03665
1.11895,1.1108,1.0335,1.06926,1.05442,1.03221,1.00933,1.02822,1.10393,1.04586,0.956756,1.04869,1.08395,1.04813,1.07064,1.08198,1.08922,1.00486,1.16604,1.13592,1.14912,1.13681,1.10832,1.07139,1.14777,1.04483,1.05695,1.00037,1.06362,1.09374,1.12205,1.07253,1.11029,1.0002,1.04144,1.06681,0.974941,1.06902,1.01253,1.04734,1.16316,1.06061,1.11432,1.10762,1.15409,1.08781,1.03812,1.00362,1.0247,1.02903,1.12256,1.06828,1.11144,1.05583,1.0884,1.04519,1.1383,1.03865,1.07577,1.06072
0.995014,1.12492,1.14958,1.10575,1.08615,1.01207,1.15328,1.10957,1.02463,1.02751,1.02625,1.08315,1.06608,1.08042,1.00696,1.07583,1.01842,1.02241,1.08571,1.07283,1.08381,1.06945,1.01904,1.09388,1.08122,1.06834,1.02548,1.04356,1.05076,1.08477,1.0172,1.01911,1.00344,1.01413,1.01927,1.05871,1.02916,1.05324,1.03063,1.11784,1.11364,1.08966,1.11593,1.05105,1.00275,1.06926,1.07886,1.10044,1.01561,1.08902,1.06389,0.988668,1.03739,1.12466,1.06827,1.02257,1.08853,0.960061,0.994068,1.00293
1.0176,1.04961,1.04837,1.08257,1.24839,1.10538,1.10429,1.09519,1.14152,1.1232,1.07335,1.18673,1.04082,1.12628,1.0544,1.06525,1.07321,1.06485,1.06803,1.15188,1.02621,1.05717,1.03182,1.08272,1.04657,1.05323,1.06987,1.03186,1.02538,1.05484,1.06935,1.02393,1.01757,1.07138,1.11449,1.08326,1.04219,1.09345,1.10634,1.08703,1.02041,1.08659,0.992525,1.08603,1.0344,1.11552,0.959662,1.10637,1.06697,1.10532,1.10872,1.03607,1.0217,1.02415,0.978615,1.0805,1.04746,1.04486,1.06098,1.08625

max: 3.21615
min: 0.921799
avg: 1.07031
