1.90347,1.88306,1.90123,1.92031,1.86034,1.97078,1.8171,1.85893,1.79604,1.90262,1.90269,1.8883,1.78775,1.82311,1.80891,1.87817,1.87914,1.88389,1.83579,1.89734,1.85913,1.84248,1.89204,1.84477,1.8432,1.83678,1.86936,1.88078,1.9008,1.76344,1.87424,1.84137,1.85329,1.89229,1.84805,1.78897,1.8624,1.9026,1.88396,1.7872,1.89233,1.77209,1.89616,1.86186,1.88605,1.96192,1.81633,1.84127,1.88952,1.87463,1.85574,1.87078,1.95961,1.87338,1.82979,1.86168,1.79243,1.83599,1.85519,1.87931
1.91961,1.87071,1.91063,1.90401,1.87996,1.83737,1.88284,1.87274,1.83919,1.91554,1.76609,1.9098,1.83647,1.90767,1.85156,1.876,1.81428,1.8482,1.78928,1.89203,1.80926,1.85181,1.81282,1.88517,1.86626,1.89482,1.86393,1.88816,1.84464,1.83071,1.87814,1.85487,1.84601,1.91707,1.84017,1.8965,1.81189,1.86424,1.79418,1.83053,1.84964,1.82294,1.87563,1.89097,1.90246,1.90906,1.87492,1.93806,1.78355,1.85999,1.91525,1.89597,1.82391,1.96184,1.82385,1.84323,1.82887,1.81792,1.86443,1.96157
1.90008,1.83177,1.8756,1.8769,1.92097,1.83411,1.83063,1.82009,1.80245,1.84026,1.84809,1.83767,1.80713,1.85244,1.86088,1.83182,1.81271,1.87715,1.83577,1.90274,1.79618,1.90061,1.8382,1.98497,1.83301,1.86942,1.85541,1.88005,1.89946,1.90476,1.76406,1.85953,1.84401,1.85316,1.86684,1.85339,1.91334,1.78965,1.82782,1.90384,1.90472,1.86147,1.87116,1.8413,1.90677,1.88193,1.80092,1.93668,1.92072,1.9264,1.81904,1.87713,1.81399,1.92612,1.86538,1.80828,1.87694,1.81741,1.82662,1.80278
1.93974,1.84996,1.82418,1.87248,1.85239,1.84149,1.79241,1.83972,1.84569,1.81654,1.85306,1.86255,1.88396,1.96035,1.84295,1.90745,1.80831,1.8722,1.85992,1.93778,1.85349,1.92712,1.90264,1.90028,1.89795,1.8844,1.88831,1.91168,1.86171,1.81227,1.84497,1.84249,1.79812,1.79945,1.93744,1.83928,1.85248,1.79149,1.83482,1.7998,1.81218,1.791,1.85578,1.84175,1.84719,1.89176,1.86505,1.80019,1.87831,1.83365,1.88608,1.80901,1.93425,1.87605,1.85242,1.85226,1.89926,1.85035,1.79233,1.89785
1.86977,1.82372,1.8299,1.8759,1.85406,1.89066,1.82347,1.813,1.93761,1.87925,1.89747,1.8337,1.90255,1.89037,1.85197,1.85642,1.79576,1.90732,1.77449,1.90431,1.90207,1.89985,1.80443,1.83088,1.87659,1.87408,1.89676,1.87447,1.84858,1.89963,1.91113,1.93949,1.81676,1.81886,1.85294,1.84533,1.87962,1.85867,1.87933,1.84715,1.77715,1.90327,1.91541,1.84155,1.8113,1.82873,1.8776,1.83596,1.85105,1.86296,1.8631,1.83378,1.83392,1.84759,1.89197,1.892,1.97098,1.85394,1.91531,1.87175
1.85684,1.79345,1.85142,1.8701,1.76202,1.83503,1.91079,1.82217,1.91894,1.73231,1.80859,1.87186,1.81093,1.87621,1.86112,1.90541,1.84832,1.88099,1.87643,1.88582,1.90593,1.84092,1.91923,1.86255,1.81025,1.83147,1.9209,1.91357,1.83157,1.88453,1.84235,1.81157,1.84788,1.87212,1.81524,1.84489,1.84978,1.81435,1.85646,1.88588,1.84393,1.77228,1.86881,1.89362,1.84583,1.84135,1.93213,1.89217,1.91505,1.82557,1.9132,1.82597,1.91546,1.82676,1.87136,1.81019,1.9281,1.87601,1.92877,1.83154
1.8183,1.93887,1.93242,1.86042,1.82156,1.93992,1.88089,1.89749,1.8485,1.87676,1.95032,1.84274,1.93281,1.85754,1.96292,1.85216,1.8461,1.88653,1.86598,1.84833,1.89345,1.87584,1.88349,1.87585,1.85768,1.83998,1.94871,1.8495,1.8118,1.92872,1.86824,1.79178,1.90538,1.84758,1.83491,1.86912,1.83832,1.84568,1.82813,1.86107,1.75417,1.81626,1.91562,1.91825,1.82695,1.79319,1.79881,1.90683,1.90857,1.81698,1.85505,1.95589,1.81594,1.83857,1.97736,1.81384,1.85765,1.83247,1.78768,1.88367
1.85422,1.82913,1.79447,1.85651,1.89501,1.90059,1.88826,1.9043,1.80431,1.82523,1.82846,1.94599,1.87581,1.82926,1.95244,1.86133,1.79422,1.85231,1.81688,1.90567,1.85544,1.8563,1.86515,1.86158,1.93455,1.86797,1.87361,1.88406,1.84696,1.85256,1.80886,1.85744,1.85763,1.80784,1.91141,1.87627,1.75132,1.90684,1.87828,1.85961,1.82804,1.81647,1.81568,1.80267,1.81353,1.8112,1.8179,1.83666,1.85049,1.86576,1.9351,1.82984,1.87238,1.86606,1.82514,1.77633,1.80789,1.91783,1.8333,1.83769
1.89105,1.78254,1.84958,1.81544,1.90058,1.84241,1.8627,1.84174,1.86411,1.87928,1.81211,1.87164,1.89456,1.84779,1.86518,1.884,1.77608,1.8361,1.88181,1.90354,1.85484,1.79391,1.8247,1.81409,1.85585,1.88705,1.78864,1.86358,1.93493,1.86445,1.81703,1.83413,1.89112,1.82477,1.98562,1.78641,1.82434,1.81578,1.88339,1.86701,1.88924,1.82109,1.81969,1.82182,1.79329,1.8793,1.85519,1.79999,1.89295,1.87665,1.8016,1.89774,1.79782,1.86552,1.82596,1.86006,1.88069,1.86786,1.89339,1.90414
1.87384,1.88422,1.758,1.96992,1.78401,1.80899,1.86774,1.87378,1.76213,1.84555,1.89307,1.8345,1.85132,1.83303,1.82884,1.95172,1.78661,1.79585,1.81528,1.8844,1.87133,1.82539,1.79697,1.86534,1.88976,1.88829,1.94359,1.88049,1.82181,1.90783,1.81715,1.83272,1.85967,1.86356,1.84147,1.9018,1.81981,1.91239,1.85948,1.792,1.81648,1.84804,1.81959,1.85828,1.82102,1.88349,1.82655,1.83917,1.89774,1.8615,1.88097,1.82124,1.91588,1.87469,1.88082,1.84128,1.84473,1.82966,1.81504,1.88671
1.84722,1.84991,1.90417,1.7858,1.90631,1.84435,1.82692,1.8521,1.83792,1.92493,1.88531,1.92062,1.85489,1.82663,1.8376,1.86907,1.87796,1.83104,1.81151,1.90581,1.88977,1.93121,1.86959,1.84661,1.84495,1.82079,1.83092,1.85677,1.84914,1.84268,1.81397,1.84792,1.81119,1.82679,1.81228,1.83048,1.85891,1.81647,1.85743,1.90654,1.85793,1.84617,1.88079,1.86612,1.92316,1.83029,1.84445,1.8687,1.86133,1.86081,1.81679,1.81242,1.89089,1.89005,1.96229,1.87574,1.87627,1.90326,1.89204,1.84593
1.86077,1.76194,1.84279,1.93262,1.85211,1.94744,1.77794,1.91032,1.83128,1.80984,1.79883,1.85175,1.90749,1.91368,1.90272,1.92444,1.88001,1.81483,1.89928,1.83783,1.9419,1.94606,1.77324,1.86558,1.92093,1.74147,1.82834,1.87546,1.795,1.84696,1.84937,1.76449,1.82708,1.82888,1.87564,1.84872,1.84581,1.82675,1.8474,1.81288,1.88403,1.87923,1.84389,1.84545,1.83604,1.82602,1.9226,1.83994,1.83552,1.91111,1.88546,1.83995,1.89242,1.80063,1.78377,1.87916,1.79902,1.83804,1.90534,1.82883
1.88314,1.87736,1.80967,1.8627,1.90456,1.82235,1.89267,1.83623,1.82488,1.8675,1.85782,1.88678,1.87057,1.92823,1.81002,1.86312,1.88501,1.86692,1.89175,1.84205,1.83055,1.91714,1.88749,1.85803,1.81326,2.10087,1.79795,1.82104,1.83532,1.82894,1.77204,1.9091,1.8285,1.85111,1.80804,1.86462,1.93778,1.81681,1.91298,1.88587,1.87392,1.87361,1.84523,1.86017,1.90598,1.86149,1.85641,1.89791,1.87228,1.76886,1.88163,1.83489,1.85529,1.79801,1.82999,1.88552,1.86603,1.87181,1.88729,1.85591
1.9108,1.87405,1.88468,1.7784,1.79652,1.80149,1.76199,1.79979,1.93158,1.86654,1.92077,1.86362,1.80749,1.93944,1.78934,1.84664,1.76586,1.83985,1.82817,1.83685,1.87198,1.9435,1.88689,1.80326,1.85055,1.81765,1.8903,1.83466,1.83529,1.7776,1.90866,1.84052,1.89262,1.86039,1.79226,1.88943,1.88582,1.80303,1.89669,1.87169,1.817,1.78871,1.86703,1.84888,1.93304,2.12376,1.93723,1.89786,1.83462,1.83566,1.85267,1.84073,1.87003,1.78126,1.79491,1.88766,1.81711,1.84672,1.82144,1.80529
1.88139,1.82142,1.87206,1.90633,1.84174,1.85836,1.87984,1.8417,1.86308,1.84398,1.85833,1.90091,1.90604,1.90427,1.8689,1.92307,1.83508,1.84528,1.85881,1.85482,1.88319,1.84083,1.92726,1.828,1.80875,1.89774,1.89164,1.85863,1.84416,1.8759,1.84048,1.856,1.82675,1.81548,1.89316,1.84112,1.73685,1.89481,1.84964,1.86366,1.84431,1.94161,1.87734,1.82308,1.85012,1.90619,1.95963,1.87719,1.82869,1.87304,1.87985,1.8091,1.94454,1.88063,1.92754,1.8427,1.82044,1.87622,1.79783,1.79354
1.86853,1.90577,1.8923,1.84575,1.86438,1.89219,1.83581,1.88593,1.86474,1.79273,1.84456,1.94771,1.87436,1.88545,1.8614,1.82654,1.86869,1.88784,1.81284,1.88175,1.89783,1.84928,1.85856,1.84684,1.90704,1.81772,1.90522,1.83383,1.86097,1.86263,1.84926,1.83102,1.84991,1.83538,1.76812,1.85907,1.85189,1.78005,1.86659,1.87264,1.9341,1.76465,1.858,1.87006,1.88809,1.82916,1.8219,1.79341,1.79844,1.88929,1.85196,1.81613,1.85893,1.8879,1.85307,1.72781,1.83807,1.90351,1.84056,1.83597
1.94255,1.86546,1.88031,1.82684,1.90009,1.90177,1.90358,1.86985,1.88651,1.81596,1.8809,1.90939,1.88529,1.84652,1.81431,1.87352,1.84789,1.84114,1.88506,1.84414,1.8933,1.9366,1.75349,1.83242,1.87232,1.87859,1.83228,1.81636,1.81127,1.88053,1.89073,1.90761,1.86342,1.89959,1.87568,1.8312,1.87936,1.82058,1.94614,1.84165,1.89621,1.87319,1.8492,1.85188,1.86278,1.84218,1.83905,1.88034,1.88046,1.83779,1.82119,1.85262,1.86632,1.84005,1.8895,1.90375,1.92298,1.85922,1.83167,1.85342
1.86172,1.85998,1.78624,1.82597,1.78496,1.76376,1.87009,1.81499,1.86023,1.87121,1.88182,1.82992,1.84514,1.88181,1.81333,1.87019,1.86332,1.80693,1.84071,1.89289,1.84265,1.87898,1.78496,1.93691,1.91208,1.94635,1.9549,1.86378,1.86962,1.87468,1.89081,1.82405,1.81615,1.84387,1.82916,1.82601,1.81417,1.87563,1.78399,1.88148,1.82529,1.90582,1.90456,1.85396,1.86854,1.83457,1.84697,1.90003,1.86055,1.87565,1.88715,1.83946,1.92668,1.8576,1.93418,1.83697,1.81664,1.90106,1.85323,1.91721
1.88639,1.88855,1.84317,1.86866,1.7825,1.82835,1.82842,1.76687,1.86724,1.86724,1.82116,1.86156,1.82139,1.86531,1.80688,1.8815,1.89841,1.9005,1.8446,1.79268,1.90251,1.89721,1.87583,1.79242,1.86188,1.76587,1.93563,1.85425,1.83809,1.90842,1.78323,1.81556,1.91793,1.84511,1.83327,1.86712,1.80262,1.85134,1.89475,1.80321,1.96112,1.87662,1.76123,1.83909,1.90644,1.84784,1.9205,1.8932,1.89223,1.81309,1.86888,1.85355,1.81182,1.84743,1.81352,1.82781,1.8531,1.85032,1.87409,1.91301
1.87684,1.8126,1.8298,1.89,1.84827,1.8744,1.85269,1.83979,1.90826,1.88729,1.89245,1.79113,1.84416,1.84635,1.89793,1.80049,1.83368,1.89373,1.87109,1.84119,1.85237,1.81049,1.88685,1.85957,1.80657,1.8554,1.84186,1.86131,1.90729,1.89949,1.88405,1.87152,1.79808,1.83651,1.90556,1.89662,1.85142,1.84636,1.78724,1.88746,1.8373,1.82478,1.77494,1.81489,1.8152,1.80267,1.85394,1.91063,1.86996,1.825,1.83923,1.74547,1.83542,1.8214,1.86424,1.84692,1.8274,1.86092,1.83334,1.85123
1.8629,1.78651,1.90229,1.86976,1.87951,1.89638,1.81381,1.84559,1.83718,1.79124,1.92102,1.86994,1.88091,1.81375,1.88146,1.85306,1.9077,1.81374,1.853,1.85283,1.85512,1.85444,1.92105,1.81755,1.86795,1.82734,1.83819,1.83691,1.74982,1.8459,1.80647,1.87966,1.87518,1.92152,1.84536,1.84755,1.72223,1.87946,1.88791,1.83827,1.84367,1.78738,1.91549,1.78418,1.87828,1.90393,1.82053,1.88472,1.85262,1.85954,1.77397,1.8548,1.80436,1.86943,1.87182,1.91684,1.8397,1.91781,1.90414,1.8414
1.90216,1.92692,1.86677,1.78445,1.83685,1.8694,1.93782,1.84979,1.8968,1.88667,1.75266,1.81508,1.84562,1.81421,1.8455,1.74779,1.8514,1.87455,1.84975,1.82555,1.85986,1.82718,1.91915,1.89336,1.95522,1.82194,1.8203,1.78614,1.90011,1.87044,1.87515,1.87086,1.86471,1.94472,1.80879,1.84461,1.86019,1.91259,1.8524,1.86055,1.83627,1.8543,1.92296,1.9207,1.91366,1.79243,1.88186,1.90316,1.92238,1.91251,1.84662,1.88151,1.85854,1.9469,1.89757,1.87484,1.93054,1.79233,1.82063,1.81839
1.78285,1.83194,1.82154,1.82058,1.82737,1.90269,1.86957,1.86254,1.89016,1.88787,1.8522,1.919,1.80196,1.87028,1.81364,1.90682,1.78284,1.93215,1.85216,1.92198,1.9154,1.89382,1.84433,1.85336,1.85891,1.94554,1.84041,1.85906,1.82228,1.82864,1.82554,1.78105,1.80407,1.85847,1.91604,1.81844,1.79825,1.90108,1.87908,1.84921,1.8242,1.88426,1.87435,1.80564,1.88462,1.84332,1.84731,1.80135,1.94074,1.83565,1.83725,1.84186,1.88827,1.77573,1.90157,1.95021,1.87415,1.84881,1.84687,1.9218
1.81981,1.83259,1.87397,1.87232,1.88638,1.94089,1.83683,1.89563,1.78844,1.95928,1.93805,1.8397,1.82993,1.79254,1.87407,1.80871,1.86737,1.92169,1.83365,1.89856,1.86831,1.83378,1.79867,1.92991,1.73646,1.88741,1.91466,1.85935,1.90834,1.89441,1.82233,1.85823,1.85799,1.87943,1.83377,1.8907,1.85454,1.81382,1.81319,1.85353,1.88489,1.83038,1.90751,1.87047,1.90314,1.83358,1.8689,1.91212,1.82528,1.8442,1.82738,1.82333,1.81876,1.79722,1.75296,1.82521,1.8472,1.89426,1.8459,1.8195
1.92034,1.85631,1.86775,1.87492,1.93727,1.80523,1.82161,1.8354,1.82534,1.84053,1.84885,1.86071,1.81636,1.84177,1.82918,1.84962,1.87219,1.87077,1.87129,1.82496,1.89079,1.93475,1.7935,1.94526,1.93172,1.92226,1.95127,1.81512,1.85178,1.88008,1.85528,1.88356,1.86064,1.84393,1.84408,1.89733,1.8621,1.92582,1.84312,1.87499,1.83837,1.82121,1.81767,1.88345,1.8998,1.89167,1.84366,1.84479,1.8919,1.83527,1.82757,1.81749,1.87532,1.87428,1.78041,1.84225,1.77633,1.84815,1.75765,1.87559
1.86462,1.85973,1.81024,1.8413,1.87372,1.85675,1.893,1.84516,1.84867,1.87257,1.87308,1.77977,1.85598,1.87736,1.82226,1.83721,1.89783,1.84349,1.77327,1.82524,1.86986,1.81645,1.84059,1.86508,1.84087,1.85729,1.92676,1.91953,1.89637,1.92377,1.89828,1.91928,1.82016,1.93601,1.90109,1.81409,1.84084,1.89707,1.87087,1.86517,1.87355,1.87434,1.86195,1.88867,1.89002,1.86367,1.94614,1.87984,1.83559,1.84358,1.84746,1.77342,1.87277,1.86717,1.85005,1.82928,1.94435,1.78903,1.80589,1.88814
1.85901,1.83472,1.9112,1.88881,1.92119,1.8398,1.84151,1.77811,1.84045,1.85304,1.78474,1.79119,1.85941,1.87702,1.8277,1.87379,1.77719,1.77952,1.79023,1.84744,1.84118,1.82154,1.89738,1.83329,1.77799,1.85314,1.87785,1.86568,1.78595,1.86195,1.88559,1.78463,1.80066,1.8238,1.80859,1.79764,1.78791,1.81585,1.86306,1.82932,1.8727,1.81297,1.86556,1.85073,1.89919,1.87003,1.86269,1.87233,1.84136,1.86795,1.78416,1.86662,1.85344,1.82551,1.90633,1.87565,1.86795,1.90935,1.90773,1.83806
1.88933,1.89517,1.86321,1.91802,1.83755,1.88773,1.8174,1.8013,1.87766,1.90563,1.91718,1.89524,1.86779,1.87366,1.7722,1.84811,1.80093,1.86512,1.89023,1.87172,1.84271,1.87307,1.85504,1.86288,1.8409,1.91337,1.83103,1.88796,1.89464,1.8607,1.77789,1.81251,1.88925,1.85164,1.79574,1.8679,1.8051,1.75432,1.80291,1.87759,1.86344,1.84373,1.74363,1.80704,1.86104,1.77601,1.87569,1.84695,1.83381,1.85833,1.76744,1.82726,1.80088,1.82867,1.83924,1.82571,1.90157,1.86206,1.82334,1.84205
1.88281,1.85869,1.92802,1.82023,1.76552,1.82301,1.88707,1.89888,1.89749,1.87876,1.83445,1.82354,1.77688,1.8845,1.87915,1.84695,1.84815,1.8442,1.86473,1.79998,1.86249,1.85367,1.89418,1.79083,1.86064,1.80604,1.80497,1.76701,1.82512,1.93529,1.94166,1.8465,1.87413,1.87392,1.80041,1.89529,1.8761,1.85531,1.80219,1.79983,1.82642,1.83024,1.90683,1.89398,1.89698,1.89937,1.83632,1.84193,1.84501,1.86647,1.80018,1.86176,1.81671,1.80872,1.87949,1.78921,1.83831,1.84369,1.89876,1.83554
1.79473,1.87016,1.88503,1.87953,1.82184,1.81368,1.82969,1.90605,1.8964,1.87858,1.83016,1.78724,1.78682,1.88914,1.8308,1.91455,1.86294,1.79882,1.85454,1.8164,1.89069,1.88468,1.88336,1.86873,1.91586,1.82547,1.89487,1.85846,1.85001,1.87747,1.88404,1.88853,1.84598,1.85964,1.93556,1.8741,1.8479,1.79422,1.91479,1.83083,1.92559,1.76606,1.86313,1.86363,1.86037,1.84003,1.89703,1.9013,1.91043,1.93403,1.81867,1.88229,1.89073,1.84175,1.85547,1.84148,1.83996,1.82969,1.85394,1.87867
1.90848,1.81956,1.86172,1.83541,1.79351,1.90984,1.84387,1.90808,1.83735,1.84663,1.84708,1.89655,1.85147,1.84209,1.85886,1.83039,1.83819,1.81184,1.77362,1.87758,1.80219,1.86166,1.8926,1.87336,1.82432,1.88545,1.81228,1.77554,1.78776,1.90699,3.72652,1.87404,1.76545,1.88391,1.84506,1.83354,1.80238,1.78124,1.89619,1.86721,1.89928,1.88044,1.862,1.79031,1.79552,1.85333,1.79972,1.87548,1.82493,1.81913,1.88751,1.84503,1.87199,1.94239,1.80463,1.82949,1.81773,1.86793,1.87076,1.8512
1.82846,1.81032,1.81983,1.88717,1.90243,1.89366,1.84507,1.81892,1.86684,1.80263,1.83863,1.80676,1.82651,1.84554,1.86618,1.86316,1.84022,1.90042,1.86706,1.82239,1.87495,1.88722,1.90358,1.86466,1.84489,1.86807,1.84096,1.86668,1.85098,1.85221,1.84726,1.78432,1.84297,1.78732,1.88476,1.85421,1.85688,1.82015,1.81909,1.84816,1.89652,1.8553,1.80485,1.79053,1.83156,1.86098,1.85884,1.92805,1.86521,1.86552,1.88297,1.89075,1.91821,1.80497,1.93202,1.78009,1.85404,1.83913,1.87605,1.79186
1.74562,1.85502,1.8208,1.84489,1.81945,1.83888,1.89426,1.89723,1.87726,1.92191,1.92021,1.87935,1.94461,1.8373,1.83761,1.93533,1.89569,1.93515,1.95533,1.91105,1.86699,1.88534,1.85648,1.82164,1.85464,1.80587,1.85617,1.89183,1.80846,1.84785,1.82522,1.8102,1.87118,1.83429,1.82143,1.79815,1.84568,1.88308,1.86046,1.84292,1.93579,1.86009,1.88345,1.79589,1.83364,1.77105,1.75937,1.81034,1.83303,1.82246,1.85086,1.86114,1.81091,1.88156,1.82467,1.83327,1.87405,1.85171,1.80975,1.86487
1.81977,1.9083,1.79061,1.89471,1.87202,1.90151,1.91494,1.83058,1.89828,1.89925,1.8709,1.87049,1.79608,1.85962,1.93838,1.89119,1.82655,1.81363,1.81843,1.9304,1.86868,1.83289,1.87732,1.85218,1.85128,1.78684,1.8606,1.94135,1.88182,1.85144,1.91324,1.80492,1.87253,1.88932,1.85968,1.88975,1.872,1.83328,1.84699,1.83491,1.83524,1.86162,1.84468,1.84801,1.8369,1.93358,1.89483,1.84654,1.92767,1.90498,1.84839,1.89023,1.79507,1.92068,1.85364,1.88672,1.94811,1.87142,1.82152,1.82227
1.85532,1.88212,1.89875,1.75839,1.905,1.88093,1.84876,1.81405,1.92813,1.85756,1.90229,1.76824,1.88574,1.88394,1.85167,1.88453,1.94241,1.81462,1.80543,1.80734,1.82397,1.84545,1.87701,1.87335,1.85864,1.92477,1.87313,1.80629,1.86425,1.8745,1.81444,1.86411,1.81318,1.89488,1.82074,1.84582,1.75884,1.87266,1.8528,1.89334,1.95479,1.86024,1.88408,1.83793,1.85309,1.8806,1.81378,1.89266,1.8316,1.90575,1.90544,1.82947,1.89349,1.79357,1.92286,1.84978,1.83087,1.86372,1.9361,1.84515
1.89996,1.82772,1.80808,1.80325,1.84234,1.92015,1.93253,1.90546,1.85673,1.80499,1.90469,1.87702,1.84068,1.91911,1.87581,1.81967,1.82474,1.86206,1.78893,1.81061,1.83627,1.9361,1.87518,1.79526,1.86788,1.91994,1.84961,1.76384,1.8648,1.91542,1.82213,1.87827,1.83161,1.78353,1.82089,1.8605,1.82917,1.82901,1.86947,1.9105,1.88797,1.835,1.82839,1.9151,1.83126,1.88009,1.83096,1.84105,1.77093,1.82562,1.8772,1.94353,1.83458,1.89832,1.83141,1.92274,1.89916,1.87216,1.86258,1.81413
1.8223,1.88895,1.87866,1.89643,1.91349,1.92924,1.83187,1.87091,1.88478,1.86093,1.88616,1.89629,1.83359,1.92023,1.78287,1.85341,1.8841,1.86006,1.85058,1.88348,1.8247,1.86123,1.8273,1.87461,1.8411,1.85084,1.77832,1.86811,1.7824,1.896,1.90005,1.8043,1.87796,1.96592,1.88151,1.78269,1.81048,1.86584,1.79941,1.77895,1.82925,1.88781,1.91045,1.83224,1.86948,1.80286,1.82015,1.84948,1.90957,1.86061,1.85479,1.74861,1.85532,1.83032,1.885,1.8312,1.94519,1.81401,1.86284,1.78323
1.87648,1.82181,1.88761,1.88535,1.77376,1.87071,1.85643,1.80797,1.84924,1.79373,1.90613,1.80038,1.914,1.8749,1.90018,1.80146,1.81908,1.80425,1.86225,1.85462,1.8829,1.84017,1.81999,1.92895,1.90147,1.87685,1.79555,1.85899,1.8512,1.87465,1.9388,1.95148,1.87586,1.78516,1.86218,1.86479,1.79156,1.91579,1.80323,1.74671,1.9016,1.84433,1.85573,1.84047,1.88669,1.84304,1.84378,1.87822,1.8595,1.8557,1.81374,1.86677,1.84008,1.8469,1.83465,1.86743,1.78761,1.89712,1.87834,1.81663
1.93151,1.86869,1.86126,1.88824,1.83263,1.87651,1.86417,1.76126,1.77128,1.76296,1.91197,1.81692,1.88977,1.85206,1.86923,1.88814,1.86666,1.83891,1.87439,1.82901,1.85012,1.90255,1.85801,1.7803,1.88922,1.86371,1.89989,1.82938,1.9334,1.84077,1.8355,1.83469,1.85864,1.82474,1.72452,1.8279,1.90106,1.91618,1.8572,1.84641,1.88741,1.82344,1.88703,1.82716,1.78387,1.82548,1.8811,1.85852,1.89953,1.86241,1.75957,1.86697,1.82491,1.88056,1.74509,1.91474,1.83982,1.8568,1.85054,1.83625
1.89088,1.81195,1.81878,1.83487,1.84421,1.86813,1.87274,1.82644,1.78546,1.84417,1.90972,1.86865,1.79665,1.86429,1.80527,1.85684,1.88002,1.86466,1.93991,1.73006,1.88975,1.84232,1.83535,1.94362,1.817,1.84124,1.80832,1.83634,1.86539,1.82574,1.87205,1.87694,1.8654,1.88174,1.73966,1.85281,1.82311,1.78472,1.90403,1.79176,1.85282,1.88049,1.85739,1.80758,1.85605,1.85287,1.87239,1.89027,1.84117,1.88821,1.91174,1.7743,1.84921,1.89179,1.87613,1.86376,1.89226,1.82009,1.82573,1.77483
1.88153,1.83419,1.80534,1.86807,1.87766,1.86564,2.00074,1.87194,1.87359,1.79136,1.84109,1.76732,1.84664,1.94904,1.81237,1.83918,1.85046,1.90475,1.93031,1.85166,1.8075,1.84518,1.85118,1.90527,1.82048,1.81182,1.91575,1.885,1.92015,1.84775,1.89549,1.7947,1.88883,1.85713,1.86746,1.84926,1.88421,1.89558,1.84252,1.85469,1.86554,1.9132,1.89607,1.8596,1.90689,1.81827,1.81696,1.7997,1.78974,1.79185,1.86371,1.82887,1.88354,1.84979,1.84859,1.9373,1.79259,1.84656,1.87769,1.94227
1.82459,1.91619,1.83282,1.82999,1.81554,1.88924,1.83803,1.85234,1.79021,1.83111,1.85871,1.82035,1.83919,1.85463,1.8745,1.7208,1.85731,1.85709,1.8806,1.9144,1.96248,1.83157,1.85065,1.75717,1.83425,1.89525,1.93644,1.79966,1.89435,1.81168,1.87819,1.91442,1.91444,1.86742,1.8067,1.89423,1.88705,1.75671,1.92422,1.78823,1.8848,1.88425,1.86918,1.84018,1.90436,1.86308,1.83212,1.80753,1.90238,1.85947,1.93568,1.799,1.84533,1.8222,1.90952,1.81068,1.88396,1.82423,1.90185,1.81792
1.87607,1.90503,1.85037,1.87187,1.83304,1.81556,1.89359,1.81271,1.8266,1.85957,1.88558,1.90539,1.88029,1.89066,1.85339,1.93209,1.78516,1.81338,1.85075,1.84225,1.82524,1.7988,1.81638,1.85432,1.88178,1.77681,1.82477,1.87118,1.81743,1.81468,1.82873,1.88858,1.90998,1.83537,1.74184,1.90341,1.83104,1.84324,1.93289,1.87526,1.90742,1.80154,1.78365,1.91573,1.92392,1.82696,1.85579,1.81581,1.83071,1.94437,1.89836,1.80827,1.89288,1.79554,1.86689,1.83495,1.88862,1.78049,1.83799,1.89715
1.89089,1.88063,1.86866,1.86311,1.86372,1.89529,1.90936,1.82641,1.90302,1.88825,1.76201,1.89468,1.87049,1.81673,1.84255,1.79242,1.92072,1.81185,1.83669,1.90571,1.97277,1.92011,1.87796,1.85111,1.83148,1.87084,1.87433,1.8194,1.78369,1.89908,1.88359,1.87819,1.82944,1.87647,1.81263,1.8982,1.85567,1.84409,1.8408,1.8387,1.86744,1.89744,1.91825,1.78443,1.82037,1.7632,1.83735,1.78325,1.89027,1.82342,1.83193,1.8296,1.88804,1.8295,1.82166,1.91015,1.84419,1.94564,1.83003,1.84112
1.85216,1.8164,1.81591,1.84928,1.87536,1.74444,1.81494,1.81488,1.85191,1.86995,1.89827,1.88218,1.8877,1.85019,1.87617,1.85554,1.86401,1.86757,1.92396,1.84886,1.8805,1.85276,1.91112,1.8795,1.85461,1.8287,1.79577,1.83702,1.87249,1.80332,1.87961,1.8613,1.81968,1.89564,1.79673,1.88222,1.8134,1.91141,1.83217,1.83692,1.92585,1.80084,1.8842,1.92911,1.80654,1.87568,1.82772,1.85699,1.86293,1.8973,1.81308,1.88391,1.99797,1.84588,1.92594,1.84198,1.90354,1.86193,1.87238,1.94923
1.80203,1.8518,1.7869,1.89247,1.83795,1.88387,1.88886,1.86157,1.8174,1.82245,1.92118,1.87344,1.80989,1.77366,1.83965,1.88721,1.8195,1.78461,1.83207,1.81237,1.84642,1.90038,1.82138,1.80218,1.85097,1.79899,1.81276,1.86982,1.81642,1.87419,1.86455,1.86903,1.87925,1.87403,1.7882,1.90034,1.89363,1.80694,1.88402,1.91028,1.83841,1.8182,1.85779,1.89059,1.8322,1.89184,1.83947,1.88954,1.7888,1.86804,1.86512,1.88374,1.87937,1.86484,1.84807,1.81019,1.76246,1.81857,1.83934,1.87014
1.84335,1.91635,1.87483,1.84153,1.88175,1.90912,1.83966,1.87826,1.78864,1.86848,1.81726,1.86274,1.85462,1.88678,1.90069,1.89901,1.92078,1.80294,1.8582,1.89333,1.84506,1.83427,1.85589,1.82307,1.84001,1.8483,1.82163,1.88207,1.80228,1.93818,1.90206,1.79443,1.81699,1.81947,1.85746,1.84695,1.80529,1.85377,1.83952,1.85987,1.85045,1.87205,1.91523,1.81956,1.84383,1.91497,1.85263,1.85465,1.89091,1.91196,1.84753,1.84255,1.83001,1.88223,1.88173,1.84782,1.87214,1.87159,1.88195,1.89573
1.84058,1.83598,1.85877,1.871,1.88835,1.88946,1.84992,1.80781,1.87462,1.85191,1.85034,1.8335,1.8812,1.86607,1.81341,1.81774,1.85525,1.79684,1.88868,1.92289,1.80827,1.90374,1.85404,1.79088,1.92804,1.88044,1.81952,1.81631,1.85875,1.90285,1.89789,1.94286,1.86195,1.86967,1.89121,1.88078,1.89757,1.87173,1.85801,1.784,1.85475,1.85257,1.87036,1.88363,1.76717,1.83412,1.86126,1.85926,1.86295,1.88727,1.78891,1.84733,1.84907,1.84387,1.84889,1.83752,1.8168,1.83704,1.76805,1.75003
1.86348,1.79112,1.78776,1.87234,1.8947,1.85106,1.81913,1.86631,1.85162,1.86065,1.83241,1.82707,1.84438,1.87185,1.90309,1.90743,1.84049,1.85119,1.84434,1.85914,1.87411,1.92852,1.82872,1.89985,1.91625,1.77594,1.86429,1.82293,1.81603,1.83402,1.80998,1.80773,1.88046,1.82924,1.83174,1.95462,1.86362,1.86623,1.91316,1.86247,1.84894,1.83355,1.83144,1.89053,1.88732,1.8353,1.77079,1.79908,1.77912,1.90604,1.84387,1.85626,1.88905,1.87941,1.79902,1.86255,1.75371,1.8621,1.87971,1.8817
1.89348,1.85381,1.74989,1.83321,1.90782,1.8464,1.8883,1.84448,1.85055,1.76826,1.7807,1.80865,1.92185,1.84206,1.84267,1.85173,1.88458,1.82535,1.82704,1.80729,1.90605,1.8289,1.76248,1.8437,1.82607,1.85701,1.89455,1.83045,1.90977,1.83761,1.85131,1.86615,1.83975,1.91891,1.85149,1.84898,1.8904,1.8715,1.86358,1.91288,1.82741,1.90228,1.92536,1.90615,1.94766,1.94177,1.90832,1.82758,1.82397,1.91107,1.77991,1.92379,1.86089,1.84104,1.82203,1.84901,1.8453,1.9131,1.84042,1.83774
1.8301,1.82906,1.87645,1.8571,1.82822,1.87312,1.78512,1.87972,1.80581,1.79304,1.82075,1.93188,1.82408,1.79484,1.84958,1.88463,1.89705,1.85765,1.8027,1.77692,1.8912,1.8272,1.86657,1.83448,1.84988,1.83066,1.84995,1.88555,1.87114,1.76191,1.95182,1.94021,1.79558,1.85963,1.88167,1.83628,1.89045,1.83457,1.86487,1.8301,1.85056,1.86455,1.87735,1.8524,1.87475,1.87915,1.85824,1.92532,1.85881,1.86882,1.9119,1.94512,1.8691,1.86106,1.81472,1.8066,1.85102,1.89083,1.84816,1.87629
1.85956,1.79827,1.85161,1.83216,1.86389,1.90628,1.81283,1.78404,1.90199,1.75192,1.88337,1.85384,1.83504,1.76656,1.84983,1.78494,1.87264,1.78831,1.83074,1.85032,1.87064,1.78658,1.86506,1.82013,1.8432,1.86593,1.88367,1.80315,1.88379,1.8941,1.78862,1.79455,1.91985,1.85853,1.90981,1.84541,1.86187,1.92273,1.78491,1.85323,1.78872,1.87087,1.89704,1.76493,1.85596,1.85399,1.91175,1.80882,1.8521,1.86325,1.87782,1.89478,1.79275,1.86166,1.86227,1.83311,1.82401,1.83781,1.82664,1.87852
1.84171,1.79623,1.82072,1.89005,1.84238,1.89962,1.89945,1.85205,1.83723,1.84948,1.83837,1.7884,1.8475,1.86363,1.88128,1.83682,1.86461,1.88435,1.93945,1.85087,1.79385,1.80099,1.87223,1.833,1.77918,1.80876,1.80517,1.9337,1.86121,1.88814,1.84739,1.87841,1.81693,1.88888,1.88111,1.82,1.80444,1.86068,1.83914,1.91736,1.80153,1.86998,1.87546,1.85404,1.77013,1.91401,1.86157,1.87638,1.88072,1.85177,1.78174,1.82935,1.83061,1.83452,1.90294,1.86012,1.8681,1.89877,1.88305,1.85108
1.83144,1.89249,1.86466,1.87693,1.82268,1.78818,1.88613,1.86818,1.80453,1.89634,1.78828,1.9114,1.89022,1.82182,1.83972,1.75545,1.87286,1.88785,1.82621,1.78465,1.82701,1.90753,1.88899,1.79895,1.87127,1.87926,1.90852,1.83769,1.91845,1.86126,1.78961,1.87246,1.93476,1.8229,1.89648,1.93177,1.8532,1.89336,1.86061,1.82893,1.87094,1.86017,1.90415,1.82073,1.81562,1.83757,1.82818,1.84443,1.82443,1.83778,1.82597,1.85742,1.80901,1.81291,1.86527,1.82598,1.8254,1.78452,1.88683,1.82504
1.85461,1.86665,1.86767,1.87972,1.86362,1.80807,1.84699,1.86168,1.93679,1.80198,1.84901,1.85961,1.83316,1.82136,1.82644,1.83338,1.82226,1.89649,1.79499,1.81617,1.86616,1.81743,1.80087,1.86292,1.89494,1.78943,1.80319,1.89513,1.83017,1.79514,1.91219,1.84142,1.86143,1.9023,1.85195,1.77975,1.80952,1.85449,1.92734,1.7793,1.90215,1.85585,1.90262,1.91109,1.86121,1.88386,1.94664,1.90342,1.86179,1.83663,1.88301,1.90178,1.82842,1.81958,1.84122,1.80338,1.84063,1.86175,1.83739,1.81872
1.83385,1.87796,1.85053,1.85563,1.86436,1.82543,1.85018,1.87485,1.86111,1.87877,1.76377,1.80379,1.8821,1.82474,1.8316,1.83829,1.85151,1.94786,1.84842,1.85912,1.84495,1.84227,1.88383,1.85457,1.8794,1.88669,1.86815,1.85881,1.79915,1.85465,1.76449,1.82241,1.83082,1.7958,1.81915,1.85501,1.88532,1.86144,1.85957,1.93277,1.81325,1.79905,1.89782,1.77238,1.86115,1.88221,1.87416,1.89866,1.91324,1.90895,1.83333,1.8699,1.82251,1.88546,1.88882,1.8017,1.94222,1.8117,1.88853,1.80388
1.86354,1.81428,1.86103,1.90646,1.85189,1.83369,1.88676,1.82218,1.83949,1.87147,1.83158,1.89288,1.71183,1.91517,1.93334,1.80043,1.89984,1.89636,1.90115,1.87688,1.84902,1.80915,1.81848,1.84193,1.82064,1.81885,1.79131,1.81456,1.83299,1.8012,1.86778,1.88729,1.7919,1.81728,1.88796,1.84178,1.84315,1.84165,1.79459,1.88806,1.77925,1.78494,1.86959,1.86399,1.80945,1.89683,1.87018,1.87858,1.84208,1.90564,1.87441,1.8519,1.80908,1.89526,1.87103,1.88198,1.85595,1.92863,1.86487,1.82593
1.82639,1.82546,1.81821,1.83757,1.78758,1.87195,1.81631,1.8344,1.83674,1.81502,1.74663,1.83028,1.83859,1.77926,1.83394,1.80367,1.84047,1.88153,1.88708,1.86316,1.8841,1.8921,1.81773,1.80442,1.75486,1.84716,1.89698,1.84894,1.83309,1.86081,1.81301,1.83428,1.84719,1.87673,1.84227,1.75531,1.82849,1.8565,1.85304,1.82769,1.93746,1.81362,1.8251,1.83925,1.89339,1.84315,1.79059,1.88658,1.81134,1.84307,1.74555,1.90195,1.83971,1.90081,1.8144,1.80716,1.85749,1.81955,1.81775,1.86101
1.87346,1.82185,1.84166,1.86871,1.85306,1.88256,1.90455,1.88706,1.81074,1.79572,1.87039,1.87784,1.88273,1.8063,1.80068,1.82648,1.79087,1.87083,1.87726,1.83594,1.81022,1.75011,1.86667,1.95984,1.89261,1.86173,1.86398,1.83557,1.85571,1.76953,1.84798,1.74799,1.81321,1.86905,1.84823,1.84277,1.89455,1.86627,1.76587,1.8522,1.86057,1.87372,1.7599,1.85017,1.83189,1.81607,1.86853,1.77268,1.90632,1.78967,1.80747,1.89871,1.90121,1.87047,1.86925,1.88399,1.88159,1.89689,1.79651,1.90321
1.80836,1.76431,1.90346,1.79332,1.93615,1.81743,1.89565,1.81285,1.74486,1.89188,1.80195,1.86809,1.85624,1.87466,1.93151,1.83732,1.82153,1.87933,1.83106,1.89188,1.80966,1.81473,1.81271,1.86953,1.85311,1.85173,1.85044,1.82938,1.85445,1.85197,1.90056,1.83951,1.81313,1.87215,1.86427,1.85997,1.82677,1.89769,1.82016,1.84259,1.81845,1.87171,1.8741,1.87377,1.79594,1.85326,1.7968,1.89548,1.82043,1.85022,1.85162,1.90595,1.84594,1.91566,1.7742,1.82836,1.90008,1.80766,1.87929,1.86566

max: 3.72652
min: 1.71183
avg: 1.85562
