2.12994,2.1532,2.15458,2.10765,2.13119,1.99368,2.178,2.08314,2.07769,2.12314,2.17628,2.16177,2.18471,2.12977,2.13818,1.97045,2.15868,2.16116,2.07779,2.10319,2.0579,2.15485,2.0593,2.07542,2.12145,2.12033,2.11114,2.1324,2.14287,2.11532,2.11358,2.09992,2.11312,2.14878,2.09907,2.0917,2.11828,2.03737,2.10131,2.10609,2.14531,2.09233,2.1172,2.06397,2.1415,2.10106,2.05594,2.10735,2.10654,2.00142,2.15323,2.11617,2.09574,2.09779,2.06569,2.09997,2.12638,2.13635,2.12556,2.08584
2.04209,2.07593,2.10045,2.05144,2.20131,2.14378,2.09697,2.10659,2.11019,2.09751,2.13739,2.11383,2.10163,2.12052,2.05124,2.12257,2.13164,1.99402,2.09051,2.15946,2.16029,2.09696,2.08398,2.11078,2.11066,2.20344,2.10911,2.14545,2.17347,2.1487,2.17437,2.12387,2.18139,2.16599,2.10833,2.10824,2.10394,2.13986,2.13066,2.13134,2.13938,2.12554,2.11497,2.12509,2.15738,2.04465,2.17845,2.15482,2.14274,2.1152,2.08448,2.15053,2.15135,2.13763,2.04239,2.13535,2.1381,2.07262,2.09035,2.15925
2.16143,2.14418,2.11968,2.14441,2.16779,2.10872,2.08079,2.1167,2.05363,2.12657,2.1242,2.11797,2.10276,2.12957,2.013,2.16439,2.12842,2.08974,2.13648,2.14621,2.0965,2.234,2.17413,2.12177,2.084,2.09877,2.11882,2.1118,2.13006,2.09909,2.13021,2.06584,2.12581,1.94711,2.15575,2.12895,2.13252,2.11555,2.12199,2.15525,2.14101,2.17974,2.13469,2.11718,2.05608,2.1226,2.16692,2.07166,2.11302,2.16935,2.20596,2.03428,2.11686,2.11566,2.10132,2.10009,2.15221,2.11545,2.06396,2.05958
2.14638,2.15694,2.09664,2.08102,2.06565,2.10503,2.04505,2.10613,2.07746,2.16603,2.15611,2.15346,2.11804,2.0292,2.18325,2.06359,2.0778,2.09623,2.06426,2.08564,2.16136,2.08547,2.0597,2.11042,2.11927,2.21337,2.14097,2.18887,2.12482,2.11215,2.13872,2.08237,2.11829,2.12798,2.10162,2.1662,2.18395,2.16648,2.1545,2.04157,2.13184,2.1096,2.08402,2.03429,2.12471,2.0691,2.05814,2.14226,2.17623,2.10637,2.17087,2.12397,2.05896,2.11248,2.10693,2.09724,2.09514,2.10373,2.10599,2.08107
2.04221,2.11047,2.07101,2.03519,2.11834,2.10939,2.08558,2.16462,2.09416,2.08024,2.10155,2.18168,2.15003,2.11341,2.12701,2.07588,2.10667,2.09515,2.08625,2.14182,2.08223,2.14879,2.09928,2.18256,2.13462,2.09335,2.05764,2.16536,2.13744,2.04421,2.1061,2.10311,2.15619,2.08763,2.12907,2.1909,2.16655,2.0955,2.14366,2.04718,2.11679,2.08913,2.12653,2.10971,2.10041,2.09694,2.05886,2.0835,2.038,2.12218,2.12351,2.13612,2.12741,2.12873,2.14109,2.14478,2.13886,2.1359,2.1217,2.10884
2.09887,2.11071,2.10746,2.15549,2.1407,2.09806,2.08109,2.06983,2.15545,2.11664,2.12573,2.19451,2.10819,2.06451,2.14263,2.09442,2.11928,2.13096,2.11009,2.13919,2.18071,2.06811,2.19811,2.12037,2.17066,2.09625,2.11925,2.05813,2.12037,2.08539,2.11837,2.08581,2.18275,2.21069,2.13449,2.12564,2.13722,2.1591,2.10196,2.12673,2.10553,2.16199,2.18258,2.1019,2.1071,2.13727,2.18538,2.14322,2.12653,2.04317,2.10166,2.16113,2.10971,2.12115,2.09269,2.13432,2.0797,2.12838,2.0948,2.12196
2.19124,2.1189,2.10373,2.13984,2.02428,2.02298,2.14601,2.10223,2.11753,2.14277,2.11629,2.13765,2.12421,2.1034,2.05047,2.08259,2.11808,2.11755,2.08667,2.04828,2.0682,2.11194,2.06437,2.12334,2.09876,2.11037,2.06807,2.18531,2.1603,2.16289,2.12315,2.17181,2.12874,2.1003,2.11736,2.14216,2.09578,2.10741,2.09565,2.15441,2.13208,2.18013,2.17042,2.13036,2.09906,2.08889,2.08534,2.13783,2.18181,2.08817,2.13477,2.19296,2.17713,2.10502,2.05997,2.16147,2.14184,2.2145,2.14519,2.07932
2.12474,2.09917,2.10371,2.18947,2.11425,2.1819,2.11225,2.14176,2.1227,2.14742,2.08533,2.14887,2.10175,2.05306,2.15738,2.06149,2.11003,2.09323,2.06834,2.12105,2.11978,2.11088,2.06098,2.11344,2.10932,2.14752,2.13947,2.11115,2.05458,2.09927,2.13816,2.15022,2.17877,2.10333,2.13806,2.08774,2.06848,2.11722,2.06856,2.12686,2.14513,2.10083,2.16401,2.06798,2.08315,2.08801,2.08093,2.0724,2.06324,2.11619,2.02856,2.1426,2.08278,2.09584,2.1263,2.2297,2.10523,2.09396,2.08099,2.07515
2.08828,2.06681,2.12634,2.08731,2.04697,2.09719,2.13038,2.14519,2.08018,2.10451,2.13252,2.16029,2.15995,2.1958,2.18619,2.11651,2.16836,2.16128,2.23027,2.14612,2.06924,2.15688,2.08893,2.20028,2.10651,2.14569,2.10456,2.1457,2.0947,2.07943,2.12802,2.20679,2.13111,2.0388,2.1863,2.13808,2.0884,2.12554,2.15383,2.17553,2.07288,2.06088,2.1188,2.08444,2.16266,2.17567,2.09336,2.09559,2.17838,2.1105,2.08833,2.15445,2.14029,2.11748,2.1295,2.08193,2.06192,2.04733,2.13207,2.16666
2.05894,2.14792,2.16811,2.16719,2.14901,2.08602,2.12062,2.18686,2.06466,2.12472,2.11665,2.1023,2.12421,2.04005,2.06316,2.12336,2.14924,2.15658,2.08117,2.11159,2.1993,2.17771,2.13452,2.10315,2.08198,2.05235,2.10415,2.14577,2.12832,2.15489,2.11462,2.16547,2.15752,2.11689,2.13188,2.15962,2.09319,2.16922,2.11204,2.16115,2.02128,2.13687,2.06576,2.10617,2.14064,2.10197,2.0893,2.13709,2.12348,2.11611,2.05384,2.08666,2.08787,2.13064,2.18493,2.14097,2.13389,2.12247,2.10526,2.12965
2.1148,2.16018,2.13868,2.12915,2.13893,2.09221,2.10981,2.0857,2.09277,2.05284,2.11428,2.08933,2.1083,2.12316,2.15522,2.11461,2.16326,2.10137,2.18141,2.04612,2.07736,2.05049,2.12088,2.13674,2.15392,2.10445,2.08336,2.0984,2.09529,2.09946,2.11312,2.13742,2.12355,2.09975,2.08855,2.04692,2.08479,2.16963,2.12749,2.09292,2.11936,2.16045,2.09302,2.06543,2.13006,2.10455,2.12983,2.09788,2.1079,2.09591,2.15998,2.04647,2.129,2.10719,2.14381,2.22639,2.19266,2.12956,2.11572,2.10322
2.09486,2.15557,2.06292,2.12256,2.12903,2.07205,2.13094,2.08568,2.0966,2.09555,2.20956,2.09258,2.11265,2.10399,2.07932,2.11617,2.09628,2.12528,2.17183,2.14294,2.13444,2.13586,2.17975,2.15277,2.16033,2.12009,2.14514,2.0857,2.00544,2.12507,2.1381,2.09561,2.10825,2.11193,2.07385,2.16978,2.05435,2.1472,2.10176,2.13781,2.08574,2.10247,2.09036,2.13196,2.15064,2.10856,2.14912,2.1104,2.08233,2.11011,2.15621,2.08808,2.08544,2.15155,2.22241,2.20686,2.03957,2.11895,2.11211,2.10722
2.12998,2.13716,2.12738,2.07282,2.0609,2.14713,2.16622,2.07204,2.10944,2.10655,2.13433,2.15399,2.12165,2.16763,2.14687,2.08141,2.11271,2.17507,2.09619,2.11637,2.0849,2.1217,2.11264,2.17894,2.16529,2.33734,2.1136,2.1538,2.08668,2.09627,2.10455,2.1259,2.19532,2.0496,2.06848,2.1024,2.1649,2.15892,2.05952,2.12072,2.05796,2.12126,2.09797,2.04346,2.12288,2.10444,2.13445,2.09076,2.14352,2.1685,2.1046,2.11131,2.17288,2.11303,2.04837,2.11304,2.11371,2.11531,2.16408,2.04887
2.14157,2.12084,2.16728,2.15001,2.07942,2.12642,2.20128,2.14904,2.13536,2.16146,2.07894,2.1494,2.12608,2.1191,2.12134,2.11084,2.1061,2.00404,2.11998,2.17485,2.1171,2.13208,2.14849,2.14703,2.04496,2.12367,2.13772,2.07747,2.10553,2.12094,2.13851,2.09616,2.0855,2.11782,2.17333,2.09557,2.19227,2.10869,2.162,2.10297,2.13853,2.14257,2.09662,2.16896,2.13039,2.33988,2.15447,2.17674,2.16171,2.10014,2.10388,2.21791,2.11992,2.13327,2.05335,2.13384,2.0623,2.11111,2.22705,2.11072
2.09738,2.1103,2.07854,2.11455,2.15813,2.11015,2.16369,2.14484,2.08147,2.09063,2.12893,2.0863,2.09969,2.08385,2.14945,2.1586,2.14409,2.09887,2.10483,2.08281,2.10579,2.12396,2.11789,2.07516,2.10067,2.19572,2.09602,2.13843,2.14439,2.09973,2.02041,2.14906,2.11062,2.09167,2.12903,2.14408,2.05611,2.07376,2.09264,2.11723,2.13235,2.17647,2.02663,2.04348,2.18035,2.16036,2.05259,2.1595,2.13813,2.09982,2.14799,2.07926,2.12448,2.11615,2.14017,2.13657,2.09204,2.16733,2.13174,2.17334
2.14295,2.12313,2.19337,2.04146,2.0903,2.21127,2.14901,2.11496,2.14403,2.11026,2.15299,2.12454,2.10782,2.21254,2.13341,2.08362,2.15101,2.07148,2.11384,2.12283,2.10871,2.12475,2.15856,2.1506,2.10356,2.23533,2.0956,2.15448,2.13711,2.06634,2.05346,2.06951,2.13584,2.10773,2.11906,2.06209,2.07656,2.0844,2.05782,2.08012,2.10297,2.04115,2.09629,2.13197,2.10846,2.04642,2.13629,2.09425,2.10793,2.12602,2.08635,2.10068,2.184,2.13393,2.06892,2.11352,2.13007,2.0764,2.07948,2.1178
2.21843,2.11982,2.12158,2.08237,2.10153,2.13617,2.12312,2.13036,2.1069,2.13994,2.12452,2.11948,2.17027,2.18168,2.12807,2.05034,2.09,2.12673,2.13453,2.21151,2.09729,2.11854,2.15911,2.07753,2.17003,2.11081,2.1085,2.09667,2.09797,2.05779,2.05362,2.10715,2.06384,2.1687,2.09547,2.08878,2.12232,2.08345,2.14957,2.10918,2.15141,2.18694,2.04145,2.06984,2.08137,2.10713,2.05939,2.0919,2.15389,2.14113,2.13913,2.15004,2.08752,2.14467,2.10954,2.05301,2.11146,2.10947,2.05693,2.12164
2.15825,2.07518,2.18806,2.09093,2.06444,2.08783,2.0762,2.15111,2.12117,2.057,2.11326,2.12682,2.13323,2.10043,2.17992,2.0732,2.09814,2.11162,2.0844,2.17137,2.18015,2.1905,2.1668,2.12853,2.15345,2.17167,2.16123,2.06469,2.11658,2.05377,2.12463,2.2008,2.12552,2.17402,2.12992,2.16575,2.12736,2.13128,2.10181,2.1129,2.05477,2.08204,2.1171,2.11763,2.10522,2.04798,2.112,2.16821,2.08765,2.11369,2.0649,2.11087,2.08877,2.10365,2.0962,2.17335,2.07558,2.11119,2.08424,2.11754
2.09838,2.1238,2.08608,2.10101,2.15648,2.13702,2.10501,2.10254,2.08238,2.08719,2.06048,2.11493,2.16895,2.06246,2.13242,2.07672,2.17598,2.11743,2.08385,2.09203,2.12419,2.111,2.09542,2.12832,2.13165,2.08991,2.09293,2.18955,2.0709,2.08167,2.12147,2.10245,2.07111,2.04065,2.07487,2.09992,2.08122,2.11056,2.08008,2.0618,2.18818,2.17223,2.11016,2.07196,2.05364,2.08271,2.15306,2.17129,2.07301,2.15179,2.19115,2.13272,2.10244,2.14644,2.07638,2.08856,2.13336,2.15464,2.01301,2.09301
2.11269,2.13317,2.0944,2.14262,2.13112,2.12896,2.03175,2.11526,2.10736,2.10247,2.08486,2.17039,2.07416,2.15334,2.133,2.11611,2.1932,2.13121,2.16742,2.10731,2.14502,2.1348,2.11127,2.1653,2.13963,2.05446,2.11898,2.10197,2.11692,2.06574,2.04927,2.10039,2.05609,2.13161,2.14271,2.07835,2.09629,2.0514,2.10296,2.02739,2.1254,2.13261,2.12023,2.0827,2.09151,2.22514,2.08885,2.10696,2.14471,2.14104,2.13497,2.10619,2.08181,2.08225,2.12755,2.17528,2.12519,2.11842,2.08688,2.04378
2.14717,2.20845,2.06238,2.14899,2.13299,2.10725,2.06722,2.0868,2.1115,2.10545,2.14173,2.08864,2.08825,2.04257,2.12071,2.13982,2.06513,2.22159,2.0938,2.08336,2.08059,2.06003,2.12668,2.10483,2.14037,2.1153,2.09566,2.12595,2.0923,2.19491,2.12371,2.1645,2.16158,2.0403,2.0711,2.10381,2.19993,2.09498,2.17378,2.0783,2.15139,2.17003,2.09802,2.06696,2.08762,2.119,2.0395,2.09874,2.06868,2.05399,2.10947,2.0158,2.05773,2.11526,2.09382,2.13729,2.08697,2.14015,2.09711,2.1523
2.10274,2.07862,2.15603,2.12709,2.05523,2.09448,2.18148,2.13488,2.12044,2.1246,2.10366,2.20518,2.1512,2.07943,2.0914,2.06593,2.08036,2.09776,2.06959,2.07279,2.08922,2.08696,2.15156,2.10581,2.14535,2.13662,2.12707,2.10275,2.1033,2.07174,2.12813,2.08699,2.09859,2.03799,2.10713,2.11484,2.13433,2.1105,2.10681,2.14424,2.17159,2.12304,2.15011,2.17266,2.1157,2.1443,2.09421,2.16969,2.16066,2.11215,2.10852,2.10365,2.20819,2.15252,2.0712,2.14247,2.18899,2.14734,2.11454,2.0722
2.13651,2.0899,2.19247,2.16442,2.0812,2.15851,2.11258,2.11397,2.11453,2.10397,2.0085,2.11866,2.12886,2.0949,2.05665,2.11664,2.10321,2.05743,2.04962,2.17613,2.13984,2.09708,2.09175,2.15552,2.10157,2.13884,2.1326,2.0768,2.16485,2.13372,2.06362,2.12352,2.09295,2.04663,2.05067,2.09596,2.0984,2.09324,2.15175,2.14884,2.10302,2.14194,2.08057,2.0413,2.10598,2.10506,2.14863,2.13612,2.11974,2.06206,2.20019,2.11097,2.19323,2.13168,2.12853,2.14891,2.17659,2.13033,2.10218,2.11189
2.11883,2.04372,2.13486,2.12336,2.19032,2.12076,2.01754,2.20875,2.12644,2.1983,2.08043,2.12016,2.10599,2.06265,2.12027,2.15101,2.17265,2.16485,2.13002,2.11932,2.10518,2.08406,2.135,2.07871,2.12754,2.15286,2.15404,2.10542,2.13703,2.05487,2.11559,2.19067,2.13132,2.11342,2.14155,2.06513,2.13476,2.12515,2.10894,2.22238,2.05567,2.08647,2.10661,2.1413,2.16369,2.13408,2.03878,2.1305,2.12217,2.10438,2.08039,2.12326,2.08002,2.12193,2.17709,2.1376,2.06144,2.12186,2.10665,2.11484
2.14454,2.12045,2.08906,2.08011,2.20011,2.19225,2.17607,2.04958,2.14019,2.09831,2.15507,2.08294,2.08906,2.11659,2.07906,2.13245,2.14563,2.047,2.10308,2.11908,2.07293,2.13314,2.15411,2.12279,2.11999,2.10503,2.06347,2.128,2.0981,2.07706,2.05656,2.13634,2.08699,2.09125,2.15446,2.13398,2.05326,2.16971,2.15426,2.1962,2.03048,2.15796,2.08168,2.07247,2.1449,2.14643,2.10113,2.13927,2.15678,2.06496,2.14737,2.07636,2.12142,2.11793,2.09863,2.11526,2.09677,2.10528,2.07286,2.05606
2.11431,2.1003,2.1164,2.16894,2.10367,2.04636,2.13198,2.10578,2.11655,2.11869,2.07947,2.07167,2.12441,2.12931,2.13771,2.08334,2.1238,2.11017,2.12443,2.09908,2.08029,2.13096,2.12576,2.17478,2.10734,2.13845,2.13602,2.11567,2.1167,2.10883,2.07751,2.10378,2.11332,2.12932,2.10251,2.15357,2.13175,2.07356,2.19922,2.06115,2.1749,2.10788,2.15945,2.05769,2.09642,2.13041,2.13315,2.07381,2.11253,2.12659,2.16206,2.09678,2.14142,2.20823,2.06472,2.18452,2.19336,2.17928,2.07944,2.0987
2.06613,2.16857,2.07712,2.06119,2.11866,2.16198,2.09678,2.09392,2.09074,2.12799,2.15618,2.0678,2.15211,2.13964,2.04047,2.10165,2.16609,2.18794,2.15958,2.16368,2.09754,2.07788,2.09386,2.08515,2.06318,2.16343,2.09728,2.12688,2.05438,2.11566,2.09998,2.13328,2.10515,2.07555,2.11425,2.11639,2.09829,2.06581,2.06391,2.07523,2.06133,2.13042,2.11015,2.16023,2.1845,2.18537,2.10051,2.10459,2.16009,2.19494,2.12638,2.07508,2.23606,2.1738,2.17102,2.14022,2.00893,2.12139,2.18005,2.04621
2.12983,2.12164,2.16502,2.06286,2.21901,2.14118,2.10743,2.01224,2.10814,2.0824,2.10248,2.10035,2.15964,2.0994,2.16512,2.1002,2.07033,2.10443,2.13949,2.10507,2.05875,2.12029,2.12489,2.07779,2.07941,2.13106,2.06145,2.10294,2.13918,2.0794,2.07381,2.20597,2.14549,2.12267,2.07936,2.12545,2.05137,2.14229,2.10606,2.11941,2.07584,2.11293,2.07894,2.09322,2.14553,2.12289,2.10995,2.0277,2.13293,2.08502,2.09936,2.09615,2.10458,2.10424,2.06211,2.0905,2.06925,2.1211,2.10413,2.12624
2.11135,2.06262,2.18284,2.119,2.15112,2.10987,2.19229,2.18984,2.09151,2.12893,2.0591,2.14138,2.11932,2.10454,2.07206,2.15141,2.09366,2.1887,2.14647,2.12149,2.15524,2.14679,2.12549,2.07926,2.07214,2.14126,2.16926,2.11136,2.09749,2.12374,2.14418,2.08812,2.11365,2.0672,2.10195,2.16763,2.10454,2.16461,2.08715,2.15723,2.08705,2.14967,2.05248,2.11004,2.11069,2.13199,2.11969,2.18274,2.17871,2.10098,2.14193,2.08787,2.11281,2.08919,2.13434,2.06928,2.08468,2.20057,2.05793,2.14122
2.06759,2.13057,2.10397,2.10381,2.13517,2.16672,2.10052,2.12417,2.07222,2.14836,2.12619,2.1032,2.14974,2.07537,2.00309,2.11665,2.09923,2.12777,2.03024,2.11029,2.11821,2.15961,2.08963,2.13186,2.15999,2.16941,2.09509,2.06262,2.15684,2.13833,2.13339,2.13638,2.16481,2.12002,2.10252,2.1516,2.07977,2.07786,2.17714,2.19574,2.2332,2.16566,2.08736,2.07709,2.11424,2.11269,2.05965,2.1039,2.13806,2.09755,2.08062,2.10789,2.05642,2.1341,2.0764,2.11633,2.08609,2.0707,2.04411,2.17833
2.13032,2.1573,2.1256,2.13976,2.08274,2.07949,2.08042,2.12956,2.16358,1.99867,2.14673,2.12677,2.113,2.11589,2.14503,2.10727,2.03786,2.12564,2.04188,2.07404,2.11303,2.08941,2.12458,2.11192,2.07432,2.14498,2.11035,2.11045,2.05055,2.10477,3.81125,2.13918,2.13919,2.08171,2.08794,2.15715,2.07501,2.08772,2.05692,2.07712,2.12978,2.177,2.10011,2.16027,2.17085,2.11305,2.12217,2.10166,2.09639,2.10646,2.02872,2.17467,2.17741,2.12436,2.16259,2.14004,2.10914,2.13707,2.11714,2.13736
2.07738,2.08147,2.10479,2.11541,2.12749,2.18716,2.04563,2.07609,2.20235,2.1333,2.13122,2.1652,2.13897,2.09545,2.10867,2.05119,2.1493,2.1521,2.14546,2.10922,2.10781,2.11392,2.14949,2.12092,2.10871,2.06082,2.08913,2.07652,2.1093,2.0851,2.10074,2.08606,2.08381,2.0808,2.13891,2.15889,2.04373,2.06358,2.16211,2.05319,2.17919,2.13041,2.09998,2.07852,2.03285,2.10403,2.06827,2.15035,2.05912,2.107,2.04079,2.13211,2.03726,2.15392,2.12955,2.048,2.20348,2.09988,2.16702,2.14696
2.14388,2.14763,2.07049,2.13423,2.14986,2.08772,2.04005,2.11172,2.10824,2.13867,2.12755,2.11774,2.17939,2.16269,2.10747,2.15433,2.06975,2.09683,1.9888,2.12466,2.15097,2.00942,2.13144,2.14706,2.16219,2.1491,2.18893,2.13507,2.17687,2.18379,2.14124,2.05568,2.04075,2.1263,2.12064,2.13357,2.16905,2.08948,2.15268,2.13295,2.07629,2.12247,2.12007,2.10194,2.12978,2.18243,2.14521,2.04292,2.08841,2.13991,2.12752,2.08051,2.1765,2.12156,2.12844,2.04862,2.09429,2.01406,2.09588,2.13573
2.06637,2.07688,2.10979,2.11315,2.11008,2.13113,2.13276,2.11997,2.03367,2.04375,2.09539,2.08073,2.13302,2.12435,2.10789,2.08776,2.19658,2.1115,2.06394,2.0911,2.11071,2.18661,2.08966,2.08149,2.20836,2.07946,2.13416,2.08436,2.18977,2.07279,2.06086,2.13666,2.0926,2.20941,2.11472,2.18847,2.17543,2.12035,2.0904,2.10523,2.10116,2.11136,2.10753,2.04891,2.09499,2.07844,2.11158,2.11664,2.11294,2.14413,2.12117,2.1259,2.08444,2.16952,2.16723,2.13653,2.06932,2.10564,2.12971,2.10032
2.17988,2.15113,2.11077,2.16231,2.07607,2.16325,2.06389,2.10378,2.14441,2.09055,2.05962,2.17492,2.11306,2.09984,2.11446,2.1298,2.15451,2.07921,2.08358,2.12968,2.11866,2.12667,2.15852,2.09389,2.10113,2.15266,2.1186,2.16096,2.0228,2.07457,2.1039,2.03134,2.11029,2.09584,2.14194,2.09789,2.13299,2.07969,2.16787,2.12482,2.13546,2.11209,2.10923,2.06722,2.15851,2.09005,2.12234,2.08502,2.10288,2.14252,2.1039,2.07445,2.1475,2.13688,2.07931,2.15419,2.092,2.13411,2.13857,2.15896
2.12237,2.06158,2.10267,2.13648,2.0513,2.17318,2.15141,2.13291,2.08939,2.11429,2.19266,2.09398,2.11045,2.15289,2.13607,2.07553,2.07534,2.10334,2.1945,2.09823,2.11534,2.05978,2.13044,2.1791,2.14076,2.15529,2.10036,2.1728,2.08919,2.06065,2.03633,2.11274,2.12543,2.11925,2.11091,2.13118,2.10582,2.15436,2.08697,2.11183,2.04094,2.12621,2.15298,2.14695,2.11618,2.01576,2.06954,2.06204,2.05944,2.11645,2.10087,2.09539,2.06256,2.07879,2.17905,2.14821,2.18865,2.09146,2.08009,2.12777
2.07497,2.20705,2.06869,2.16906,2.10655,2.17324,2.15552,2.09368,2.09621,2.14422,2.07523,2.11124,2.07952,2.15228,2.14202,2.1503,2.07497,2.15419,2.10651,2.05991,2.14189,2.06321,2.19687,2.09186,2.23066,2.20374,2.15595,2.07139,2.14169,2.07685,2.06103,2.12031,2.05592,2.14601,2.08593,2.07677,2.15159,2.0217,2.2146,2.1237,2.03244,2.14086,2.12004,2.08972,2.09257,2.22318,2.09827,2.12389,2.18759,2.08981,2.12516,2.11445,2.17958,2.16636,2.13279,2.03849,2.12494,2.09657,2.07115,2.15715
2.13162,2.18478,2.11804,2.06636,2.03364,2.17783,2.14509,2.13473,2.1048,2.02352,2.05385,2.07702,2.09773,2.11368,2.12898,2.12557,2.10791,2.0051,2.12513,2.11408,2.04447,2.11156,1.96939,2.1462,2.16241,2.20216,2.0558,2.19125,2.16291,2.12091,2.07888,2.12668,2.14994,2.04483,2.13246,2.06323,2.1684,2.11317,2.08246,2.08696,2.08272,2.21176,2.14101,2.11343,2.07812,2.12061,2.11002,2.02694,2.24519,2.11494,2.10197,2.13029,2.04218,2.17859,2.14022,2.08331,2.1409,2.07599,2.09635,2.13656
2.15263,2.13746,2.08466,2.09726,2.0696,2.11893,2.10969,2.10412,2.1026,2.06612,2.07154,2.10518,2.16128,2.13636,2.16619,2.1265,2.13806,2.08977,2.15235,2.1346,2.11546,2.0538,2.08376,2.17072,2.10592,2.09063,2.10598,2.10069,2.1353,2.12803,2.07825,2.14045,2.13332,2.09923,2.08042,2.12062,2.15576,2.14828,2.15072,2.1241,2.10324,2.14435,2.14693,2.11783,2.1118,2.13119,2.13639,2.12795,2.139,2.05787,2.19621,2.12808,2.11331,2.11226,2.13397,2.06142,2.08584,2.08822,2.09741,2.0418
2.12695,2.1729,2.05099,2.23112,2.11128,2.15402,2.18045,2.09433,2.07334,2.14062,2.1484,2.18976,2.18238,2.08821,2.08635,2.19016,2.06838,2.16522,2.11688,2.11151,2.13992,2.08488,2.16001,2.13219,2.10193,2.05054,2.11585,2.03816,2.01103,2.14574,2.06092,2.09589,2.14529,2.09517,2.12363,2.05556,2.12981,2.13439,2.14538,2.02271,2.10624,2.05027,2.05337,2.07552,2.0852,2.11181,2.12782,2.15736,2.02446,2.14951,2.07947,2.11037,2.13732,2.10484,2.11907,2.05627,2.11591,2.10014,2.09346,2.12305
2.08867,2.19465,2.12571,2.17392,2.15876,2.14074,2.11571,2.07644,2.15327,2.09475,2.02659,2.06576,2.16209,2.11685,2.14898,2.14045,2.10515,2.09038,2.10664,2.13787,2.13663,2.11496,2.12919,2.19681,2.11291,2.19183,2.15972,2.05403,2.00035,2.10694,2.14525,2.15189,2.07946,2.08684,2.09904,2.0915,2.09775,2.13277,2.09826,2.07745,2.08331,2.11726,2.10175,2.06444,2.08843,2.14846,2.1237,2.09886,2.08052,2.11351,2.09407,2.1182,2.14706,2.08658,2.06919,2.0746,2.14181,2.05739,2.06772,2.07817
2.00692,2.14177,2.08042,2.14775,2.08357,2.11054,2.10597,2.10546,2.10571,2.09059,2.06451,2.07382,2.05614,2.07013,2.10048,2.04563,2.1516,2.18893,2.10546,2.1001,2.12189,2.08871,2.13921,2.09198,2.09635,2.10668,2.12307,2.18288,2.19891,2.11914,2.08325,2.18209,2.12159,2.13889,2.05942,2.28322,2.12815,2.16144,2.05293,2.17959,2.12858,2.14391,2.0879,2.11491,2.08596,2.08811,2.09277,2.10998,2.09726,2.07086,2.11335,2.04903,2.1362,2.14989,2.17172,2.21028,2.21844,2.04969,2.17296,2.11552
2.12687,2.09983,2.10547,2.10962,2.15466,2.11195,2.06657,2.11903,2.05442,2.17707,2.09361,2.14816,2.09655,2.13018,2.12934,2.16501,2.04296,2.12653,2.17285,2.12351,2.14946,2.11551,2.02562,2.15789,2.09314,2.12424,2.09018,2.07504,2.07627,2.10159,2.1882,2.04035,2.15414,2.14621,2.09902,2.17193,2.12453,2.15482,2.19452,2.18003,2.10503,2.1263,2.10814,2.08306,2.12902,2.12537,2.1326,2.10515,2.06578,2.05451,2.1667,2.15157,2.07274,2.15404,2.12458,2.17913,2.08835,2.14503,2.11817,2.02511
2.15019,2.07102,2.1452,2.10937,2.19766,2.12873,2.1322,2.07564,2.04589,2.12813,2.09569,2.12964,2.06527,2.11063,2.11752,2.1217,2.11278,2.13456,2.05375,2.18139,2.16027,2.16077,2.09832,2.1053,2.09316,2.12582,2.09031,2.11799,2.09464,2.14484,2.0996,2.09871,2.18251,2.0985,2.17114,2.08607,2.09966,2.06995,2.1216,2.08284,2.09206,2.11196,2.12225,2.13577,2.10277,2.12162,2.11962,2.07309,2.07048,2.16073,2.10305,2.06737,2.12004,2.0627,2.13334,2.08711,2.18765,2.15632,2.13235,2.06751
2.09893,2.18998,2.05667,2.22242,2.12962,2.13806,2.09485,2.13217,2.11853,2.14171,2.14948,2.08218,2.08873,2.14206,2.10017,2.11035,2.09675,2.08174,2.10555,2.06682,2.0607,2.16785,2.14806,2.16259,2.12682,2.1191,2.11969,2.19007,2.15415,2.14137,2.16463,2.12031,2.10643,2.10018,2.14052,2.12506,2.14472,2.12498,2.11441,2.05206,2.12051,2.11825,2.1194,2.11408,2.09898,2.10224,2.1253,2.10961,2.14623,2.13036,2.12344,2.17488,2.13165,2.08925,2.0407,2.13501,2.0704,2.09418,2.10541,2.07126
2.09426,2.10301,2.06252,2.18379,2.11248,2.10471,2.09572,2.16132,2.11172,2.14421,2.12939,2.15468,2.0608,2.0728,2.04482,2.08238,2.10987,2.09751,2.0694,2.1719,2.07928,2.11635,2.10472,2.07255,2.17662,2.12724,2.13377,2.06622,2.08542,2.16385,2.12137,2.04924,2.11757,2.20494,2.13529,2.11199,2.11461,2.18182,2.16249,2.09435,2.13157,2.11918,2.10351,2.21652,2.18792,2.17155,2.14807,2.15533,2.02854,2.03421,2.05326,2.13001,2.06998,2.12787,2.06725,2.13056,2.07259,2.10939,2.08472,2.01251
2.13828,2.0897,2.10506,2.10264,2.05476,2.07631,2.06692,2.14474,2.10376,2.15932,2.09022,2.09884,2.07936,2.14754,2.10691,2.08048,2.14787,2.13502,2.19201,2.09453,2.17529,2.0334,2.10154,2.16902,2.03361,2.13751,2.20891,2.11829,2.15822,2.06193,2.11773,2.06562,2.08062,2.19071,2.11153,2.07576,2.08007,2.10398,2.1439,2.10874,2.15683,2.0938,2.20934,2.12472,2.06838,2.1407,2.11841,2.16433,2.04681,2.14116,2.16559,2.18903,2.07568,2.13053,2.2152,2.09214,2.10739,2.09457,2.07631,2.07395
2.08437,2.15447,2.10383,2.1421,2.12573,2.129,2.09421,2.10551,2.16713,2.05481,2.07935,2.05429,2.17097,2.03666,2.13463,2.11486,2.13555,2.08298,2.08111,2.12509,2.1683,2.09544,2.1094,2.11453,2.08038,2.15172,2.18759,2.08011,2.07542,2.14434,2.15667,2.08891,2.09818,2.06368,2.15929,2.15564,2.10714,2.12683,2.09399,2.13221,2.11504,2.12533,2.11162,2.1045,2.11524,2.11613,2.10247,2.17619,2.13657,2.06759,2.0699,2.09952,2.09808,2.0316,2.06271,2.09942,2.10096,2.15745,2.08395,2.11595
2.15052,2.08712,2.15265,2.10661,2.15944,2.10806,2.10657,2.07176,2.15854,2.13548,2.07547,2.1329,2.1373,2.10977,2.17086,2.12455,2.12104,2.09631,2.11192,2.19722,2.10227,2.17178,2.15899,2.1408,2.15188,2.14283,2.16406,2.0844,2.08219,2.12587,2.12083,2.09809,2.11523,2.12769,2.06409,2.09652,2.03945,2.14618,2.0854,2.0521,2.15396,2.09796,2.10938,2.03119,2.12412,2.11374,2.10913,2.12476,2.106,2.10433,2.15945,2.05016,2.15683,2.13688,2.15634,2.05151,2.13435,2.1003,2.13214,2.11082
2.13636,2.14289,2.06545,2.1098,2.13934,2.11259,2.17545,2.19839,2.10808,2.11294,2.06498,2.10607,2.11401,2.10046,2.1376,2.11577,2.09774,2.12529,2.10572,2.06829,2.06606,2.09078,2.17058,2.1991,2.0852,2.12377,2.11927,2.13479,2.15653,2.16606,2.15655,2.11116,2.12481,2.10774,2.04992,2.08856,2.12848,2.12576,2.14138,2.14038,2.18294,2.16442,2.10937,2.16624,2.1564,2.13558,2.14196,2.11644,2.10765,2.19124,2.08787,2.1265,2.0998,2.13165,2.17924,2.16323,2.07738,2.11836,2.12741,2.13594
2.10911,2.16007,2.11665,2.14631,2.14392,2.04431,2.09358,2.12861,2.1255,2.08813,2.10826,2.08085,2.02296,2.0678,2.15074,2.11063,2.17645,2.17316,2.15442,2.0692,2.08882,2.11743,2.11312,2.12829,2.11891,2.0686,2.15994,2.05129,2.12605,2.04942,2.11656,2.13124,2.06515,2.10842,2.02782,2.0683,2.12139,2.14483,2.10676,2.08896,2.09862,2.05303,2.08915,2.08327,2.10491,2.10802,2.14658,2.11554,2.12289,2.12372,2.10793,2.14803,2.12394,2.07863,2.09461,2.13785,2.13997,2.14672,2.18007,2.16389
2.10422,2.10593,2.0928,2.14436,2.06442,2.21155,2.18079,2.18102,2.10622,2.05275,2.10925,2.12199,2.08151,2.09748,2.10421,2.14299,2.10483,2.1139,2.16561,2.1945,2.17227,2.09251,2.1714,2.08602,2.13866,2.10925,2.11409,2.05139,2.09447,2.22111,2.11083,2.11353,2.13028,2.05755,2.04456,2.08594,2.10717,2.05237,2.15598,2.0915,2.08413,2.20598,2.14219,2.12379,2.13533,2.12822,2.04896,2.14748,2.06144,2.09609,2.07309,2.08033,2.15547,2.10146,2.11812,2.15181,2.12107,2.08863,2.13937,2.16199
2.16723,2.12688,2.0618,2.1683,2.12266,2.16872,2.11698,2.04533,2.0734,2.11116,2.19536,2.13552,2.15427,2.07061,2.095,2.11035,2.12155,2.06911,2.12282,2.022,2.19022,2.14697,2.04489,2.13239,2.16341,2.08547,2.07404,2.16647,2.13561,2.13654,2.13728,2.1526,2.08665,2.08279,2.10662,2.09772,2.09041,2.14055,2.08043,2.06037,2.11873,2.05892,2.07945,2.13355,2.09224,2.00836,2.11492,2.08392,2.0759,2.1046,2.12776,2.1144,2.08558,2.18892,2.14844,2.14845,2.126,2.06339,2.18538,2.09365
2.06326,2.09678,2.1594,2.06709,2.20789,2.18555,2.04823,2.20237,2.0838,2.1447,2.09288,2.08274,2.09385,2.09824,2.05466,2.20047,2.14116,2.09746,2.07816,2.12915,2.18014,2.12664,2.17106,2.19984,2.0792,2.06235,2.19996,2.13063,2.10295,2.09417,2.10581,2.10541,2.10865,1.99956,2.10758,2.00625,2.14676,2.14402,2.10868,2.12266,2.15756,2.16244,2.07637,2.15299,2.14292,2.06944,2.12181,2.14148,2.14871,2.11996,2.12079,2.02919,2.13232,2.16458,2.01788,2.10999,2.10577,2.11665,2.12115,2.10154
2.15131,2.17034,2.1582,2.10743,2.10025,2.05287,2.04778,2.14567,2.13057,2.13591,2.09365,2.15941,2.19528,2.10718,2.13261,2.0573,2.04426,2.08619,2.14869,2.09717,2.07082,2.09696,2.12161,2.08876,2.13545,2.1549,2.06229,2.09045,2.11958,2.12067,2.12604,2.05987,2.06789,2.0415,2.00321,2.11316,2.11851,2.13986,2.08742,2.17782,2.15347,2.11131,2.06846,2.16913,2.08422,2.13891,2.08515,2.20432,2.06772,2.1076,2.13811,2.11308,2.14326,2.03844,2.10389,2.05002,2.04194,2.10069,2.05606,2.07383
2.1566,2.09658,2.08033,2.09472,2.12894,2.10911,2.09966,2.13825,2.0371,2.0678,2.11137,2.08641,2.1553,2.10736,2.0934,2.06576,2.12547,2.08622,2.13068,2.16602,2.14676,2.05864,2.07934,2.13052,2.06096,2.11084,2.14275,2.09899,2.10405,2.1631,2.12712,2.1447,2.14817,2.09208,2.17304,2.1872,2.14785,2.07833,2.09056,2.05282,2.11974,2.12498,2.19808,2.15014,2.0723,2.13121,2.13623,2.11261,2.09057,2.11332,2.20633,2.02939,2.12674,2.14004,2.0452,2.10945,2.161,2.18964,2.16232,2.12249
2.17229,2.09014,2.04432,2.10963,2.14426,2.10982,2.13534,2.1039,2.17475,2.13796,2.07396,2.15001,2.08355,2.09263,2.05827,2.1921,2.15902,2.22564,2.00297,2.09154,2.12937,2.11052,2.09352,2.09461,2.11563,2.10522,2.06748,2.17037,2.12396,2.11548,2.11479,2.05493,2.13092,2.1429,2.04181,2.08704,2.0854,2.11053,2.06694,2.11632,2.11814,2.05364,2.12883,2.08541,2.1345,2.09404,2.1016,2.14777,2.13451,2.13788,2.12463,2.15367,2.04977,2.09909,2.09503,2.10266,2.08538,2.02693,2.16704,2.10361
2.11446,2.10566,2.10275,2.14636,2.14615,2.08104,2.16817,2.17731,2.08956,2.12224,2.09909,2.0618,2.11163,2.09399,2.00941,2.11189,2.09936,2.09631,2.04031,2.15265,2.15963,2.08993,2.10622,2.18059,2.11696,2.10667,2.09634,2.07608,2.13169,2.09448,2.19251,2.08929,2.1385,2.03445,2.18033,2.08785,2.12977,2.11773,2.07737,2.10364,2.02587,2.10172,2.12493,2.0906,2.11197,2.14527,2.0831,2.10742,2.0132,2.10255,2.10908,2.08174,2.11358,2.0829,2.14381,2.07252,2.17675,2.11397,2.0441,2.09473
2.05969,2.14409,2.08634,2.13812,2.11872,2.0761,2.11319,2.14329,2.10487,2.1217,2.11189,2.13019,2.09142,2.12664,2.15324,2.17723,2.13436,2.10755,2.16632,2.09378,2.07806,2.08369,2.08805,2.11727,2.09586,2.1749,2.14354,2.13578,2.03279,2.11636,2.06749,2.11427,2.14832,2.08753,2.07825,2.04418,2.08355,2.09153,2.05957,2.03873,2.06782,2.09049,2.14826,2.10829,2.06497,2.10666,2.07817,2.172,2.13,2.1686,2.06661,2.15078,2.08978,2.13453,2.04464,2.15168,2.11517,2.17634,2.06602,2.09158
2.13269,2.07492,2.18408,2.11034,2.12472,2.1262,2.08757,2.20458,2.12271,2.08338,2.12409,2.09178,2.15788,2.15015,2.093,2.17681,2.16604,2.12902,2.11269,2.09126,2.11359,2.0754,2.12838,2.06349,2.06813,2.05079,2.20067,2.12914,2.06627,2.06137,2.14645,2.17172,2.13766,2.01794,2.13414,2.12557,2.07306,2.09207,2.07635,2.18714,2.08528,2.11693,2.05494,2.14371,2.13114,2.0898,2.13762,1.98129,2.14225,2.08231,2.11406,2.07896,2.07783,2.10801,2.13485,2.05014,2.13963,2.09639,2.14175,2.08952

max: 3.81125
min: 1.94711
avg: 2.11557
