1.00293,1.0037,1.00353,1.00272,1.00487,1.00369,1.00248,1.003,1.00363,1.00368,1.0041,1.00343,1.00299,1.00295,1.00341,1.00325,1.00386,1.00309,1.00299,1.00381,1.00352,1.00343,1.00365,1.00337,1.00322,1.00278,1.00324,1.00305,1.00322,1.00361,1.00335,1.00327,1.00351,1.00299,1.00332,1.00444,1.00304,1.00389,1.00324,1.00321,1.00342,1.00365,1.0029,1.0033,1.003,1.00327,1.00426,1.00345,1.00312,1.00323,1.00349,1.00276,1.00385,1.00325,1.00266,1.0039,1.00383,1.00363,1.00321,1.00352
1.00303,1.0037,1.00327,1.00301,1.00284,1.0034,1.00346,1.00297,1.00304,1.0034,1.00413,1.00341,1.0036,1.00293,1.00367,1.00324,1.0029,1.00289,1.00299,1.00335,1.00332,1.00427,1.00304,1.00327,1.00281,1.00364,1.00348,1.0029,1.00343,1.0034,1.00327,1.0027,1.0043,1.00332,1.00313,1.00325,1.00343,1.00308,1.0033,1.00447,1.00401,1.00327,1.00291,1.00311,1.00286,1.00364,1.00331,1.00328,1.00355,1.004,1.00384,1.0037,1.00364,1.00323,1.00354,1.00353,1.0027,1.00335,1.00394,1.00361
1.00278,1.00317,1.0033,1.00316,1.00289,1.0034,1.0033,1.00343,1.00344,1.0038,1.00384,1.00321,1.00346,1.00366,1.00352,1.00355,1.00358,1.00327,1.00383,1.00375,1.00383,1.00274,1.00379,1.0028,1.00357,1.00277,1.0027,1.00334,1.00348,1.00369,1.00304,1.00382,1.00347,1.00322,1.00333,1.00411,1.00383,1.00304,1.00357,1.00403,1.00349,1.00315,1.0031,1.00399,1.00315,1.00334,1.00352,1.00284,1.00316,1.00313,1.00391,1.00323,1.00253,1.00273,1.00318,1.0031,1.00317,1.00317,1.00299,1.00332
1.00364,1.00355,1.0038,1.00322,1.0032,1.0032,1.00369,1.00297,1.00319,1.003,1.00275,1.00344,1.00257,1.00332,1.00342,1.00301,1.00309,1.00312,1.00314,1.0032,1.00333,1.00341,1.00348,1.00324,1.00284,1.00249,1.003,1.00288,1.00376,1.00279,1.00353,1.0037,1.00326,1.00337,1.00311,1.00376,1.00357,1.00312,1.00329,1.00342,1.00335,1.00368,1.00305,1.00326,1.00341,1.00361,1.00355,1.00367,1.00338,1.00364,1.00322,1.00363,1.00319,1.00389,1.00339,1.00334,1.00291,1.00343,1.00355,1.00306
1.00333,1.00333,1.00311,1.00295,1.00367,1.00312,1.00342,1.00299,1.00368,1.00369,1.00416,1.00333,1.00381,1.00311,1.00403,1.00367,1.00349,1.00356,1.00349,1.00383,1.00288,1.00303,1.00379,1.00335,1.00301,1.00292,1.00326,1.00352,1.00338,1.00296,1.00327,1.00339,1.0033,1.00374,1.00369,1.00337,1.0033,1.00256,1.00312,1.00382,1.00326,1.00451,1.00341,1.00351,1.00311,1.00318,1.004,1.00332,1.00356,1.00444,1.00379,1.00401,1.00365,1.00332,1.00297,1.00367,1.00299,1.00335,1.00306,1.00306
1.00263,1.00336,1.00348,1.00279,1.00301,1.00375,1.00362,1.00383,1.00288,1.00314,1.003,1.00363,1.00288,1.00335,1.00332,1.00343,1.00346,1.0028,1.00373,1.00308,1.00352,1.00338,1.00318,1.00397,1.0036,1.00388,1.00295,1.00344,1.00405,1.00293,1.0032,1.00304,1.00292,1.00323,1.0032,1.00351,1.00364,1.00377,1.00401,1.00383,1.00352,1.0034,1.00374,1.00373,1.00292,1.00327,1.00386,1.00349,1.00265,1.00351,1.00325,1.00306,1.00346,1.0034,1.00289,1.00388,1.00358,1.0041,1.00394,1.00313
1.00355,1.00347,1.00361,1.00318,1.00385,1.00385,1.00369,1.00289,1.00351,1.00276,1.00382,1.0038,1.00389,1.00305,1.00326,1.00363,1.00289,1.00352,1.00276,1.00345,1.00352,1.00345,1.0035,1.00364,1.0035,1.00296,1.00335,1.00316,1.00356,1.00273,1.00349,1.0026,1.00353,1.00336,1.00295,1.00309,1.00358,1.0029,1.00324,1.00346,1.00272,1.00347,1.00345,1.0035,1.00362,1.00306,1.00338,1.00366,1.00395,1.0034,1.00318,1.00342,1.0026,1.00301,1.00414,1.00374,1.00351,1.00379,1.00292,1.00279
1.0033,1.00304,1.00275,1.00303,1.00344,1.0037,1.00297,1.00342,1.00368,1.0028,1.00334,1.00365,1.00306,1.0035,1.00276,1.00325,1.00314,1.00336,1.00303,1.00269,1.00313,1.00345,1.00333,1.00359,1.00377,1.00318,1.00312,1.00326,1.00286,1.00314,1.00381,1.00309,1.0026,1.00426,1.00267,1.00413,1.00296,1.00329,1.00332,1.00341,1.00275,1.00381,1.00339,1.00383,1.00304,1.00369,1.0032,1.00339,1.00324,1.00302,1.00414,1.00367,1.00372,1.00324,1.00384,1.00318,1.00364,1.00312,1.00331,1.00401
1.00277,1.00289,1.00392,1.00403,1.00297,1.0026,1.00311,1.00317,1.00262,1.00353,1.00307,1.00279,1.0032,1.00331,1.00375,1.0038,1.00381,1.00358,1.0035,1.00357,1.00316,1.0035,1.00353,1.00411,1.0036,1.00251,1.00335,1.00332,1.00334,1.00338,1.00338,1.00325,1.00351,1.00361,1.00369,1.00299,1.00356,1.003,1.00313,1.00292,1.00345,1.00349,1.00317,1.00317,1.00342,1.00266,1.0028,1.00308,1.00322,1.00364,1.00268,1.00318,1.00349,1.00335,1.00361,1.00355,1.00316,1.00321,1.00313,1.00299
1.00354,1.00356,1.00342,1.00309,1.00418,1.00328,1.00323,1.00309,1.00375,1.00325,1.00359,1.00334,1.0031,1.00365,1.00385,1.00387,1.00318,1.00378,1.00372,1.00425,1.00343,1.0036,1.00253,1.00357,1.00387,1.00365,1.00343,1.00331,1.00259,1.00363,1.00317,1.00355,1.00327,1.00412,1.00369,1.00351,1.00316,1.00316,1.00296,1.002,1.00393,1.0034,1.00357,1.00344,1.00332,1.00282,1.00309,1.0031,1.00311,1.00375,1.00439,1.00348,1.00266,1.00302,1.00372,1.00279,1.0039,1.00338,1.00322,1.00324
1.00324,1.00289,1.00276,1.00364,1.00311,1.00367,1.00326,1.00329,1.00384,1.00391,1.00366,1.00296,1.00302,1.00375,1.0037,1.00359,1.00345,1.00374,1.00364,1.00344,1.00331,1.00344,1.00309,1.00296,1.00262,1.00394,1.00325,1.00295,1.00381,1.00301,1.00328,1.00348,1.00429,1.00313,1.00295,1.00313,1.0033,1.00369,1.00284,1.00271,1.00307,1.00321,1.00331,1.00343,1.00324,1.0034,1.00353,1.003,1.0035,1.00251,1.00302,1.00304,1.00395,1.00347,1.00311,1.0034,1.00384,1.00319,1.00381,1.00328
1.00321,1.00337,1.00319,1.00278,1.00401,1.00334,1.00302,1.00397,1.00327,1.0034,1.0037,1.00375,1.00317,1.00341,1.0033,1.00343,1.00333,1.00323,1.00407,1.0032,1.00259,1.00298,1.0033,1.00313,1.00348,1.00289,1.00355,1.00329,1.00332,1.00332,1.00329,1.00319,1.00354,1.00357,1.00338,1.00342,1.00274,1.0031,1.00321,1.00377,1.00357,1.00292,1.00337,1.00361,1.00345,1.00331,1.00327,1.00325,1.00303,1.0039,1.0037,1.00316,1.00299,1.00363,1.00313,1.00303,1.00326,1.00287,1.00346,1.0037
1.00273,1.00373,1.00307,1.0032,1.00314,1.00295,1.00376,1.00269,1.00329,1.00388,1.00357,1.00395,1.00355,1.00353,1.00266,1.00251,1.00384,1.00324,1.00321,1.0031,1.00458,1.00328,1.00367,1.00295,1.00295,1.00402,1.0032,1.00264,1.00363,1.00288,1.00352,1.0039,1.00333,1.00349,1.00341,1.00356,1.00296,1.00316,1.00376,1.00379,1.00314,1.00261,1.00417,1.00337,1.00303,1.00367,1.00298,1.00314,1.00338,1.003,1.00378,1.00313,1.00293,1.00274,1.00376,1.0035,1.00232,1.00276,1.00336,1.00312
1.00299,1.00277,1.00296,1.00335,1.00323,1.00285,1.00358,1.00371,1.00224,1.00354,1.00351,1.00353,1.00343,1.00395,1.00312,1.00291,1.00345,1.00331,1.00368,1.0029,1.00311,1.00339,1.00375,1.0033,1.00339,1.00334,1.00283,1.00378,1.00289,1.00314,1.00415,1.00379,1.00353,1.00384,1.00327,1.0035,1.00305,1.00387,1.00257,1.00359,1.00358,1.00381,1.00371,1.00335,1.00329,1.00331,1.00385,1.00329,1.00373,1.0034,1.00373,1.00327,1.00347,1.00405,1.00366,1.00343,1.00295,1.00352,1.00345,1.00303
1.0036,1.00294,1.00314,1.00333,1.0041,1.00375,1.0039,1.00275,1.00319,1.00368,1.00335,1.00367,1.0029,1.00291,1.00381,1.00321,1.00324,1.00376,1.00247,1.00406,1.0039,1.00358,1.00379,1.0039,1.00366,1.00361,1.00292,1.0033,1.00324,1.0034,1.00329,1.00306,1.00379,1.00358,1.00289,1.00338,1.00391,1.00335,1.00315,1.00409,1.0035,1.00329,1.00351,1.00392,1.0038,1.00376,1.00324,1.0032,1.0036,1.00334,1.00353,1.0033,1.00343,1.00355,1.00294,1.00346,1.00314,1.00385,1.00301,1.0036
1.00388,1.00312,1.00326,1.00318,1.00356,1.00376,1.00334,1.00277,1.00398,1.00303,1.00348,1.00302,1.00381,1.00351,1.00364,1.00345,1.00397,1.00398,1.00265,1.00257,1.00309,1.00315,1.00308,1.0027,1.00398,1.00342,1.00304,1.00282,1.00327,1.00292,1.00357,1.00288,1.00373,1.00342,1.00389,1.00356,1.00326,1.00338,1.00373,1.00366,1.00354,1.00316,1.00409,1.00357,1.00334,1.00436,1.00306,1.00395,1.00304,1.00325,1.00336,1.0029,1.00347,1.00331,1.00292,1.00343,1.00314,1.00355,1.00309,1.00315
1.00294,1.00343,1.00295,1.0027,1.0028,1.00352,1.00351,1.00359,1.00399,1.0037,1.00311,1.00352,1.0036,1.00323,1.00399,1.00307,1.00325,1.00325,1.00311,1.00386,1.00355,1.0036,1.00296,1.0034,1.00252,1.00354,1.00373,1.00334,1.00273,1.0034,1.00357,1.00297,1.00353,1.00358,1.00314,1.00389,1.00315,1.00217,1.0036,1.00369,1.00366,1.00399,1.00323,1.00366,1.00354,1.00342,1.0036,1.00302,1.00355,1.0028,1.00326,1.00382,1.00348,1.00324,1.00278,1.00275,1.00303,1.00367,1.00371,1.0032
1.00324,1.00292,1.00299,1.00359,1.00302,1.00298,1.00267,1.00346,1.00339,1.00316,1.00308,1.00329,1.00339,1.00345,1.00379,1.00402,1.00293,1.00377,1.00277,1.0029,1.00398,1.00432,1.00338,1.00331,1.00348,1.00355,1.00329,1.00285,1.00345,1.00302,1.00341,1.00276,1.00268,1.00298,1.00341,1.00326,1.00269,1.00313,1.00342,1.0036,1.00339,1.00316,1.00359,1.00392,1.00327,1.00282,1.00294,1.00296,1.00269,1.00362,1.00308,1.00385,1.0036,1.00299,1.00391,1.00362,1.00345,1.00336,1.00302,1.00275
1.00339,1.00324,1.00336,1.00308,1.00373,1.00324,1.00339,1.00329,1.00393,1.00275,1.00315,1.00274,1.00317,1.00351,1.00345,1.00341,1.00289,1.0038,1.00318,1.0041,1.00355,1.00372,1.00298,1.00303,1.00393,1.00255,1.00356,1.00316,1.00333,1.00235,1.00349,1.00347,1.00375,1.00303,1.00338,1.00401,1.00271,1.00352,1.00348,1.00392,1.0032,1.00366,1.00416,1.00323,1.00394,1.00365,1.00373,1.00351,1.00287,1.00335,1.00275,1.00346,1.00332,1.00277,1.00314,1.00319,1.0033,1.00298,1.00383,1.00316
1.00297,1.00379,1.00271,1.00321,1.00291,1.0038,1.00284,1.00317,1.00354,1.00341,1.00338,1.00282,1.00293,1.00302,1.00337,1.00396,1.00377,1.00358,1.00308,1.00309,1.00294,1.00392,1.00279,1.00355,1.00432,1.00327,1.00271,1.00346,1.00418,1.00286,1.00277,1.00296,1.00392,1.00318,1.00344,1.00289,1.0029,1.00304,1.00289,1.00335,1.00363,1.00279,1.00303,1.0031,1.00335,1.00321,1.00318,1.00338,1.00301,1.00336,1.00297,1.00308,1.00324,1.0026,1.00337,1.00278,1.00323,1.00387,1.00245,1.0038
1.00294,1.00321,1.00229,1.00282,1.00292,1.00302,1.00344,1.00358,1.00304,1.00328,1.0037,1.00306,1.00279,1.00365,1.00296,1.00296,1.00346,1.00269,1.00346,1.00346,1.00317,1.00356,1.00349,1.00301,1.00325,1.00347,1.00319,1.00325,1.00331,1.00294,1.00222,1.00308,1.00345,1.00383,1.0033,1.00348,1.00379,1.00318,1.00259,1.00339,1.00317,1.00372,1.00326,1.00348,1.00384,1.00321,1.00359,1.00333,1.0034,1.00299,1.00359,1.00384,1.00316,1.0041,1.00369,1.00286,1.00342,1.00355,1.00276,1.00318
1.00414,1.00317,1.0038,1.00339,1.00352,1.00348,1.00294,1.00338,1.00277,1.00286,1.00271,1.00353,1.00285,1.00334,1.00285,1.00328,1.0036,1.00353,1.00385,1.00352,1.00294,1.00413,1.00272,1.00355,1.00335,1.00329,1.00352,1.00387,1.0031,1.0036,1.00288,1.0031,1.00306,1.00346,1.00288,1.00281,1.00349,1.00289,1.00298,1.00362,1.00304,1.00332,1.00327,1.00371,1.00308,1.0033,1.0036,1.00369,1.0035,1.00315,1.00294,1.00326,1.00309,1.00354,1.00392,1.00403,1.00355,1.00296,1.00329,1.00362
1.00432,1.00404,1.00386,1.00307,1.00336,1.00365,1.00371,1.00312,1.00338,1.00344,1.00314,1.00316,1.00348,1.00314,1.00337,1.00346,1.0039,1.00337,1.0028,1.00362,1.00328,1.00312,1.00297,1.00284,1.00343,1.00305,1.00315,1.00321,1.00291,1.00294,1.00294,1.00298,1.00286,1.0038,1.00308,1.00412,1.00335,1.00416,1.00311,1.00373,1.00294,1.00363,1.00369,1.00377,1.00317,1.00355,1.00352,1.00297,1.00304,1.00317,1.00283,1.0035,1.00372,1.00288,1.00331,1.00385,1.00399,1.0032,1.00368,1.00318
1.00285,1.00363,1.00299,1.00368,1.00337,1.00359,1.00342,1.00319,1.00364,1.00286,1.00285,1.00352,1.00314,1.00298,1.00422,1.0032,1.00295,1.00339,1.00295,1.0031,1.00337,1.00369,1.00309,1.00358,1.00317,1.00354,1.00363,1.00385,1.00391,1.00361,1.00286,1.00266,1.0036,1.00315,1.00367,1.00347,1.00342,1.00331,1.00326,1.00343,1.00315,1.00401,1.00398,1.00314,1.00386,1.00292,1.00319,1.00351,1.00285,1.0032,1.00309,1.00347,1.00328,1.0034,1.00432,1.00351,1.00359,1.00378,1.00366,1.00359
1.00312,1.00362,1.00334,1.00264,1.00304,1.0029,1.00335,1.00404,1.00384,1.00312,1.00315,1.00288,1.00336,1.00337,1.00407,1.00303,1.00324,1.00316,1.0037,1.00349,1.00323,1.00344,1.00369,1.00298,1.00342,1.00353,1.00264,1.00319,1.00336,1.0036,1.00382,1.00294,1.00393,1.00361,1.00245,1.00342,1.00318,1.00358,1.00277,1.00207,1.00315,1.00262,1.00359,1.00321,1.00392,1.00347,1.00253,1.00383,1.00331,1.00254,1.00338,1.00319,1.00291,1.00318,1.00359,1.00342,1.00312,1.00269,1.00348,1.00372
1.00381,1.00328,1.00316,1.00396,1.00366,1.00355,1.00318,1.00315,1.00364,1.00383,1.00452,1.00387,1.00328,1.00271,1.00336,1.0032,1.00425,1.00315,1.00312,1.00372,1.00306,1.00315,1.00288,1.00364,1.00417,1.0035,1.00418,1.00378,1.00368,1.00383,1.00327,1.00329,1.00335,1.00358,1.00359,1.00376,1.00357,1.00357,1.00352,1.00403,1.00351,1.00341,1.00402,1.00311,1.00388,1.00296,1.00356,1.00324,1.00309,1.0031,1.00381,1.0031,1.00333,1.0035,1.00325,1.0034,1.00303,1.00366,1.00284,1.00342
1.00338,1.00347,1.00331,1.00365,1.00337,1.00317,1.00306,1.00273,1.00307,1.00333,1.00301,1.00311,1.004,1.00307,1.00308,1.00317,1.0032,1.00378,1.00287,1.0034,1.00344,1.00322,1.00344,1.00319,1.00302,1.00329,1.00308,1.00334,1.00349,1.00393,1.00322,1.0031,1.00361,1.0034,1.00312,1.00349,1.00401,1.00341,1.00373,1.00354,1.0034,1.003,1.00415,1.00348,1.00245,1.00327,1.00328,1.00309,1.00288,1.0029,1.00301,1.00272,1.00343,1.00335,1.00344,1.00422,1.00288,1.00345,1.00385,1.00313
1.00251,1.00339,1.00295,1.00383,1.0033,1.00337,1.00343,1.00417,1.00317,1.00308,1.00349,1.00274,1.00349,1.0037,1.00362,1.00255,1.00293,1.00361,1.00365,1.00268,1.0044,1.00402,1.00323,1.00371,1.00356,1.00356,1.00358,1.00345,1.00341,1.00353,1.0032,1.00356,1.00412,1.00401,1.00424,1.00309,1.00319,1.0029,1.00351,1.00345,1.00375,1.00305,1.00349,1.00346,1.00312,1.00327,1.00329,1.00332,1.00333,1.00324,1.00337,1.00351,1.00254,1.00314,1.00339,1.00283,1.00408,1.00316,1.00345,1.00381
1.00353,1.00275,1.00295,1.00356,1.00344,1.00303,1.00388,1.00357,1.00331,1.0036,1.00341,1.00339,1.00299,1.00296,1.0034,1.00367,1.003,1.00339,1.00329,1.00332,1.00345,1.00368,1.00367,1.00398,1.00337,1.00377,1.00398,1.00377,1.00372,1.00376,1.00266,1.00306,1.00362,1.00367,1.00416,1.0037,1.00332,1.00315,1.00379,1.00328,1.00325,1.00362,1.00371,1.00335,1.00411,1.00332,1.00348,1.00319,1.0031,1.00383,1.0033,1.00399,1.00254,1.00388,1.00331,1.00301,1.00346,1.00377,1.00325,1.003
1.00286,1.00313,1.00348,1.00277,1.00307,1.00356,1.00344,1.00328,1.00373,1.00319,1.00372,1.00341,1.00328,1.00327,1.00255,1.00353,1.00315,1.00347,1.00364,1.00392,1.00385,1.00309,1.0031,1.0039,1.00394,1.00361,1.00283,1.00349,1.0028,1.00346,1.00331,1.00283,1.00323,1.0033,1.00323,1.00298,1.00336,1.00323,1.00281,1.00323,1.00458,1.00384,1.00311,1.00314,1.00358,1.00384,1.00335,1.00304,1.00259,1.00346,1.00308,1.00302,1.00299,1.00282,1.00366,1.00357,1.00359,1.00364,1.00333,1.00345
1.00432,1.00277,1.00296,1.00353,1.00424,1.0033,1.00289,1.0032,1.00347,1.00255,1.00374,1.00311,1.00287,1.00288,1.0033,1.00359,1.00319,1.00374,1.00293,1.00281,1.00386,1.00415,1.00305,1.00381,1.00362,1.00373,1.00272,1.00363,1.00358,1.00314,1.01032,1.00291,1.00347,1.00325,1.00324,1.00288,1.00346,1.00308,1.00293,1.00379,1.00292,1.00308,1.00363,1.00307,1.00388,1.00289,1.00371,1.00352,1.00366,1.00329,1.00327,1.00299,1.00352,1.00322,1.00279,1.00315,1.00298,1.00331,1.00285,1.00281
1.00286,1.00311,1.00319,1.004,1.00306,1.00361,1.00331,1.0032,1.00328,1.00298,1.00346,1.00362,1.00329,1.00317,1.00344,1.00369,1.00364,1.00265,1.00301,1.00318,1.0036,1.00319,1.00336,1.00282,1.00372,1.00304,1.00331,1.00273,1.00345,1.00369,1.00312,1.00243,1.00349,1.00396,1.00409,1.0035,1.00327,1.00377,1.00244,1.00368,1.00393,1.0037,1.00324,1.0036,1.00398,1.00318,1.00312,1.00351,1.00345,1.00293,1.0037,1.00274,1.00402,1.00295,1.00298,1.00373,1.00336,1.00322,1.00293,1.00388
1.00326,1.003,1.00263,1.00348,1.00325,1.00326,1.00388,1.00356,1.00331,1.00339,1.00287,1.00369,1.00349,1.00296,1.00273,1.00321,1.0043,1.00383,1.00359,1.00368,1.00347,1.00335,1.00366,1.00272,1.00326,1.00324,1.00323,1.00343,1.00335,1.00331,1.00377,1.00307,1.00321,1.00357,1.00335,1.00334,1.00306,1.00353,1.00318,1.00385,1.00394,1.00339,1.00348,1.00349,1.00334,1.00393,1.00349,1.00379,1.00334,1.00302,1.00442,1.0036,1.00284,1.00381,1.00253,1.00311,1.00309,1.00316,1.00365,1.0031
1.00363,1.00296,1.00308,1.00349,1.00402,1.00285,1.00358,1.00334,1.00344,1.00331,1.00353,1.00337,1.00272,1.00348,1.0032,1.00323,1.00285,1.00364,1.00247,1.00361,1.0036,1.00323,1.00311,1.00343,1.00358,1.00344,1.00319,1.00354,1.00308,1.00282,1.00375,1.00325,1.00335,1.00298,1.00308,1.00344,1.00311,1.00373,1.00319,1.00311,1.00294,1.00361,1.00293,1.00365,1.00293,1.00311,1.00345,1.00338,1.00365,1.00337,1.00314,1.00321,1.00339,1.00348,1.00324,1.00316,1.00269,1.00289,1.00365,1.00329
1.00335,1.00325,1.00361,1.00348,1.00326,1.00317,1.00312,1.00341,1.0024,1.00268,1.00363,1.00296,1.00378,1.00384,1.00375,1.00354,1.00289,1.00282,1.00357,1.0035,1.00346,1.00372,1.00375,1.00332,1.00316,1.00306,1.00357,1.00334,1.00364,1.00274,1.00266,1.00365,1.00372,1.00362,1.00353,1.00388,1.00361,1.00359,1.00345,1.00289,1.00278,1.00319,1.00317,1.00371,1.00337,1.00326,1.004,1.00355,1.00322,1.00341,1.0034,1.00455,1.00344,1.00326,1.00319,1.00359,1.00307,1.00302,1.0035,1.00381
1.00381,1.00304,1.00287,1.0028,1.00355,1.00351,1.00343,1.00279,1.00426,1.00326,1.00355,1.00376,1.00312,1.00402,1.00314,1.00389,1.00259,1.00348,1.00335,1.00297,1.00352,1.00377,1.00366,1.00339,1.0035,1.00314,1.00349,1.00399,1.00335,1.00292,1.00416,1.00321,1.00318,1.00272,1.00307,1.0042,1.00327,1.00323,1.00337,1.00338,1.00332,1.00304,1.00306,1.00325,1.00399,1.00265,1.00353,1.00341,1.00301,1.00328,1.00373,1.00315,1.00359,1.00337,1.0037,1.00324,1.00318,1.00318,1.00296,1.00321
1.00324,1.00285,1.00324,1.00361,1.00346,1.00381,1.00272,1.00352,1.00391,1.00429,1.00367,1.00317,1.0034,1.0029,1.00399,1.00295,1.0031,1.0032,1.00287,1.00334,1.00344,1.00361,1.00342,1.00291,1.00358,1.00312,1.00319,1.003,1.00449,1.00301,1.00363,1.00308,1.00355,1.00365,1.0037,1.00364,1.00352,1.00364,1.00338,1.00333,1.00415,1.00384,1.00221,1.00251,1.00365,1.00273,1.00323,1.0035,1.00376,1.00398,1.00353,1.00332,1.00382,1.00296,1.00275,1.00333,1.0031,1.00419,1.00292,1.00289
1.00355,1.00317,1.00344,1.0034,1.00333,1.0032,1.00325,1.0041,1.00334,1.00354,1.0036,1.00244,1.00331,1.00361,1.0031,1.00306,1.00318,1.00374,1.00314,1.00375,1.00261,1.00296,1.0032,1.00314,1.0031,1.00321,1.00359,1.00349,1.00342,1.00355,1.00359,1.00301,1.00428,1.00314,1.00365,1.00348,1.00368,1.00304,1.00293,1.00364,1.00367,1.00361,1.00379,1.00321,1.0033,1.00362,1.0032,1.00385,1.00379,1.00313,1.00402,1.00316,1.003,1.00382,1.0041,1.00302,1.0037,1.0024,1.00304,1.00341
1.00289,1.00362,1.00304,1.00362,1.00337,1.00335,1.00336,1.00312,1.00275,1.00335,1.00291,1.00321,1.00293,1.00378,1.00396,1.00363,1.00387,1.00299,1.00342,1.00358,1.00312,1.00383,1.00363,1.00311,1.00353,1.00391,1.00336,1.0038,1.00429,1.00304,1.00274,1.00428,1.00332,1.00386,1.00375,1.00368,1.00365,1.00366,1.00328,1.00356,1.00245,1.0029,1.00383,1.00377,1.00355,1.0031,1.00318,1.00298,1.00372,1.00322,1.0031,1.00353,1.00364,1.00318,1.00317,1.00384,1.00313,1.00356,1.00451,1.00328
1.00355,1.00371,1.00319,1.00314,1.00343,1.00244,1.00352,1.00258,1.00387,1.00313,1.00426,1.0034,1.00345,1.00359,1.0034,1.00341,1.00356,1.00317,1.00302,1.00363,1.00314,1.00265,1.00317,1.00391,1.00377,1.00378,1.00346,1.00343,1.00307,1.00271,1.00372,1.00262,1.00369,1.00372,1.00317,1.00352,1.00333,1.0042,1.00344,1.00368,1.00258,1.00328,1.00297,1.00289,1.00373,1.00306,1.00268,1.00309,1.0035,1.00355,1.00307,1.00293,1.00328,1.0032,1.00324,1.00333,1.00352,1.00384,1.00381,1.00354
1.00364,1.00381,1.00357,1.00367,1.0037,1.00335,1.00391,1.00321,1.00338,1.00314,1.00403,1.00314,1.00324,1.00405,1.00398,1.00297,1.00421,1.00338,1.00323,1.00385,1.00394,1.00248,1.00325,1.00379,1.00304,1.00318,1.00416,1.00344,1.00344,1.00355,1.00274,1.00334,1.0034,1.0037,1.0033,1.00318,1.00325,1.00322,1.00336,1.00328,1.00346,1.00328,1.00278,1.00351,1.0032,1.00241,1.00342,1.00279,1.00408,1.00387,1.00327,1.00294,1.00391,1.00324,1.00424,1.00346,1.00335,1.00327,1.00276,1.00367
1.00353,1.00338,1.00395,1.00334,1.00359,1.00355,1.00348,1.00265,1.0039,1.00368,1.00309,1.00339,1.00335,1.00405,1.0035,1.00353,1.00317,1.00332,1.0033,1.00376,1.00358,1.00397,1.00335,1.00299,1.00334,1.00333,1.00358,1.00312,1.00347,1.0037,1.00281,1.00289,1.00351,1.00347,1.00329,1.00377,1.00301,1.00363,1.0029,1.00272,1.0037,1.00331,1.00383,1.00416,1.00338,1.0036,1.00383,1.00319,1.00387,1.00344,1.00269,1.00248,1.00284,1.00358,1.00389,1.00309,1.00278,1.00345,1.00268,1.00417
1.0027,1.00326,1.00355,1.00321,1.00341,1.00338,1.00296,1.00379,1.00273,1.00361,1.00334,1.00361,1.00374,1.00313,1.00393,1.00308,1.00377,1.00334,1.00333,1.00308,1.00333,1.00294,1.00311,1.00349,1.00346,1.0037,1.00338,1.00371,1.00335,1.00336,1.00289,1.00346,1.00301,1.00334,1.00349,1.00295,1.00354,1.00338,1.00306,1.00325,1.00354,1.003,1.00291,1.00355,1.00325,1.00316,1.00322,1.00366,1.00332,1.00328,1.0032,1.00326,1.00354,1.00311,1.00344,1.00364,1.00379,1.00322,1.00317,1.00349
1.00337,1.00328,1.00334,1.00271,1.00283,1.00325,1.00342,1.00341,1.00366,1.00303,1.00365,1.00294,1.0034,1.00297,1.0035,1.00348,1.00424,1.00341,1.00426,1.00287,1.00305,1.00343,1.00339,1.00408,1.00272,1.00288,1.00412,1.00369,1.00271,1.00317,1.00345,1.00335,1.00295,1.00376,1.0029,1.00365,1.00313,1.00377,1.00297,1.00312,1.00336,1.00279,1.00331,1.003,1.00268,1.00387,1.00307,1.00359,1.00304,1.00366,1.00285,1.00291,1.00437,1.00403,1.00336,1.00407,1.00364,1.00325,1.00352,1.00356
1.00303,1.00316,1.00311,1.00331,1.00298,1.00395,1.00352,1.00333,1.00354,1.00348,1.00269,1.00363,1.00364,1.00369,1.00388,1.00313,1.00332,1.00321,1.00349,1.00378,1.00357,1.00303,1.00308,1.00338,1.00307,1.00429,1.00334,1.00312,1.00328,1.00256,1.00276,1.00394,1.00335,1.00334,1.00325,1.00285,1.00317,1.00384,1.00392,1.00329,1.00345,1.0031,1.00364,1.00271,1.00355,1.00235,1.00385,1.0037,1.00341,1.00369,1.0031,1.00362,1.00422,1.00362,1.00315,1.00402,1.00334,1.00334,1.00287,1.00276
1.00243,1.00364,1.00343,1.00299,1.00351,1.0036,1.00353,1.00394,1.00344,1.00306,1.00287,1.00364,1.00309,1.00294,1.00323,1.00368,1.00372,1.00313,1.00388,1.00295,1.00354,1.00344,1.0038,1.00358,1.0038,1.00348,1.00235,1.00337,1.00311,1.00346,1.00365,1.00343,1.00338,1.00369,1.00374,1.00313,1.0034,1.00346,1.00376,1.00407,1.00339,1.00298,1.00269,1.00302,1.00324,1.0035,1.00334,1.00341,1.00285,1.00274,1.00286,1.00348,1.00304,1.00298,1.00401,1.00392,1.00319,1.00316,1.00368,1.00329
1.00347,1.00314,1.00367,1.00358,1.00335,1.00314,1.0035,1.004,1.00333,1.00409,1.00295,1.00329,1.00381,1.00296,1.00282,1.00367,1.00341,1.00393,1.0036,1.00303,1.00311,1.003,1.00267,1.00295,1.00387,1.00318,1.00321,1.00381,1.00355,1.0034,1.00344,1.00296,1.00292,1.00313,1.00321,1.00321,1.00335,1.0041,1.00312,1.00338,1.0032,1.00317,1.00348,1.00309,1.00313,1.00345,1.00371,1.00347,1.00338,1.00302,1.00342,1.00376,1.00283,1.00398,1.00221,1.00324,1.00299,1.00384,1.0035,1.00334
1.0038,1.00383,1.00375,1.00303,1.00355,1.00338,1.0034,1.00411,1.00325,1.00404,1.00414,1.00363,1.00267,1.00315,1.00321,1.00369,1.00262,1.0035,1.0041,1.00328,1.00351,1.00266,1.0032,1.00381,1.00322,1.00328,1.0032,1.00349,1.00306,1.00325,1.00359,1.00319,1.00288,1.00304,1.0033,1.00296,1.00384,1.00349,1.00352,1.00327,1.00335,1.00359,1.00343,1.00304,1.00379,1.00394,1.00321,1.00284,1.00353,1.00297,1.00384,1.00369,1.00384,1.00266,1.0032,1.0029,1.00337,1.00354,1.00321,1.00341
1.0038,1.00279,1.00287,1.00379,1.00374,1.00386,1.00351,1.00319,1.00338,1.00301,1.00397,1.00338,1.00307,1.00336,1.00336,1.00328,1.00329,1.00354,1.00322,1.00329,1.00334,1.00289,1.00333,1.00324,1.00323,1.00365,1.00294,1.00324,1.00308,1.00395,1.00316,1.00359,1.00382,1.00318,1.00319,1.00361,1.00286,1.00344,1.00327,1.00384,1.0034,1.00397,1.00329,1.00306,1.00306,1.00276,1.00288,1.00415,1.0034,1.00334,1.00346,1.00332,1.00345,1.00339,1.004,1.00348,1.00323,1.00331,1.00284,1.00343
1.0036,1.00295,1.00311,1.0028,1.00367,1.00318,1.00341,1.00357,1.00323,1.00304,1.00414,1.0034,1.00284,1.00329,1.00293,1.00341,1.00342,1.00301,1.00261,1.00298,1.00351,1.00332,1.00211,1.00293,1.00296,1.00325,1.00363,1.00317,1.00343,1.00325,1.00347,1.00325,1.00339,1.00293,1.00341,1.00274,1.00243,1.00337,1.00383,1.003,1.00369,1.00323,1.00371,1.00419,1.00372,1.00278,1.00358,1.00313,1.00345,1.00292,1.00416,1.00335,1.00333,1.00313,1.00321,1.00331,1.00314,1.0039,1.00349,1.00327
1.00329,1.00353,1.00303,1.0032,1.00356,1.003,1.00357,1.00368,1.0032,1.00309,1.00382,1.00352,1.00346,1.00395,1.00302,1.00296,1.0039,1.00301,1.00397,1.00332,1.00376,1.00366,1.00301,1.00317,1.00289,1.00348,1.00344,1.00301,1.00291,1.00375,1.00304,1.00299,1.00376,1.00331,1.00344,1.00353,1.00342,1.00375,1.00281,1.00336,1.00361,1.00385,1.00258,1.00353,1.00338,1.00368,1.00309,1.00372,1.00295,1.00347,1.00304,1.00358,1.00351,1.00333,1.00352,1.00352,1.0032,1.00363,1.00352,1.0033
1.00325,1.00332,1.00311,1.00359,1.00403,1.00386,1.00317,1.00333,1.00301,1.00384,1.00346,1.00351,1.00313,1.00397,1.00338,1.003,1.00363,1.00315,1.0035,1.00261,1.00286,1.00333,1.00287,1.00267,1.00393,1.00336,1.0038,1.00336,1.00301,1.00353,1.00337,1.00347,1.00273,1.00322,1.00339,1.0026,1.00317,1.00369,1.00385,1.00306,1.00347,1.0032,1.003,1.00391,1.00365,1.00335,1.0038,1.00335,1.00329,1.00359,1.00324,1.00282,1.00342,1.00362,1.00311,1.0033,1.00333,1.00352,1.00359,1.00329
1.00339,1.003,1.00341,1.00322,1.00239,1.0033,1.00367,1.00301,1.00282,1.00335,1.00362,1.00317,1.00277,1.00238,1.00292,1.00396,1.0032,1.00314,1.00329,1.00287,1.00364,1.00302,1.00387,1.00315,1.00341,1.00356,1.00338,1.00317,1.00407,1.00388,1.00344,1.00318,1.00334,1.00275,1.00371,1.00373,1.00324,1.00354,1.0033,1.00339,1.00359,1.00348,1.00331,1.00293,1.00311,1.0031,1.00392,1.00396,1.00388,1.0031,1.00378,1.00327,1.00334,1.00327,1.00316,1.00313,1.00358,1.00357,1.00326,1.00338
1.00405,1.00382,1.00276,1.0027,1.00356,1.00315,1.00389,1.00351,1.00323,1.00285,1.00275,1.00374,1.00301,1.00326,1.00337,1.0033,1.00367,1.00307,1.00269,1.00374,1.00305,1.00275,1.00367,1.00339,1.00265,1.00327,1.00437,1.00354,1.00377,1.00373,1.00407,1.00289,1.00412,1.0033,1.00355,1.00375,1.00292,1.00301,1.00337,1.00372,1.00341,1.00345,1.00346,1.00345,1.0036,1.00362,1.00306,1.00312,1.00384,1.0033,1.0039,1.00305,1.00359,1.003,1.00326,1.00321,1.00335,1.00308,1.00375,1.00341
1.00335,1.00261,1.00361,1.00397,1.0025,1.003,1.00355,1.00316,1.00375,1.00343,1.00331,1.00343,1.00338,1.00342,1.00272,1.00344,1.00295,1.0037,1.00297,1.00374,1.00339,1.0034,1.00329,1.00336,1.00334,1.00343,1.00315,1.00316,1.00423,1.00348,1.00198,1.00358,1.00373,1.00259,1.00322,1.00416,1.00368,1.00336,1.00355,1.0035,1.0042,1.00368,1.00295,1.00367,1.00324,1.00283,1.00267,1.00383,1.00292,1.00358,1.00265,1.00329,1.00269,1.00347,1.00344,1.00297,1.00309,1.00393,1.00355,1.00311
1.00322,1.00308,1.00311,1.0035,1.00332,1.00306,1.00245,1.00339,1.00414,1.00377,1.0035,1.00243,1.00324,1.00318,1.00304,1.00335,1.00352,1.00237,1.0036,1.00311,1.00333,1.00318,1.00305,1.00306,1.00254,1.00316,1.00373,1.00347,1.0038,1.00271,1.00363,1.00354,1.00351,1.00303,1.00349,1.0033,1.00311,1.00345,1.00343,1.00293,1.00412,1.00373,1.00325,1.00379,1.00279,1.00327,1.00298,1.00383,1.00382,1.00388,1.00309,1.00251,1.00287,1.0033,1.00267,1.00289,1.00409,1.00327,1.00271,1.00357
1.00335,1.00382,1.00372,1.00336,1.00314,1.00367,1.0029,1.00354,1.00313,1.00371,1.00377,1.00371,1.00309,1.00318,1.00334,1.00306,1.00343,1.00343,1.00396,1.00321,1.00283,1.00284,1.0036,1.00341,1.00368,1.00295,1.00309,1.00384,1.00407,1.00334,1.00365,1.00334,1.00229,1.00332,1.00303,1.00418,1.00288,1.00366,1.00339,1.00373,1.00403,1.00388,1.00328,1.00388,1.00282,1.00355,1.00377,1.00289,1.00275,1.00382,1.00364,1.0034,1.00281,1.00371,1.00377,1.00373,1.00325,1.00402,1.00279,1.00361
1.00357,1.0038,1.00213,1.00354,1.00352,1.00229,1.00343,1.00342,1.00302,1.00315,1.00331,1.00424,1.0035,1.00269,1.00336,1.00374,1.00345,1.00381,1.00277,1.00359,1.00264,1.0033,1.00295,1.00328,1.00379,1.00329,1.00339,1.0038,1.00299,1.00337,1.00319,1.00309,1.00246,1.00328,1.00409,1.00351,1.00317,1.00336,1.00346,1.00314,1.00359,1.00284,1.00391,1.00359,1.00369,1.00325,1.00324,1.00394,1.00367,1.00304,1.00267,1.00335,1.00341,1.00371,1.00374,1.00373,1.00352,1.00319,1.00342,1.00274
1.00381,1.00267,1.0033,1.00341,1.00297,1.00242,1.00313,1.00284,1.00281,1.00291,1.00255,1.00353,1.00291,1.00338,1.00374,1.00292,1.0033,1.00309,1.00344,1.00343,1.0035,1.00331,1.00312,1.00398,1.00344,1.00321,1.00299,1.00352,1.00332,1.00362,1.00373,1.0035,1.00368,1.00292,1.00355,1.00414,1.00425,1.00294,1.00354,1.00332,1.00285,1.00343,1.00347,1.00395,1.00386,1.00367,1.004,1.00359,1.00249,1.00328,1.00285,1.00407,1.00276,1.00328,1.00391,1.00316,1.0037,1.00354,1.00416,1.00327
1.00351,1.00354,1.00372,1.00366,1.00279,1.00426,1.00267,1.00319,1.00277,1.00303,1.00348,1.00293,1.00382,1.00304,1.00297,1.00383,1.00357,1.0036,1.00287,1.00312,1.0031,1.00381,1.00354,1.00314,1.00303,1.00341,1.00362,1.00378,1.0029,1.00286,1.0036,1.00387,1.00399,1.0039,1.00322,1.0031,1.0034,1.00385,1.00334,1.0037,1.00302,1.00325,1.00313,1.00417,1.00335,1.00347,1.00328,1.0034,1.0033,1.00376,1.00286,1.00213,1.00331,1.00341,1.00328,1.00319,1.00354,1.00326,1.00387,1.00368

max: 1.01032
min: 1.00198
avg: 1.00336
