File Name,Exposure,Average,,,Variance,,,Fano Factor,,
,,Min,Max,Avg,Min,Max,Avg,Min,Max,Avg
QRNG_Data/Experiment_2/ROI80x4_Backgroundremoved/exp0gain20.000000Voltage6.600000/,0,33.3625,35.3125,34.3821,30.6586,47.9506,39.7408,0.896778,1.38286,1.15591
QRNG_Data/Experiment_2/ROI80x4_Backgroundremoved/exp50gain20.000000Voltage6.600000/,50,32.3312,35.5594,34.0953,32.5812,49.4637,40.1756,0.930893,1.45028,1.17864
QRNG_Data/Experiment_2/ROI80x4_Backgroundremoved/exp100gain20.000000Voltage6.600000/,100,79.4313,82.1437,80.9313,65.8691,98.9894,82.701,0.805092,1.22507,1.0219
QRNG_Data/Experiment_2/ROI80x4_Backgroundremoved/exp150gain20.000000Voltage6.600000/,150,126.162,129.572,127.673,97.525,153.136,126.558,0.764864,1.19734,0.991232
QRNG_Data/Experiment_2/ROI80x4_Backgroundremoved/exp200gain20.000000Voltage6.600000/,200,172.55,176.603,174.458,132.896,210.01,170.527,0.761866,1.20161,0.977505
QRNG_Data/Experiment_2/ROI80x4_Backgroundremoved/exp250gain20.000000Voltage6.600000/,250,219.275,223.262,221.303,178.591,276.119,216.034,0.806073,1.25233,0.976194
QRNG_Data/Experiment_2/ROI80x4_Backgroundremoved/exp300gain20.000000Voltage6.600000/,300,266.019,270.566,268.166,209.725,320.516,259.88,0.778182,1.18906,0.969133
QRNG_Data/Experiment_2/ROI80x4_Backgroundremoved/exp350gain20.000000Voltage6.600000/,350,313.009,317.328,315.123,235.357,417.504,306.873,0.746815,1.3326,0.973825
QRNG_Data/Experiment_2/ROI80x4_Backgroundremoved/exp400gain20.000000Voltage6.600000/,400,358.741,364.55,361.942,287.273,427.66,350.34,0.791721,1.18236,0.967938
QRNG_Data/Experiment_2/ROI80x4_Backgroundremoved/exp450gain20.000000Voltage6.600000/,450,405.512,411.531,408.656,296.542,484.226,398.575,0.72614,1.19001,0.975344
QRNG_Data/Experiment_2/ROI80x4_Backgroundremoved/exp500gain20.000000Voltage6.600000/,500,452.816,458.528,455.48,333.556,525.121,441.124,0.731999,1.15357,0.96848
QRNG_Data/Experiment_2/ROI80x4_Backgroundremoved/exp550gain20.000000Voltage6.600000/,550,499.431,506.053,502.664,372.377,624.495,491.147,0.743754,1.24295,0.9771
QRNG_Data/Experiment_2/ROI80x4_Backgroundremoved/exp600gain20.000000Voltage6.600000/,600,545.55,552.603,549.517,441.109,692.488,545.419,0.801975,1.26328,0.992562
