File Name,exposure, SOCF,,
,,Min,Max,Avg
QRNG_Data/Experiment_2/ROI80x4_Backgroundremoved/,0,1.02547,1.05833,1.03645
QRNG_Data/Experiment_2/ROI80x4_Backgroundremoved/,50,0.995483,1.01353,1.00486
QRNG_Data/Experiment_2/ROI80x4_Backgroundremoved/,100,1.00072,1.00944,1.00509
QRNG_Data/Experiment_2/ROI80x4_Backgroundremoved/,150,1.00151,1.00896,1.00497
QRNG_Data/Experiment_2/ROI80x4_Backgroundremoved/,200,1.00171,1.00853,1.00501
QRNG_Data/Experiment_2/ROI80x4_Backgroundremoved/,250,1.00259,1.00794,1.00497
QRNG_Data/Experiment_2/ROI80x4_Backgroundremoved/,300,1.0032,1.00695,1.00504
QRNG_Data/Experiment_2/ROI80x4_Backgroundremoved/,350,1.00296,1.00699,1.00504
QRNG_Data/Experiment_2/ROI80x4_Backgroundremoved/,400,1.00285,1.0067,1.00503
QRNG_Data/Experiment_2/ROI80x4_Backgroundremoved/,450,1.00269,1.00669,1.00503
QRNG_Data/Experiment_2/ROI80x4_Backgroundremoved/,500,1.00319,1.00663,1.00502
QRNG_Data/Experiment_2/ROI80x4_Backgroundremoved/,550,1.00374,1.00645,1.00504
QRNG_Data/Experiment_2/ROI80x4_Backgroundremoved/,600,1.00364,1.00649,1.00503
