-0.0361004,0.0481673,0.0321367,0.0982824,-0.0508077,0.0570907,0.00498673,0.0409133,-0.0847957,-0.0248933,0.0431338,0.038079,-0.0189776,0.0802824,-0.0899008,0.0630698,-0.045137,-0.0358939,-0.00555436,0.039847,-0.00862805,0.0419735,0.0821035,0.0145016,0.0561421,-0.0502494,0.0396559,-0.0987835,0.0340752,-0.00831477,0.0195107,0.0370076,0.0215347,0.0613252,0.0795998,-0.0854954,0.069331,0.0055204,0.0598698,-0.0108037,-0.0121152,0.0631787,0.0363489,-0.105603,-0.0611791,0.0737871,0.0283904,-0.00842489,0.0176456,0.00782313,-0.0288098,0.0797039,-0.0473038,-0.000973124,0.0669399,0.0132576,-0.0388268,0.0159854,0.0369518,0.0663245
-0.0880804,0.030448,-0.139676,0.02382,-0.00437501,0.0392887,-0.017327,-0.0362818,0.0688467,0.108649,0.0559271,-0.0629121,-0.0205174,-0.0122686,0.0959029,0.0466015,0.142629,-0.124666,0.0855348,0.0284364,0.0623349,0.0306488,-0.017005,-0.018037,0.0269528,-0.0273915,0.20769,0.0642876,0.0367609,0.0560735,0.104172,0.0903336,0.0262545,-0.106515,0.0452326,-0.0149542,0.0608107,0.134417,-0.015452,0.0391427,0.00325397,-0.0795462,-0.0816588,-0.0358642,0.0226066,0.0104086,0.0427167,0.0769967,-0.0360515,0.0485915,-0.0859729,0.0454462,0.0417252,-0.012477,0.0612051,-0.0438465,-0.0512485,0.0477571,-0.0901468,0.0910359
0.0189791,-0.00929946,0.0273096,-0.193048,0.0453806,-0.026396,0.0250672,0.0355467,0.0803684,-0.0370624,-0.0317571,0.0218547,-0.0342521,-0.052792,0.0287392,0.119661,-0.0362666,-0.0138705,-0.0788871,0.0563867,-0.0394811,-0.0489326,-0.0169534,-0.0289595,-0.0828795,0.176823,-0.0484081,-0.0655988,0.0236383,0.0612486,-0.0142339,0.0384574,-0.0334436,0.0487696,0.0585108,0.0801344,-0.067556,0.0292489,-0.0622685,0.000683591,-0.0327116,-0.0886038,-0.0343936,-0.0403057,0.00739689,0.0414901,-0.0262506,0.0371446,-0.0857046,-0.0717684,0.0263189,-0.042123,-0.0897932,-0.0440249,-0.0951955,0.104934,0.115853,-0.0427263,-0.0745728,-0.0256424
-0.0243085,-0.0469244,-0.0176059,-0.0391253,0.0224403,-0.0429952,-0.0594459,-0.0621024,0.0964255,-0.065218,-0.0287086,0.00402435,0.0132717,-0.0314967,0.00239927,-0.0353553,0.0757846,-0.0112547,-0.00037981,-0.0629262,-0.0178055,0.0596778,0.0194098,-0.024206,-0.00437723,-0.0177346,0.00765762,-0.103902,-0.0316693,-0.0440909,-0.0182311,0.104484,-0.00719139,0.0285528,0.0759485,0.00656506,0.0878813,0.0185554,-0.0172423,0.0109978,-0.0185152,-0.0830411,-0.0307755,-0.0473398,-0.0526104,-0.0466024,0.0747898,0.073133,0.0118373,0.0186001,-0.0176314,0.0120981,0.0449364,-0.0428486,0.00518509,-0.0814607,0.114161,0.0839697,-0.00522762,-0.112418
-0.0108018,-0.121164,-0.12342,0.0304913,0.0502059,0.0573456,-0.0775125,0.00126572,-0.0444039,0.0595176,-0.0286693,-0.025398,0.0600842,0.0432104,-0.014863,-0.0606501,0.119058,0.000358962,-0.00752371,-0.0251824,-0.037656,-0.0197645,-0.0851416,-0.0189031,0.0728616,0.011441,0.0885207,0.0396287,-0.000692882,0.022985,0.0694609,-0.0500332,-0.0597147,0.0271958,0.0795831,-0.0639405,-0.00494633,-0.0580996,-0.0219437,0.0410246,0.0840575,0.040756,0.0215112,-0.028766,-0.0135343,-0.0443784,0.0633965,0.0253794,0.0628995,0.0542212,-0.0344493,-0.0702856,-0.00483479,0.117805,0.0167235,0.0281114,-0.0448014,-0.0370146,-0.0537772,-0.0491543
-0.00166412,-0.0373699,-0.0343902,-0.0221233,0.0684904,0.0590525,0.0445364,-0.0412576,-0.0785713,-0.0479614,-0.00125607,0.038463,0.0901691,-0.00561599,0.0909006,0.0638328,-0.0930924,-0.014793,0.00871389,0.0147251,0.0246932,0.0311447,-0.107729,0.00419177,0.012702,0.0719681,0.0545048,0.151475,0.143823,0.0255715,-0.0218134,-0.0152876,0.0410606,0.0132956,-0.018857,0.0750129,0.104364,0.0850655,-0.0383966,0.0159857,0.0656712,0.0389972,0.110142,0.0208622,0.00423358,0.0721332,0.07278,0.0622889,-0.0459427,0.116892,-0.0488165,0.0190221,0.0329262,0.0507717,-0.0559544,0.0128959,0.137303,-0.00138566,0.030378,-0.100525
0.00243455,-0.108557,0.0343028,-0.0586077,-0.0780795,0.0151603,-0.00951745,0.0525174,-0.00285877,-0.11514,-0.0273715,0.031443,-0.00269485,0.00908909,0.047309,-0.0332537,-0.109076,0.0256078,0.00804334,-0.0887571,-0.124609,-0.00188157,-0.0901133,0.0330724,0.102629,0.0179566,0.0428302,0.0941267,-0.0922533,-0.0243028,0.0149835,0.0662461,-0.0228517,0.0229954,0.0487315,0.0311417,0.0029063,-0.0394136,0.0741596,0.0539989,-0.0906955,0.023437,-0.0155878,0.0218325,0.0700307,0.0669913,0.00343668,0.0464957,0.0115478,-0.0442887,-0.0202675,-0.0164466,0.0453466,0.017147,0.0786272,0.093978,-0.0223235,-0.0882482,-0.0456292,-0.0219283
0.0102805,-0.124859,0.0562626,0.078524,0.00304793,0.0261848,-0.00652051,0.0204707,0.0663267,0.0858168,0.0525286,0.0549868,-0.102421,0.0123839,0.0533699,-0.0459536,0.0359057,-0.0579896,-0.0221647,0.0151491,0.0830497,0.0152402,-0.0402305,0.0580517,0.0218486,0.00805862,0.0329968,-0.131149,-0.109634,-0.119658,0.079172,0.0173659,0.0931507,-0.0769272,-0.0549058,0.0339028,0.0720018,-0.0130044,-0.0236469,0.0376623,-0.00377073,-0.000360987,0.00277063,-0.133732,-0.0632517,0.0379258,-0.0232942,-0.039017,0.0615381,0.0485228,-0.0523303,0.0993902,-0.0465746,-0.00937602,0.0485983,-0.0567927,0.0239989,-0.0445635,-0.0110639,0.00740288
0.0847693,-0.0420294,0.03286,0.113614,0.0231271,0.00342802,0.0203277,0.0696231,-0.121079,-0.0144964,-0.0313144,0.0599083,0.031498,0.0133978,0.0991518,0.0734395,-0.0140181,0.104066,0.083943,-0.0962234,0.0419866,0.0657166,0.0313469,-0.0217333,-0.0199211,0.000433288,0.0490418,-0.0147557,0.0858136,-0.0548597,0.0439246,-0.0164358,0.0847031,-0.022205,0.119254,0.0692587,-0.0818962,0.0348955,0.0244433,-0.0482435,-0.0395644,-0.0360944,-0.0917202,0.114914,0.0472124,0.0113986,-0.0283132,-0.0448937,0.0255904,-0.0164184,-0.0327533,0.105766,0.00677186,0.0462213,-0.0178933,-0.0214757,0.0261993,0.104838,0.0589524,-0.0124735
0.0605215,-0.00622449,0.152263,-0.0435974,0.113523,-0.022451,-0.00136242,-0.0158466,0.0614761,0.0864963,0.0560755,-0.0452672,-0.013551,-0.0154844,0.0675485,0.0248907,-0.0232637,-0.120702,0.136128,0.0639273,0.0133688,0.0479157,-0.0163369,-0.0458571,0.0274644,-0.0312817,0.050334,0.0744445,-0.0346115,0.0938639,0.0386504,-0.0193313,0.0211065,0.00798877,-0.0316406,-0.0391072,-0.0939943,0.110394,0.0317721,0.0167484,-0.0368743,-0.0349363,0.0165382,-0.101093,-0.0535297,0.0712258,0.0398521,-0.0153336,-0.0974639,0.0174937,-0.0468335,0.0470174,-0.0965166,-0.0455528,0.02256,-0.0121136,0.0642676,0.0267186,-0.0187732,0.0394031
0.0795831,0.0467961,0.028552,-0.0421552,-0.0657051,0.0582996,0.0347406,0.03479,-0.111376,-0.0111129,0.0647152,0.0356769,0.017325,-0.0393922,-0.144774,0.0300174,-0.018421,-0.00473734,0.0511063,-0.0329142,-0.0686721,-0.0564194,0.0270277,0.0415047,0.0529533,0.0686074,0.0343066,0.042734,0.0639572,-0.0545521,0.0727345,-0.067011,0.0583198,0.00523802,-0.0171021,0.0725056,-0.132541,0.00997501,-0.0236924,-0.0148151,-0.0461483,0.0346278,-0.117067,0.0645311,0.0399916,-0.0130885,0.00846615,0.0411857,0.0283343,-0.0665984,0.0601732,0.0801922,-0.0392444,-0.0218579,0.00376101,-0.130859,0.0125473,-0.0290941,0.0046012,-0.0184404
0.0691694,0.0112673,-0.0250084,-0.0213718,-0.0569294,0.00119065,-0.00145522,-0.0942334,0.00711288,0.0882099,-0.032142,-0.00864586,-0.0304883,-0.0235458,-0.0206796,0.0920395,0.0742461,-0.0253197,-0.000483764,-0.0170323,0.11356,-0.0311817,-0.021935,-0.0299928,0.0472933,0.057737,0.0332581,-0.0332322,0.0688066,-0.0260203,-0.216628,-0.0433832,0.0166347,0.0148973,0.0648839,-0.0141565,0.0541674,0.00452984,0.0236077,-0.00119973,0.0416941,-0.122777,0.0419587,0.00959551,0.0237318,-0.0761993,0.00625277,-0.0167924,0.0588873,0.114063,0.0666961,-0.0247449,0.0186034,0.0212668,0.0280645,-0.00837986,-0.0836876,-0.0532371,0.0537816,0.0621177
0.0480191,-0.0956559,0.050036,0.0145284,-0.0493933,0.0110409,-0.0251565,0.0207053,-0.0131182,0.0791556,-0.00618697,-0.0249159,0.0815582,-0.0477755,-0.0576028,0.0340326,0.00724698,-0.045394,-0.0770115,0.0599249,-0.0345855,-0.0120251,0.0838391,0.0780264,-0.0354702,-0.0550816,0.0209993,-0.137624,0.0743379,0.140715,0.0614259,0.0488604,-0.118862,-0.0725439,0.0401194,0.00815808,-0.0327043,0.0710938,0.0358883,0.0795417,0.00929637,0.0878186,-0.146164,-0.074864,-0.00390592,0.0739565,-0.0833877,-0.0440727,-0.00146491,0.056971,0.0318125,0.108514,-0.0104465,-0.0187099,-0.0570611,-0.0816302,0.0374317,0.013491,-0.0105601,-0.018194
0.0537832,-0.0322065,-0.0324609,-0.0712043,-0.0390572,0.0137361,0.00364055,0.02737,0.0639154,-0.00637104,0.0540724,0.0981297,-0.00324265,0.021452,0.0283006,0.0151729,-0.0591806,0.0335792,0.0140197,-0.0895686,-0.0364886,0.078855,0.096696,-0.0439102,0.0821155,-0.0605526,0.0592599,-0.0226174,0.0781756,0.116237,0.000304162,0.0522919,0.00678457,-0.0387399,0.123125,0.0340956,0.091593,0.0245858,0.100354,-0.0699288,0.0304256,0.105529,0.00193053,0.0169446,-0.0201653,-0.0520908,0.0315659,-0.0185293,0.0304498,-0.00414055,0.0199158,-0.0358592,0.135908,0.0132819,0.0285885,-0.0283655,-0.0360642,-0.0644192,-0.0208908,-0.0883946
0.0144021,-0.0245835,0.057074,-0.00845348,0.103026,-0.0898342,-0.0381662,0.0803943,-0.0352469,-0.0164929,0.0115154,-0.0490337,-0.0358182,0.0673496,0.0173658,0.0279992,0.0807759,0.0894657,0.0217114,-0.0298846,-0.0239763,-0.0355681,-0.0155394,-0.0430107,-0.0347944,-0.0339402,-0.0649073,0.00429372,0.0809278,-0.0649679,0.0840989,0.0339039,0.071871,-0.0155362,0.0551121,0.0621676,0.0447721,-0.0106854,0.0085123,-0.104423,-0.106547,-0.0466769,0.0765018,0.0120281,0.012014,-0.109982,0.0472501,-0.0029435,0.00241315,0.0202262,0.0944378,0.064865,0.0403149,-0.204097,0.0181527,0.0378276,0.0356334,-0.0428614,-0.0545006,-0.0476973
0.0888306,-0.0744767,0.0361609,-0.0521979,-0.0522664,-0.0678888,-0.0121118,-0.041641,0.0574834,0.00205515,0.0127079,0.0458352,0.012343,0.00891095,-0.0903971,-0.0497742,0.0317244,-0.00740662,-0.0413496,-0.0607709,0.0237087,-0.0188816,-0.0668877,0.121911,0.0299657,-0.0811129,-0.0884175,0.141764,0.0283046,-0.0480556,-0.0598963,0.00755313,0.0467262,0.0825422,0.104957,0.00903054,0.131273,0.0234003,-0.00694222,-0.0308068,-0.113447,0.0713432,0.0850602,0.0213452,0.130628,-0.0599513,0.0825742,-0.0464363,0.0624899,0.00411241,-0.0248284,0.0142789,-0.0584089,-0.0464615,0.0894502,0.107433,0.0176452,-0.0844318,0.0396608,-0.0401415
-0.00960153,0.0414083,-0.00144514,0.0496044,0.0640399,-0.0401142,-0.0637588,-0.0849316,-0.0761946,0.0157578,0.0167656,0.022582,0.0354907,-0.0387993,-0.0875607,-0.0291012,-0.0236247,-0.0872723,0.017874,0.024755,0.0157312,-0.0217881,-0.128236,0.0359404,0.0351513,0.000668699,0.0119681,0.0127182,0.0664649,-0.0544235,0.000719341,-0.0173911,0.0206894,-0.0354491,-0.0998623,-0.009511,0.0920332,0.113997,-0.0325237,0.0998875,-0.0944373,0.0198684,-0.0188444,0.00650855,-0.00841243,-0.0105412,-0.0361269,0.0935228,-0.047556,-0.0860941,-0.00618318,0.00537151,-0.0974816,-0.0204848,0.0548918,0.0279517,-0.0215578,0.00919503,-0.0163102,-0.013429
0.067265,-0.116884,-0.0240594,-0.0568387,-0.0113138,0.0448395,0.0695231,-0.0528987,-0.0250776,-0.0310695,-0.0178517,0.00152813,-0.0330622,-0.0836009,-0.0142566,-0.0342011,0.0245273,0.0148985,0.092706,-0.0577601,0.0599891,0.0450199,0.0786831,0.0612887,-0.0815469,-0.123522,-0.0161819,0.0196788,0.0138504,0.0731853,-0.106608,0.0618696,-0.0233643,-0.0439916,0.0303122,0.192932,-0.00950752,0.11765,-0.0854748,0.00706342,0.0851527,0.0152766,-0.0319768,-0.0854345,-0.0410427,0.0779729,-0.0978366,0.0531148,-0.0820848,0.0201008,0.0134385,-0.010879,-0.106621,0.0876353,-0.0355902,-0.0292666,0.0557745,0.00253609,0.123889,0.00160034
-0.0618655,-0.0982807,-0.0175468,-0.134285,-0.0910797,0.0143248,0.0243206,0.0738484,-0.0238883,-0.0445539,0.0104679,-0.102732,-0.0161406,0.0310973,-0.0498288,0.034184,0.0553027,0.0343405,0.0128342,-0.0147539,0.0515615,-0.0675763,-0.0101861,0.00178198,0.0049942,-0.00596445,0.0290042,-0.0460528,-0.0692216,0.0557993,-0.047937,0.000333061,-0.0789003,0.0260426,0.0328904,0.0941554,-0.120823,0.120991,0.0450579,-0.00246675,0.145165,-0.0379127,-0.00575978,-0.0381145,0.0637776,0.0483093,-0.0220049,-0.0672029,0.0277173,-0.0035397,0.0247226,-0.0422969,-0.0493967,0.13529,-0.0894118,0.0550166,-0.0490476,0.0150557,0.00420084,0.0518703
0.0833313,-0.0873879,-0.0623953,0.0537649,-0.0458744,-0.00558953,-0.0892416,0.0624452,-0.00983299,0.0634556,0.0936473,0.0628867,-0.00466418,0.0227959,-0.00298623,0.0412456,0.00407807,0.111646,-0.0368925,0.0553412,0.0188696,-0.00653144,0.0336439,0.0685181,-0.0736263,0.0561816,-0.000761754,-0.0430592,-0.0049324,0.0504915,0.0407915,-0.124078,-0.0556114,-0.057737,-0.0850916,-0.0301683,0.0207422,0.00647497,0.0712434,0.0413823,0.0148698,-0.161215,-0.00182199,-0.00614709,-0.0852843,-0.0069366,-0.0398194,0.0311427,0.0782887,-0.0242286,-0.0429317,0.0536735,-0.0233027,-0.115073,-0.0476393,0.0853297,-0.0321585,-0.0606693,0.0728059,0.0694528
0.0379101,0.0129021,0.0119852,0.0104494,0.0482142,-0.0407837,0.0780018,0.0603735,-0.0630201,0.0393605,-0.0266015,-0.043607,-0.0384498,0.0819213,0.00544705,-0.0541227,0.0502844,-0.0436251,-0.0200339,-0.0197869,0.00942636,0.0023127,0.0161901,0.00727394,-0.0663519,0.0359877,-0.00110505,0.0305728,0.0712247,-0.122455,0.00335837,0.0617239,-0.0273153,0.0611088,-0.0242579,0.0111414,0.0905991,0.0368238,-0.0894758,-0.00818269,0.0881485,0.100765,-0.0477436,0.0340456,-0.100524,0.0325125,-0.131162,-0.12146,-0.0293589,0.0409306,0.0426088,0.030936,-0.0159926,-0.0811204,-0.056426,0.0378196,-0.00192162,-0.0179144,-0.0808498,-0.0670059
-0.0707223,0.00600287,-0.0431154,-0.0138592,0.0163243,-0.029341,-0.0829223,-0.151462,-0.00464664,0.0127478,0.00952365,0.0309405,-0.0492576,0.00575374,0.0134587,-0.0235626,-0.0833348,-0.0164199,0.0789239,-0.0180745,-0.117681,-0.0160004,-0.0610691,-0.0206828,0.0231549,-0.00985856,-0.0530955,-0.00786274,0.069356,0.0318507,-0.0206682,-0.0320988,-0.0637261,-0.0321376,-0.0752279,0.0859017,0.0204409,-0.106109,0.056181,-0.0435197,0.0126068,0.031746,0.0414231,0.0981998,0.0309879,-0.101114,-0.0337258,0.0331934,-0.0556889,-0.0746049,0.000759377,0.0635357,0.0651676,-0.12375,0.0425583,0.12033,-0.0108022,-0.0766202,-0.0315218,-0.0239263
0.0404125,0.0622103,0.0619104,0.0287326,0.0227831,0.00220549,-0.0681367,0.0495475,-0.0103186,-0.0238936,0.000956926,0.0605248,-0.0608833,-0.0405478,0.0311367,0.0304288,0.100838,0.026762,0.0534192,-0.0470908,-0.0656601,-0.0398958,-0.0358868,-0.129431,0.0390233,0.052363,-0.0475382,-0.0117537,0.0605614,-0.0093227,-0.0250504,0.0177365,-0.0223662,0.0127664,-0.0542951,0.00414651,-0.00481758,0.0869969,-0.010222,-0.0448566,0.0403285,0.0206,0.0768319,0.174366,0.0261822,-0.030697,0.0429188,0.00288747,0.0356774,-0.0400503,0.0578896,-0.000253477,-0.0249914,0.0884503,-0.0580491,-0.0956306,0.0843076,-0.037256,-0.0124503,0.0544764
0.0124646,0.0739887,-0.0114965,-0.0211288,-0.0754186,0.0317064,0.0681891,0.0321155,-0.0247839,0.0162757,-0.0156846,0.051181,-0.093679,0.064908,0.0215349,-0.0672867,0.128725,0.11449,0.0203695,-0.0449493,0.00446144,0.0211249,-0.0207382,0.0732141,0.208086,-0.0251254,-0.0329482,0.0669078,0.0342578,-0.122151,0.0572217,-0.0338213,-0.0128988,-0.0997665,-0.053164,0.0797702,-0.0465665,-0.0471902,-0.138861,0.135168,-0.0511145,0.0432772,-0.0718253,0.00311149,0.00169014,-0.0331479,-0.0827128,0.101971,0.0444194,-0.011245,-0.0522445,0.00767464,0.0405431,-0.0420252,0.0534451,-0.0889758,0.0416502,0.0178026,0.00863357,0.0655894
-0.0156523,0.0958496,9.97509e-05,0.0705197,0.0283116,0.0951829,0.00518583,0.0778443,0.0675755,-0.029122,-0.0292208,-0.0851097,-0.118907,-0.04807,0.0521246,-0.00466801,-0.0303503,0.0600277,0.0196977,0.0900456,0.00651641,0.0435395,-0.0570891,0.00812209,-0.0077616,0.0606537,-0.0380917,0.0218543,0.0129538,0.0319634,-0.022167,-0.0591233,-0.150977,0.092328,0.0759158,-0.0884468,0.00948703,0.0683943,-0.0319026,0.0672182,-0.0283606,0.114783,0.00149508,0.0558315,-0.0364743,-0.086814,0.0575516,-0.0467139,-0.0688525,-0.0288619,-0.0285855,0.0947963,-0.0541163,0.0311858,-0.0399754,-0.0426092,0.0464914,0.0457651,0.0607662,-0.0446258
-0.0632089,0.063607,-0.0343529,0.0378622,-0.0255968,0.0314768,-0.0139563,0.145251,0.0307246,-0.00986445,0.00678101,-0.0419916,-0.00204193,0.0890699,-0.0329216,-0.0632445,0.032457,0.0156889,-0.0488048,-0.133188,0.0256234,0.00940043,0.0248228,-0.0954873,0.0320058,-0.0570904,-0.0520912,-0.0388739,0.020794,-0.00603445,0.0907961,0.141599,0.0760387,-0.0172371,-0.090795,0.0356569,0.0662626,-0.00948158,-0.00777244,0.0569618,0.105168,0.108136,-0.0440728,-0.0484225,-0.010993,0.0467557,0.0872658,-0.00168667,-0.0396116,0.11745,-0.0381243,-0.0211428,-0.0121987,0.0376378,-0.0103214,0.0182462,7.32684e-05,0.0899578,0.03036,0.0727483
0.0563189,-0.0464336,0.0571215,-0.0223684,-0.0113416,0.0957158,-0.0244112,-0.0740001,0.048021,0.0175034,-0.0560514,-0.0451086,-0.0426889,0.146656,0.0247042,-0.0462895,0.0482944,0.0234287,0.0575983,-0.0233289,-0.0123083,0.0685732,-0.00161226,0.0718208,0.138018,0.0589295,0.0539465,-0.0476438,0.116154,-0.000854128,0.0555974,0.0572187,0.00174025,0.0438698,-0.056739,0.0713789,-0.0927608,0.0452875,-0.0220661,-0.0589191,-0.0175898,0.0518892,0.042758,-0.0591524,0.0544207,-0.0704252,0.0330629,-0.0630631,0.0175587,-0.0120069,0.0367473,-0.0242393,0.0108981,-0.0783417,0.0436353,0.0315776,0.0319078,0.0593824,0.0605048,0.054531
0.0556599,0.0957049,-0.0511545,0.0458004,0.0901499,0.0519108,-0.00200668,-0.0214766,-0.00524943,0.0510716,0.0461422,-0.0274466,0.0367683,-0.00821202,-0.0274394,0.003661,0.0107655,0.00974117,-0.0107869,-0.0172517,-0.0777748,-0.0510405,0.0436462,0.0415362,0.089557,0.0187982,0.0572728,0.0371556,0.0732542,-0.00479872,0.0321592,0.0177306,-0.120173,-0.0127734,-0.0442726,0.0208821,-0.0451617,-0.0313754,0.000947549,-0.0364084,0.0383685,0.0382478,0.0333216,0.0440517,0.034285,0.0562452,0.0534349,0.00923745,0.0123527,-0.0241611,0.0499472,0.109202,0.0436587,-0.0281537,0.0187382,0.0746661,-0.0788345,0.014119,0.0116219,-0.0498105
-0.0983206,-0.00451818,0.0716137,0.0317147,0.0290077,-0.0283306,0.0157419,0.0405553,0.0888566,0.00424137,0.0146874,0.027282,0.024652,-0.0846271,0.0722417,-0.0714256,0.00428864,0.138694,0.00555677,0.0216514,0.0249304,0.0282503,0.062958,0.0381434,0.0319658,0.0633492,-0.0142692,0.0911698,0.0507769,-0.0765984,0.066064,-0.0511784,-0.106892,-0.0449705,-0.0831715,-0.00382928,-0.0620718,0.00291491,0.0286858,0.00309999,0.0649397,0.00438949,0.0667933,-0.11645,0.0309126,-0.0263172,0.0126595,0.00819408,0.0967926,0.099425,-0.0292672,-0.00540701,-0.0254447,-0.08631,-0.0589832,0.000279677,-0.0119543,-0.055989,-0.0549682,0.0347047
-0.0410082,0.0391494,0.092518,-0.0225386,0.0199228,0.113107,-0.001606,-0.0374823,0.0238103,-0.0999871,0.0779968,-0.0119804,-0.0962323,-0.0711907,0.0347016,0.156861,-0.0460594,-0.0198838,0.0228676,0.00489934,0.0672445,-0.0285156,0.0527644,-0.0569728,0.0239961,-0.0994565,0.0512738,-0.0482672,0.0602188,0.0422137,0.0191683,0.000230155,0.09311,0.0845124,0.0546699,0.000887406,0.0133908,-0.0609226,-0.0866851,0.00392667,-0.00563555,-0.0928265,0.106973,0.0268073,0.0326633,-0.0650698,0.021937,-0.0490678,-0.00385496,0.0665029,-0.0050037,-0.0678156,-0.0316927,0.0480702,-0.0427398,-0.0715274,-0.0756334,0.0959022,-0.0319898,-0.0512022
0.00502621,0.0790078,0.105835,-0.096387,0.0270401,0.0383943,0.0620204,0.0442306,-0.079035,0.0468865,-0.13641,-0.0823755,0.0248925,-0.0797109,-0.0547937,0.00068564,-0.0238305,0.0959404,0.0355484,0.0950839,0.0455442,0.0533403,0.0534148,-0.0187789,0.0521971,0.0380807,0.0216353,0.0223957,0.0158193,-0.0242673,1,0.0814967,0.0659465,0.0613782,0.00969464,-0.15216,0.0162475,0.0712662,-0.0744677,0.0988504,-0.0121979,0.0159982,0.0211187,-0.0298978,-0.0307376,0.143801,0.0689503,-0.0215648,0.0283995,-0.00139173,-0.0179382,-0.0516154,0.000951945,-0.0423539,0.0431159,0.103037,-0.0193039,0.0392841,-0.0622935,0.0893724
0.0374347,-0.0166356,-0.0254028,-0.0310578,-0.0566936,0.00422762,-0.0133696,-0.0066207,-0.124361,-0.0964587,0.137677,0.0865279,-0.0738836,0.0696452,0.109595,0.0692372,0.0249919,0.0461745,0.0400401,-0.0769063,-0.0442374,0.0376379,-0.0760938,0.0148727,0.0392182,0.00715942,-0.00174267,-0.0144283,0.0733505,0.030385,0.0121043,0.00939124,-0.0547767,0.0538792,0.0210664,-0.0573252,-0.0137771,-0.0259271,-0.0124933,0.0355119,0.0141747,0.185274,0.0157948,-0.103502,-0.033882,0.00239257,0.0437164,-0.0399713,0.0598259,-0.0177975,0.0103469,-0.036888,-0.0601394,0.101784,-0.0355159,-0.0406029,-0.0392194,-0.0407808,0.131095,-0.141797
0.0155763,0.0541194,-0.0134597,0.029869,-0.0743005,0.0448125,0.0492106,0.0762083,0.0160585,-0.069322,0.111366,-0.0622071,-0.0450264,0.0586447,0.0761775,0.000316019,-0.0692871,0.031122,0.0109198,0.0825255,0.00763565,0.0412385,0.0880334,-0.0267783,0.0547337,-0.038884,0.0362813,0.0729628,0.00497842,0.0279346,0.046018,0.038073,-0.0838156,-0.0790013,-0.00990902,-0.0870649,-0.00153959,-0.060828,-0.00429731,0.0429762,0.0253021,-0.137209,-0.0324348,-0.01294,0.0804283,0.0334002,0.0570374,0.0267485,-0.0510832,-0.0129954,-0.103767,0.120809,0.0578194,0.0469623,0.0107234,-0.0290726,0.00865782,0.0532747,0.0806025,0.0816604
-0.0182095,-0.0669093,-0.00151608,0.0769725,-0.011321,0.0684242,-0.0805445,0.090477,0.106725,-0.00726933,-0.0193991,0.0602574,0.033122,0.032185,-0.071124,-0.0537356,-0.00045239,0.116487,0.0982494,0.0598019,0.0787126,0.0115386,0.00694381,0.124837,-0.04254,-0.00917617,-0.0716829,0.0842896,-0.103978,-0.000562296,-0.020811,0.00128297,0.0625901,0.0235256,-0.0528927,0.137151,0.0392151,0.0151411,-0.0132653,0.0644839,-0.0181048,0.0154537,0.000583877,0.162744,0.0668199,-0.0551645,-0.0693265,0.0364573,0.0316012,-0.00335424,0.0299821,0.0277077,-0.00849037,-0.02162,-0.0354935,-0.115634,0.0552075,-0.0566625,-0.0166273,-0.0366385
0.0422823,0.0139541,-0.0146255,-0.0113074,-0.0933922,-0.00573394,-0.0133842,0.0827803,-0.0402078,0.0856623,-0.0385031,-0.0695084,-0.0152143,0.0632989,0.110033,0.0222094,0.0927692,0.0453539,0.0112449,-0.0508656,-0.0191556,0.10272,0.000497343,-0.0297007,0.0705329,0.0558121,0.0161901,0.0248636,0.0111508,-0.0478247,0.0434595,0.107316,0.0120293,0.0482553,-0.081795,-0.110192,-0.058795,-0.00775037,0.0879503,-0.134155,0.00416391,0.0447157,-0.00202188,0.0241525,-0.0519661,0.0622205,0.0222618,0.0475878,-0.045728,0.0611102,-0.0464983,-0.0444759,-0.0796793,0.0756507,-0.0615564,-0.00359265,-0.0525597,0.159183,-0.0510483,0.0649003
0.0330329,0.0132592,-0.0454328,-0.00671521,-0.00734233,-0.154664,-0.0961157,-0.037012,0.031506,-0.0241444,0.0296291,-0.0654462,0.0546758,0.0625882,-0.0292972,0.0132313,-0.0256361,-0.0442328,0.0340928,0.00259025,0.077297,0.0704095,0.0784677,-0.0275554,0.113515,0.0319336,-0.0328418,0.0278581,0.0368554,0.0361437,-0.0537132,-0.00681662,0.105595,0.0050799,-0.0291146,0.0129,-0.0771162,0.0562136,-0.0167712,-0.00221753,0.019679,0.0580539,-0.0193265,0.00931928,0.00627134,0.0948627,-0.0407715,0.0149931,0.0743919,-0.0114367,0.0279238,-0.0573817,0.0381616,-0.0292362,-0.0462878,0.0574512,0.0583883,-0.0024608,-0.00280768,-0.061571
0.0220762,0.0244014,-0.0299148,-0.070659,-0.0075139,-0.0242174,0.124586,0.0544449,0.0969029,0.0968787,0.0387635,-0.0216997,0.109971,-0.031131,-0.106691,-0.0455198,-0.0213667,-0.0127134,0.0511801,-0.0487632,0.0624827,-0.0386893,0.0210043,-0.0336038,-0.0328929,0.0145183,0.11296,-0.032981,0.00461963,-0.0517386,-0.0942121,-0.108065,0.00553885,-0.103506,0.0738996,-0.0801906,0.10908,-0.112796,0.0687289,0.12332,-0.0321488,-0.062083,-0.0271122,0.0240648,0.0163236,-0.0664056,0.129842,0.0847534,0.0522452,-0.00779433,-0.0735762,0.0377921,0.0130768,0.0509532,-0.034386,0.155156,-0.0543905,0.0528859,-0.00304069,0.0429608
-0.101229,0.0345568,-0.0573838,0.0223039,-0.0746064,-0.0562522,0.0323263,0.000333217,-0.0542139,-0.00496249,0.0678664,-0.0779863,0.0184537,0.0675091,0.111688,0.061105,-0.00321091,0.0818491,0.0647023,0.0323272,0.00315859,-0.0378726,-0.0273792,0.0167028,0.179862,0.0436804,0.0581734,0.0827295,0.0483016,0.019214,-0.0162806,-0.0546009,0.0116467,0.0188818,0.0539268,-0.0354824,0.0312428,-0.0110726,0.0223733,0.0717409,0.00692156,-0.0418833,-0.0202275,0.0264354,0.0225869,0.0566204,0.0165983,0.0533734,-0.0457978,-0.0794737,0.0838712,-0.0233431,0.0135597,0.052691,0.0460556,-0.106338,0.0375948,0.0655239,0.024865,-0.0374448
0.00296678,-0.000901895,0.0267357,0.11756,0.0013891,-0.0307464,0.016546,0.0219358,0.00683939,-0.0756233,0.0814767,0.109693,-1.92379e-05,0.103102,0.0566052,-0.0181105,0.00139443,-0.0173158,-0.000442201,-0.0390118,-0.0686928,0.0856629,0.0508282,0.0291944,-0.011787,-0.0121675,-0.00300052,0.0258522,-0.156366,-0.0302438,-0.0162765,0.0473619,0.0511259,-0.0394049,-0.0409973,0.0367658,0.0143141,-0.0508092,-0.0191001,0.0244725,0.126112,-0.0562258,-0.06286,0.0411276,0.0024768,0.032818,-0.0353121,-0.0303097,-0.0619011,-0.0141869,0.0113428,-0.0186018,-0.0801371,0.0856829,-0.00421989,-0.0197917,-0.0413562,0.03013,0.0214301,0.000810689
0.144166,-0.0584648,-0.024114,0.0244929,0.0221763,0.0157028,0.0591617,0.108373,0.018722,-0.028093,0.0236912,0.0585223,0.0575327,0.0287593,0.0193388,0.0856538,0.0417265,-0.00153363,-0.0246597,-0.00939647,0.0214033,0.064561,0.0383603,-0.0367557,-0.071688,-0.0047898,-0.0265195,0.0759062,-0.0220806,-0.0253777,0.0621195,0.0232749,0.00549201,0.0371062,-0.0470981,0.0946289,-0.0205457,0.021673,0.0433403,-0.135938,-0.0519822,-0.0562252,0.0111709,0.0427515,0.0438493,-0.0380008,-0.035115,-0.0629302,-0.0231975,0.00229763,0.104288,0.0695835,0.0213235,-0.0592438,-0.0261966,0.101486,0.0279345,-0.0511157,0.00792313,0.00652655
0.00198686,-0.0460104,0.116916,0.0477247,0.0398204,0.0276252,-0.0747641,-0.0680956,-0.0851227,-0.0571186,-0.0991939,-0.0252711,-0.0297868,-0.0724115,-0.0140352,-0.0251093,0.066658,-0.0386128,0.045187,-0.0671828,-0.00984936,-0.020123,-0.129789,0.0166783,0.0690439,0.00938932,0.0192369,-0.0515559,0.0467315,-0.0611854,-0.0508916,0.0150493,0.0785907,0.0827946,0.0609635,-0.0184896,-0.00101759,0.039285,0.0223551,0.0404674,-0.0137096,0.0210613,0.0218152,0.0155306,-0.10417,0.0474391,0.00765529,0.0159252,-0.0572723,-0.0153811,0.0665369,0.0591925,0.0186626,0.111521,0.116857,0.081187,-0.0270841,0.00109452,-0.0986375,-0.0832244
0.0719253,-0.0333536,0.0151268,-0.0152091,0.00330397,-0.0868832,-0.0272171,0.0324101,-0.0582198,-0.00860354,-0.0349828,0.0397653,0.119135,0.0809764,0.0427567,-0.030136,0.0300612,-0.0809259,-0.0763782,-0.00381255,0.0772732,0.0467766,0.00661272,-0.0194329,0.0104141,-0.0349647,0.0180115,0.0712531,0.0409386,-0.0513263,-0.0101586,0.0649177,-0.0886816,-0.049736,0.0398109,-0.00461717,-0.0451564,0.10804,-0.0500179,0.0100009,-0.0426578,0.0143472,0.0200236,-0.000778031,0.0555193,0.0907464,-0.0309742,0.0841136,-0.0272392,-0.0109301,-0.0188196,0.0204445,0.00950981,0.0875685,-0.138636,0.0259812,0.0118776,0.0245989,-0.0515807,0.0152918
0.0322074,0.0916457,-0.0374463,0.157362,-0.00431727,-0.0614982,0.0914422,0.0513791,-0.164002,0.0544027,-0.0268393,-0.0732528,0.039699,0.0127692,-0.117799,-0.0544302,-0.0687396,0.119738,-0.0634229,0.0158721,-0.0830219,-0.0913391,-0.08288,0.0565364,0.0246881,0.0525731,0.10831,-0.0260183,0.00143604,0.0932243,-0.0323946,0.0149755,-0.132552,0.0726459,0.166364,-0.026117,0.096094,-0.0213891,-0.0746917,0.107433,-0.0278272,-0.0823001,0.0464992,0.0669549,-0.112949,0.0418751,0.0103839,0.0479202,0.0234893,0.0242523,0.0793437,-0.0528203,-0.00894823,-0.0826292,0.0101929,0.0214984,-0.0189691,0.0582939,0.0875899,0.0641155
-0.0440622,-0.0709355,-0.00870605,-0.0100039,-0.087738,-0.00545281,-0.0428109,-0.0151912,0.0469648,0.00827581,0.032194,-0.0897829,-0.108686,-0.0917867,0.029421,0.00897657,-0.00996316,-0.0325398,0.0737483,0.029462,-0.0291488,0.0740539,-0.0629002,0.101127,0.0753825,0.0916747,0.0434425,0.0789045,-0.0521106,0.0640701,-0.0790482,0.032017,0.00143543,-0.0403992,-0.093887,0.0850108,-0.0493464,-0.04107,0.022992,0.110791,0.057715,-0.120039,0.0180757,-0.021984,0.123001,-0.0506085,-0.0758582,0.0754806,0.0419571,-0.0887029,0.0880409,0.0341516,-0.00607126,0.0709002,-0.0641846,0.111212,-0.0195286,0.0501731,0.0981152,-0.0574518
0.00890788,-0.0631797,0.021618,0.0167294,0.00356808,0.0236418,0.0662261,-0.0925046,-0.0984239,-0.0668114,-0.0765541,0.0659203,0.0644747,-0.0196546,0.0723361,0.0788417,0.0210395,0.0440633,-0.0198324,0.0179967,-0.0994832,0.00343555,-0.0584378,-0.041182,0.0881827,0.00821869,0.0776959,0.0919385,0.091468,-0.0213861,-0.0450213,-0.0757844,-0.0203364,0.0294399,0.00561911,-0.0965651,-0.083369,-0.161209,0.00441004,0.0542864,-0.069311,0.0700686,0.0168856,-0.0158198,0.0599825,0.0257497,-0.0526854,0.0303022,-0.0484741,-0.0674407,0.0621916,0.113306,0.0501851,0.038735,-0.012436,-0.0100696,-0.0537999,-0.0126055,-0.0221839,-0.0288548
0.0242356,-0.0432866,0.0284985,0.0523861,-0.0520481,0.129362,-0.0064166,0.0332077,0.0463423,-0.0102399,0.0230276,0.109485,-0.07089,-0.00870222,0.0806413,0.0119897,-0.0447839,-0.0586749,-0.0495477,-0.0754233,0.096762,0.104488,-0.0377207,-0.00446334,-0.00400718,0.0407135,0.0238694,0.0436065,-0.0425006,0.0611603,0.0115377,-0.00745096,-0.0403003,-0.0076351,-0.00459116,0.0275371,0.0194733,-0.0428198,0.00479452,0.0636184,-0.0120421,-0.0340389,-0.0580712,-0.13593,0.0561024,-0.0245445,-0.0325266,0.0217616,-0.138685,-0.0232576,-0.0660435,-0.0519121,0.0366423,-0.0647928,-0.0105643,0.0302427,0.00151962,0.125862,-0.088377,-0.0543241
-0.0338024,-0.0871572,-0.0685284,0.00215701,-0.0149488,0.0344091,0.0344553,-0.0763951,0.0388107,-0.0846184,-0.0536712,0.0142653,-0.0242642,0.12098,-0.0503292,-0.0513849,0.0688393,0.0176005,-0.0345598,0.0836623,-0.0749312,0.0715237,0.0795584,-0.0158149,-0.0328456,0.0353379,0.000302041,-0.0291814,-0.00258797,-0.0709131,-0.0263465,-0.0450755,-0.0150088,-0.0295804,-0.043372,-0.0242527,-0.0529051,0.0421475,-0.0284437,0.0723878,-0.0333841,0.0352795,0.0300196,0.037259,0.0853506,0.0406319,0.0553247,0.0240371,0.0600475,-0.10274,-0.0248803,-0.0285494,0.0255144,0.0422234,0.0767446,-0.014303,0.0383196,0.0242685,-0.0118414,0.0681076
0.0847273,0.0703061,0.121221,-0.0151824,0.0574766,-0.0386662,-0.0473269,0.0508402,0.0852968,-0.0377767,-0.0453071,-0.134286,0.0399001,-0.0501021,-0.0209856,0.0604955,0.0207653,-0.0670043,-0.00635667,0.031392,0.0507007,-0.0377993,0.00346491,0.0288194,-0.0565555,-0.0647165,-0.0457123,-0.0400582,-0.0717037,0.0551452,-0.0416405,0.105286,-0.0352127,-0.0722969,-0.0292356,-0.0571115,-0.0170072,0.0286121,-0.0199136,0.0706597,0.0166931,0.0644194,-0.0181425,-0.0982277,-0.0943409,-0.0607567,0.0604441,0.13959,-0.0306046,0.0661466,0.00253681,0.0356527,-0.00788399,0.0251545,-0.0401578,-0.0552664,-0.00936279,0.0326897,0.0137546,-0.0430403
-0.112582,-0.0756901,0.0933495,-0.138572,0.0182815,0.0887618,0.0261542,0.0631164,-0.0566711,-0.0284074,-0.0159223,0.117864,-0.0653552,0.0248497,0.0495503,0.0452782,0.0219552,-0.091585,-0.109804,-0.0303906,0.0341916,-0.0646609,4.53567e-05,-0.00921589,-0.103839,0.0771245,-0.0192998,0.0461581,-0.0301135,-0.00959213,-0.0024705,-0.0335276,-0.0548792,0.0208342,-0.0181307,0.00598234,0.0290496,0.0417761,0.0528693,0.00195994,0.00555983,-0.00416333,0.075849,-0.0153266,0.0693095,-0.0247971,0.00693963,0.0880003,-0.0369069,0.0103345,-0.016628,0.0308565,0.0631206,0.0602289,-0.0935326,0.0721866,-0.119046,-0.0816521,0.103892,0.0803571
0.0347261,0.0744429,-0.0362904,0.0804757,0.0238713,-0.00780187,0.00912069,-0.00348686,-0.00897757,-0.170343,-0.0877573,0.0308804,-0.0387214,0.065285,0.0308601,-0.120792,-0.129204,0.0369333,0.0797722,-0.0175623,0.0252894,-0.0764796,0.00409494,-0.131363,0.059859,-0.000220652,0.0285521,-0.0685597,-0.0495384,0.126511,-0.0233202,-0.00237351,-0.0293399,-0.0111169,0.191458,-0.0196858,-0.00845903,0.00862963,-0.0929302,0.0580343,-0.00926223,0.0423327,0.0131134,0.00244419,-0.0429692,-0.0650111,0.0188441,-0.00840907,-0.0478535,-0.0297114,-0.104215,0.0445336,0.0843083,-0.00222419,0.00834494,0.0327889,-0.0507915,0.0583288,0.0387189,0.0781135
0.0468934,-0.0485988,-0.129831,0.0272112,0.130179,0.0290275,0.0701327,-0.0391887,0.00869592,-0.0518803,-0.123055,0.0528588,-0.0220615,-0.0159341,0.120904,0.0379102,0.0753523,0.0351861,-0.0200577,0.00265461,0.0771343,0.00802238,0.073187,-0.0451406,-0.0640036,-0.0383934,0.0247164,-0.0402827,0.0922328,0.0218112,0.0306067,0.016094,0.0334993,0.000337231,-0.0435687,0.0321855,-0.0690956,0.00817675,0.0160306,0.0215279,-0.0641838,-0.0574081,0.0710866,0.0157328,-0.0595987,-0.0397963,0.0961368,-0.0052135,-0.0157613,0.0309514,-0.0137817,-0.0308176,0.030347,0.019956,-0.0115885,0.082501,0.126442,-0.0264461,0.0366903,0.0290228
0.0865934,-0.00230468,-0.0651387,-0.151402,0.00601241,0.00547713,0.0244033,-0.0795036,0.0132596,-0.0198654,0.0143421,-0.00662259,0.0242258,-0.0588903,0.0544852,-0.0123227,-0.00346758,-0.0267439,0.0896271,0.035094,0.0686983,0.0695505,0.0526113,-0.00158658,-0.0829875,-0.0617694,0.0624095,-0.0433887,-0.0180556,0.0436844,0.0557733,0.0146793,-0.052809,0.00398551,0.00287718,-0.0188373,-0.0741351,-0.0368702,0.0238561,0.0441073,-0.129804,-0.0414138,0.047624,-0.0598396,0.112549,-0.0441988,-0.0340504,0.0671151,0.0622775,-0.012562,-0.0543825,0.0204793,-0.0487285,0.0261808,0.0132823,0.124877,0.014822,-0.121913,0.022364,-0.0356953
-0.0772965,0.0105662,0.00903044,-0.0995146,-0.0118216,-0.00388658,-0.0148764,-0.0304077,-0.0670657,-0.0739118,0.00411953,-0.148583,0.00665098,0.0289535,0.0205835,-0.0994336,0.0251691,0.0243807,-0.069339,0.0580699,0.00835673,-0.0311907,0.119427,-0.0420858,0.0637818,-0.018822,0.00789541,0.0259838,-0.0218581,0.00169108,-0.0104495,-0.053422,-0.0683955,0.0349917,-0.0216982,0.0287888,0.110121,-0.0240021,0.0424052,-0.104279,0.0531274,-0.0374761,0.0631938,0.0584207,0.080523,0.0445938,0.0744219,-0.0525326,0.0130062,-0.0293338,0.0506841,-0.0227856,0.0276715,-0.054557,-0.031451,0.018518,-0.0444339,-0.00427689,-0.0803368,0.00257733
-0.0527258,0.00579718,-0.0020824,0.0552811,0.0339255,0.0912822,-0.00813573,-0.00688761,0.068975,0.0407237,-0.0159709,0.123589,-0.0475858,0.120519,-0.0129154,-0.044919,0.0654513,0.0333922,0.0284178,-0.0226949,0.0717878,0.04593,-0.17925,-0.114908,0.059958,0.0416926,-0.056351,-0.00942463,-0.058919,0.0488336,-0.0125465,-0.0520658,0.0155758,0.00569555,0.0609967,-0.0368778,-0.0141456,0.0527823,0.044768,-0.0548865,-0.00173177,0.0569716,-0.083839,0.121893,-0.0202287,-0.0432312,-0.0443931,-0.0924256,0.0890145,-0.0174441,-0.0713974,0.063025,0.0169453,-0.0336835,-0.0915568,0.0489172,-0.0261012,-0.035532,-0.0477189,0.114328
0.00974458,-0.0853369,0.0154495,0.0334942,-0.00632808,0.0826264,-0.0733605,0.00493558,0.0277246,-0.0588395,-0.0161337,-0.086786,0.0135419,-0.0411229,-0.0458092,-0.0311499,-0.0401652,0.0610713,0.105133,-0.0579272,0.0981268,0.163074,-0.0373845,-0.078105,0.100072,-0.0256001,0.0373512,-0.0647555,-0.0590957,-0.0958361,-0.0952517,0.109003,-0.055538,-0.0382552,0.00904798,0.0371833,0.0287331,0.0255937,0.0820415,-0.0431645,0.0428432,0.0356812,0.0313868,0.0175643,0.0236905,-0.0052889,0.000943147,-0.00709072,0.0433297,0.0246273,0.0711859,-0.0314417,-0.0828822,-0.0142536,0.0201947,-0.0017771,-0.0312992,0.0113699,-0.0506356,0.0368952
-0.0341456,-0.0827764,0.0636746,-0.0269286,-0.0577804,-0.0178325,0.115802,-0.0744557,0.0407055,-0.0713273,0.0372724,0.103551,0.0192416,-0.027707,0.00994812,-0.11956,-0.0756779,0.085126,-0.0203159,0.0958784,-0.0102991,-0.0273936,0.0622816,0.040925,0.0475357,0.00673747,-0.0932185,-0.0352591,0.140739,0.00494925,0.052673,0.0398214,0.120777,-0.086531,-0.0788324,-0.125728,-0.0385081,-0.0345031,0.0439212,-0.0217305,-0.0487905,0.0205448,0.0436429,-0.01078,-0.042629,-0.00025054,0.0080365,0.0785751,0.0627732,-0.0021525,0.116873,-0.110194,0.128063,0.0660701,0.024682,-0.021112,0.0711479,0.0282129,-0.0239618,-0.0160927
-0.0337388,0.0319108,-0.00436601,0.0433336,-0.0843495,0.0215951,0.0580847,-0.00305037,-0.0367198,-0.0663201,-0.0530535,-0.000630596,-0.0180351,0.090235,-0.0551345,0.077544,0.0184189,0.00638165,-0.00136619,0.0554035,-0.019435,0.0127619,0.0945822,-0.0247845,-0.0541879,0.053182,-0.00456891,-0.00324683,0.090861,0.0576476,-0.00577083,-0.0376483,-0.0445726,0.00328686,0.0820997,0.0850073,-0.0615952,0.0789801,0.0123638,-0.00768696,0.00216131,-0.0909063,-0.0158294,0.0202412,0.0473286,-0.0299944,0.0687068,-0.0154133,0.0521553,0.0561933,0.031401,0.0206974,0.0698973,0.0146439,-0.112077,-0.0699021,0.0248549,-0.0468077,-0.0381043,-0.000458824
-0.00493634,-0.0548645,0.0766601,-0.0306849,0.0072492,0.0657905,0.0442598,0.0465692,-0.0419349,-0.0209937,0.0253977,-0.0219218,0.10347,0.0255939,-0.0410102,0.0885133,-0.0746372,-0.113252,-0.0993402,0.0189553,0.0425142,-0.160517,0.0157737,0.0523954,-0.0462074,0.0650844,0.020919,-0.0448609,0.0692943,-0.000962417,0.0750504,-0.168633,0.0122597,0.00934407,-0.0836926,-0.0710857,-0.0603488,0.035384,-0.0762899,0.0654263,-0.0417892,-0.0986257,0.109618,-0.0255337,0.0355095,0.0776236,-0.0109568,-0.0355186,-0.04284,9.01905e-05,-0.0304316,-0.125625,0.0382545,0.0422202,-0.166107,-0.0644281,0.0166139,0.0455964,0.0713441,0.00891576
-0.0179472,0.0124636,0.0402191,-0.00238004,0.0658597,-0.129367,0.0185439,-0.0890246,0.0484058,0.0410744,0.00307951,-0.00339933,-0.0474341,0.0579303,-0.0812297,0.107167,0.0384133,-0.00288111,-0.0259843,-0.0518717,0.0159559,-0.0312012,0.00338364,0.0160287,0.0927992,0.0987707,-0.0281231,0.0631933,-0.0437618,-0.0432067,-0.0532106,-0.022177,-0.000471585,-0.0353898,-0.00872219,-0.151368,0.0760082,-0.0518075,-0.0360385,0.105844,0.0233719,0.0299177,-0.0285623,0.0445023,0.0443558,0.0555461,-0.0302472,0.0519098,-0.0130485,-0.00686185,-0.0174358,-0.0362333,-0.0882322,0.0466135,-0.133954,0.0365916,-0.0740225,-0.116514,0.0425377,0.0437007
0.0259126,0.0115442,-0.0286182,0.0272644,-0.0971008,-0.0470931,0.0442533,-0.0230017,-0.0639377,-0.00242685,-0.012751,0.101538,0.00780576,0.0260107,0.0216008,-0.0193698,0.00542212,0.00931002,0.0204752,-0.068878,-0.00244206,-0.00291776,-0.0161217,-0.0476402,-0.00226582,0.00571556,-0.029152,-0.0815752,0.0847602,0.00463244,-0.04733,-0.0912581,0.0643731,0.0463145,-0.0221212,0.010368,0.0451139,-0.0135428,0.0391043,-0.0659141,0.0119197,0.00206141,0.0972013,-0.0440899,0.0645004,0.0182648,0.0222055,0.0492003,0.0638044,-0.0141594,0.0641896,-0.00894226,0.0591925,-0.00795623,0.0514557,0.0602733,-0.0441747,0.141893,-0.01209,0.0807241

max: 1
min: -0.216628
avg: 0.00434781
