0.0521728,-0.0270448,0.0300461,-0.15791,-0.010095,0.0317181,-0.0593628,0.0684563,0.0227203,-0.0657756,0.0634037,-0.142276,-0.0167628,-0.118229,-0.0545141,-0.0197382,-0.0103238,-0.146365,0.0360097,0.0393198,0.0756068,0.0498468,0.023132,-0.041742,0.00924962,0.0765151,0.0531645,-0.0303637,-0.0242157,-0.0279027,-0.0126437,-0.00690277,0.0357151,-0.0664165,0.0380473,0.0932587,-0.038874,0.0205814,0.0313408,0.0978541,-0.0452009,0.037206,-0.0581276,0.103052,-0.0474473,-0.070201,0.0709163,-0.00228721,-0.0359762,-0.0501187,0.0392217,0.00973576,0.0583202,-0.0913741,-0.161288,0.0135266,0.0917488,0.0375193,0.0575929,-0.0444676
0.0412889,-0.076392,0.0247129,-0.0505464,0.0106502,0.0130309,0.042895,0.0891604,-0.0746183,-0.145737,0.03679,0.129697,0.0360135,-0.0675582,0.0502507,-0.132488,-0.0611432,-0.0538554,-0.00356069,-0.115874,-0.0174369,-0.070242,0.083697,0.0730534,-0.0293321,-0.0597904,0.0181295,-0.032951,-0.030454,0.0633013,0.0103129,-0.0106869,0.0573534,-0.0193743,0.0815005,0.0543216,-0.0937682,0.00833367,-0.0772114,-0.117205,-0.0680105,0.02949,0.0402907,-0.0941837,0.00944034,-0.0665514,0.0179421,-0.012894,0.0224715,-0.0113097,-0.039249,0.0899905,-0.0325437,0.0153228,-0.064641,-0.0298435,-0.0261762,0.0104038,0.0556922,0.018826
0.0404296,-0.0211554,-0.052978,0.0922455,-0.00707704,-0.0120902,-0.00867768,-0.0727578,0.0248096,-0.00947935,0.00512961,-0.0790654,0.0331722,-0.0297847,0.0172081,0.0613311,0.0859267,0.0027284,-0.0579708,0.0209946,0.0488038,0.0279241,0.0346979,0.0377225,0.00360966,0.12686,0.00505913,-0.01528,0.0518343,-0.194579,0.0385922,0.0418346,-0.13526,-0.040285,-0.0429623,0.05863,-0.019868,-0.0232974,-0.0200671,0.0477233,0.0560687,0.00673431,-0.0162148,-0.0679908,-0.0108057,-0.0517537,0.14491,-0.0632752,-0.0244713,-0.0515174,-0.0679426,0.0166261,0.110241,-0.0737621,0.0807092,0.0894365,0.00273525,-0.0430993,0.0204192,0.0863795
0.00622199,-0.0125311,0.0496442,0.0106875,0.127143,-0.0628795,0.0121836,-0.014976,-0.00484261,0.0306848,0.01051,0.0327373,-0.03782,0.0481493,0.0214074,-0.0362885,-0.138361,-0.0325113,0.0258462,0.0407134,0.0226585,0.0847597,0.0337367,0.111038,0.0277405,0.0269962,-0.0221457,-0.0174061,-0.010529,-0.0446807,0.0407796,-0.0844473,-0.0480357,-0.09901,-0.0685647,-0.00103174,0.00186882,0.0357683,-0.0258642,-0.093136,0.0857617,0.104401,0.0423941,0.0270143,-0.00401034,0.0524386,-0.00306038,0.0195116,-0.0268267,-0.0946472,0.00659476,-0.0277188,0.0601294,0.0773371,-0.0379181,0.0479139,-0.0890046,0.027775,0.0424736,-0.00069509
0.0625567,0.0378946,0.0256529,-0.0757704,0.0176087,0.0346045,-0.0292444,0.0280946,0.00429724,-0.0319357,-0.0271151,-0.0508445,-0.0254217,0.0257885,0.00621828,-0.0377562,-0.0787869,-0.00638037,0.104933,0.0137999,-0.0364282,0.0247878,0.0754684,-0.0434202,-0.0183686,-0.00577596,-0.018104,0.00302924,-0.00853203,-0.0184291,0.006207,-0.088643,0.0178479,-0.113521,-0.00199037,-0.0157532,-0.0156423,-0.135257,-0.0391437,-0.0650241,-0.123295,0.014607,0.0437917,0.119257,-0.00877523,0.104676,0.0439084,-0.111983,-0.035706,-0.0389187,-0.00872187,0.0372261,0.00455171,0.0404751,0.0031249,-0.0469187,0.060775,0.0356514,-0.00523154,-0.0597261
0.0456348,0.021941,0.000728599,0.116802,-0.0961166,0.0388074,-0.0464602,0.00979628,0.104621,0.0430417,0.0235805,-0.108733,0.0636939,-0.0370705,0.0197284,-0.00704918,0.0874087,-0.0220611,-0.102939,-0.0929866,0.0638469,0.021902,0.043376,-0.0588065,0.00887211,-0.068843,-0.0219231,-0.00392238,0.000128572,-0.0191457,0.0507268,-0.039597,-0.0184911,-0.0228079,0.0713356,-0.00644477,-0.00399306,-0.015954,-0.0188425,-0.00452606,0.0324709,-0.0398994,-0.0924564,0.0234255,0.0023596,-0.0374846,0.0355,-0.0711614,0.0103922,0.0019459,-0.0107464,-0.0456482,0.0307097,-0.0296591,-0.0306233,-0.0596255,0.0728375,0.0157352,-0.0131938,0.00351249
0.0322845,-0.0493588,-0.170409,0.0562098,-0.0645341,-0.0281297,0.0463596,-0.00372156,0.0372141,0.150218,-0.0519054,-0.0498548,-0.0389138,-0.0393149,0.156611,-0.00421217,-0.113774,0.0550891,0.0685113,0.0607451,0.00644385,0.0338221,0.0757072,-0.0364935,-0.0166134,0.0389291,0.0397608,-0.0726318,-0.0174235,0.0131155,0.0141429,0.0366455,0.0241477,0.0396555,-0.00143015,0.0510582,-0.0199714,0.0838693,0.00988418,-0.0175654,0.180454,-0.0362024,0.137211,-0.00459611,-0.0188307,0.0230537,0.0194269,0.0420353,-0.0686537,-0.117744,-0.0259276,-0.0256036,0.0193034,0.0273711,-0.0375245,0.0393532,-0.00776843,0.0454701,-0.0812286,-0.0436481
0.00208508,-0.0321136,-0.0957945,0.0789195,0.0715762,-0.00351992,-0.0356756,0.0630933,0.00123761,0.00974407,0.036063,-0.0577174,-0.0447108,-0.0309666,0.00745206,0.0124886,-0.000595902,0.00507331,-0.0373612,0.150043,0.0881557,-0.0136455,0.00482205,-0.0173978,-0.0498806,-0.00383672,-0.0186086,0.0626297,0.0421057,-0.00446873,-0.0382097,0.0281653,0.0251626,0.100389,0.0334547,0.0588703,-0.10256,-0.0481453,-0.0149952,-0.0283983,0.0648159,0.115454,0.00956692,-0.105041,-0.0174092,0.00250437,-0.0213133,0.0398518,0.00963329,0.00758594,0.043757,-0.112876,-0.135152,-0.032836,0.0307614,-0.0188761,0.0036885,-0.0484631,-0.039797,0.0167679
0.0183821,0.0991229,-0.0696954,0.0898878,0.0719934,0.00464388,-0.0564813,0.0530862,0.0668658,0.00669965,-0.00825242,0.00492668,0.00411852,0.116409,-0.0704638,0.0521366,-0.0182676,0.0415173,0.0989449,0.0595625,0.0126807,-0.033275,0.132988,-0.0253897,0.178635,0.00722081,-0.114602,-0.0647288,0.103159,0.0694672,0.0711496,-0.00877466,-0.0838145,0.106838,-0.0365935,-0.0135454,-0.0176613,-0.0326007,-0.0588629,0.0285377,0.0132256,-0.126981,-0.0362381,0.120813,-0.0327683,0.073777,0.0248834,0.0433482,-0.0121209,-0.0340012,-0.055643,-0.0279413,-0.0308706,-0.0301446,-0.0328617,0.0648339,0.0105886,-0.093972,-0.0757651,-0.0179098
-0.026636,-0.0245944,0.0291585,-0.0194834,0.0603155,-0.0122821,0.0977699,-0.0124526,0.016509,-0.0225838,0.0217401,-0.0424453,0.0249948,0.0310956,-0.0847587,-0.0344545,0.0475263,-0.0114113,-0.00310209,-0.0724505,0.019765,-0.0314906,0.0451223,-0.0542843,-0.00395865,-0.0651186,-0.0323241,-0.068689,0.0066388,0.0277609,0.0870055,-0.030613,0.0603606,-0.0271287,-0.0406147,-0.00715991,3.79134e-06,-0.0827292,-0.0566509,-0.121672,0.0399702,-0.0314222,0.0498245,0.0311533,-0.0490013,0.0407605,0.0722651,-0.00593696,-0.0329981,-0.0442625,-0.0369264,-0.0601832,-0.0420921,-0.0191433,0.0401724,0.0661992,0.0538615,-0.050957,-0.0973224,-0.0595768
-0.0659124,-0.0939064,0.0600018,-0.00845163,0.0199568,-0.0512473,-0.0905238,0.00927532,-0.0152025,0.0360366,-0.00744226,-0.00788066,0.0435771,0.0857685,-0.0187602,-0.000712935,-0.0355938,0.0436123,-0.117972,-0.0693693,-0.0431732,-0.0542596,0.058215,0.00821666,0.0427508,-0.0234917,0.00992969,-0.0131392,-0.00280087,0.0674226,-0.0280712,0.0555973,-0.0289317,-0.00132215,-0.0293904,0.0112175,-0.0720376,1.94031e-05,-0.0814528,0.00115539,0.0415192,-0.0462728,-0.0428828,0.0364595,-0.0572824,0.00195335,0.0874004,0.0626288,-0.0977463,0.052567,-0.0503669,-0.10023,-0.0295304,-0.0087824,0.0199383,0.0209062,-0.106101,-0.0686277,-0.000654625,-0.0455383
-0.0381452,0.0308748,-0.00399069,-5.94471e-05,0.032271,-0.0426512,0.025803,0.0208788,0.032237,0.118282,-0.0321358,0.100403,-0.085634,-0.0495156,-0.0591914,0.0584229,-0.035362,-0.00738477,-0.00725775,0.092712,0.017475,0.146066,0.0260406,-0.0596176,0.0943677,0.112004,-0.0438624,-0.0101955,0.0202397,0.0189262,-0.0924495,-0.10835,0.064711,0.000208978,0.0322424,0.00490717,-0.0248986,0.10627,0.0177544,0.0371307,0.0842669,0.0205044,0.0432062,0.0562766,0.0979901,0.0857479,0.0571008,-0.0585293,-0.0064742,-0.0160258,0.0100203,0.0523153,-0.0979399,0.00487311,-0.0668686,0.000409148,-0.0196614,-0.0615705,-0.0174308,0.039717
0.0479572,-0.102702,0.010763,0.0221315,0.0257856,-0.0808596,0.043499,0.0214741,0.0711188,0.0575619,0.0414906,0.00172193,-0.0138501,-0.00673582,0.0412273,-0.0298905,-0.0223387,0.104208,0.0162374,0.00770077,-0.0116863,-0.0322175,0.0544112,0.0173334,0.0441356,0.00791924,0.0351726,-0.0508293,0.0305079,0.047138,-0.018692,0.0644849,0.0710011,-0.0470025,-0.0239756,-0.0349408,-0.0902455,-0.00389044,-0.0402909,-0.0618437,-0.084618,-0.0112387,0.00839852,-0.0437765,-0.0102593,-0.0634455,0.04155,0.0385995,-0.0415268,-0.0486316,-0.120249,-0.0121106,0.00867165,-0.0704708,-0.083273,-0.0448875,0.0685133,-0.0851288,-0.0115997,0.126857
0.0656658,0.0208586,0.0546877,-0.0889773,-0.0243533,0.0546583,0.0208745,0.00150941,0.0977405,-0.0143837,-0.0106949,-0.000605035,0.0258271,-0.02058,0.0464331,-0.0510836,0.0799043,0.0171539,-0.0271308,0.0257248,-0.0086646,0.00698932,0.0141669,0.0777341,0.0530036,-0.0589826,-0.0191311,-0.0409873,0.0772745,-0.00183211,0.0708232,0.0476777,-0.0692959,0.0994719,-0.0362975,0.0567405,-0.0713685,-0.00926039,-0.0649378,0.0895483,-0.0235077,-0.0654589,-0.0380165,0.0704349,-0.134826,-0.0371279,0.0417577,-0.0352751,-0.0461287,0.0643889,-0.077944,0.0294717,-0.0780857,0.0153258,-0.0167395,-0.072902,-0.0267586,0.00972993,0.0228691,0.0115266
0.0010234,-0.0142869,-0.0450282,-0.0567778,-0.0498363,0.0360295,-0.00599814,0.0527221,0.0181139,-0.0677668,0.0651382,-0.0736254,-0.100926,-0.017752,-0.0336176,-0.000666993,0.00346097,0.0460042,-0.0604577,-0.0181077,-0.0156773,0.0385733,-0.0098434,-0.00683369,0.0709013,-0.0525175,-0.0292465,0.0337243,-0.0939599,-0.0154739,-0.00418289,0.0314678,0.124571,-0.0889469,0.0572216,0.000990457,0.0276316,0.00267187,-0.0191987,-0.000550786,-0.0838,0.0117332,0.022185,-0.00378424,-0.0161515,-0.0133949,-0.00235264,-0.0471813,0.0360394,-0.0088607,-0.0799908,0.0122162,0.0331132,-0.0307264,0.0265664,-0.0540547,0.0496136,-0.0089148,-0.0374042,0.0919097
0.00457468,0.0584527,-0.0599767,0.0787126,-0.0412197,-0.0931726,0.0723043,-0.0266707,-0.10085,0.0206984,0.0876676,-0.0216474,-0.0436832,0.0499007,-0.0623485,-0.00781074,0.0710873,-0.0259709,0.0665001,0.131349,0.0161841,-0.084815,-0.0802076,-0.0181277,-0.0144143,0.0216099,0.0268832,-0.00672815,-0.029302,0.0248092,-0.00466741,0.0258376,-0.00522376,-0.0134702,0.0477743,0.00780438,0.0202614,-0.0114059,0.0685622,0.0581762,-0.0618939,-0.0454881,-0.0600236,-0.00116878,0.0436006,0.0860456,-0.0352849,0.0040118,0.00396659,-0.0138822,-0.0390355,-0.0877433,-0.0227165,-0.0173246,-0.0513016,-0.139446,0.00794616,-0.0430144,0.00484211,0.0173227
-0.0160637,0.0121828,0.0903184,0.0123344,0.0500041,-0.0162011,-0.0808022,0.0165288,0.0176578,-0.114255,0.0541356,0.0934879,-0.049096,0.0099237,-0.0556127,-0.028238,0.0705599,0.0604667,0.00747215,-0.0636258,-0.0733789,0.0311192,0.0107156,0.010623,-0.0590956,0.0145285,-0.0080037,-0.0430298,0.0903297,-0.0154175,0.00579203,0.00161274,-0.0797442,-0.0699907,0.125764,0.045904,0.0143691,-0.0782391,0.0532361,0.0463997,-0.0254972,-0.113257,0.0893468,0.108083,-0.042699,-0.0758664,0.00884578,-0.0236682,-0.0189581,0.0991665,-0.0246866,-0.0162479,-0.0769959,0.0543549,-0.00163795,0.0087031,-0.0078726,-0.0698653,0.0686162,0.0491878
-0.015298,0.0186877,0.0212372,0.0341868,-0.0680518,-0.0545387,-0.086804,-0.0116398,0.0604561,0.0899035,-0.00896066,-0.0330682,-0.102689,0.0811604,-0.00135139,0.111121,0.0748077,-0.110242,0.0825291,0.113524,0.0431201,-0.0868654,0.102364,0.0308277,-0.0847644,-0.0958173,0.102938,0.0184305,-0.0127266,-0.0119225,0.023627,-0.0634545,0.0745619,0.0455174,-0.00711657,-0.0707508,0.0248794,0.00247259,-0.0300021,-0.0413989,0.0599939,-0.0970413,0.0331659,-0.0635027,-0.0789387,-0.047419,0.0103388,0.0849077,-0.00417319,0.0105528,0.00242472,-0.123957,0.0257289,-0.0875196,-0.0820805,-0.0534699,-0.0917659,-0.0378892,-0.0928777,0.060034
-0.0191367,-0.104715,0.0702551,-0.0305539,-0.0633916,-0.0462485,-0.0209262,0.0463203,0.04894,0.0358092,-0.00164754,0.106488,-0.0172054,0.0457909,-0.00606308,-0.0324774,0.0409773,-0.025847,0.0142755,0.0386823,-0.0229579,-0.0253657,0.0333766,-0.0119275,0.0126672,-0.0628974,-0.0537122,-0.00551302,-0.0189456,0.0477794,-0.0331979,-0.0524844,0.0874386,-0.104302,0.124593,0.0879424,0.106001,0.126663,0.0131191,0.0653065,0.0492851,-0.0395068,-0.00631774,-0.0560775,-0.0543511,-0.00548647,-0.0480214,0.00417744,-0.0127788,0.00869034,0.00297972,0.020069,-0.0962379,0.00255781,-0.0192625,-0.017666,0.00750073,0.0514185,0.00419778,0.0285123
0.0121582,0.0116203,0.0138978,-0.0102964,-0.00878693,0.0676137,0.0668698,0.038839,-0.0657584,-0.0168875,0.0307552,0.00626359,0.0409216,-0.0557933,-0.0124352,-0.0440415,-0.0792833,0.110186,-0.0348878,0.00154034,-0.039405,-0.0545716,-0.101921,-0.0481091,-0.021018,-0.00794746,0.0537078,0.0190325,-0.0174573,0.0478173,0.0536793,-0.00899272,-0.0681245,0.0164809,0.0686575,-0.0692873,-0.0184977,-0.00598291,-0.00163278,0.143302,0.0225509,0.0947644,0.0458649,-0.0380667,-0.0431723,0.0270726,0.0131854,0.171125,-0.0316713,-0.0362031,0.0645222,0.00110824,-0.167573,1.06396e-05,-0.0106304,-0.0224523,0.035771,0.0132826,-0.0376076,0.0740218
0.0911331,0.00294812,0.0351041,-0.164814,0.0721929,0.0369888,0.0455074,0.00862671,0.0565169,-0.00800266,-0.0279937,0.104504,0.0527255,0.0106774,0.089986,-0.0235097,0.0947886,0.134754,-0.0767055,-0.0881123,-0.0213358,0.0301761,-0.0173492,0.107708,0.0927134,-0.108325,0.0200279,0.0357728,-0.0337343,-0.036412,0.103651,0.0198393,-0.0817356,0.041083,0.0414295,-0.00207702,0.00188283,0.0847583,0.0546356,0.010027,0.0490776,-0.135942,-0.0674439,0.12944,0.0424336,0.0334334,0.0333393,0.0159405,0.052569,0.112239,0.00187006,0.0525567,0.0395813,0.071512,0.014956,-0.065028,-0.0256114,-0.0257947,0.170392,0.03212
0.0582741,0.0285325,0.0246374,-0.00526846,0.0518112,-0.061473,-0.0920144,-0.0174659,0.084488,0.0691838,-0.0346515,0.114915,-0.0446143,0.0495294,0.0543891,0.0292046,0.111313,0.107039,-0.047204,0.0676571,0.0412326,-0.0345024,-0.00649246,0.0232533,0.0386687,-0.0329704,0.0366421,0.0729873,0.0175888,-0.0499853,-0.152004,-0.100498,0.0386609,0.0603048,-0.116833,0.0174047,-0.056106,-0.0419772,0.00846484,-0.0256404,-0.0821995,-0.0006524,-0.0365581,-0.0371723,0.0292324,0.0792531,-0.00537652,0.0286407,0.0760536,0.0604684,-0.0344935,-0.0110406,-0.0661256,0.0346703,-0.0975825,0.0126641,0.0687308,0.0219868,0.00402885,-0.106998
0.0699203,0.0220036,0.0181379,0.144227,-0.0715605,-0.070339,-0.042448,-0.0236784,-0.0223708,-0.0121678,0.0208174,0.0151595,-0.0279215,-0.0322461,0.0373372,0.0671274,-0.0664397,0.0347092,0.0285099,0.0249599,-0.0422357,-0.102711,-0.0588578,0.0886696,0.116542,-0.0114466,-0.0139431,-0.0284446,0.0310734,0.0959797,0.0308524,0.0465567,0.0158628,0.0168741,0.0661217,-0.0352107,0.0157184,0.0341766,0.00348141,0.11325,-0.0276015,0.000747764,0.0040951,0.030925,-0.107665,-0.0387436,0.0417643,-0.00846036,-0.0356048,-0.0605975,0.0367552,-0.0837093,0.0333702,-0.0838772,0.0386203,-0.0948288,0.0120569,-0.0073611,-0.0102383,0.0823924
0.0600905,0.041522,-0.0379721,-0.0686399,-0.0583458,-0.10023,0.0315542,0.0889113,0.0410645,0.0898909,-0.0700601,-0.0400453,0.00556302,0.0205089,-0.0726325,-0.0283609,0.0210412,0.000102851,0.087152,0.0933374,0.0531087,-0.0834631,0.0796296,0.0310085,-0.10147,0.105241,0.00221642,0.0688587,0.0254176,0.112855,0.0134154,-0.0620635,-0.0304935,-0.0160385,0.00238855,-5.50456e-05,-0.0921952,-0.0137445,0.0742409,0.00155894,0.00655875,0.0105386,0.0211782,0.0897321,0.0194377,0.00910996,0.103255,-0.0704231,0.00261382,-0.0417011,0.0205215,-0.0324474,0.0650565,-0.0725307,0.0465438,0.0840502,0.0205184,0.0466835,0.0103728,-0.00169715
0.00652161,-0.0470543,-0.0189455,0.0236808,0.00429368,-0.0596116,0.0209277,0.0235877,0.0249868,-0.00989686,-0.00416934,-0.000234972,0.0908935,0.141928,-0.0411752,-0.0686897,0.0383639,0.0234888,0.0297708,0.102461,0.10421,-0.0241276,-0.0425534,0.0300129,-0.0178422,0.0263765,0.0493446,0.0146422,-0.0139825,-0.112303,-0.0160208,0.0526998,-0.174816,0.0542974,0.0144793,-0.0408773,-0.0133461,0.00687558,0.047774,-0.0928619,0.0763169,0.0159264,-0.0454214,0.00204482,0.00303021,0.0253352,0.0113255,-0.0162094,0.0784617,0.0448507,-0.0425016,0.058665,-0.00133226,0.0508607,-0.0150267,0.00474913,-0.0263267,-0.0142034,-0.107532,-0.0135911
0.084424,0.0220784,-0.0785833,0.0317032,0.00697509,0.0172171,-0.0304535,0.10406,0.0495982,-0.00273713,-0.0430927,-0.089892,-0.0290922,0.0732022,0.0352802,-0.0196368,-0.056222,0.0242783,0.0879738,0.0281296,0.0749928,-0.0436447,-0.0645742,-0.124955,0.0796767,-0.0420494,0.00989619,0.00252513,0.069869,0.0450555,-0.0297443,-0.00870371,0.000388484,0.000201265,-0.0867897,0.0526449,0.0225032,0.061275,-0.0103381,-0.0314946,0.0324566,0.00350497,0.0221185,-0.0715007,-0.0269616,-0.0329446,0.102201,0.0472326,-0.012871,0.0559046,-0.0101875,-0.0406106,-0.112326,-0.00966097,-0.142777,-0.0452881,-0.0412997,-0.0593814,0.00926804,0.00582097
-0.0180432,-0.00175892,-0.00674141,-0.0455358,0.00208531,-0.103561,0.0199428,0.0205803,-0.101768,-0.0472675,0.0385916,0.157169,-0.122449,0.0335697,0.0875701,0.0107649,-0.0590326,0.0336807,-0.0313767,0.0773963,0.0462772,-0.134768,-0.0797778,-0.0332425,-0.114554,0.0754733,-0.0614269,-0.00433571,-0.0456793,0.0663921,-0.0277449,-0.130351,-0.0184057,-0.0771706,0.0118293,-0.0223166,0.0150126,0.0738972,0.0309556,-0.00430024,0.00873963,-0.0710655,0.041363,0.00162194,-0.0427927,-0.107496,-0.0504575,0.0949142,-0.0737028,0.0553106,-0.0619916,0.0644227,-0.141436,0.013334,0.0768863,0.0342295,-0.0471621,0.0426955,-0.0604025,0.131829
-0.127829,0.0700877,-0.116438,0.00785011,-0.0165984,-0.0903827,0.0788185,0.0725055,0.0178693,0.0216851,0.0248757,0.0333214,0.0441479,0.00585515,-0.0633304,0.061082,0.0169322,-0.00983698,0.0416662,0.0683947,0.0199168,0.0142263,-0.0252598,0.023402,0.00365242,0.0875876,0.0362828,0.051521,0.0804545,0.0149559,-0.0725534,0.0148444,-0.0512997,0.0528253,-0.0881151,0.101177,-0.106769,-0.0245492,0.0591896,-0.0138867,-0.0356784,-0.0226257,0.037893,0.0662361,0.142707,-0.0796105,0.0431716,-0.0990081,-0.0033997,-0.0215296,-0.0858946,-0.070472,0.00753034,-0.0125365,-0.0237961,0.0182716,0.0102451,-0.0233433,-0.0338982,-0.11049
0.0663974,0.0409664,-0.123097,-0.102666,0.00111266,-0.013968,-0.0450991,-0.0514544,0.0792197,-0.0289479,-0.0606461,0.0134898,0.0764599,-0.0670368,0.00593336,-0.0460338,0.0221609,-0.0707245,-0.0370781,-0.0416737,0.0844945,-0.0171606,-0.0509086,0.00911874,-0.0299574,0.0486568,0.0603005,-0.0463436,0.0256418,-0.132124,0.0956558,0.0201732,0.110724,0.00623587,-0.0808662,0.00786603,-0.0319352,-0.00369071,-0.00351286,-0.0223795,0.0373964,0.0182045,0.0599998,0.0200498,0.020934,-0.0246515,0.0139038,0.0426472,-0.0286943,-0.029188,-0.0259459,0.0812963,0.0691106,-5.85531e-05,0.0978519,0.0182138,0.119693,-0.0181784,-0.0596024,0.0828102
-0.0685452,-0.0209579,-0.056728,0.00117337,-0.0412064,0.0106539,0.0198916,0.0427727,-0.0148321,0.0630232,-0.0839641,0.0205788,-0.00675546,0.053101,0.0475113,0.0456849,-0.0561035,0.0249785,-0.0164878,0.0207476,0.0254879,0.0943429,0.0096657,-0.065302,-0.135582,0.0422973,-0.039703,0.0143172,-0.0144945,0.0284535,0.080755,-0.150794,-0.0251179,-0.00092019,0.0699327,-0.0677833,-0.0172438,-0.00636961,-0.0824352,0.0228688,0.04289,0.0660852,-0.000890729,0.00590865,0.067601,0.0616172,-0.020415,0.0701333,0.083427,-0.0728537,-0.0814673,-0.0133367,-0.028791,0.0731132,0.0312976,-0.0305134,0.0347112,0.0883237,0.0105506,0.0414536
-0.014318,0.133683,-0.0124424,0.0566144,0.0501769,-0.0803266,0.000872485,-0.0410061,0.0598134,0.208977,0.033051,0.00382413,0.0428353,0.0233576,-0.034418,0.060197,0.0468811,0.0259627,-0.0390463,-0.0244227,-0.0706329,-0.0200969,-0.00399618,0.00884506,0.00362494,-0.00563725,0.00874445,-0.0214505,0.063336,0.0184805,1,0.0399496,-0.0657461,0.0470645,0.112939,-0.0222579,0.0695261,-0.0181643,0.031506,-0.100382,0.00808708,0.011484,-0.0141677,0.0737243,-0.00968247,-0.0454559,-0.0383317,-0.0694336,-0.0773083,-0.010705,-0.0320693,-0.0201127,-0.0507206,0.0366692,0.0484185,-0.0037204,0.0724403,0.0646387,0.00749509,-0.080687
-0.102726,0.0516693,-0.0285888,0.0563446,0.0703124,-0.117653,0.00302805,0.0206323,0.011689,0.073777,0.0177365,-0.0436957,0.0805831,0.0901592,-0.00445625,0.0091876,0.0167101,-0.0314753,0.0293883,-0.0228369,-0.0420581,-0.0952615,0.0504562,0.0438183,-0.0270994,-0.0522766,-0.0141624,-0.0881727,0.0320745,-0.0836147,0.114039,-0.0381352,0.0320422,0.00826685,-0.0774967,-0.0409828,0.0917379,0.0533731,0.0534151,0.0105205,0.0533647,-0.00475973,0.00283364,-0.0741469,0.05897,-0.0457696,-0.0846203,-0.00872127,0.00970137,-0.0453457,-0.081939,0.0134601,-0.127442,0.00577517,-0.0487333,0.0682652,-0.0105282,-0.00899417,-0.014826,0.0573855
-0.0459022,0.0186032,0.0081774,-0.0420624,-0.0542096,0.0643363,-0.00412259,0.0227309,0.0417733,0.0421247,-0.0452185,0.0225097,0.0378427,-0.13915,-0.041947,-0.0388271,0.0591405,-0.0384476,0.000813048,0.00248883,0.00503269,0.0465416,-0.0120286,0.0135471,0.0491507,0.0312146,0.0161905,0.0246608,-0.0772276,-0.0084283,-0.0536708,0.102707,0.0295952,0.0470527,0.00345963,0.0747443,-0.0201638,0.0595462,0.0432543,0.0894768,0.0358028,0.106255,0.0513148,-0.0438366,-0.0265867,0.13297,0.0124072,-0.101098,-0.0548523,0.0489841,-0.0979063,-0.0499342,-0.00303677,0.0931141,0.0682156,0.014938,-0.0362748,-0.0118014,-0.0170441,-0.00887348
-0.0774379,0.0707166,-0.118155,0.0553654,-0.0223139,0.0405833,-0.000942857,0.099145,-0.0594488,-0.0109037,0.00942036,0.0117171,0.139734,-0.00129548,0.0501006,0.0161274,0.106269,0.0393188,0.0468873,-0.0102465,0.01818,0.0274125,-0.0315793,-0.0480637,-0.00315345,-0.0250158,-0.0109975,0.00594424,-0.0645205,0.0133183,-0.0037307,0.0105272,0.0409578,0.0249139,-0.00631616,0.0240525,-0.00431485,0.0642447,0.0360259,0.08938,0.0249233,-0.0412284,0.131176,-0.0113033,-0.00881665,-0.0204786,-0.126136,-0.0258966,-0.0388076,-0.0487502,-0.0145422,-0.0195398,0.0401651,0.0353954,0.0306025,0.0904672,0.0709702,0.04627,0.0672993,-0.0251415
0.014095,-0.0102743,-0.0254406,0.0922699,-0.122174,0.0440785,-0.0819813,-0.0323673,-0.00714245,-0.0414651,-0.0942304,-0.0186443,0.062719,0.0178161,-0.039118,-0.0270391,-0.0759076,0.104945,-0.0339377,-0.0168075,0.0762564,0.0354695,-0.0045609,-0.117565,0.0606666,0.0498068,0.0545675,0.0911385,-0.0293682,-0.0338334,0.0814189,-0.00379081,0.0136239,-0.0403966,-0.00265795,0.0548608,-0.122792,-0.0193677,-0.0206953,-0.00630155,-0.0445022,0.13968,0.081775,0.0687788,0.0530075,0.0584775,0.0345052,-0.0298223,0.0225477,-0.101045,0.0795603,0.117302,-0.0412267,-0.0995886,0.00103929,-0.0273359,0.0650314,0.000873188,-0.0309367,0.0530851
-0.0196452,-0.0321731,0.0114463,0.0135662,-0.00821485,-0.0681646,0.0123844,-0.0800985,0.0149677,-0.0593448,-0.017778,0.085371,-0.0224204,-0.0414216,-0.0510398,0.0897865,0.0618691,-0.109587,0.0592063,0.0490305,-0.0389674,-0.120036,-0.00202289,0.0377699,0.0946074,-0.00449247,0.0146529,0.0233122,-0.068854,-0.123432,0.0924069,-0.0532756,-0.0779009,-0.0237175,0.00381012,0.063077,0.0202459,-0.022521,-0.0356392,-0.0181249,-0.0012804,0.0304298,-0.0157327,-0.0796635,-0.00721736,-0.02752,-0.0897936,-0.0942106,-0.10287,0.0539985,0.117614,0.00431321,-0.08414,0.0504526,-0.00458461,-0.109234,-0.0302984,-0.0934836,0.0627877,0.0142209
0.0345769,-0.118839,-0.0831975,-0.0425436,0.0544754,0.03896,-0.0515665,-0.0108095,0.0126857,-0.0420172,0.028555,0.0933547,-0.0441624,-0.0215392,0.0641744,0.0911645,0.0117079,0.0407706,0.0302767,-0.0739409,-0.0191532,0.0173236,0.0775456,-0.00590803,-0.0199423,-0.0418966,0.00877823,-0.00698125,-0.00266156,-0.103372,0.0138971,0.00298283,-0.0823491,-0.0185818,-0.0636933,-0.0562173,0.0759758,-0.013739,-0.0131976,-0.0426042,0.10134,0.0325424,0.0231344,-0.0479706,-0.00267765,-0.0152042,-0.0392112,-0.0512658,0.00694968,0.0150384,-0.0730814,0.0218805,0.0508157,-0.0449549,-0.00274989,0.145377,0.00375718,0.126239,-0.0253062,0.128348
-0.0027776,0.0504628,0.0160752,0.027111,-0.0160576,-0.0610965,-0.0521218,-0.0669344,-0.0572922,0.0166465,0.017186,0.0564169,0.00942717,0.00875998,0.034834,0.0775456,-0.0535034,-0.0372085,-0.014373,0.0840721,-0.00997003,-0.0135429,-0.0817087,-0.0547458,0.0250668,0.0362038,0.0422943,-0.10697,0.0998342,-0.118639,-0.0510169,-0.07892,-0.011454,0.0460981,-0.0797793,0.0371966,-0.0197034,0.0967128,-0.0899486,-0.0031044,0.0759471,0.0565974,-0.00880199,0.00547874,0.048291,-0.082129,-0.0593537,-0.0620609,-0.097386,0.00617085,0.107313,-0.0277998,0.105614,0.0292837,-0.0221359,0.0140234,-0.0324248,-0.026456,0.0730939,0.0173102
-0.0266234,0.0154722,0.0918088,0.0468425,0.0715544,-0.0407345,-0.0662982,-0.0328789,0.00867506,0.0092244,0.0191139,0.0797748,-0.0296894,0.01519,0.0442534,0.00917305,-0.03778,0.0594718,0.117925,-0.0412846,0.0504232,0.0396084,0.129084,0.0281383,0.00442481,0.102772,0.00410298,-0.0965913,-0.0444284,-0.0690022,0.0249972,-0.0371572,-0.0401276,0.0663063,0.0707139,0.0268519,0.0531384,-0.0244827,-0.0980774,-0.0235284,0.0700603,-0.011147,0.0568127,0.0132609,-0.0933385,-0.0204527,-0.0304173,-0.127116,-0.026432,0.0657725,-0.02999,0.0259287,0.0432704,0.077363,-0.0358532,0.0207108,0.0441769,-0.0735641,0.0255778,0.0613386
0.0232269,-0.0843888,-0.121519,-0.0148004,-0.0423956,-0.0524412,0.0701318,0.146465,-0.0563493,0.00868626,0.0436581,0.00613939,-0.0944886,0.0314404,-0.0111806,-0.0339356,0.0121528,0.0633147,-0.0172191,-0.0488556,-0.0325686,-0.103004,0.0760142,-0.0779331,-0.0574425,0.0381363,0.057258,0.0327682,-0.0661391,0.150641,-0.0507068,0.0180818,-0.0423127,0.0414441,-0.0520737,-0.0287306,-0.0339303,0.0238176,0.0201167,-0.0241897,-0.114965,-0.0375821,0.0304897,-0.0773687,0.0499867,0.0794011,0.101893,0.0237651,-0.0756984,-0.113011,-0.0374485,0.0100625,0.0357664,-0.0714072,0.0313389,-0.0656502,-0.0377597,-0.0262562,0.0357734,-0.0163519
-0.0402915,-0.0120878,0.0337005,-0.167383,-0.0214165,-0.0247133,0.0722261,-0.030615,-0.00970069,-0.00329126,-0.0650713,-0.0343867,0.0993133,0.0385253,0.0566196,0.0611986,0.131098,-0.0131517,-0.0232117,0.0901983,0.0270093,0.0655289,0.0292407,-0.0323154,-0.0147131,-0.01586,-0.000325556,-0.0233838,0.0108872,0.0104103,0.0174435,-0.0359988,-0.0285295,-0.0608264,-0.103578,0.14164,0.0442525,0.0558416,0.0526086,-0.0696102,-0.103832,0.104523,-0.0586749,0.090465,-0.0160077,0.0313775,-0.0125563,0.109126,0.027639,-0.0146705,0.0786052,-0.0052089,0.00258919,0.0280903,0.0135694,-0.0438831,0.0366001,0.0535816,0.0539945,0.0276465
0.0778484,0.0164166,-0.0720089,-0.0103915,-0.0193499,0.000988446,0.0715786,-0.0885514,0.0192487,0.0927492,0.164912,0.0349238,0.0390721,0.0762327,0.0676629,0.0333901,0.0656853,-0.0786875,-0.0409563,0.0181266,-0.0213658,-0.0132886,0.00048176,-0.0338537,-0.0216814,0.0819792,0.0268119,-0.00877818,-0.0195741,0.0522458,-0.0293755,0.0373258,-0.0571288,0.0359307,0.0137007,-0.0927589,0.0637912,0.0478963,0.0995028,0.0593756,0.0134321,0.0431992,0.211233,0.0831013,0.0234216,-0.0335481,-0.015969,-0.0547057,-0.0161789,-0.0437586,0.0426502,0.0511431,-0.0133031,-0.00827129,-0.0659809,-0.0749508,0.0274993,0.069148,0.0186486,-0.0548067
0.0376187,-0.0171091,-0.139301,-0.0303028,-0.0486008,0.0299158,0.00706631,0.0473479,0.0266771,-0.0295869,-0.00555691,-0.00722941,-0.021565,0.0793587,-0.0253944,-0.00416689,0.0399811,0.0170701,0.0973049,-0.0953063,-0.0433316,0.0770404,-0.00757415,0.138273,-0.012124,-0.00751862,-0.0316313,0.00916715,-0.0364025,-0.0453736,0.0954582,-0.0598815,0.00322507,0.013418,0.0037674,0.0529328,-0.014889,-0.0978029,-0.0220266,-0.0517842,0.0269291,-0.14268,0.0863601,0.0852006,-0.00322185,0.0217599,-0.0945229,0.0310728,0.0624233,0.0691994,0.0969948,-0.0118463,-0.076365,0.0471784,0.057371,-0.00235165,0.0330958,-0.0881315,-0.119792,-0.0460647
0.0504409,-0.00220182,0.0458682,0.0505395,-0.0244431,0.0505171,0.0693781,0.0688134,0.00975504,-0.083553,0.0323575,-0.0556336,0.0663463,0.00167905,0.0783976,-0.0166877,0.0812035,-0.0205647,-0.0169972,-0.115332,-0.076282,-0.0357657,0.0301304,0.00952513,0.00641959,-0.0384417,-0.0204545,-0.0465011,-0.0114134,-0.022548,0.125417,-0.0674295,0.0604885,-0.0068349,-0.0115725,-0.0228484,0.0583078,0.0556587,0.0263108,0.144568,0.0188979,0.0883054,0.0368148,-0.034423,-0.0102383,-0.0387542,0.0212017,-0.0329721,0.00491317,-0.0177509,-0.0136862,0.0120639,0.0675442,0.0696885,0.0505417,0.0897569,0.0553222,-0.00239404,0.0969797,0.0819381
0.095622,0.0169648,-0.085908,-0.109416,-0.0541831,-0.0498634,0.0287507,-0.0275581,-0.0551968,0.0732558,-0.0647747,-0.00229781,-0.0565087,-0.08928,0.0491772,-0.0192191,-0.0572905,0.0659855,0.0288705,-0.00749783,0.0984824,-0.0116162,0.251039,-0.0314842,0.0469039,0.0874874,-0.0230456,-0.0112944,0.0556972,0.0439115,-0.0876955,-0.0903447,-0.0772544,0.077105,0.0615578,0.0858762,-0.15104,0.0256277,-0.0330626,-0.0499639,0.0606341,0.0208625,-0.013987,0.092931,-0.0282368,-0.0637124,0.0131489,-0.0319728,-0.122977,-0.0193628,-0.0599241,-0.0990613,-0.0731787,-0.0606591,-0.0089482,0.0180511,0.0571387,0.0643484,-0.121478,0.0571477
0.0627921,0.137441,-0.0337867,0.0192635,0.0512944,0.0343621,-0.0435406,0.0213069,0.0533446,0.0696941,-0.0210257,-0.0714081,0.020184,0.0466552,0.0767441,-0.0597963,0.0238456,-0.0222818,-0.0852786,0.0303656,0.103192,-0.0565144,0.115731,-0.00424485,0.0359154,-0.0169047,-0.00704963,0.0458826,0.0122486,0.0558905,0.0513997,0.0712896,0.0398526,-0.0368728,0.0999747,-0.00673006,-0.0734275,0.0478407,-0.0326342,-0.0339871,0.00664379,0.00828851,0.0132292,0.0646702,-0.0362304,0.099074,0.0529975,-0.101373,-0.0792611,0.0228098,-0.0347348,-0.00976335,-0.061136,-0.0409242,-0.0434872,0.0045997,0.0176734,0.0637569,-0.00125193,0.0347834
0.0468272,0.0443001,0.0310619,0.0200499,0.0703084,-0.0124389,0.0778397,-0.0714653,0.0153567,-0.086767,0.0757019,-0.0571806,0.0917756,0.042854,0.0102657,-0.0524388,0.0891408,0.0280416,-0.0631829,-0.0138541,-0.00949858,-0.00280639,0.0150005,0.00121133,0.0821643,0.0471485,-0.0228159,0.110324,-0.0259679,0.0125272,0.0190238,-0.00812844,-0.0348881,-0.0280585,0.0996119,-0.0181366,-0.0144849,0.097517,0.0244961,0.0638981,-0.0763901,0.0363883,0.0813254,0.00303525,-0.049681,0.0213363,0.0306653,0.0817723,0.0825138,-0.0249247,0.034527,-0.017793,0.0263885,0.0237984,-0.0597362,-0.109243,0.0445181,0.0940319,-0.0555931,0.0836038
-0.0739211,0.0345044,0.114861,0.0643947,0.0332554,-0.0564643,0.0677417,-0.0860846,-0.0235978,-0.00450517,-0.098033,0.0694636,-0.0674128,0.0733622,-0.0938905,-0.0404886,-0.00306272,0.0543937,0.0373868,-0.0462307,0.0856661,0.066038,-0.0397363,0.0851796,0.114001,0.12887,-0.0653441,-0.0331968,-0.00331992,0.0234144,0.0327332,-0.0818094,0.0566983,0.0932638,-0.0724333,0.0167188,0.00287939,-0.0305284,0.0287612,-0.0110717,0.0702144,0.0114155,0.0164748,0.0144624,0.0744135,0.115253,0.0497055,0.0471077,-0.0317548,0.00883986,-0.110453,-0.0129454,0.00227794,-0.0458896,-0.0152242,0.0439835,0.0654657,0.0535374,0.0646694,-0.0332022
-0.0465501,0.0204079,-0.00407768,0.04295,-0.0600973,0.0297783,0.0403717,-0.0325506,0.0331906,-0.101879,-0.10249,-0.00658124,0.00874765,-0.0110088,-0.00544197,0.0676288,0.00464167,-0.0507293,-0.0386725,-0.0096416,0.119141,-0.0245321,0.0673608,-0.0183556,-0.0122746,0.0854522,0.110673,-0.0305927,-0.0365873,-0.0545761,-0.00748909,0.0369869,-0.0760377,-0.0346184,-0.0534957,0.0189254,-0.0137061,-0.0437719,0.0316348,-0.0911836,-0.0398192,-0.0658906,-0.00847345,-0.0618745,-0.00487718,0.0646138,-0.0479136,-0.0128961,-0.0285269,-0.0292115,0.0578781,0.0587452,-0.0516656,0.0705868,0.101297,0.0776523,-0.049318,-0.0265626,0.01858,-0.0811088
-0.0273322,0.0201179,0.0803735,0.0206088,0.0392489,-0.0122612,-0.0236815,0.00386891,0.066646,0.144489,-0.0460068,-0.0174217,0.0927093,-0.0464806,0.0189817,0.013426,-0.0450027,0.0035997,-0.0122754,0.0365054,-0.0945061,0.0178619,0.143393,-0.0369922,-0.0407442,0.0815319,0.00439458,0.0540355,-0.0765714,0.0339456,0.0221014,-0.0184527,-0.0387663,0.0479224,-0.0200815,0.0232357,-0.0559008,0.0353012,-0.0553,-0.0268432,-0.0970715,-0.0142385,-0.0253133,-0.0885983,-0.122164,0.0817597,-0.0424133,0.0579412,-0.0279406,-0.126184,-0.0772077,-0.0122223,0.13382,-0.0112917,-0.0022758,-0.0419176,-0.0208319,0.0145149,0.0749333,0.0111285
0.105439,-0.0318837,0.00917611,0.0925513,-0.00442368,0.0443815,-0.0688425,-0.107734,0.0636037,-0.0642416,-0.0323304,-0.0076195,-0.0858401,0.0607498,0.113933,-0.0335747,-0.0439242,0.0108769,-0.0614454,-0.0505855,0.103268,-0.0441947,-0.0244094,0.00336058,0.0462552,0.000580098,-0.0700484,0.0222151,-0.0353772,-0.0599257,-0.0384811,-0.0643542,-0.0504299,0.00845663,-0.0266362,-0.0143321,0.112843,-0.0468061,0.0455561,-0.0584892,-0.0979002,0.108234,0.0191077,0.0296123,0.0502281,-0.0153877,-0.020801,0.0481186,0.0234196,0.0393576,0.0182475,0.0876532,-0.016408,-0.0703783,-0.0314469,-0.112042,0.0754706,-0.109804,0.0332986,0.00369522
-0.0414683,-0.023671,-0.0663354,0.0781552,-0.00435425,-0.00605879,0.0710969,-0.0995421,-0.00654307,0.115317,-0.0411638,0.0802278,-0.0707975,0.0346536,-0.124231,-0.0140616,-0.0630797,0.123156,-0.076421,-0.0278084,0.0396005,0.0719537,0.0484061,0.0241604,-0.0230621,0.0163755,0.00878173,0.0326502,-0.0256778,0.00770272,0.0421135,-0.0657042,-0.107765,-0.146396,0.00760077,-0.000889512,0.0137859,0.036912,0.0512761,0.116535,0.0403223,0.0656533,-0.066124,0.0341181,-0.0100696,0.021538,-0.0212004,-0.0113188,0.105799,0.028402,-0.0454376,0.0162954,-0.0895379,0.0781148,-0.0185335,-0.0503219,0.0646396,0.0105487,0.108358,-0.00294084
0.0369162,0.0192014,-0.0493633,0.0647724,0.0570243,0.0490921,0.0169495,-0.106127,0.069241,0.0425059,0.0501354,0.0868348,0.00436066,-0.0895832,-0.00532903,-0.000409269,0.0590838,0.0482384,-0.0195695,-0.0200826,0.0461997,0.00445403,-0.0637255,0.0602113,-0.0153618,0.0046014,0.0361371,0.144987,0.0118434,-0.0516229,-0.0324018,-0.0660451,0.130593,0.00941794,-0.00621905,-0.0312588,-0.0738585,0.0440166,-0.0475112,-0.0379508,-0.0253411,-0.0553502,0.0576256,0.0218304,0.0977619,0.0253385,-0.0459412,-0.0895741,-0.00167759,0.02012,0.0610432,-0.0617507,-0.0460653,0.0385389,0.0677218,-0.0904915,0.0251454,-0.0910676,-0.0557746,0.0648158
0.00228853,-0.0642984,-0.00996604,-0.0604415,0.0181016,-0.00478228,0.0285694,-0.0719188,0.0261317,-0.0157465,0.0648489,0.0451188,0.0436661,0.0484959,0.0221321,0.0573498,-0.0329212,0.0698254,-0.0455177,-0.0014446,0.088736,-0.0523055,0.0253983,-0.0339622,0.0636532,0.0811207,-0.0337023,0.0129418,0.142748,0.0656612,-0.0259204,-0.0804845,-0.0268374,-0.00235836,0.0883214,-0.0733847,-0.0396167,0.0661693,0.0153061,-0.0749237,-0.111512,0.0130233,0.079693,0.0604979,-0.105828,0.0440177,0.0479087,-0.053342,0.0176292,-0.0614758,-0.0921853,-0.00859964,0.0580025,0.0772633,0.0441656,-0.0408321,-0.0188457,0.0860188,0.0333803,0.0638319
-0.028582,-0.0099045,-0.0263021,0.086467,-0.0095546,-0.052915,0.0451078,-0.0475683,-0.0443558,-0.0316208,0.0257199,0.00926546,0.0166131,0.0831537,-0.0288061,0.0160288,0.00685821,0.0135427,0.0123119,-0.045205,0.0299703,0.0222921,0.0765448,-0.119935,-0.0106042,-0.060916,0.0446227,-0.00705021,-0.030234,-0.060738,0.0643776,-0.105047,0.0146626,-0.0726778,-0.0696915,0.022097,0.017496,0.0118073,-0.0739705,0.0757523,-0.0757096,-0.0448918,-0.0240194,0.0294844,-0.0136888,0.0948541,-0.046227,0.0254154,0.0379686,0.0566433,0.0202288,0.0125697,-0.0771413,0.0432401,-0.0210486,0.028422,-0.0132,0.0571037,0.00596586,-0.0261045
-0.0447582,0.0115086,0.0594944,0.00761139,-0.0108614,0.096872,0.0306954,-0.0302722,0.0305146,-0.00249755,-0.0443054,0.00928387,0.0984851,0.0406792,-0.0503711,-0.0427264,-0.0334641,-0.0017131,0.0263133,-0.0449696,-0.0411421,-0.0463093,0.00734033,0.0393214,-0.0527037,-0.0517628,-0.0553073,-0.00516364,0.00182904,0.0474881,-0.0102941,0.0703609,0.000580584,-0.0508463,0.0117728,-0.127988,-0.0905461,-0.0387056,0.0569651,0.0128647,-0.0690504,0.0280042,0.0120211,0.0726432,0.14353,-0.0167211,-0.00358974,-0.0205682,0.085506,-0.0158651,0.0851213,0.00352327,0.0431187,0.0850494,0.0369788,0.00287046,0.0489819,0.00236398,-0.0747899,0.0571945
-0.0366427,-0.0381305,0.0346007,-0.154794,-0.0406944,-0.0740904,-0.0408661,-0.130429,-0.0109737,0.00323668,0.0583964,0.0134476,0.0057037,-0.0521833,0.0636756,0.0736065,0.0556804,0.00552481,-0.129278,0.0734093,-0.0166502,0.0575688,-0.0817886,0.0607993,-0.00431806,-0.0191964,-0.0778321,-0.0642365,-0.00505389,0.0646428,-0.000840927,-0.0250855,0.0691076,-0.0162912,-0.0434934,0.12672,-0.0137874,0.0169953,-0.0365594,-0.100439,0.047345,0.0325299,0.025076,-0.0435063,-0.0757062,0.118512,-0.0419869,-0.064176,0.0620931,0.0356924,0.0388358,0.0180448,0.0178284,0.00963401,0.0705849,-0.0260104,0.0809019,0.125186,-0.0133078,-0.0606126
0.0160006,-0.0217239,-0.0209822,-0.0417363,-0.00737001,-0.0629617,0.00198623,0.0823274,-0.0659494,0.0956695,-0.00315891,0.00514292,-0.00904519,-0.052178,0.0396596,-0.0128292,0.0387421,0.0306358,0.124125,-0.103394,-0.0341106,-0.0169108,-0.00447197,-0.0438058,0.0091652,-0.067969,-0.00497676,-0.0259075,-0.00539455,-0.0187709,0.0565784,0.0197111,-0.00989832,0.0202019,-0.0615494,0.100114,0.0717971,-0.0355428,-0.0437595,-0.0538148,-0.0133754,-0.0262677,0.0323472,0.0011836,0.0294985,-0.037519,0.0218347,-0.0789591,0.045801,-0.100506,0.0827319,-0.00853256,0.0338104,0.0442137,-0.0605292,0.0680671,0.0257366,0.0673374,-0.0243544,-0.00336313
-0.0531711,0.108379,-0.0886928,-0.00914281,0.020008,0.0978744,0.0773971,-0.0133037,0.00451156,0.0119423,-0.0218974,0.00907322,-0.0114738,0.0993395,0.0175776,-0.0119161,-0.042844,-0.0677981,-0.114868,0.0153561,0.0063198,-0.0167111,0.0354878,-0.0354945,-0.0747567,-0.0132838,-0.0819839,-0.00871428,0.0146284,-0.018926,0.0357107,0.0693553,-0.00617112,-0.0476045,-0.0178476,-0.0389941,-0.0879658,-0.0181918,-0.0590282,0.0110165,0.110286,0.0584184,-0.0994765,-0.107457,-0.0130355,0.138483,-0.0901787,0.0732603,-0.00472033,0.0317051,0.101967,0.0050627,0.0453598,0.0876389,0.0470893,-0.0597405,-0.0143792,-0.0939046,-0.0719014,-0.0756633
0.0256441,-0.089652,0.0034277,-0.0487165,-0.0165382,0.0362676,0.0393799,0.0487059,-0.0216706,0.00872592,-0.064387,-0.0513014,-0.0481935,0.00758881,0.042901,0.0137386,0.0852337,-0.0597809,0.0717183,0.139473,-0.114751,-0.0132837,0.0429617,-0.0433852,-0.0253513,-0.0203323,-0.00153892,-0.00805617,-0.069251,-0.0342582,0.0620857,0.0117169,-0.0710578,-0.121364,0.0144747,-0.0174344,0.00615599,-0.0958717,-0.0594765,-0.0155477,-0.037906,0.0408201,0.166411,0.0396648,-0.000372706,0.0450297,0.0184176,0.0957369,0.0216647,0.0761477,-0.055697,0.014777,-0.0426392,-0.0950813,0.0538635,0.0674395,-0.0706481,0.0419662,-0.0117201,-0.00846776

max: 1
min: -0.194579
avg: 0.00204831
