-0.00185145,0.0270932,-0.0382313,-0.0704422,0.00109393,-0.0293509,0.0286124,0.0357037,-0.0418933,-0.057829,0.0127558,0.0518692,0.0830827,0.10654,0.0402912,0.0547683,-0.0324087,0.0957282,0.0644262,-0.0220114,0.0515303,-0.0638652,0.0226665,-0.00621701,0.0418914,-0.0503927,-0.0789529,-0.0143995,-0.0480396,-0.00237549,-0.0216417,-0.0384178,0.0399728,-0.052894,-0.0392383,-0.0103896,0.0076273,0.053776,0.0827492,-0.101321,-0.036699,0.0132517,-0.0820317,-0.0229468,0.0468439,0.00920819,0.0282941,-0.154042,0.0183919,-0.115393,0.0138402,-0.0500958,-0.021598,0.01247,-0.0712421,-0.0128094,-0.0680981,-0.0185311,-0.114553,-0.0655227
0.041219,0.00675281,0.00967313,0.0931515,-0.0371872,0.0856658,-0.0993525,0.120173,0.0237112,0.0113517,0.0814635,0.0609846,0.0140676,-0.0108059,-0.020241,-0.0007537,0.00968577,0.0059524,-0.0309138,-0.0141363,-0.140428,0.0112095,-0.0822869,0.101215,0.0059879,-0.0054311,0.0574931,0.0940884,0.0827351,0.0287314,-0.00610379,0.0471351,0.16042,0.0500314,-0.0129383,0.105545,-0.0797542,0.054433,-0.097904,-0.0756502,0.0663782,0.0213911,0.0274727,-0.0282414,-0.101981,-0.00755798,0.0668904,0.0500056,0.0487585,0.0259951,0.0596975,-0.055565,-0.0589392,0.0148069,-0.0370336,0.0971902,-0.00645001,-0.0438479,-0.0962237,0.0391066
-0.00165927,-0.00348637,-0.0745429,0.0222323,0.0891315,0.0319509,0.0869123,-0.0181121,-0.0759239,0.0776941,0.0914852,0.0607477,-0.0801875,-0.00404656,0.0191592,-0.0687613,0.00469169,-0.106674,0.0114014,-0.0152304,-0.0274487,0.0341635,-0.016741,0.0182669,0.0653014,0.0402817,-0.0275117,-0.0506828,-0.0138783,-1.61294e-05,0.0250891,-0.0483317,-0.00530598,-0.0382944,0.114246,-0.0290897,-0.0295172,0.0229319,-0.00232787,-0.0839788,-0.037546,-0.0175436,0.0833637,0.00803023,0.0239321,0.0454067,0.0176913,0.0699464,0.00602444,0.0452294,0.0267932,0.0253904,-0.0395733,0.0340668,0.112176,-0.0353563,-0.0489923,0.0229994,0.0110628,0.0453114
-0.0223808,0.11618,-0.033884,0.0886295,0.0247756,-0.0226993,0.0460957,0.0103844,-0.0647059,-0.0822193,0.0373659,0.0770617,0.0114343,0.00412614,-0.0164924,0.077205,0.00575581,0.00550777,-0.0741905,0.00118394,-0.040006,0.0276605,0.0454007,0.117909,-0.000590015,-0.0383349,0.112489,0.0894781,0.0342394,0.118265,-0.023182,0.0339039,-0.0700326,-0.0492606,0.0499862,-0.137007,-0.0365882,0.00197346,-0.0185008,0.0606039,0.0101999,-0.00501941,0.000936314,0.0120106,-0.0862497,0.0146857,0.00580478,-0.0784753,0.00612473,-0.0229189,0.0193555,0.0766274,-0.0293611,0.008601,-0.01235,0.0967322,0.052121,0.0260644,0.0576989,0.0502612
-0.0436861,-0.0137849,0.0576225,-0.041252,0.0496906,-0.0623728,0.118018,0.0816188,-0.0759906,0.103012,0.0669624,0.0376812,0.0494799,0.0322246,0.0345293,-0.0121244,-0.158121,-0.00532053,-0.0919092,0.0312839,0.0942873,0.0659317,-0.0578742,-0.0320416,-0.037044,-0.102356,-0.0693739,-0.046488,0.102844,-0.0474872,-0.0122254,-0.0920238,-0.0278558,-0.0989736,-0.0223165,0.0324444,-0.0926098,-0.0517089,0.0493161,0.0179574,0.0607741,-0.00404583,-0.0370841,-0.0111376,-0.00664596,-0.029748,0.00613157,0.0155209,0.0433977,0.0812491,-0.0787683,-0.102506,0.0107729,0.072206,0.0431342,0.141389,-0.0705824,0.0417446,-0.015804,-0.014651
0.0772913,0.0390672,-0.0208681,0.0499039,-0.0723796,0.0315171,-0.0618726,-0.112036,-0.0230492,0.00521422,0.0803956,0.0567173,-0.020386,0.0144158,0.0226664,0.0422105,0.0704401,0.0439892,0.0548749,-0.00441784,0.00723818,-0.115324,0.0409039,0.00167457,0.0058083,0.00613659,0.0566303,-0.00824942,0.0845998,0.0699938,0.0408264,0.0389461,-0.0314939,0.0450127,-0.044396,0.0167574,0.0521378,-0.0805957,0.0449837,0.0797062,-0.0672521,-0.0845028,-0.0396734,-0.0581305,0.0453229,0.0186252,0.0624863,-0.0386505,0.00057289,0.0453757,-0.0837721,-0.0900275,0.0151413,-0.0230669,-0.0635717,0.0887859,-0.0260538,-0.00672434,-0.0735542,0.0511813
0.00303952,-0.0966137,-0.044793,-0.0727361,0.0980012,0.0604895,-0.00903305,-0.00515162,-0.0703342,-0.118593,-0.0417244,-0.0506198,-0.0819206,-0.0115605,-0.117705,0.0456702,0.04004,0.0916101,-0.0983685,0.0370067,0.0451753,-0.0260533,0.0679544,0.0695427,-0.0443849,-0.0226716,0.0258557,0.0266968,0.0722767,0.03679,0.0376526,0.0358419,-0.00883455,0.104006,-0.0431117,-0.121974,-0.0366066,-0.0432117,0.0688624,0.0674705,0.0635845,-0.0188809,-0.106168,-0.0278466,0.089028,0.0547681,-0.0888519,-0.0661049,0.0379931,0.021051,0.0784853,-0.0538598,-0.0130077,0.0279954,0.0191392,-0.0945564,0.0297337,0.063173,-0.031729,0.0693806
0.0145816,0.0025754,-0.0401064,-0.0235784,0.061572,-0.0380934,-0.0335897,0.0702322,0.0529957,0.0110164,0.0440018,-0.0341292,0.00427609,0.0412183,0.0374291,0.0853703,0.0057846,0.0299968,0.0125724,0.108449,-0.0153065,-0.0387246,0.0467202,-0.0471133,0.046598,-0.0101586,0.0459713,-0.15596,-0.0334919,-0.0545348,0.0378897,0.0168206,0.0494584,-0.0519693,0.0650909,-0.0857257,0.0996917,-0.0259863,0.0374346,-0.0813743,-0.0170831,0.0145362,-0.0433078,-0.101555,-0.0841879,-0.00944373,0.0179342,0.00619676,-0.0936434,0.0206121,0.0660885,-0.00922696,0.0397483,-0.020817,0.0038123,-0.0428262,-0.122412,-0.0547458,0.0961132,0.0202594
0.0273418,-0.113156,-0.00299013,-0.00796812,-0.0711104,-0.00172388,0.0308113,0.0768885,0.00206093,-0.105865,-0.0381602,-0.0250998,0.00968759,0.0146854,0.0709313,0.00973362,-0.00226022,-0.0719297,0.0734344,0.0484339,-0.129348,0.129858,-0.0923605,-0.0719557,-0.0315028,0.0256127,0.0331147,-0.0396616,-0.00226662,-0.104686,-0.0388585,-0.0018889,0.00818778,-0.00938144,-0.0184715,-0.0394369,-0.0521026,-0.0428801,-0.0362776,-0.0714263,0.0248841,0.0683795,0.0871563,-0.0226068,-0.0167663,0.0602111,-0.0111266,-0.0662973,-0.010435,0.0237814,0.0796244,0.0930196,-0.041071,0.0152609,0.117632,0.0275975,0.0934231,-0.0905675,-0.00111273,-0.018566
-0.0880535,0.186817,-0.12867,0.0197708,-0.0448968,0.0157182,-0.01945,-0.0910881,0.0503831,0.104263,0.0306174,-0.075501,0.104869,0.08633,-0.0716347,-0.0822638,0.00516523,0.00270504,0.060087,0.0981343,-0.0602925,0.0205429,-0.0209728,0.111283,-0.0742954,-0.128055,0.0319378,-0.0822117,0.0527502,0.0261893,-0.00836443,-0.0189638,0.0527534,-0.0954837,-0.0630951,-0.024724,0.105123,-0.0828225,0.0988042,0.0364153,0.036701,-0.107564,-0.0144888,-0.0576006,-0.0746993,0.0296896,0.0318658,-0.0299621,0.055742,0.0668895,0.0619087,0.0280513,0.135411,0.0137488,0.016004,0.0790672,-0.0252754,-0.107506,0.0110022,0.0436875
0.0428635,-0.0723509,0.0281993,0.0443695,0.0299445,0.0411883,-0.0704728,0.00440621,-0.0517934,0.0439487,0.0857814,0.0288502,0.0685999,-0.0602356,0.057826,0.114599,-0.107636,-0.0853027,-0.0331554,-0.0557052,0.0483244,0.0873854,-0.0522836,-0.00630828,0.00319687,-0.00182697,0.090616,0.0683051,-0.00929705,-0.101615,-0.0431359,0.0236334,-0.0302196,-0.00959159,-0.0488011,0.0505078,0.0632734,-0.0239417,0.0445733,-0.0211528,0.0521759,-0.030252,0.0374469,0.0471822,-0.0279097,-0.0144597,-0.0865306,-0.00894079,0.00512177,0.00703256,-0.0111435,-0.0381775,-0.0210217,-0.00761342,0.072007,0.033099,-0.0355991,-0.0478456,-0.000368306,0.0348776
-0.0358883,-0.017479,-0.0676544,-0.00951248,-0.0409115,0.069878,-0.117884,-0.0916666,-0.0499885,-0.0138013,-0.00931976,0.0544646,0.0764083,-0.0720876,0.0476418,-0.00624487,-0.0156306,-0.00160587,-0.125689,0.0505935,-0.00130117,0.0781155,0.0226804,0.0423259,0.0302132,-0.0184738,-0.057718,0.00672232,0.0663188,-0.107294,0.004563,0.0137641,-0.0827502,-0.00507793,0.0397296,0.00407775,0.000769316,-0.00935051,0.0664747,-0.0939406,0.10403,0.0515811,0.00559829,0.147703,0.00103272,0.0415101,-0.0135644,-0.0166916,-0.154275,-0.00656407,-0.0833272,-0.00387368,0.10987,-0.0985483,-0.0174928,-0.0249454,0.0182224,0.00879836,-0.0251915,0.0476456
-0.00318885,0.0877369,-0.0315864,-0.0677189,-0.0180399,0.0310714,-0.0646466,0.034619,0.0249803,-0.063963,0.0525858,-0.0681327,-0.0148538,0.036128,0.0721707,-0.0259904,-0.0194778,-0.0141718,-0.00672934,0.0708883,0.0116945,0.00259987,-0.0494583,0.0189329,-0.0965319,0.0873745,0.0402231,-0.00440488,-0.0932151,-0.0578454,-0.0525508,-0.0257622,-0.0486168,0.00379076,-0.065196,-0.0236633,0.0489798,-0.0121894,-0.0082042,-0.0543624,0.059309,-0.0196466,0.0718139,0.0538591,0.00420651,-0.00394565,-0.0114892,-0.0551863,0.0829333,0.0200558,-0.05665,-0.0317376,-0.00799278,-0.0117158,-0.0243245,0.150387,0.106262,0.0414071,0.0484694,0.0285916
0.0404003,-0.0379579,-0.0417196,-0.0130789,-0.0140282,0.0234633,0.0878789,-0.108584,-0.031771,0.00120777,0.0574361,0.0263139,-0.0972024,-0.0450604,0.00314773,0.00316359,-0.04765,0.0135081,-0.011276,-0.113249,0.00782113,-0.0811449,-0.0578227,-0.0598518,-0.0854027,0.0268512,-0.122401,-0.0918189,0.0423888,-0.0236818,0.0400344,0.0270324,-0.00758556,0.0484095,-0.0520011,0.0384575,0.102623,0.0744488,-0.0425122,-0.0114159,0.0895686,0.0521945,-0.0677266,-0.164876,0.0333712,-0.0509396,0.0402488,-0.0419661,0.0282967,-0.0234741,-0.0550749,-0.0223992,0.0310845,0.0422991,-0.0514573,0.0316145,0.0231492,-0.131404,0.0314539,0.01926
0.057391,0.139279,-0.132326,-0.0418724,-0.0497263,0.0238719,0.0261355,0.0476013,0.0117517,0.0677852,-0.0247399,-0.113648,-0.114714,0.128182,0.0536542,0.0278202,-0.0284798,0.0709695,0.0178881,-0.0520598,0.0505715,0.0985911,-0.000637701,0.0705769,-0.0261127,-0.0100768,0.00555994,0.0524648,-0.00217804,-0.0226788,0.0507587,-0.0121375,0.0503824,0.0849135,-0.0848063,-0.047976,-0.0302339,-0.0684969,0.12861,0.15953,-0.0575365,0.0166364,0.0893035,0.057191,-0.0251985,0.0532741,-0.0588304,-0.00593861,0.0589919,-0.0219296,-0.0776025,-0.0286118,-0.112533,0.0896567,0.041208,0.00803872,0.0362972,-0.0431359,0.0750722,-0.041028
0.0687766,-0.0445513,-0.0913013,-0.00964797,0.0411426,-0.00321686,-0.0100432,0.130301,0.0163862,-0.0228454,0.0259467,0.0718217,-0.0460766,0.0528772,0.0664873,-0.108459,0.0450524,0.00561667,0.0502132,0.148377,-0.044958,0.0737415,0.086371,-0.00198428,-0.125166,-0.0306138,-0.0132694,-0.177423,0.00357372,-0.0376978,-0.0161734,0.0385307,-0.0565228,-0.0621298,0.0276175,-0.093253,0.0632374,-0.0694223,0.00786059,0.0725523,-0.0267375,-0.130594,0.0158504,0.0214751,0.0344007,0.0385387,-0.0981087,0.0987344,-0.092131,0.0797282,0.0523764,-0.103874,0.0186718,-0.0876187,-0.0708831,-0.0324363,0.0671494,-0.0530967,0.0174003,0.102031
0.0566083,-0.0333293,-0.0800223,0.0102834,-0.089879,0.0784124,0.0781507,-0.0751425,-0.0941819,-0.0161043,-0.0202116,-0.00172177,-0.0373258,0.0325961,-0.0422853,-0.0621384,0.053542,0.0863171,0.0676698,0.0223198,0.0156169,0.000186135,-0.0788034,-0.0449904,0.0448171,0.0866154,-0.0122429,0.0118641,0.110628,0.119531,0.0756153,-0.0455506,-0.0752246,-0.0473016,0.0359197,-0.0508491,0.0508237,-0.0341498,0.0115304,0.070314,-0.04762,-0.0819452,0.00258107,-0.00121738,0.104059,-2.32458e-05,0.163892,0.092522,0.0339341,-0.0318946,-0.00335393,-0.0247547,0.0251429,0.0437558,-0.0670809,0.0503956,-0.0524164,0.160761,-0.0154163,-0.0531776
-0.0329553,-0.0107902,0.0314687,0.000453484,-0.00111054,0.0621339,-0.0309044,0.136644,-0.0481528,-0.0530624,-0.0876418,-0.0130983,0.00881467,0.0377559,0.0627375,0.00338125,-0.03172,-0.0415807,-0.0110881,-0.0171844,0.0480715,0.000180437,0.0159867,-0.0154456,-0.0919391,0.0618048,-0.0815418,0.0423082,-0.0628703,-0.0313256,-0.142915,-0.0377469,0.019068,-0.0650313,-0.00466775,0.00219785,-0.0180865,-0.00986036,0.144226,0.00761903,-0.0698408,0.031318,0.0684338,0.00821631,0.0319568,-0.0119656,0.0533118,-0.0434343,0.0436468,0.000343126,-0.044634,0.0576393,-0.000681307,-0.0128094,-0.0573725,-0.0477943,-0.0845882,-0.0341491,-0.0342712,-0.0861795
0.0587985,0.0442815,0.0440704,-0.0257682,-0.0436775,-0.0390465,0.0440315,-0.0306423,-0.0176091,-0.0238939,0.0346495,-0.00904849,-0.0048971,0.0386761,0.0169596,0.023867,-0.0732983,-0.0174939,-0.0566335,0.012195,0.0894165,-0.0430972,-0.0843203,0.0467008,0.0245746,-0.0239164,-0.0257836,-0.0330697,0.114466,0.0800024,-0.0324785,0.0424919,0.00459265,-0.0352779,0.0613707,0.0381194,0.0758691,-0.0282237,0.0226562,0.0230465,-0.0786717,0.0296546,-0.046297,-0.0791308,0.0259549,-0.0822878,-0.100271,-0.14436,0.0125566,0.0319527,0.0121644,-0.0712102,-0.0781587,-0.0398106,-0.0450958,-0.0660854,0.0316482,-0.0267709,0.0616046,-0.085966
0.0410377,-0.0799756,0.098109,-0.0640007,0.0998227,-0.075074,0.0164789,0.0237051,-0.170658,0.02012,0.00732151,0.0200393,0.0499667,-0.0581701,0.0963778,-0.024966,0.0378253,0.0172891,0.0824966,0.00705725,0.0762008,-0.0218195,0.0905574,0.0200384,0.00149661,0.0139595,-0.0246292,-0.0784301,0.131816,-0.0214899,-0.0156514,0.161615,0.0549008,0.104199,0.0110125,-0.0415558,-0.00166035,0.0328841,-0.0102419,-0.0217815,0.0833275,0.0708342,-0.0212302,0.0122356,0.0314014,-0.117355,0.0858755,0.134401,-0.0844264,0.0274687,0.0725744,0.0288072,0.0442414,0.0158726,-0.0382468,0.00758871,0.107424,0.0464949,0.0063574,0.0966419
0.0127911,0.101606,0.0024676,-0.0752977,0.0876366,0.0915339,0.0931926,-0.08181,-0.0141052,0.0530287,0.026935,0.0202227,-0.0158012,-0.0114764,-0.0107083,0.1181,-0.0742819,0.0336085,0.0376205,0.0333063,-0.0200026,-0.00588951,-0.126814,-0.0586358,0.0057055,-0.0508091,-0.0322892,0.0421631,0.0346892,0.018328,0.0238843,0.0999991,-0.0721633,-0.0196557,0.0103867,0.0439303,-0.0577662,-0.008796,0.143252,-0.010686,-0.0439049,-0.0512977,0.0587755,-0.105434,0.0460478,0.0254627,0.093627,-0.0982331,-0.0348929,-0.013854,-0.0371065,0.0852446,0.00306668,-0.020568,0.0904877,0.0360728,0.0448328,-0.0343469,-0.00045642,0.0342212
-0.00251181,-0.0892989,-0.0808908,0.0704359,0.0481191,0.0972751,0.0863648,-0.0400137,0.030955,0.0666893,-0.0226154,-0.0608435,0.0645738,0.00803833,0.0679411,-0.068213,-0.122922,0.0209193,0.0613386,0.0582761,-0.0597562,-0.0964372,0.0173543,-0.0663284,-0.0437791,0.0135899,0.0625725,0.0285704,0.0102817,0.111377,-0.101054,0.00306504,-0.0129625,0.0903909,0.111073,-0.0253183,-0.00999245,0.0335092,-0.0315138,0.0171866,0.0900487,-0.00879515,-0.0162191,-0.0304656,0.0319909,-0.00745855,-0.104313,0.0484136,-0.0364273,-0.0841537,-0.0133923,0.0244729,0.0662241,0.0797756,0.0810854,0.0389042,-0.0775964,0.0101716,-0.0371921,-0.0428702
-0.0474762,-0.0840881,0.0591381,0.0432234,0.0461913,-0.00745286,0.12286,0.00937147,-0.0263238,0.0417797,-0.0275035,-0.0415618,-0.00119481,-0.0292176,0.0406244,0.0164152,0.046897,-0.00363923,0.0250554,0.0104727,0.00287207,0.00480587,-0.0163617,0.0565745,0.0432634,-0.0345364,-0.0771189,-0.0819332,-0.0305949,-0.0394655,0.052618,0.0217156,0.06176,0.0757616,0.0436629,0.0882243,-0.111159,-0.0860857,-0.0545504,-0.068204,0.00614268,-0.0032386,-0.0172652,0.0704595,-0.021614,0.078621,-0.0537706,-0.00555929,0.0499014,-0.010467,-0.0658662,0.130422,0.014321,-0.020959,-0.0499943,0.0434529,-0.04133,-0.0292443,-0.00732201,-0.149026
-0.0278832,0.054261,0.0317871,-0.0298185,0.0362239,-0.0200051,0.00730572,-0.0451634,0.00923933,0.0570807,-0.00368255,0.0034834,-0.0425109,0.0248776,-0.00602762,-0.100749,-0.0417125,0.0503422,0.0138045,0.150849,-0.0475514,-0.0291156,0.0305388,-0.0218914,0.058652,0.0526379,-0.00217436,0.10519,0.00378842,0.0309556,-0.0352173,0.146536,-0.0416627,0.0228266,0.052648,-0.0547294,0.00696705,0.0647273,-0.085129,0.0160024,0.0141809,-0.0304691,-0.0318751,-0.0786533,0.0151623,-0.00311133,0.0957136,-0.0439659,0.0331144,0.0359263,-0.0559471,0.0077257,-0.00956514,-0.0374807,-0.0776871,-0.0358571,0.0461632,-0.0263517,0.00385397,0.051923
-0.0170862,-0.0656845,-0.0215822,0.00274019,0.0158378,0.0779898,0.0306232,-0.0181779,-0.0181184,0.0767887,-0.0680003,-0.0326869,0.047242,0.0294302,-0.0260805,-0.0236956,-0.0455706,0.00803288,-0.0101637,0.00984462,-0.0376118,-0.0925859,-0.0242635,0.0291938,0.119936,-0.0308556,0.0231588,-0.0206032,-0.0080047,-0.041911,0.131442,-0.128117,-0.0035722,-0.0387405,0.076095,-0.0844149,-0.00138436,0.00893323,0.0461862,-0.145761,-0.0236142,-0.0205701,0.0421304,-0.00409981,-0.0697619,-0.0479971,0.0732207,0.0281048,-0.0274,-0.0365659,-0.0404915,0.0585223,0.0864773,-0.115734,-0.0259282,-0.015666,0.0228328,0.0211174,0.0460662,0.10766
0.125989,0.0427237,-0.0596954,-0.0252138,-0.0888957,0.0753496,0.0456107,-0.0268341,0.0143308,0.0125334,-0.0284004,-0.0468289,-0.0173501,0.134244,-0.00842898,-0.0539687,0.0506178,-0.0545533,0.164954,-0.0479096,0.0508582,0.061972,0.0212731,0.0190506,0.0138969,-0.0220695,0.0322247,-0.0698674,-0.0631764,-0.00847735,-0.0105774,0.116046,-0.0271724,0.0936304,-0.00697259,0.0750194,-0.0750553,0.0108695,-0.0129909,0.0214073,0.00713428,-0.0769886,0.0961446,0.00362234,-0.00558432,0.0499458,0.00218043,0.0697843,-0.0116198,0.0192322,0.0708249,-0.0122962,0.0863044,0.055886,-0.0393008,0.0200057,0.04122,0.00995257,-0.112011,0.0540285
-0.0269587,-0.0713006,0.00043699,-0.00666194,0.0220928,0.00871166,-0.0332326,0.0259354,0.0441638,-0.00321072,-0.0179931,0.170692,-0.0400785,0.00919807,-0.0857075,0.0784325,0.0228303,0.0935569,0.151178,0.050986,0.0665578,0.086015,0.00838832,-0.0234391,0.0293602,0.0574502,0.0575073,0.025908,-0.0432898,0.0358087,0.0404506,-0.00740026,0.0158589,-0.00169306,0.013695,-0.00438637,0.0357896,0.128853,-0.00215844,-0.00349489,0.000789401,0.0478408,0.0685258,-0.0384281,0.02795,-0.106119,0.0605474,0.053173,0.0610109,0.0360006,-0.0438386,0.0292987,0.0101089,0.035003,0.0558638,-0.0519187,0.044818,-0.0106923,-0.137215,-0.0556612
0.0982359,0.0135808,0.00688132,0.0909986,0.03003,-0.0644417,0.0251742,-0.0618129,-0.0584314,0.00368561,0.0215868,0.0438379,0.0161586,-0.00237719,-0.0321434,-0.0509302,0.0548317,-0.0284129,-0.0253012,-0.0135315,0.0569571,0.0378164,0.00921594,0.0191341,-0.0119685,0.0574035,-0.080586,0.0218463,0.0175242,-0.0917734,0.0741878,0.0696491,-0.0686056,-0.0151527,-0.0392044,-0.134625,-0.0122802,0.0441909,-0.0196737,-0.111193,0.0139406,-0.0747554,0.0106673,-0.0696365,0.0188029,0.0184289,-0.025054,0.0193958,-0.0620258,-0.0824111,-0.0324588,0.0683365,0.00328198,-0.0678864,0.0470032,0.024812,-0.0527893,-0.0577098,-0.111791,0.0897448
-0.0667355,0.0229419,-0.059673,0.056925,-0.0858145,0.0332664,0.0264136,-0.0472752,-0.11501,0.0200944,0.0611418,0.0203004,0.0124753,-0.107334,0.00554013,0.116066,-0.0802654,0.102866,-0.105062,-0.0160327,-0.0797383,-0.0496119,-0.10884,0.123225,-0.0421739,-0.0403942,0.0364102,-0.0112416,-0.0376471,-0.0112488,-0.00175145,-0.088738,-0.0818781,0.11739,-0.000139965,-0.0392134,0.0522617,-0.0437492,0.0123689,-0.0885709,-0.124011,0.00187287,-0.0674323,0.0200784,-0.104123,-0.0473522,0.0133396,0.0248736,-0.040826,-0.0868698,0.0847394,0.174369,-0.0153449,-0.0465456,0.0557362,-0.00511716,0.0179083,-0.0299068,0.0179048,-0.102987
0.0156829,0.00934029,0.0264832,-0.0449503,-0.0565692,-0.0164945,-0.0267911,0.0908318,0.076812,-0.0285192,-0.0372931,0.0224867,0.0104042,-0.0341655,0.0264346,-0.0279937,-0.0778778,-0.0109912,-0.0965986,0.103116,0.0555133,0.0240743,0.0867818,0.0877296,-0.0144238,0.0157221,-0.0874604,-0.0210994,0.105253,-0.0042831,-0.00755446,0.0199349,-0.00229244,0.0355815,0.0311521,0.0249353,-0.0977927,-0.0141255,-0.0181348,0.0499531,-0.0455746,0.0649414,0.0105488,-0.0126662,-0.0344342,0.00132992,-0.124116,0.0113126,0.098707,-0.073771,0.011672,0.0239926,0.0800034,0.0245567,0.00687909,-0.0815929,-0.0521155,-0.0015929,-0.0436802,-0.00923384
0.102773,-0.0467445,-0.0232435,-0.0444789,0.140137,-0.0464134,0.0813048,-0.0741418,-0.00341852,2.36869e-05,0.0603024,-0.0323966,0.048173,0.0130482,0.0848747,-0.0229763,0.0281024,0.0165304,0.0697533,-0.0392674,0.0383217,-0.0254,-0.0252795,-0.0673016,0.0125075,0.0861998,-0.0463732,-0.115173,0.035873,0.0249732,1,-0.0676913,0.0266944,-0.108033,0.00952612,0.085228,-0.0298678,-0.0708344,-0.0191707,-0.0469322,0.0119037,-0.0872743,-0.0534483,-0.0141551,0.0343605,-0.0031695,-0.0458918,-0.0281799,-0.0256766,0.0211791,0.115784,0.0451854,-0.0565595,0.0388128,0.0705407,0.0355327,0.0112248,-0.00236268,-0.0195675,-0.0230856
0.082501,-0.00629285,-0.0262132,0.0811587,-0.0343391,0.00126958,-0.00412358,0.00941008,0.0144677,0.0226439,0.0582439,0.0306719,-0.0222303,0.0883251,0.0330184,0.0933851,0.0275028,-0.0201849,-0.0618197,0.125706,0.0947561,0.022661,0.109286,-0.0504722,0.017989,0.0320655,-0.0600981,0.0845978,0.0303348,-0.0303033,-0.0764638,-0.00140422,-0.00930887,-0.0330691,-0.0353643,-0.0677644,-0.0441033,-0.00362536,0.0386296,-0.0254617,-0.124206,-0.0375202,-0.0382363,0.0905031,-0.0145088,0.110175,0.0616121,0.0485677,0.0029356,-0.00687645,0.0809958,0.11061,-0.00459823,0.0242555,-0.0621465,0.0298457,-0.0819597,0.0298054,0.0434012,-0.0175985
0.16543,-0.00248299,-0.0299354,-0.062288,-0.0260026,0.0962519,0.0725225,-0.017346,-0.0484044,-0.0209299,-0.0335975,0.0971587,-0.0875962,-0.0891071,0.118303,0.0121353,-0.0798309,-0.0352417,-0.0129507,0.0213069,0.0748701,-0.0335313,-0.0265687,-0.0698496,0.0662202,0.00478444,0.0625188,-0.0147547,0.0520802,-0.00154791,0.0420631,0.0989739,0.0153005,-0.00154364,-0.0696374,0.0364175,-0.078204,0.0264886,-0.0183463,-0.0879645,-0.0560791,-0.0594213,0.0478902,0.076387,-0.00251405,0.00117245,0.0799647,-0.0182875,-0.057844,0.0528521,-0.0306092,-0.0235988,-0.0186806,-0.0894653,-0.0232909,-0.0149896,0.00464258,-0.0635923,-0.122237,-0.0528947
0.00374012,0.0327201,0.0336801,-0.019528,-0.0223068,0.0250578,0.0441877,0.0237276,-0.0326719,-0.147047,-0.0303306,0.0293668,0.161977,0.102101,-0.0546524,-0.0669618,-0.00338491,-0.0686181,0.0456245,-0.0176321,0.0385119,0.0242829,0.20352,-0.0360834,-0.0227801,-0.112485,0.0424293,-0.0665267,-0.0406045,0.0928525,-0.0182711,-0.0571404,-0.0729121,0.0858735,-0.0577618,0.0283457,0.0290537,-0.0111181,-0.023242,-0.122259,-0.0910534,-0.00403451,-0.0512971,-0.00968213,0.0310062,-0.0307953,0.0762712,0.00912214,0.0226564,0.0215058,0.180767,-0.0022507,0.08249,0.0156498,-0.0919102,0.0598353,0.0749086,0.0501007,0.00332511,0.0358371
-0.085855,-0.107545,-0.0358054,-0.0370963,0.10544,-0.00722682,-0.068019,0.0535272,0.10528,0.104521,0.0961732,-0.019509,0.0723339,-0.0878279,-0.00423706,-0.0560146,-0.0563884,0.020389,-0.0839788,0.00121426,-0.087887,0.0825637,0.0223487,-0.0655741,-0.0777619,0.0100442,-0.0050328,-0.0354815,-0.0529562,0.00686424,-0.00865869,-0.0114157,0.0533363,0.112391,-0.0537983,0.0156639,0.0574682,-0.0539344,0.100026,-0.0258742,-0.120778,-0.0672136,0.0235926,0.0217028,-0.00376096,0.0336003,0.0200113,0.00296077,-0.0894344,0.0423967,-0.0646304,-0.0125597,-0.0121381,-0.0353895,-0.0279608,0.0305066,0.0343466,0.00778611,0.0201574,0.0299409
-0.0175107,-0.00558367,-0.0136662,-0.0613303,-0.0148253,0.00900977,-0.000728036,0.0807545,-0.0910148,0.0551553,0.00640508,0.0854807,0.086164,-0.0518346,0.0315883,-0.0609777,0.0331552,-0.0785183,-0.000244783,0.0608074,0.0114549,0.0541201,-0.0499473,0.0319565,-0.0107938,-0.00949582,-0.0321479,-0.10094,-0.0748141,-0.0556267,0.0143322,-0.0105951,-0.0606015,-0.024307,0.0645703,-0.0503308,-0.0105928,-0.00562367,0.0923214,0.0122555,0.0338588,0.0779545,-0.033499,0.078877,0.0281468,-0.0379133,0.0162072,-0.0700769,-0.0395909,0.0278392,0.0201626,0.0590322,-0.0128068,0.0417739,0.0156057,-0.0315355,0.0489525,0.0313396,0.00535559,0.000113677
0.0389151,-0.0532714,-0.00203072,0.0106539,0.0864831,-0.0519037,0.00992348,0.0455447,-0.00799155,0.0108309,0.0106194,-0.155224,-0.0896024,0.0022382,-0.076872,0.00664995,0.0643695,0.0183036,0.0569847,0.0896557,-0.032497,-0.0183874,0.0527461,-0.047089,0.0797017,-0.0159339,-0.120873,-0.0072308,-0.0295747,0.0265641,0.0312554,-0.0330188,0.0212079,-0.101425,0.00478904,-0.00448008,0.0412763,-0.098084,0.0589759,-0.0694332,0.0581164,0.0507908,0.0773333,-0.0339629,0.0444587,0.0821221,-0.0250615,0.0751022,-0.000914732,-0.0876243,-0.0801051,0.0455317,-0.013754,-0.0673047,0.0652109,0.0794046,-0.0487684,-0.00863289,-0.0681894,-0.1163
0.00845608,0.0276912,-0.0173503,0.0264555,-0.0966257,-0.0358389,0.0758421,-0.0394266,-0.0887355,0.14304,0.0709789,-0.0486238,-0.155693,-0.00687768,0.0125008,0.0188117,-0.011514,0.0723643,0.235218,0.0356342,-0.0213019,-0.0954554,-0.00989275,-0.0341169,-0.0744181,0.0593006,0.017615,0.0832808,0.00787035,0.0102771,-0.0494606,0.0503151,-0.00991413,-0.0297645,-0.0481608,-0.0319718,0.113681,-0.0177149,-0.0447452,0.0262872,0.0833683,-0.0844173,0.0214911,-0.0112386,-0.0499473,0.0106221,-0.06096,-0.00953741,-0.0168487,-0.0507065,0.0204758,0.0744909,-0.02296,-0.0185513,0.0675433,0.00151631,-0.0284858,-0.0566076,-0.117558,-0.0467991
-0.000528873,0.00482793,0.0700492,-0.0370088,0.107559,0.0705708,0.0403096,-0.000242207,0.0945359,-0.0181956,-0.062519,0.0802721,0.020101,-0.00288846,-0.0363893,0.00191346,-0.0269265,0.000432036,-0.0283598,-0.0184953,-0.0400593,-0.0379992,0.00458085,0.007747,0.0497695,-0.0053726,0.0227908,0.11504,-0.0482771,-0.0512243,0.0425522,0.0224856,0.0245026,-0.00485186,-0.00968372,0.12204,0.0147948,-0.0424293,0.0323461,0.0207584,0.062632,-0.0166977,-0.0666407,-0.0333495,0.0222597,0.0456803,-0.0750591,-0.0269891,0.0146536,-0.0376465,0.0383744,0.000699021,-0.00385118,-0.0231921,0.0661027,-0.0717788,-0.0635488,-0.0322288,-0.0321613,-0.0179991
0.0449841,-0.00139199,-0.0238206,0.045129,0.0252313,-0.126325,-0.127893,-0.0279284,0.0805469,-0.00369977,-0.0622181,0.0151202,0.00838402,0.0487653,0.123807,0.0265503,-0.0304448,-0.00535108,-0.00470205,-0.00918218,-0.0428485,0.0622173,-0.0334378,0.141493,-0.0267567,-0.0203528,0.036347,0.0744129,-0.0652495,-0.0356911,-0.0871981,0.0819801,-0.039595,-0.0834407,0.0362832,-0.0330255,-0.0196365,0.0148982,0.00576015,-0.013874,-0.119827,-0.0275549,0.0432771,0.083202,-0.00447759,-0.061412,-0.0323344,-0.0487936,0.0894396,-0.0106879,0.0201295,0.094135,-0.0615279,-0.0347671,0.00883895,0.062789,0.0358105,-0.00655068,0.144742,0.101781
-0.0870793,0.014996,-0.150613,0.0278761,-0.083149,0.0139704,0.128051,0.0527583,-0.0495959,0.0568501,-0.00722274,-0.020012,-0.132502,-0.00507862,-0.0519707,0.0049785,-0.0474673,0.147113,-0.0237198,-0.0230075,0.0341013,-0.0656611,-0.0518187,0.0262691,-0.0430772,-0.00667356,0.0437529,0.0042093,0.0857414,-0.0144687,-0.0077642,0.121469,-0.0955778,-0.0342483,-0.00861112,-0.00480194,-0.00127579,-0.0021432,-0.0118145,-0.0876544,0.0674241,-0.0226521,-0.0460481,0.0345132,0.0751035,0.0979826,-0.00783175,6.31293e-05,0.0876263,0.0973624,0.0381662,0.111218,0.0539112,-0.0428563,0.0130861,0.000174364,0.0697624,-0.0236547,0.0882762,-0.00771589
0.0276042,-0.0513155,0.017585,0.0386501,-0.0726555,0.0244151,-0.0470033,-0.0966383,0.0332194,0.0213243,0.022898,0.0371657,-0.0554988,-0.0270733,-0.0573037,0.0953946,0.0315704,0.0402203,0.0534546,0.113974,-0.0133121,-0.0498565,0.0462933,-0.0300698,-0.0522125,0.0602726,-0.02426,0.0490365,0.00161326,0.0224482,0.0199654,0.0237114,-0.0616734,-0.00690344,-0.00981961,0.0678816,-0.0845865,0.0875666,-0.153622,0.0405491,-0.00264198,0.0978198,0.0675595,0.0293802,0.00322183,0.00869453,-0.0317239,-0.00214114,-0.0325387,0.0295657,-0.0359888,0.0749691,0.0742783,0.0285598,0.134671,0.0277129,-0.010512,0.0428161,-0.0841799,0.143947
-0.000481535,0.0327906,-0.0262519,0.0381186,0.0119193,0.0542071,0.0602265,0.0152683,-0.0459807,0.0897179,-0.0326219,0.0203121,-0.0724731,-0.0894454,-0.000739921,0.0678517,-0.018497,-0.0432425,-0.0388093,0.0707196,0.0249381,0.0050667,-0.0472366,0.0599849,-0.0600939,-0.0245014,-0.0010247,-0.00159828,-0.0172441,0.0179098,0.0374073,0.0658668,0.0709692,0.0292259,0.0821971,-0.0625799,0.00627852,0.0645978,0.00160522,-0.0226357,0.00375414,-0.0166,-0.0199176,-0.0266409,0.0198542,0.134173,0.00431931,0.0672834,-0.0347755,-0.0747077,0.00650596,-0.0275532,-0.0655313,-0.0407893,-0.0317491,0.0118047,-0.00647007,0.0104598,-0.128111,-0.0138716
-0.0752822,0.0395321,0.00335613,0.00695809,0.0751154,-0.0804414,0.0785817,0.0289022,-0.0297984,0.0164908,-0.0607623,0.0301949,0.01848,0.00916211,-0.00238462,0.0616501,0.0695921,0.0116525,-0.045095,0.0276538,0.0499787,-0.0728081,-0.0691998,0.0222089,0.055363,0.0300564,0.0310703,-0.115564,0.0444431,-0.0409601,-0.0625216,0.0347606,0.0837664,0.100568,-0.0326517,-0.00369011,-0.00194068,0.017003,-0.0599388,0.0207001,-0.025081,-0.0480785,-0.0714844,-0.0131288,0.0142046,-0.016212,0.0225418,-0.0265081,0.0933602,0.04248,-0.0682035,0.0670438,0.14648,-0.100336,-0.00764232,0.0393213,-0.0102886,-0.0646154,-0.0577694,-0.057226
0.0433361,0.0521461,-0.0970423,-0.0156078,-0.0591387,0.0266192,-0.0207758,-0.0144244,-0.0226349,-0.0489418,0.0344731,0.00823134,-0.0206391,-0.0547367,0.122578,0.00668019,-0.0282093,-0.0412477,-0.0936458,0.0153777,-0.0453157,-0.0812649,0.00559228,-0.0915387,-0.00651633,-0.074062,0.0147481,0.020924,-0.0473641,0.0711522,0.0741408,0.0374511,-0.00549268,-0.0384588,-0.13587,-0.0182696,-0.0918327,0.0146063,-0.0298908,-0.00640733,-0.0167288,-0.0597057,-0.0857718,-0.0225098,0.0359524,0.077483,-0.0592458,-0.0164567,-0.0514035,-0.00506769,0.00508972,0.0510688,-0.0884524,-0.0718105,0.0610934,0.00400687,-0.070258,0.0832726,-0.0454236,0.0306261
0.122276,0.0527136,-0.0168028,-0.0123168,0.0642133,0.000887836,-0.0505425,-0.0783249,0.014509,-0.0486392,0.046237,-0.0456049,0.00778075,0.0120628,-0.00816969,-0.0473128,-0.0127692,-0.0583107,-0.101872,0.0386768,-0.10488,-0.0228597,0.0628106,0.00550776,0.135071,0.00791128,0.00304144,0.0754499,-0.0350424,-0.0558255,0.00294219,0.0882444,0.0212741,-0.0333193,0.086996,-0.0393192,0.0244765,0.00531813,-0.0349996,-0.0843926,-0.149006,-0.0364541,0.0274553,-0.0144891,-0.0195759,0.0295544,-0.0510405,0.0300941,0.0306142,-0.0723674,-0.091756,0.124937,0.0896167,-0.0272163,-0.0819974,-0.03268,-0.00326949,-0.0444173,-0.0273962,0.133608
-0.023058,0.115881,-0.0436453,-0.0475722,-0.0116337,0.0427122,0.0516343,-0.0766936,-0.0677337,0.0362255,0.0498345,0.0156302,-0.0382785,0.0177972,-0.0151166,-0.0359688,0.0222254,-0.139997,0.0768659,0.00679707,-0.114218,0.0675129,-0.120229,0.00707205,-0.0760201,-0.0151049,0.0187346,-0.0277599,-0.0681155,0.0260959,0.0733375,-0.0439191,-0.0108129,0.0410301,-0.0269201,0.0302679,0.00715952,-0.0125466,-0.110418,0.0463686,-0.0816846,-0.113908,-0.00374878,0.077136,0.0325083,-0.011247,-0.0533917,-0.0141442,-0.0693284,0.0682792,-0.0106172,-0.0194303,-0.0127313,0.0147833,0.0131178,-0.0194645,0.10262,0.0701236,-0.011491,-0.0457109
0.0131034,-0.0432123,-0.00775798,0.0286748,-0.0377612,-0.0266481,0.0134157,-0.0144744,0.0065086,-0.0719947,-0.0628309,-0.0427821,0.0229974,-0.100672,-0.0140026,0.0435769,-0.045785,0.0426951,-0.134128,-0.0142013,0.0388841,-0.0434322,0.0212905,0.0638074,0.0557405,0.0511364,0.0577735,-0.00742113,0.0013581,0.0114209,-0.0511032,-0.0661391,0.0393592,0.0731587,0.037948,-0.102027,-0.10026,0.0298229,-0.0333053,-0.0313889,0.0605816,-0.0478731,0.0356866,0.00242918,-0.0369742,-0.0238643,-0.0756302,-0.0862749,0.0351087,0.0976329,-0.00665353,0.0872389,-0.033853,0.0460798,0.0378842,0.0162564,0.0122936,0.05054,-0.10279,0.0569793
-0.0102306,0.000233493,0.0290178,-0.0370261,0.0391824,-0.00528171,-0.0147201,-0.0476633,0.0327075,0.0117096,0.0349355,-0.017457,0.0563644,0.0329694,0.0939177,-0.0493626,-0.0647961,-0.0525944,0.0640974,0.0863624,0.018012,0.00645656,0.0296724,0.0643433,0.105328,0.0662934,-0.033672,0.058436,0.0488927,-0.00985909,0.0595027,-0.0074963,0.0152904,-0.0357034,-0.0353928,0.0140951,-0.0613003,-0.0523335,-0.0166893,-0.12492,0.0920038,-0.0229874,-0.0462026,-0.059359,-0.0405871,0.0911962,0.00309342,-0.0445715,0.00785977,0.109982,0.0160582,-0.0284248,0.0429697,-0.0554741,-0.0384919,-0.0407778,0.0512291,-0.0886494,0.00236007,0.0336944
0.0701856,-0.0233325,-0.0227649,0.112366,0.0313334,-0.0354391,-0.0245086,0.00772311,-0.0954333,-0.0721603,-0.0710578,0.0763506,-0.0118544,0.0261675,0.00143265,0.0650018,0.0193092,-0.0124309,0.043645,-0.0633949,0.0363703,0.0933089,-0.0190443,0.11309,0.0934944,-0.000113221,-0.00971893,-0.0387057,-0.0141821,0.0167352,0.131077,-0.0141717,-0.0295207,-0.0160534,-0.0369085,-0.0265701,0.0385385,0.110002,-0.0157782,0.0723018,-0.00207039,-0.0670986,0.0266565,0.0794079,-0.088485,-0.0892605,-0.0412143,-0.0639008,0.0859729,-0.00748356,-0.0552789,0.0714214,-0.0445794,0.00331444,-0.108905,0.0196315,-0.0648817,0.0280703,-0.0609197,0.0309753
-0.0472607,0.0488705,0.0864259,-0.024926,-0.0630402,0.00390859,0.0576757,0.00697159,-0.0447979,0.0273705,0.106056,-0.0347199,0.0130084,0.0559608,-0.116289,0.0454408,0.045422,0.0627472,0.00462575,-0.129781,-0.0337264,0.0100489,-0.00424413,-0.00136178,0.0237627,0.0641303,0.0532339,-0.00113478,-0.119612,0.0399923,0.0308278,0.00872203,0.0369623,-0.0316406,0.0762879,-0.043484,0.0177093,-0.0156296,0.0414748,-0.00518998,-0.104488,-0.131065,-0.0481332,0.0519289,-0.0929651,0.054189,-0.0695012,0.0741186,-0.0228366,-0.171094,-0.00494829,0.0407104,0.0742417,-0.017067,-0.062217,-0.0531764,0.029306,-0.0424087,0.00904625,0.00233064
-0.0358617,-0.0597141,0.029418,-0.182104,0.0436497,0.0190763,-0.00722922,-0.0260901,-0.0208824,0.00346694,0.0486022,-0.0490072,-0.0140695,0.0268596,-0.0640041,-0.0980294,-0.0679679,0.029027,-0.00309804,0.0304023,-0.0260295,-0.00640136,-0.0295032,-0.118985,0.071431,-0.0077713,0.0286209,0.00687535,0.0817546,-0.0676916,-0.0716689,0.0677228,0.000835752,-0.0270503,-0.072118,0.0619379,0.0203595,-0.010872,0.0425183,-0.0345851,-0.0676431,0.100569,0.0400672,-0.0464587,-0.0915929,0.00539316,0.0590426,0.118955,0.0262466,0.0320237,0.0943898,-0.0470797,-0.0423218,0.0587451,0.0874885,-0.0137037,0.122275,0.000651691,0.0536022,-0.0589059
-0.016887,0.0751905,0.055259,0.00342467,0.0571421,0.0842914,0.0941924,0.0569704,-0.118801,-0.0433109,-0.0505341,0.0242264,-0.0522623,-0.11936,0.0243645,-0.0085052,-0.0619428,-0.0660032,-0.0122041,0.0207282,-0.0479704,-0.151015,0.0328488,0.0331971,0.0113071,0.018937,0.103096,0.0958563,0.0530452,-0.0415718,0.0101789,0.0332407,-0.0299336,-0.1065,-0.0260924,-0.0640527,0.00469432,0.0458772,0.00348414,0.0100429,-0.0262336,0.0092489,0.0827484,0.0752599,-0.0226389,0.013356,-0.0672976,0.0466177,-0.0773924,0.00234806,0.016123,0.124596,-0.0695288,-0.0312422,-0.0505508,0.00457176,0.0457499,-0.00760626,-0.0466676,0.0750094
-0.0210207,0.0381001,0.0653953,0.0526461,-0.0119267,-0.0606808,0.0843121,0.0954209,-0.134039,-0.0129257,0.00925059,-0.0319051,-0.00902862,0.0492752,-0.0564997,0.0323886,-6.36977e-05,0.0463709,0.0259806,0.00542908,0.0790506,0.0439876,-0.0183399,0.0636688,0.0163397,-0.0352778,-0.0209202,0.0761932,0.0494058,-0.0151992,-0.0446524,0.0727127,0.0768235,-0.0438168,0.0487846,0.00600478,0.030178,-0.157923,-0.0629262,0.0563681,0.0721552,-0.0438136,0.0297464,0.0520504,0.0520634,-0.0636719,-0.0288783,0.179629,-0.0123055,0.139935,0.0818066,0.0934386,0.00579924,0.0447711,0.0481734,0.0121532,0.03635,-0.0142673,-0.0512177,-0.0268001
-0.012218,0.0347026,0.071764,-0.0415195,-0.0301719,0.079952,0.0857925,-0.0491774,-0.021335,-0.0840052,-0.0799729,-0.00734416,-0.135588,0.0283289,-0.00338077,0.126665,-0.0721591,0.014747,-0.0338301,-0.0329609,-0.0447017,0.00513579,-0.066194,0.0768328,0.0125508,-2.20042e-05,0.0667252,0.000548301,-0.030038,0.087283,-0.0966096,-0.00917068,0.0169146,-0.00468988,-0.0884913,0.0758069,-0.0301997,-0.0539399,0.0156139,-0.0162984,0.00114999,-0.0129712,0.0827848,0.0336982,-0.0284615,-0.0306284,0.0567669,-0.00970753,0.0177262,-0.0322236,-0.0197572,-0.0431094,0.0689456,-0.158768,-0.150335,-0.0485369,-0.0693105,-0.0189259,-0.0336277,0.0129098
-0.0992209,-0.0654646,-0.0622883,0.00698258,0.0407806,-0.0648771,-0.0696035,-0.0809515,0.0233194,0.0121648,0.0256819,-0.0868657,-0.0613526,-0.0181677,0.0394821,-0.0410409,-0.0152118,0.102116,-0.0621174,0.0028136,-0.0114815,0.00472431,-0.0719062,-0.0644681,-0.0711795,-0.00336096,0.0330113,-0.102405,0.13586,0.010755,0.0266007,0.000573046,-0.00704603,-0.0136808,-0.0450087,-0.0711027,0.00534224,0.0654769,0.094814,-0.130344,0.0203509,0.109603,0.0662511,0.0793441,0.182015,-0.0640676,-0.0138267,-0.0252302,0.0808642,-0.111255,-0.0516813,-0.0357397,0.0861722,0.0599181,-0.0232737,0.110726,-0.0396106,-0.0606748,-0.0905884,0.0170236
0.0109017,0.102597,-0.0269051,0.0178364,0.038696,0.112975,-0.0420569,-0.0131994,0.0641231,-0.0327178,-0.0519547,-0.0226658,-0.0382563,0.0957881,0.000856761,-0.0091907,0.0511624,0.016468,-0.00410767,0.00983931,-0.0731495,0.0832573,-0.077358,-0.0492501,0.080973,-0.0100986,-0.0476778,-0.102218,0.0825011,-0.0164821,0.0135024,0.0217669,-0.0199219,0.00447674,0.0948182,0.101126,0.0723874,0.0140071,-0.00212857,0.0448628,-0.0609878,0.0721809,-0.00105384,-0.0472903,0.0964458,-0.0277492,0.0853103,-0.0392659,-0.0191917,0.107946,0.0381325,0.000347729,-0.00444423,-0.014837,-0.0537304,0.0100031,-0.0674644,0.129882,0.0228525,0.0302819
0.0408113,0.0415848,0.0117442,0.0640394,-0.0864564,0.117775,-0.0482711,0.00379059,-0.0148091,-0.0197609,-0.0592109,-0.00216881,-0.0687744,0.103332,-0.115553,0.0492547,-0.0187137,0.0772397,0.0324893,0.000338231,-0.0867838,-0.0716133,0.0249979,-0.0403516,0.0132642,-0.00928397,-0.0133545,-0.0241915,-0.057691,0.106404,-0.029848,-0.0963895,-0.0857252,-0.0622151,-0.0531011,-0.0449657,-0.0456485,-0.00360258,0.0544953,-0.0293941,0.0844525,-0.10494,0.0151723,0.00596572,-0.0428635,-0.0202795,0.0236125,-0.0731905,-0.0331239,0.00603785,0.0381549,0.00415828,0.0335988,-0.0203575,0.0500299,-0.0123048,-0.0122647,0.0289091,0.070176,-0.0221685
0.0419622,-0.0566638,0.00221524,0.0322349,0.0140253,0.0445032,-0.0668874,0.0947335,0.0534867,0.0356719,0.0522104,-0.0350373,0.0348256,-0.111609,0.084239,-0.0177827,0.0196958,0.0339866,-0.0487145,0.06159,0.0465334,0.130439,0.0122362,-0.0209746,-0.0734525,0.00434259,-0.120891,0.0569093,0.00537678,0.0851784,0.059451,0.0379957,-0.0617756,0.0139497,0.110559,0.0107244,-0.0855759,0.0616917,-0.0116072,-0.0316513,-0.0940135,0.13472,-0.0373216,-0.122906,-0.0143255,-0.0267867,-0.0399505,-0.0452712,0.0367736,0.0272334,-0.039572,0.0593206,0.0113224,0.139903,-0.026934,-0.0218053,0.111193,-0.0407745,-0.045405,-0.0280247
-0.0955573,-0.011508,0.0560066,-0.0076103,-0.00744093,0.0219837,-0.0388254,0.0613232,-0.0441343,-0.103345,-0.0100117,0.0355096,0.0348014,0.0717833,-0.00087094,-0.0455704,-0.0150097,-0.0256591,-0.0804158,-0.00198901,-0.0213785,0.0690841,0.00162488,0.0467153,0.0945158,-0.00998932,-0.0604744,0.0608644,0.00965378,0.0252246,0.0566391,-0.0507287,-0.00206198,-0.0105678,0.132021,-0.0761335,0.0221636,0.0122898,0.126338,0.0613375,-0.0609578,0.0595125,0.0571765,-0.0272075,-0.00243896,0.0417452,-0.0550275,0.0299399,-0.0045132,-0.0903671,0.028841,0.0681414,-0.057109,0.111067,0.0546405,-0.00203489,-0.00310383,0.0125066,-0.0433275,0.0505847

max: 1
min: -0.182104
avg: 0.00147833
