0.00255389,-0.00677476,0.0657204,0.0194565,0.0139095,0.0458302,0.0498981,0.0219481,-0.0225954,0.0110903,0.0109651,0.0520595,0.0432748,0.0143031,-0.03095,0.0107213,-0.0283375,0.0111957,-0.0300067,0.0262702,-0.0211356,-0.0709031,0.0745841,-0.0725753,0.0671526,-0.0612718,0.0232646,0.00181986,0.0503679,0.0440355,0.0298948,-0.0696986,-0.0592936,0.071307,-0.0632096,0.0748619,0.0437782,0.0488299,0.00212585,-0.0108295,0.0900538,-0.0203507,0.048954,-0.0317505,-0.00747899,-0.0946093,-0.060638,-0.0117817,0.0289049,-0.0923217,0.049994,0.124165,0.00396027,-0.00286568,0.0511047,-0.0273718,0.0490264,0.0135291,0.105489,0.0183725
-0.00126921,-0.0439648,0.114089,-0.00217491,-0.0117416,0.0458044,-0.0391652,-0.068327,-0.0911897,-0.0577867,0.0980841,-0.0708324,-0.100163,-0.042458,0.0687984,0.07585,-0.0376516,-0.00996618,-0.0182213,0.0261956,0.016085,-0.0717383,0.0334054,-0.0999681,-0.0857429,0.0516344,-0.0559376,0.0146624,-0.135044,0.151577,0.036111,0.0121081,0.00128044,0.0127306,0.0948335,0.0552291,-0.00228175,0.0701547,-0.0270301,0.0769943,0.0748463,0.00530304,0.127458,-0.0258852,0.0206305,-0.0262259,-0.0356611,-0.0144953,-0.0466693,0.0697054,-0.0507008,0.0355467,0.0732825,-0.0066456,-0.0940584,-0.0385063,-0.064061,-0.0234205,-0.0471162,-0.0187757
-0.0185229,-0.00317514,-0.0060617,0.026558,-0.0934547,-0.0308698,0.0618574,-0.0747766,0.0651506,-0.0350475,-0.0444557,-0.0830324,0.0342775,-0.00365702,-0.0457981,0.0295648,-0.0904577,0.000854347,0.0717063,-0.0590136,-0.0158377,0.0091746,-0.0157537,-0.040243,-0.0287733,0.0750286,-0.122685,0.0482616,-0.0100338,0.148484,0.00257686,-0.11817,0.0201142,-0.00530839,0.023624,-0.0157169,0.0156896,0.0518333,0.112378,0.0210157,0.0137969,-0.0655803,0.0734473,0.0305402,-0.0671783,0.0197676,-0.046294,0.0627857,-0.0222343,-0.0456349,0.0792129,0.0590259,-0.0211532,0.0299815,0.00125683,0.0441001,0.0535984,0.0121607,-0.0568723,0.0359937
-0.0670563,0.0454442,-0.050175,0.00798461,-0.0539492,0.0448622,-0.118029,0.0709591,0.0471241,-0.0266673,-0.0407499,0.0393123,0.0903633,-0.00088814,-0.0716377,-0.00559344,0.115416,0.0786706,0.0291591,0.00863483,0.00956892,0.16419,-0.0451278,-0.020664,-0.0428385,0.10118,0.0371779,-0.0796048,0.0789381,0.00377611,-0.0692379,0.025696,0.0286753,-0.0457926,-0.0555185,-0.03922,-0.0130263,0.0111305,0.0132094,-0.0492068,-0.0289475,-0.0135038,-0.00413798,-0.0294045,-0.0551352,0.0317326,0.0669038,0.0042542,0.022306,-0.0437535,0.00423941,-0.0504929,0.0147697,-0.100585,-0.0048862,-0.011787,-0.0512195,-0.0520751,-0.0108178,0.0958107
-0.0170212,-0.0334759,-0.0146025,0.000624732,-0.0403441,0.0488652,0.0186745,-0.082069,-0.0388256,-0.114025,-0.0305993,0.0403852,0.12427,0.0136043,0.0870692,-0.0284114,-0.00598651,0.0273656,0.0113631,0.0348233,-0.0584769,0.0436581,0.0957987,0.0851614,-0.0634804,0.00457453,0.00721257,-0.0173365,0.0648099,-0.0501451,0.0309474,0.00993281,-0.00746217,0.147692,0.0715094,0.15014,0.0604819,-0.115202,0.0946951,-0.0345283,-0.00252937,-0.010892,-0.0788206,-0.0296999,-0.0464062,-0.0134123,-0.00106695,-0.0191949,-0.0472652,0.0132049,0.0297695,0.0624335,0.0979848,-0.025453,-0.08274,0.0951857,0.0271876,0.00665832,0.0144519,0.0308676
-0.103848,-0.0415398,0.0469168,0.0480735,0.0191536,0.00836473,0.0047833,0.0732223,-0.0353302,0.0460424,0.0804067,-0.0753331,-0.0285123,-0.0281218,-0.0846836,0.0505253,-0.0820178,0.0998705,0.0219372,-0.068947,0.0130928,0.166916,-0.00542106,0.0714831,0.0436969,0.0183797,-0.012404,-0.0569902,0.0957306,-0.0102996,-0.00739365,-0.0637889,0.0878994,-0.00723918,-0.0221926,0.077624,-0.0277743,0.0604824,-0.00819509,-0.088527,0.0724284,0.0437951,-0.0259207,0.124909,-0.0117101,0.0789605,-0.0721715,0.0277409,-0.0821904,0.0262184,0.0128403,0.0462505,-0.00800188,0.0367184,0.0212712,-0.0888038,0.0694645,0.0645487,0.0709023,0.0764576
0.0563688,0.0765388,-0.0791091,0.0262246,-0.0130563,-0.0308563,0.0588167,0.0485885,-0.00352987,-0.0422187,-0.0778646,0.0271836,0.0717285,0.0798201,0.0987068,-0.0149096,0.00829259,-0.0920215,0.075147,-0.107354,0.0881101,0.000264837,0.0275736,-0.00285617,-0.00473364,0.0578784,-0.0360642,0.0496569,0.010478,-0.0266789,-0.00450912,-0.031694,-0.110623,-0.0195052,-0.0046808,0.0247485,0.0147714,-0.0370762,-0.01626,-0.0515105,-0.000625473,-0.0687882,-0.123339,0.0508457,-0.0061242,-0.0219754,0.0323377,-0.0427305,0.0185518,0.0278294,0.019262,-0.111167,0.07403,-0.0584843,0.0937384,0.0328642,-0.0446626,0.0198556,0.0726928,-0.0952701
-0.00354577,0.0465824,-0.103437,0.112659,0.0403157,0.0480146,0.0452039,0.0278806,0.169829,0.0350718,-0.030917,-0.0264467,0.115122,-0.094271,-0.000847495,0.043533,0.0179131,0.0486172,-0.00180858,-0.0287069,0.0598373,0.0150944,-1.19996e-05,0.0489491,-0.0707424,-0.0408905,-0.0228477,0.0219738,0.0727998,-0.0101767,0.00260429,0.0522063,-0.00109913,0.0740491,-0.126131,-0.0284155,0.0717071,0.104373,0.0174709,0.01388,0.0235203,-0.0501875,-0.0410225,-0.0362005,0.0602591,0.0633896,-0.0376306,0.0192152,0.00911278,-0.0222408,-0.046986,-0.0268127,-0.0881416,-0.0230282,0.0208777,0.0430318,-0.0238988,-0.0156986,-0.00294461,0.00228111
-0.0136688,-0.0407333,-0.0967778,-0.097701,0.0108725,-0.0122216,-0.107693,-0.00982808,0.0337194,0.0567104,0.0840006,-0.0589992,0.0311392,0.0137798,-0.0860164,0.0174566,-0.030701,-0.050884,0.049386,-0.0846081,0.0317249,-0.0522936,0.0162056,0.102726,0.0624429,-0.0509134,0.0610443,-0.0121237,-0.077774,0.0215344,-0.0473243,0.0630294,-0.0255249,0.0504082,-0.0380208,-0.03646,0.0293447,-0.00137167,0.0108159,0.0982154,0.00492554,-0.0358842,-0.0582317,0.0405113,-0.104418,-0.00277879,0.0789189,0.10302,0.0246769,-0.0997349,0.0808112,0.0676133,0.0646766,0.015431,-0.061182,0.0546457,0.0434358,-0.0373975,-0.0418414,0.00735675
-0.0548818,-0.060023,-0.017974,-0.0577879,-0.0878805,-0.03091,-0.00504382,0.0620276,0.0666532,-0.0109793,-0.0121223,0.0361254,-0.0269844,-0.048785,0.0721516,0.066371,-0.0385145,0.039182,-0.0520489,0.0549428,0.0255681,-0.0184217,-0.0249365,-0.00165109,-0.0369492,-0.0899294,0.00662926,-0.0122275,-0.0479149,-0.0633394,0.0241663,-0.0121377,-0.0223128,0.0124809,-0.0302717,0.0676891,0.0243692,-0.0307352,0.0494259,-0.0248458,0.0242965,0.0712005,0.00620335,0.00965532,0.0310496,-0.077823,0.0488735,0.0618005,0.00200308,0.0174695,0.0195861,0.0200772,-0.0866427,0.0703311,-0.0509968,-0.0648926,-0.0011728,-0.0707804,-0.0099097,-0.0480446
0.0036204,0.0644865,-0.0169816,-0.0972549,-0.0506253,-0.0507697,-0.0179105,-0.0077759,0.0537879,0.115248,-0.0548818,-0.0259113,0.0497843,-0.0265585,0.0980632,0.0510377,0.00683187,0.0851543,0.0704256,0.0203389,0.148302,-0.000487022,-0.00856305,0.013212,0.0135976,-0.084516,0.0569605,-0.0725367,0.116775,0.00781457,-0.0283823,0.00872701,-0.0843354,-0.114021,-0.02677,-0.165022,-0.0710799,0.00348588,-0.0350656,-0.00733922,-0.00397694,0.0317745,0.00168916,-0.0507668,-0.0821165,0.0179998,0.0657386,0.00120037,0.0667358,0.0975952,-0.0483873,0.00254879,0.113176,-0.0598796,0.0265927,-0.0741287,-0.0946092,-0.0250648,0.0415338,0.00956596
0.010354,0.0423822,-0.000561699,0.0710946,0.00653811,0.0515348,-0.0622417,0.0202151,-0.0240106,-0.0758782,0.0567868,0.0102098,0.00570445,0.061829,0.0369808,0.0899066,0.0529233,-0.0592053,-0.0654373,-0.0156373,-0.00504809,0.0771837,-0.0489456,0.0112506,-0.0907208,0.0538167,0.0594622,-0.0990858,0.0232371,0.0199808,-0.0333928,-0.0315082,0.032497,0.00437181,0.0924036,0.0892392,-0.0739046,0.0460124,-0.0854024,-0.0450573,-0.00536184,-0.00445406,0.0590151,0.0297396,-0.0408437,0.00602627,-0.0107714,0.0503101,0.0141206,-0.00154757,0.00832355,-0.0821591,0.0194909,0.0407498,0.015726,-0.0177877,-0.0101755,0.0393762,0.102912,0.0535704
-0.017769,-0.0196116,-0.0379838,0.0684122,-0.00255024,-0.0629845,0.0187939,0.0304643,0.0344482,0.0469852,-0.0185295,-0.00487301,-0.0312943,-0.0705985,0.0268669,-0.00204762,-0.00497369,0.0507964,-0.0374857,0.00844871,0.055384,0.067297,-0.146203,-0.00693238,0.0221588,-0.0153387,-0.0774795,0.0647346,0.135362,0.117543,-0.0301064,-0.0285956,0.0632549,-0.0292322,0.0751217,-0.0562166,0.0126833,-0.0368558,-0.00431673,0.127072,0.0453113,0.0196092,-0.024924,0.0568241,-0.049369,0.102789,-0.001471,-0.0165018,-0.000409067,0.0384801,0.0326742,-0.088207,0.0114303,-0.0186671,-0.0375033,0.0184592,0.0486907,0.0576873,-0.0296522,0.00038174
-0.000250748,-0.103635,0.013341,-0.00222988,0.084005,-0.0573984,0.00775999,0.0697752,-0.0397783,-0.0595613,-0.0618354,0.119218,0.0295278,-0.039143,-0.0156026,-0.0383507,0.0313376,0.00816249,0.0315291,0.0650733,-0.00914152,0.0235781,-0.0231923,-0.00262026,0.00781801,-0.0655302,0.0991945,-0.0120201,0.00464327,0.0256064,0.0500216,0.0458929,-0.0785211,-0.0959753,0.052063,0.00170009,-0.0273906,0.0737281,-0.0573527,0.0482567,0.0364923,-0.0285172,0.107938,-0.0286184,0.0366603,-0.0932094,0.00398916,-0.0318948,0.0883836,0.060248,0.0216638,-0.0900711,-0.0152886,0.00167245,-0.00287576,0.0135686,-0.0154825,0.0289743,0.0475834,0.0681662
0.0230722,-0.045662,0.0315159,-0.0203402,-0.00413601,-0.022748,-0.056739,-0.131308,-0.0760634,0.0591581,-0.0177416,0.0608613,-0.00526743,-0.036449,-0.0109543,-0.0869929,-0.0601951,0.0193215,-0.041614,0.0461506,-0.0238845,0.0739155,-0.120246,-0.0138302,0.036761,-0.0213398,-0.0930866,0.00575111,-0.00443286,0.0553386,0.00627206,0.113031,-0.0195468,0.045183,-0.0185453,0.0785725,0.0703463,-0.0695121,-0.0439177,0.0552738,-0.0407856,0.0589989,0.0406599,-0.0787167,-0.0488201,0.0279571,-0.0798054,0.0203702,-0.074324,-0.126076,-0.0196028,-0.0107358,0.0278645,-0.0109824,-0.0212733,0.103528,0.0640272,0.0175177,-0.0148111,0.0272479
-0.0325458,-0.0349594,0.0147829,0.0425814,-0.0163022,-0.0210657,-0.113289,-0.0177391,-0.027978,0.0600198,-0.0305278,0.00587933,-0.0504619,0.0782194,0.0701987,-0.0161992,0.0958075,-0.093932,-0.024555,0.0602999,0.0658672,0.0945238,0.00227716,0.14972,-0.0109449,-0.0175391,0.00287271,-0.00406051,0.0455054,-0.0943997,0.00265616,0.0230616,0.149866,0.135938,0.0103473,0.0104378,-0.0027422,0.0659211,-0.0611573,-0.0683992,-0.0418831,-0.0143301,0.0105848,-0.0328005,0.0186207,-0.0115232,0.0293077,-0.0130777,0.00590877,-0.0184273,0.0306313,0.000200531,0.0223289,0.0364834,-0.0309484,0.0389975,-0.045345,-0.00835418,0.113287,0.0514059
0.0748531,0.0461085,-0.0896095,0.0666541,-0.0680278,0.0209938,-0.0222119,0.0554771,-0.00899168,0.0211892,0.0535966,0.044769,-0.0626446,-0.0224842,0.0369529,-0.0614069,0.0259758,-0.0718217,-0.0257199,0.0494231,-0.134999,0.0590455,-0.000959744,0.00285578,-0.0341353,0.00915788,0.0373489,0.0122682,0.0452238,0.0484892,-0.0392348,0.0134692,0.0292075,0.0341539,-0.00132339,0.0235516,-0.0121493,0.0315664,-0.020057,-0.0603038,-0.00357606,-0.0378039,0.0681303,0.0157499,0.0336803,0.0591694,0.0689008,-0.0179932,0.121334,-0.0709027,-0.00860204,0.0362365,-0.0260677,-0.0538454,-0.0179117,0.0803023,-0.050397,-0.0144653,0.0646899,0.0578517
-0.0118611,-0.0548288,-0.0644089,-0.0273174,0.00211997,-0.0358296,-0.0501907,-0.118398,0.0130765,0.110287,-0.0570982,-0.0591039,0.0666371,-0.0210132,0.0331826,0.0519318,0.017672,0.0465628,0.0437793,0.0302161,-0.0152512,0.0307209,0.00409475,-0.0534964,-0.0653752,-0.0281026,-0.0442092,-0.0156394,0.0820371,-0.00835662,-0.0231134,0.130843,-0.101993,0.039249,-0.0978017,0.0368798,-0.0245845,0.0332806,0.0739658,-0.00420056,-0.00849849,-0.0549821,0.0267141,0.00406011,0.10566,0.0393205,0.0541795,-0.0588905,-0.0913721,0.0965422,0.0523374,0.0584468,0.0958876,-0.0341192,-0.118241,-0.0191815,0.061865,0.023084,-0.117345,-0.0294705
-0.0802214,-0.00864321,0.0336908,0.0405901,0.00200669,-0.0360655,-0.102534,0.024423,-0.0402289,0.0968179,0.0934861,-0.0645149,0.0676057,0.0840123,0.00885439,-0.0118583,0.101669,-0.0299194,-0.104481,0.0214185,0.0240508,-0.0176912,-0.0478853,0.0198063,-0.0137633,0.0268057,0.101984,-0.00293801,0.0774997,-0.101148,-0.0262385,-0.0525432,-0.0946674,-0.0215146,-0.0858685,0.055357,-0.0431532,0.018373,0.0653711,-0.00419032,-0.090507,-0.0151472,0.050515,-0.0131055,-0.0349635,0.0674821,-0.0795646,-0.0620455,0.0286823,0.0130615,0.0238941,-0.0342824,-0.00462452,0.0107501,0.0109052,-0.0143859,0.0355864,-0.0337352,0.0123489,-0.0217069
0.00892673,-0.0233996,0.00764183,0.0159882,0.0485498,-0.0529076,0.0196833,-0.119956,-0.0742248,-0.0292725,0.0527692,-0.0320164,0.015246,0.0318507,-0.0259664,-0.0317284,0.00183548,0.0950318,-0.0954632,-0.0399326,-0.0230717,-0.0586055,-0.0352493,0.0403045,0.0400957,0.0593739,0.0535252,0.102443,0.0321543,-0.0415202,0.0355362,0.0229313,0.0258844,0.113839,0.114975,0.0396506,0.047654,-0.0112419,0.105205,0.000629262,0.0348826,0.0131891,0.000808379,-0.00894175,0.0090805,0.0840956,-0.0782098,-0.0479604,-0.0107084,-0.0283737,0.0800587,0.0044402,-0.064787,-0.0308632,0.0117579,0.150898,0.0763845,-0.0144422,0.173225,-0.0748687
0.0507008,0.0562041,-0.111137,0.0367034,0.0353492,-0.107506,0.0149113,-0.0889833,-0.0114587,-0.00765542,0.0273612,0.0315692,0.0402486,0.000790486,0.0998708,0.0508457,0.0759334,0.0522704,0.026814,0.0168093,-0.0445311,-0.00499791,-0.140312,0.0544081,0.00725314,0.102313,0.0147893,-0.0791809,-0.122993,-0.00141522,-0.0205224,-0.0182482,-0.0102284,0.0155758,-0.0305189,0.0640064,0.050849,-0.00251372,-0.0306648,-0.0397817,0.00485886,-0.0404014,-0.0798307,0.0609533,-0.00790919,-0.0095295,0.000470238,0.0153978,0.078376,0.0941247,-0.0227465,-0.110433,0.059331,0.0367663,0.0648158,0.0491744,-0.0364194,0.0310924,-0.0125342,-0.0448222
-0.0513132,0.0165751,0.0488591,0.0119947,0.0789926,-0.0579029,-0.0651483,-0.122014,0.0810603,0.0340868,0.0814824,-0.0384252,0.005579,-0.0120068,-0.0145316,0.0374727,-0.0931989,-0.0231489,0.0566972,0.0914164,0.096773,-0.0277897,-0.0104198,0.0423598,0.0076162,0.137894,0.0680387,-0.0178636,0.0646634,-0.00811926,-0.0083216,-0.0553849,0.00152847,-0.0786584,-0.0344159,0.0209925,-0.0439834,0.027776,-0.0252531,0.0337676,0.115429,-0.0623389,-0.146463,-0.0080309,0.0458141,0.032098,0.076324,0.00806665,0.043892,-0.00487915,0.015316,-0.0339927,0.0164767,-0.00441161,0.0838427,-0.0829181,0.0380404,0.0893311,-0.00991317,0.0517619
-0.0060821,-0.0160498,0.00143491,-0.00746172,-0.0305772,0.0586302,0.0333435,0.115802,0.0901048,-0.0475031,0.0688545,-0.00464005,0.0453509,-0.0662481,-0.0877941,0.0190815,-0.0414033,-0.0888108,0.0290038,0.00133085,-0.0484527,-0.0951363,0.09701,-0.109121,-0.058855,-0.0421444,0.0775077,0.0814585,-0.0184638,0.000629724,-0.0275864,0.0066885,0.0716774,-0.0363572,-0.0698218,0.0315219,0.00318613,0.0857619,-0.0143821,0.0361843,0.0124227,0.0652285,-0.0411204,-0.0580337,0.0665528,-0.0116711,0.0474181,0.019364,0.0531419,-0.0373211,-0.0574587,-0.0622046,0.0598675,-0.0953952,0.0859664,-0.0838457,-0.035466,0.0623344,0.0121452,0.130798
0.0152615,0.0793214,-0.0537163,-0.111551,-0.0054628,-0.0468757,-0.00397576,-0.0130507,0.0440842,0.0377194,0.117145,0.0744302,0.0847594,0.0225312,-0.0148781,0.0960225,0.0508282,0.0277799,-0.0377666,0.0558417,0.087819,0.0913287,0.00799376,0.0308403,0.0775717,0.053203,-0.00798003,0.0158519,-0.0225516,-0.0846456,0.0144557,0.091613,0.0107208,-0.00320508,-0.000826759,0.0661,-0.0171337,0.0420206,0.0458494,-0.0206432,0.147778,0.0277138,-0.0131481,-0.0196782,-0.00351644,0.0207333,-0.0172539,0.104711,0.0469873,0.0369916,0.172088,0.0129236,0.00529279,-0.0103355,0.0872774,0.065091,-0.0369403,0.0434508,0.107718,-0.0455816
-0.00818134,0.0644198,0.0418274,0.0560689,-0.0399274,0.039223,-0.0177918,-0.0544682,0.0308168,0.0485349,-0.0733346,0.048881,0.059066,0.0318491,-0.125736,0.0239099,-0.0165358,-0.0268488,-0.0473872,-0.0898513,0.014866,-0.00213518,0.00442615,0.0214083,0.0965617,0.0010252,0.0603807,0.0109618,0.0608062,-0.0218918,0.0136178,-0.078834,-0.0618264,-0.056435,-0.0526694,0.0400731,-0.000185517,0.0150495,0.0134341,0.03555,0.00142543,-0.0158996,-0.0599634,-0.0247604,0.0784823,0.079502,0.0373881,0.00327759,-0.0226495,0.0627595,0.0309068,0.00729154,0.107378,-0.0410159,0.0461742,0.00446363,-0.0842886,0.00192541,0.018602,0.0733194
0.0419509,0.0222297,0.0651556,-0.0564303,0.0224057,0.040038,-0.0121747,0.0383319,-0.153227,0.0066135,0.0148235,-0.0367804,0.040783,-0.000791681,0.0893391,0.0265115,0.12746,0.00117499,0.0540294,0.0579806,-0.0769703,0.0136883,0.0168035,-0.0726679,-0.0960764,-0.0445412,0.0721739,-0.0768846,-0.0629561,-0.0582433,-0.124013,-0.013992,0.00708186,-0.0504766,-0.0148053,0.0189315,-0.0151755,0.0501199,-0.0382003,-0.0732796,-0.023604,-0.0391614,2.11986e-05,0.0877115,-0.073996,0.0314821,0.0547596,0.00192362,0.0410345,0.0377891,0.0813472,0.028791,-0.00780357,0.0912176,0.0574169,-0.0212219,-0.012773,0.0870161,0.0125124,-0.0750478
-0.0240886,-0.0266062,0.0272476,-0.0395467,0.0745314,-0.0207848,0.0933979,0.0685364,0.0262316,0.0103393,-0.0291653,0.0348348,0.00966207,0.147673,-0.11693,0.0535741,-0.0424078,0.026459,-0.14207,0.0368731,0.0744011,-0.0250629,-0.0141906,0.0115183,-0.00818695,-0.00666847,-0.0201041,-0.0136465,0.0317808,0.0165917,0.0840523,-0.0334315,-0.0168019,0.0549083,0.0674345,0.00861627,0.00990231,-0.0212484,-0.0233841,0.0260922,0.034543,-0.0512586,0.0272311,-0.0309093,0.0338539,-0.0497763,0.00290946,-0.0576309,0.0087717,0.0235947,0.174176,-0.0297504,-0.04051,-0.000902859,-0.130324,0.00446356,-0.0140628,0.0684696,0.065289,0.0569745
-0.00947752,-0.0266567,0.040705,-0.0601235,0.0549179,0.0528448,0.0764505,-0.0478888,-0.0533194,0.0201524,-0.0107658,-0.0381411,0.0749132,0.0263295,-0.0181421,-0.0243316,0.072267,0.0587882,-0.0551809,0.00202635,0.00782412,-0.0376844,-0.00138208,0.0229594,0.0865922,-0.0406407,0.026426,0.0212431,-0.00902576,0.099779,0.0947161,0.0566156,0.0187461,-0.0171551,0.0469351,0.0200499,0.0706155,0.0154708,-0.00869738,-0.0573699,-0.0467952,0.0916053,0.0247606,-0.02862,0.00728594,-0.0563645,-0.035892,-0.111472,0.0681146,-0.0539168,0.00578542,-0.0890903,-0.0515005,0.00295492,0.00216945,0.00933794,0.0432336,0.0225209,0.106651,0.0847897
-0.0499272,0.035241,0.086483,0.0387522,-0.144866,-0.0440088,-0.104737,0.00939624,0.0248746,0.016465,0.0703137,0.00662343,0.0635604,-0.0135585,0.047747,0.00982368,0.00922069,0.0848299,-0.0422689,0.075753,-0.00581224,0.043722,0.0161632,0.121655,0.0924661,-0.0122826,0.110541,-0.0390143,0.0372292,-0.0441507,0.0079456,-0.076304,0.065563,0.0470552,0.000564514,0.0151225,-0.101398,-0.0207549,0.0238632,0.160553,-0.101177,0.0841267,-0.0140141,0.0741206,-0.0520776,0.0729415,-0.00982638,0.0087973,-0.0123417,0.0590897,-0.0887935,0.0243076,-0.0370903,0.0615388,-0.0198829,0.0489085,0.0480413,0.0693641,-0.0458647,-0.0958935
0.0216284,-0.0658698,0.0113326,-0.0573124,-0.0190708,0.0156325,-0.0306558,-0.00651853,0.03391,-0.00763487,-0.0069202,-0.0766241,-0.0118306,0.00295276,0.00959815,-0.0509274,-0.0352967,0.0291827,0.0538597,-0.0767145,0.0677544,0.0714581,-0.0732534,0.0667594,-0.0188359,-0.0289961,0.0169715,-0.0978401,-0.0269626,0.0587141,0.0492798,0.0775473,0.0137196,-0.0446992,0.0202304,0.0368315,-0.0841495,0.0423935,0.0205069,0.0814046,0.0772527,-0.0266869,0.0310534,-0.050147,-0.00383063,0.090582,-0.0595189,0.0143045,-0.00458076,-0.217952,0.00484902,0.0696151,0.107844,-0.0969739,0.0360057,0.0610613,0.00497243,-0.0489256,-0.0251997,0.0661178
-0.0402287,0.0563913,0.0767606,-0.0015827,0.108413,0.0453369,0.116259,-0.0407678,-0.0821694,0.0758548,0.0395964,-0.0457341,0.109307,0.0669616,-0.0644266,0.0812165,0.105957,0.0311333,-0.0346071,-0.0784629,0.052325,0.0219544,0.0178654,-0.0425559,0.000728816,0.0328194,-0.00266787,-0.0105312,0.0133106,-0.00680212,1,-0.0212232,-0.0207391,0.0723691,0.0194063,-0.00880553,0.00356486,-0.0068058,0.0175254,-0.00597128,0.0440755,0.0274306,0.0208705,-0.00677884,0.00671564,-0.00879853,-0.0574277,0.130078,0.112622,0.0286698,-0.0435861,-0.00974175,0.0410601,-0.03225,-0.0278253,-0.0668561,-0.0614382,0.0994944,0.00499316,0.0884489
-0.0799719,-0.0799935,0.0274536,-0.0538273,0.0311389,-0.00583459,0.048865,-0.123097,-0.112141,0.113834,0.00725338,-0.0420607,-0.0963217,-0.0597905,0.00377529,-0.0512566,0.010091,0.0354343,0.0623854,0.000626181,0.133828,0.0401122,-0.0321532,0.0316653,0.106817,0.0680156,-0.0306845,-0.0412458,-0.0420937,0.0627743,-0.0127153,0.0903619,0.0987919,0.0836274,-0.0156356,0.0818832,-0.0313148,-0.0109302,-0.0744302,-0.0300572,0.0446193,0.00742619,0.0665473,-0.0535,0.0639867,-0.0397967,0.0848468,0.0584715,0.0228596,-0.0152095,0.00912919,-0.0507338,-0.00563877,0.0620131,-0.0141773,0.0245134,0.0237876,0.051883,0.141832,0.0159864
0.0363159,-0.0213258,0.0361864,-0.0671643,-0.0313037,-0.0187162,-0.00488105,-0.0165496,0.124326,-0.00187758,-0.0786716,0.00413091,0.0667228,-0.0879195,-0.0104973,0.0480017,-0.0311037,0.0164406,-0.0777525,0.0114751,0.017914,-0.0563699,-0.0555849,-0.0309057,0.107867,-0.00580604,0.00500437,0.0231385,0.0276715,0.110542,-0.0464322,-0.0160576,0.00821239,0.0227424,-0.0461103,-0.0666225,0.0462248,-0.0325049,0.0484049,-0.0294182,-0.00984961,-0.106431,0.0880614,-0.0320028,0.0387771,-0.0603369,-0.018206,0.0263725,0.0634918,-0.109561,-0.0439155,0.0223796,-0.0412103,-0.00246085,-0.0115566,0.0434109,-0.0200257,0.0492951,0.0430817,0.103102
0.0131301,0.0449554,0.0672215,0.0303555,-0.0141705,0.122977,0.0789815,0.0480101,-0.0571506,0.1014,-0.00486915,-0.110725,0.0420978,0.0925112,0.00254171,-0.118685,0.00749613,0.0158929,0.112615,0.0898533,-0.0192751,0.00739422,-0.0936349,-0.172969,0.057342,0.0101067,0.0938919,0.000331328,-0.0267047,-0.0158058,-0.0314534,-0.011741,0.00292276,0.0495285,-0.0124341,-0.0768544,0.0479197,-0.0237877,0.0292169,0.160539,0.0439277,-0.0289992,-0.0172699,0.111618,0.0536863,-0.041221,-0.0506486,0.0225456,-0.0238815,0.02756,0.0124385,0.0812898,-0.0372911,0.018459,-0.00364952,0.0880222,-0.0965514,0.0999616,0.0273005,-0.0199938
0.0276845,-0.033082,0.049097,-0.0524346,0.092575,0.0402652,-0.00921596,-0.00336627,-0.0836249,0.055256,-0.0301714,-0.0610443,-0.046035,0.023464,-0.0447751,-0.041539,0.00970818,-0.00574479,-0.0312065,0.0164135,0.0602675,-0.151137,-0.0180844,-0.0225106,-0.0640812,0.0400902,0.0807195,-0.00121538,0.031299,0.0157127,-0.014831,0.00500935,0.102052,-0.081043,0.015746,0.118218,0.049298,-0.0738938,-0.0451609,-0.00127118,0.0147472,0.0379518,-0.00182623,0.00718607,-0.0612281,-0.0498525,0.0828952,-0.0137179,-0.00726,0.0134267,0.0540708,-0.0293256,-0.0171104,-0.0501049,0.0610033,0.0118323,0.0494092,-0.0251344,-0.0434187,-0.139551
0.0147348,-0.0384983,-0.0492287,-0.123702,-0.107025,-0.0700349,-0.121371,0.00768793,-0.0388349,-0.0558624,-0.060325,0.0662492,0.0379419,0.029244,0.0323593,-0.0263937,-0.0677044,0.0285029,-0.0414142,-0.0314741,-0.0522954,-0.039157,-0.0814829,-0.094843,0.00442699,-0.040653,0.0677303,0.0936328,0.0484967,0.0360288,0.0290516,-0.0648481,-0.0363881,-0.0332744,-0.0332316,0.103108,-0.0191534,-0.0168303,-0.0438016,-0.0608663,0.0187298,0.00556149,-0.0587376,-0.0889437,0.0168434,-0.0432498,0.0645348,0.0348434,0.0221353,0.0455171,-0.0435235,0.00538284,0.00931127,-0.0308385,0.0248393,-0.119821,0.042441,0.0434463,-0.0618212,-0.133408
-0.0339619,-0.0550734,-0.133427,0.00994132,0.0752533,-0.105027,-0.0528177,0.0522906,-0.0459291,0.124026,0.0427406,-0.0640684,-0.103062,0.00626152,0.00444599,-0.0227833,-0.0560374,0.00215176,0.0309657,0.0236714,-0.104193,-0.0712156,0.0197234,0.0534239,0.0654933,0.0558898,0.0952044,0.0425714,-0.0320906,0.0799657,-0.0846184,-0.0378575,-0.0366205,0.0742064,0.0296063,0.00509782,-0.013841,-0.0886743,0.0519394,0.0464712,0.061931,0.137438,-0.00751321,0.166298,0.0376128,0.0171205,-0.00356872,-0.0729504,-0.0113335,0.0255805,0.0171987,-0.112954,-0.0337243,-0.0286771,-0.00696988,0.0321739,0.0682843,-0.0485862,-0.114511,-0.0341562
0.0561946,-0.0628817,-0.0422718,0.0238001,-0.00243324,-0.0290603,-0.013772,-0.0394768,-0.00387462,-0.0138161,-0.0291383,-0.0341229,-6.68476e-05,0.0206161,-0.0900211,0.0132727,-0.0104102,-0.0530526,-0.0809844,-0.0249498,-0.0893824,0.0121502,-0.0253032,0.0666295,-0.0351294,-0.0443865,0.0103639,-0.0263411,0.0481172,0.0189473,0.0604187,0.0613514,-0.102949,-0.0429582,-0.0231935,0.0404241,-0.0449045,0.0256399,0.0503117,0.0197501,0.0994901,0.0138922,0.0150731,0.0494668,0.0374414,-0.00299772,0.0844063,-0.115767,0.0236288,0.0187521,0.0348539,-0.0383476,0.169653,-0.0406513,-0.0462896,-0.096324,-0.0494999,-0.0848977,-0.0185612,-0.086814
0.0479542,-0.0817868,-0.0964726,0.048743,0.0785565,-0.0042838,-0.00336973,0.0685122,-0.00507412,0.0620601,0.104905,-0.0486981,-0.0760193,-0.0973973,0.0667162,-0.0801437,0.0902364,-0.0345797,0.0316835,0.0367433,0.0172773,-0.0175746,-0.0502668,-0.0680986,0.103284,-0.0467133,-0.127622,0.0224151,-0.0148537,0.00567014,-0.0317326,-0.0698998,-0.0382298,0.0947567,-0.021792,-0.0465828,-0.00312182,0.0126088,-0.0385436,-0.0494921,0.0226432,0.025699,0.077342,-0.00240546,-0.00672335,-0.0706932,-0.0424323,0.0593131,-0.0470152,0.0856248,-0.0686347,0.0439598,0.0289466,0.0556208,-0.0408119,-0.0579153,-0.0786594,-0.0217977,0.0651683,-0.072237
-0.0259317,0.0202877,0.0903014,0.0199456,0.114325,-0.0518691,0.0274636,-0.0122218,0.0119457,0.110422,0.0309485,-0.00386545,0.0492926,0.0359566,-0.0278988,-0.0624973,-0.0771327,0.0289961,0.0243873,0.120287,0.0454841,0.0438712,-0.0122756,0.0742092,0.016075,-0.0759787,0.014369,0.0321996,-0.0672954,-0.0920289,0.035016,0.108476,-0.0374402,-0.006388,0.0808557,0.0204948,0.0667479,0.02906,-0.0054532,-0.0276071,-0.0329545,0.0627005,-0.0111597,0.0106371,0.022657,-0.0193132,0.0219112,-0.00665574,0.0186669,-0.0554431,-0.00540451,-0.00461175,-0.047683,0.0167568,-0.0421127,0.001924,-0.0451295,0.10988,-0.00591822,0.0491592
0.0381798,0.00440792,-0.0779003,-0.0893263,0.0359201,0.00200789,-0.0383832,-0.0262197,0.00415324,-0.048977,0.086809,0.00221062,0.0188517,-0.0180848,0.0400499,-0.0269054,-0.0342175,-0.00569468,0.0470844,0.0353398,0.101066,0.0132249,-0.0335738,0.0295224,0.0735266,-0.0485044,-0.00153544,0.0852093,0.0105304,0.0592072,0.152269,-0.0415963,0.0604953,0.104825,0.0297495,-0.0210071,-0.0519156,0.0647707,0.0664073,0.0584104,0.018812,-0.0256315,-0.0773125,-0.0335773,0.0126859,-0.0629842,0.0176871,0.122138,-0.0613925,-0.000335405,0.0542636,0.0575597,0.0972586,0.0485681,0.03653,-0.00797133,0.0834904,-0.0226621,-0.0393006,-0.0148964
0.108872,0.0308073,0.0123783,-0.022543,-0.0403997,0.00245041,0.000257283,-0.117603,0.0998338,-0.0134005,0.0272265,-0.0903768,0.011355,0.164258,-0.00916529,0.0839891,0.00622057,-0.0827929,-0.0326844,0.0168598,0.0929193,-0.0142876,0.0907374,0.0175031,-0.11902,-0.000299965,0.00325596,-0.00629395,-0.0273707,-0.109223,-0.00700796,0.0174191,0.0164937,0.0487816,0.0438194,-0.0344666,0.0635062,-0.0472597,0.0435325,0.045879,0.0242248,-0.0345738,-0.0399615,0.0378905,-0.0763604,-0.07244,0.0329492,-0.0177266,-0.0056421,0.0534555,0.0812264,-0.00103196,-0.0265418,0.0041336,-0.00504029,0.00315778,0.0204238,0.134595,-0.00950272,0.0358746
-0.0093181,0.0290045,-0.0138012,-0.0357206,-0.00196814,0.0409632,0.0263129,-0.00515097,-0.00411396,-0.0352163,-0.033482,0.0129818,0.0220041,0.062418,0.012546,-0.0381721,-0.0528865,0.035757,-0.0432548,0.0595942,0.0109763,0.0104869,-0.0272546,0.0389746,0.0134982,-0.0394318,-0.0579626,0.0406111,0.00963161,-0.0641203,-0.00645957,-0.0190452,0.0724942,0.0184568,-0.00942107,-0.0118453,0.159672,-0.0442987,-0.050938,0.0671701,-0.0145079,0.0292815,0.0177939,0.0897124,0.0773636,-0.0167363,0.0778622,0.054342,-0.0459744,-0.0926048,0.0725062,-0.00266233,0.140613,0.0595831,-0.0180137,-0.0167891,0.0182468,0.0389678,-0.00221047,-0.0629929
-0.00462024,0.0281194,0.0329978,-0.0624988,0.0595981,-0.166786,0.0604675,0.0588778,-0.0469222,0.134061,-0.0223839,0.111237,-0.0250669,-0.0633489,-0.0497716,-0.0723354,0.0409125,-0.167214,0.00782633,-0.0206758,0.0937091,-0.0176683,-0.0224712,-0.0304892,0.0205658,0.0113294,0.0615617,0.0668262,0.0604773,0.0239589,-0.0600752,0.0512361,0.0150669,0.0276959,-0.0492653,0.0337507,0.121806,0.00271402,0.0989255,-0.0424016,-0.0232395,0.0197143,0.0244192,-0.0748779,-0.0192679,0.0134798,-0.0114398,-0.0313644,-0.0106006,0.0222975,-0.0579204,-0.0026505,-0.0343782,-0.0214092,0.0124498,0.0654516,-0.0400861,0.0475929,-0.0442129,0.0276711
-0.100628,0.0559213,-0.0201784,-0.0174477,-0.048711,0.0577207,0.0235144,0.0101277,-0.00766378,-0.0696596,0.154542,0.0586076,-0.0778412,-0.0134393,-0.0318657,0.0340964,-0.0511523,0.0791413,0.0542908,-0.064798,0.0064629,-0.0743711,0.0583691,0.134637,0.0594278,0.116941,0.00210983,-0.0255082,-0.121137,0.166477,-0.0290893,0.00713696,0.0128473,0.0304812,0.054571,0.122666,-0.0653163,-0.0730767,0.0700175,-0.0290382,-0.101659,0.0241542,0.080444,-0.0663235,-0.0146452,-0.0148752,0.0543523,-0.040896,0.0218016,0.0203426,0.00872485,-0.0357665,-0.0192498,-0.0515706,0.0368463,-0.0367535,0.0130129,-0.071517,0.122504,0.00986543
-0.0884778,-0.0445791,0.0862525,-0.011695,-0.0587219,0.0482668,-0.0527371,0.0228525,-0.0586641,0.0662084,0.0816507,-0.0437269,0.0501805,-0.0334977,-0.000376406,-0.0110707,-0.0721225,0.0445693,0.0264979,0.14458,0.0152683,0.00503533,-0.057145,-0.0366298,0.0405085,0.0965563,-0.0945155,-0.0557724,-0.035523,-0.00993881,-0.0879832,0.0168129,0.0230688,-0.0187307,-0.0458297,0.0113467,0.138216,-0.0693614,-0.00231844,0.0672509,-0.000551944,0.0103879,-0.0526916,0.0134807,0.00393443,-0.0607913,0.0652785,0.0132252,-0.119704,0.0586378,-0.0671683,-0.105236,0.0911259,0.134266,0.0491314,0.0498161,-0.0578127,0.0527008,0.019269,0.0715548
0.0993116,0.045428,0.0371438,-0.0294249,0.138181,0.0469517,-0.0420971,0.0368869,-0.0814883,-0.0374058,-0.0543578,0.0538212,-0.0195315,0.0229094,-0.03001,0.017301,-0.00506245,0.0100104,-0.0172198,0.024627,-0.0491305,-0.0739943,-0.00374222,-0.00401952,0.0875952,-0.0429206,-0.0402538,-0.0781497,-0.0460829,0.0425621,-0.0395477,0.0473176,-0.0760442,-0.0301446,-0.021384,-0.0903198,-0.0402552,0.00303605,-0.0380223,-0.0423397,0.0999028,0.0322212,-0.0496165,-0.0154925,0.0680241,-0.00264277,-0.0630715,-0.00491758,-0.0119269,0.00613794,-0.0623346,-0.121565,-0.0878555,-0.025408,0.0895782,-0.00116949,-0.0125868,0.0153025,0.0628379,0.0105796
-0.090338,-0.00392119,-0.0486431,0.0307225,-0.0683446,-0.122209,-0.0843324,0.0322313,-0.00673655,0.10935,-0.0415599,0.0540242,0.0407586,0.00586907,0.0630322,0.147484,0.0100885,0.00566309,0.034898,-0.00297601,-0.000785525,-0.0513309,-0.00741509,-0.0712162,0.104008,-0.0545127,-0.0629918,-0.0290695,0.0348608,-0.132186,0.00655114,-0.0757396,0.0785485,0.0250263,0.0388331,-0.0344369,0.0294714,-0.087968,0.00877359,-0.0159446,-0.0153482,0.061629,0.0311695,-0.148502,-0.00511952,-0.0525685,0.062998,-0.0105176,0.0170261,0.0290374,-0.081862,-0.0237001,0.0327475,0.0635288,0.00949556,0.0269225,-0.00983117,-0.0311554,-0.0180202,0.0281621
-0.0163526,0.00179518,0.0495328,-0.0210131,0.0239149,-0.123972,0.0570613,-0.00549873,0.00418591,-0.0668759,0.00806505,-0.0738095,-0.0499895,-0.0570506,-0.00102568,-0.0738135,-0.0316186,0.00700693,-0.0296612,0.0755372,-0.0796875,0.138618,0.00674969,-0.0169113,0.00425616,0.0645965,-0.0401998,0.0191965,-0.028093,0.047491,-0.0597613,-0.0169623,0.0450634,0.00317172,0.00719889,0.0567118,0.0113554,-0.109028,0.00435291,-0.0460468,-0.0360674,0.00665424,-0.00918912,0.00888842,-0.0229261,0.00567821,0.0849967,-0.0108179,-0.0727835,-0.00111382,0.0388124,-0.0241221,0.054088,-0.0494681,0.133245,-0.0429588,-0.0195329,-0.0744901,0.0109915,0.0679492
-0.0745795,-0.0182084,0.0611283,0.0124412,0.0396931,0.0241956,-0.0545955,-0.0475294,0.00602088,-0.0187808,0.0804755,0.0279734,0.0117781,0.068122,-0.0286327,0.053365,0.00803613,-0.0657936,0.0947198,0.049894,-0.0348541,0.117613,0.0557952,0.0240742,0.0431074,0.0562216,0.0225641,0.0514855,-0.0503933,0.00311125,0.0179376,0.0470135,-0.0531427,-0.00592633,0.0348743,0.0678025,-6.10411e-05,0.0673216,0.0569436,-0.0358055,-0.0687089,-0.0164864,0.0477949,-0.00424732,0.00663992,0.0153379,-0.0698483,0.0385217,0.0528888,-0.00326889,-0.102336,-0.00526404,-0.0643716,-0.018974,0.0246842,0.0530752,0.0392151,0.0240946,-0.0311212,-0.0353241
-0.0755495,0.0790748,-0.0246129,0.0135646,-0.0322195,0.0970792,0.0232346,0.0481968,0.0152328,0.0375004,0.0319535,-0.0467139,0.0509762,0.0683312,-0.0660132,0.040789,0.00376335,0.136384,-0.0866066,-0.00767031,-0.000989619,0.0548687,-0.0580492,0.0145178,0.0292782,0.0166255,-0.0110139,-0.0169486,0.0115084,-0.00732414,0.000999264,0.0257127,-0.0933847,0.158015,0.113351,-0.0324288,0.116154,-0.000929686,-0.0325408,-0.0244485,-0.00695045,0.0603071,0.101256,-0.111452,0.0428131,-0.0489937,0.0758003,0.0117901,-0.00740262,-0.0405718,-0.103535,-0.074399,0.0329519,0.125515,-0.0139071,-0.00115574,-0.00418905,-0.036734,-0.00785812,0.00877624
0.0757245,0.00890341,-0.0780491,-0.047468,0.0823975,-0.00681192,0.024765,0.0118791,0.112442,-0.0680649,0.00891355,0.0328482,-0.097697,0.0192651,-0.0937072,0.0321642,0.0142146,0.0582825,0.0376566,0.0251417,0.11176,-0.0385702,0.00148285,-0.0263044,-0.0988875,0.0236367,-0.0572475,0.00418587,0.07846,-0.0380755,0.0714694,0.0404303,-0.0300767,-0.0127792,0.0217184,0.00435295,-0.00122413,-0.027754,-0.0654753,0.133926,-0.0125006,-0.0607219,0.134658,-0.109992,-0.0537167,0.0764246,-0.0749772,-0.0458892,-0.0534905,-0.0201966,0.07404,-0.0504837,0.0129535,-0.0275085,0.0290509,0.0143621,-0.00272573,-0.0657094,0.00821535,0.0368765
-0.0389819,0.091929,0.139882,0.0207494,0.100806,-0.0464989,-0.0607014,0.0728788,0.00362107,0.0817355,0.0608793,-0.0229942,-0.0821779,0.0369597,0.00901738,0.0327822,0.00407208,0.114365,0.0318281,-0.0669362,-0.103648,0.0209987,0.0942013,-0.0124569,0.0535111,-0.00744757,-0.0191046,-0.0330236,-0.0934872,0.00908202,-0.0329938,0.0308847,0.0443799,0.0741979,-0.00977482,-0.0416847,-0.0686354,0.108531,0.0795489,-0.0520685,-0.0489253,0.0054359,0.0122298,0.0284308,-0.0197651,0.0660001,0.048727,0.03403,0.0620643,-0.0695455,0.0343779,0.0402567,-0.00932246,-0.00215838,-0.016973,-0.0621923,-0.0180282,-0.0304706,-0.0500424,0.0366805
0.0804979,0.0476577,-0.0670083,-0.0253832,0.114948,-0.0732821,-0.125194,0.0232324,0.00290093,-0.0424515,-0.0320232,0.0147368,0.0548372,-0.0505563,0.0715305,0.0244503,0.0744637,0.0147657,-0.0851341,8.82753e-05,0.025608,0.0019562,0.0069207,-0.0616554,-0.0764612,-0.0312416,0.0966015,0.0271621,-0.043751,-0.0664776,-0.109155,0.00090605,0.062925,-0.0383154,0.0167959,-0.0527735,0.00471947,0.0183341,0.0256917,0.184205,0.0220164,0.0165408,-0.0101182,-0.0483426,0.0671574,0.0728757,-0.0307935,-0.0944521,-0.0492628,0.00218416,0.0626199,-0.0351762,0.000641143,-0.0305879,0.144655,-0.0461531,-0.057368,-0.0654593,-0.0144035,0.0722213
0.0179015,0.034007,-0.00507242,0.0664642,0.00409178,-0.014265,0.0128191,-0.0531891,-0.00788332,0.00326422,0.000954205,-0.111832,0.0406243,0.025979,0.00892627,-0.0473666,0.0194114,0.0433696,0.0291621,-0.0614633,0.0143457,-0.00998335,-0.065417,-0.0552091,0.0234246,-0.0586418,0.0539799,0.097783,-0.0909932,0.0754611,0.0426021,0.0258894,-0.0424153,-0.0146971,-0.0793388,0.0228586,-0.0475669,-0.0148856,0.071923,0.0100644,-0.0428888,-0.0276502,-0.0767989,0.0245193,-0.02066,0.0778532,0.0499927,-0.144177,0.0702317,-0.0236828,0.160714,0.0793991,0.0604109,-0.0380725,-0.0367411,0.0233006,-0.0470469,-0.0242318,-0.111662,0.00159526
-0.035789,0.0630362,-0.05156,-0.0560096,-0.00791955,0.0266436,0.0317735,-0.0432402,-0.0236416,0.00192605,-0.0533819,0.102503,-0.013618,-0.0135534,-0.0550086,0.162167,-0.0403645,-0.0310204,0.0171063,-0.00370843,0.00070391,-0.10444,0.0106335,-0.0740939,-0.037847,-0.0577339,-0.00302611,-0.0590664,0.0336795,0.0621512,-0.015415,0.00474603,-0.00398987,0.0332961,-0.0374456,-0.165326,0.0711003,0.0328091,0.00929129,-0.0421959,-0.0599319,0.0128783,0.00639006,-0.0404114,0.0173617,-0.00694514,-0.0129367,0.0924118,-0.0963766,-0.00545471,-0.0203973,-0.0180449,0.0285277,-0.0604325,-0.0197363,-0.049601,0.0499209,-0.0422814,0.0291374,-0.0534894
0.01421,-0.0576097,-0.027012,0.0391159,-0.036548,0.0197084,0.0380899,0.00850089,0.0486118,0.0195728,-0.0186561,-0.0230272,0.0515471,0.0154434,0.0725543,-0.0256256,0.0234937,0.00851667,0.012134,-0.0339444,-0.040938,-0.0499459,-0.00744456,0.0714335,0.0323733,-0.00669458,0.0316184,0.0922462,0.0269509,0.0147016,0.0109157,0.0897705,0.0445105,-0.0391376,0.0730625,0.0302127,0.100779,0.0758032,0.0865664,0.11206,0.0199559,-0.0274828,-0.0126307,0.0147956,0.0962715,-0.00320469,-0.108862,0.00836436,0.0422125,-0.0821094,0.0535184,0.0110588,0.0437064,0.0415031,-0.0896693,-0.0533093,-0.0418866,0.0643593,0.00275201,0.0471632
-0.106984,-0.0157157,-0.0837327,0.0855613,0.024549,0.0578339,-0.00545405,0.0268658,-0.0774657,-0.0111474,0.0501963,0.12973,-0.0948798,0.00995749,-0.0342918,0.000214446,0.0647733,0.0478066,-0.068954,0.0364216,-0.0032682,-0.0616593,-0.00016244,0.0221734,0.0604075,-0.0872295,-0.0594675,0.0586948,-0.00548869,-0.0478418,-0.0457132,-0.0297179,-0.00359084,-0.013451,-0.0809414,-0.0791919,-0.0299416,0.00935211,-0.0225607,0.048094,0.0370758,-0.00681158,0.060075,-0.027139,0.0171266,-0.0245275,0.015961,0.0343944,0.0246454,0.0684979,0.0298062,-0.0525818,0.00356671,-0.0174911,0.0128034,-0.120408,-0.0444343,0.02197,-0.0486163,-0.0443726
-0.165362,-0.0137989,-0.062644,-0.077031,-0.00921731,-0.041847,-0.0374645,-0.00402735,0.0862549,0.0209876,-0.0347573,0.00934989,0.0681942,-0.0312316,-0.0037072,0.0248769,0.096578,0.0688205,-0.0447733,-0.0314979,0.0363401,0.0205623,0.0569201,-0.0215345,0.0705858,0.00489544,-0.0335657,0.0337855,-0.00597939,0.0626016,-0.027977,0.0230272,0.060597,0.0059658,0.0552005,0.0868073,0.00044764,0.010034,-0.0926638,-0.017992,-0.0776307,-0.0492673,-0.10688,0.051155,-0.187403,0.0615236,0.0243028,-0.146251,-0.0535874,0.0013379,0.0375923,0.0756209,-0.0675835,-0.176245,-0.0529174,0.0690064,-0.0345868,-0.016344,-0.0482838,-0.00280952
0.0303074,-0.0700242,-0.0282303,0.0555927,-0.0568924,0.113914,0.0432569,-0.0810856,0.0283031,0.0675827,0.00346079,0.00084628,-0.100137,0.0543301,-0.0617108,-0.0186037,0.0512512,0.0877506,-0.0443797,0.0288616,-0.0528593,-0.0411941,0.075804,-0.023491,0.0778744,0.0540566,0.0674706,0.0543281,-0.0356381,-0.0129279,0.0933157,0.0810638,-0.077922,0.025837,-0.0144399,-0.115757,-0.0486225,-0.0468991,-0.0339656,-0.0697745,0.0289347,0.0432264,0.00921363,-0.0332211,0.0504088,-0.0130642,-0.0442163,0.01927,0.0416656,0.0404498,-0.0305844,0.000783058,-0.0480237,0.00363475,0.0395471,-0.0225326,0.0174384,0.0795471,-0.0225147,0.0752949

max: 1
min: -0.217952
avg: 0.00383034
