0.0903928,0.030927,-0.0279468,-0.0189411,0.0350503,0.00343598,0.0269483,0.0139835,-0.00364855,-0.0176032,0.149784,0.0602719,-0.000223081,-0.016656,-0.0118178,0.0343239,0.0126183,-0.00592532,0.0919255,-0.0262494,0.134793,0.00157449,-0.0711426,0.063799,0.0263315,0.0647116,0.100469,-0.0488212,0.0437299,0.0344333,0.0178855,0.0663122,-0.0522102,-0.0381495,0.0985608,-0.0127568,-0.0570684,-0.0732254,0.0388022,0.0987409,-0.110326,-0.03639,-0.0256117,0.0459222,-0.0366527,0.0197772,-0.0684843,0.0963812,0.0543658,-0.0604928,-0.0248002,0.152038,-0.0218317,0.0710195,-0.0100772,0.0441722,0.116545,0.0432757,0.073478,0.0528074
0.0445893,-0.00116803,-0.0827729,0.135035,0.0119592,-0.0277203,0.0207431,0.0475015,0.0120271,0.0338593,-0.0586736,0.19957,0.0844924,0.0631573,0.00526838,-0.00902551,0.0550658,-0.0227196,0.01114,-0.0470024,0.0458394,-0.0693878,-0.043789,0.0105443,0.113236,-0.0274506,0.0578071,0.0597219,-0.0606084,0.0288596,0.0775049,-0.0946116,0.0644994,-0.019241,0.010671,-0.0901568,0.0226861,0.0304057,-0.0553263,-0.0185271,-0.0435114,-0.0162525,-0.018868,-0.0297951,-0.00646367,0.065952,0.023256,0.0217513,0.0875528,0.0325693,-0.00212162,0.0228377,0.0245286,-0.0212832,0.0332723,-0.0904065,0.0267192,-0.093257,-0.0960197,-0.0692889
-0.0897828,-0.018672,-0.0149146,0.0467112,-0.0649753,-0.00834409,-0.00160079,-0.0103256,-0.0975343,-0.025655,0.028318,-0.0269658,-0.0134072,-0.0328565,-0.140359,-0.020192,-0.0687831,-0.0257244,0.0524497,0.0244187,-0.0519446,-0.0556902,0.0113509,-0.0345803,0.013099,0.00886427,-0.0497415,-0.0765485,-0.00789996,0.00891554,0.031329,-0.0362708,-0.0288744,0.0822818,0.0573263,0.0785618,-0.0551862,0.106263,-0.0450766,0.0903226,0.0581662,-0.0334447,-0.105464,-0.00370632,-0.0701651,0.0244786,0.0331741,-0.00483691,-0.010874,0.0504874,-0.0655343,0.0384604,-0.0162311,-0.118302,-0.0164216,0.0272813,0.013881,0.0432472,0.0300354,-0.0118276
0.00546262,0.000990311,0.0137385,-0.147507,0.0135643,0.0370933,0.0154559,0.0182761,0.0888451,0.0929709,-0.0224419,-0.0143792,0.0592812,-0.0406351,-0.12134,0.00595329,0.0936987,-0.0125426,-0.0779995,-0.0199956,0.0370417,-0.00560044,0.0331314,-0.119356,-0.0218056,-0.023241,0.0147277,0.013241,0.046256,-0.0197542,0.0471625,-0.0079388,-0.0904471,0.0105247,0.0741697,-0.00864547,0.0128977,-0.126537,0.00163125,-0.0635087,-0.0196369,0.0184588,-0.00204682,0.0741766,0.0641333,0.0689339,0.0393738,0.09031,0.0725356,-0.0445526,-0.0363386,0.0244098,-0.0116417,0.0236659,-0.0231071,0.0732282,-0.0965699,0.0117215,-0.0703178,0.0404447
0.128605,0.0806031,0.0373654,0.0191533,-0.00102043,0.00694814,0.0955442,0.0450428,-0.0526624,0.0822932,-0.0681732,0.130294,0.0864158,-0.0158076,0.0303012,-0.0409938,0.0299554,0.0420404,0.0832819,-0.00293291,0.0267156,-0.0696,-0.00915543,0.0653086,-0.0504777,-0.0450299,0.0506439,-0.0478583,-0.0309565,-0.0619014,0.0567741,-0.0223431,-0.0265325,-0.0207689,0.06085,-0.0297282,-0.0997905,0.00731528,0.0522108,0.0310628,0.0455744,0.013392,0.0677215,0.0516204,0.106517,0.047483,-0.103169,0.0432494,-0.0817942,0.0394542,0.0115274,-0.00371785,0.0809386,-0.0595775,-0.00187726,0.0757179,-0.0945449,-0.0160648,-0.0556082,0.00777251
0.027918,0.0586081,0.0336993,0.0432376,0.0559279,-0.0425045,0.0236487,-0.0616018,-0.0379519,-0.0240736,-0.0482345,-0.01667,-0.0549126,-0.0478642,-0.00144341,-0.0601541,0.0768273,0.0590264,0.0481067,0.0594328,-0.0143747,0.0593487,-0.0675124,0.0663725,-0.0133959,0.0157484,0.00712921,0.0254035,0.104027,-0.0215495,0.00374729,0.0870369,-0.0438057,-0.107429,-0.09259,-0.0406666,-0.0646433,0.0679981,0.0458757,-0.0849197,0.00483552,0.072416,-0.0458709,-0.00901368,0.0592878,0.0143626,0.00671544,0.0534224,-0.0668565,0.080543,-0.00968934,-0.0326171,-0.0271949,0.0445248,0.0614943,-0.0296931,0.0714083,-0.0291019,0.0633723,0.0114583
-0.0874013,0.0275677,0.032731,-0.0352317,0.0754967,0.0943827,0.0319893,0.00690842,0.115286,0.0877334,0.0146316,-0.0445214,0.169614,0.0387249,-0.049968,-0.0197269,-0.064458,-0.00963072,0.0575702,-0.0423604,-0.0392367,0.0142486,-0.0434998,0.0531619,-0.00515345,0.0307666,-0.060652,0.0113421,-0.0471656,-0.0917441,-0.0641523,0.0450617,-0.0073064,0.0401946,-0.0503601,-0.000489138,-0.0293988,-0.0308519,0.00359126,-0.0820856,-0.0384507,0.0837663,0.0604041,-0.000822121,0.00467452,0.010415,0.0292792,0.014835,0.090861,0.00169959,-0.0622564,0.0525927,-0.0607332,-0.0918685,0.0691469,-0.0123131,0.0410228,0.137249,0.133267,0.0583229
0.00149677,0.018677,-0.0366565,0.0370155,-0.0787471,-0.0572178,-0.0454263,-0.0240849,-0.125912,0.0454928,-0.0170357,-0.0154158,0.0930516,-0.0719826,-0.000760134,0.0289361,0.0917491,-0.0316469,-0.144568,0.0248405,-0.0106156,0.096959,-0.044842,-0.0118157,0.0386062,0.090079,-0.129425,-0.0319552,0.0292617,-0.047776,-0.0248788,-0.0436134,-0.0996692,-0.00949287,0.0499408,-0.0274584,0.0441935,-0.0177261,0.0116417,0.00726976,-0.00267254,-0.0537053,-0.0564555,-0.000528343,-0.00751478,0.0748587,-0.0554075,-0.0909461,-0.064211,0.0590997,0.0344559,0.0914979,0.0228228,-0.00552323,0.00467923,0.068318,0.0259734,0.0417882,-0.0123659,-0.103222
0.087855,-0.0446324,0.00273435,0.0201381,0.0282657,0.0511456,-0.0429292,-0.0323327,0.0351787,0.00844582,-0.0998264,0.0543425,0.0345763,0.0143192,-0.00658277,-0.0103619,0.0290922,-0.0395147,-0.0383911,0.0924085,0.00534345,-0.0176261,-0.0492583,-0.0747386,0.0634338,0.0248222,-0.11589,-0.0114905,0.00123884,-0.0517815,0.0407464,-0.0226104,0.0377537,-0.0339526,-0.00652515,0.0388086,0.148511,-0.116223,0.0353165,-0.00285353,-0.0271143,0.028795,0.00141814,0.00186138,-0.0807215,-0.00869546,-0.0808862,-0.0405226,0.11278,0.00197759,0.0472465,0.0248465,0.0536922,0.0133571,0.13355,0.0805931,-0.0075998,0.00822438,-0.0510415,-0.00666262
0.0291285,0.0557148,0.00419358,-0.0645124,0.0374541,0.0102778,-0.0165535,0.0121716,-0.0301382,0.155454,0.0756934,-0.00689032,-0.0343484,0.0022232,0.0484132,0.0842517,0.121003,-0.0290143,0.0727559,-0.0197596,-0.0574956,0.0556869,0.131912,-0.0612731,0.00290863,0.0662683,-0.0628755,-0.0215948,0.0163495,-0.00630674,0.0800019,-0.0871364,0.0500954,0.0765195,-0.0214354,0.0471606,0.0370997,0.05374,-0.0096838,-0.0319017,0.164711,0.0554234,0.0192722,0.075742,0.038314,-0.0267195,-0.0412714,0.137055,0.00693095,0.125504,0.0775275,-0.0786086,-0.072281,0.0377666,0.0262517,-0.030641,0.0309139,-0.0798143,0.0964784,0.0106198
-0.0825921,0.0867659,0.0303783,-0.0383127,0.00981817,0.0478909,0.00908118,-0.0280568,-0.0433662,-0.0212041,0.131399,0.0995561,-0.00907446,-0.0340759,-0.0727157,0.0682788,-0.0787905,-0.00857872,0.00418099,0.0166367,-0.0333491,0.0933505,0.0289694,0.0603079,-0.00575164,0.0391354,0.0715813,-0.0157881,-0.0305343,-0.0544126,0.0106224,-0.000737595,0.0709686,0.0995992,0.0412022,0.0112765,0.00624567,0.0260708,0.00840978,0.037829,-0.102907,0.159706,-0.0571419,0.00651714,-0.0174186,0.033696,0.0198755,-0.085771,0.0238515,-0.00481175,-0.0463193,-0.0164695,0.0927855,0.0265181,-0.0148136,-0.0376871,-0.0213966,0.0902315,-0.0428113,0.0743415
0.118568,0.0475813,-0.0676704,0.0822021,0.0602517,-0.044657,0.0350609,-0.135093,0.110269,0.0594756,0.0159471,-0.0307573,-0.0509232,-0.0394971,0.0198398,0.074376,0.136492,0.0441687,-0.0470887,-0.0341704,0.0196804,0.119776,0.003592,0.0642786,0.0421731,0.0427214,0.0207975,0.000224931,0.00415573,-0.0800662,0.0882624,-0.0994086,-0.038886,0.0371806,0.0567743,0.133657,0.037014,0.011794,-0.0466957,-0.091936,-0.0409408,0.0811989,-0.00451338,-0.057134,0.0174342,0.0631729,0.0714479,-0.0145383,0.046144,-0.0152412,0.0229897,-0.0403211,0.0168424,0.056132,-0.0425813,0.0480089,0.014007,-0.0514262,-0.106622,-0.0723691
0.0121537,0.0966893,-0.0231456,0.0316144,0.06887,0.0467059,0.0264174,0.0325575,0.0149392,0.00206009,0.0689513,-0.00360068,0.0709197,-0.0257998,-0.0120598,0.142166,-0.0209111,-0.0323029,0.0203789,0.0485853,0.0415012,0.113263,0.0670527,-0.0425323,0.0392182,0.0737166,0.168792,-0.0579429,0.128399,0.115703,0.00302788,0.0502128,0.0207283,-0.0237294,0.0593164,-0.0708744,0.0337194,-0.0375788,0.0219754,0.00376037,-0.0344593,-0.061155,-0.0182496,-0.0133569,-0.0297239,0.0585542,0.0893444,0.0598721,0.0438693,0.105651,-0.0934836,0.125597,0.0187389,-0.00353914,0.00193404,-0.0142737,0.0649332,-0.0409717,-0.0767323,-0.0595226
-0.103969,-0.0425735,0.106587,0.0248436,0.079588,-0.0524785,0.0285323,-0.0352609,0.00332907,-0.0317998,-0.0647665,-0.0142658,0.082886,-0.0101783,0.0787854,-0.0476572,-0.0321855,0.0421744,0.0245538,0.1412,-0.00623769,0.128745,-0.0121926,0.0165742,0.0490486,-0.0310752,0.00662938,0.00974715,0.0113212,-0.0463715,-0.036406,-0.027965,0.00257458,-0.074703,0.019903,-0.0214002,0.0171426,0.0606121,-0.0575055,0.0673077,0.0462782,-0.0166227,0.0297721,0.00328687,-0.0278844,0.0531025,-0.0852657,0.0723566,0.0933969,0.0633714,-0.0712528,-0.0289455,0.0428497,-0.00633967,-0.0585145,-0.0297188,-0.0372916,-0.116533,-0.000212326,-0.0546613
-0.0222935,-0.109009,-0.0121862,0.0112506,0.0752669,0.0689663,0.0708156,0.0294103,0.0299488,-0.01498,-0.042,0.00922227,-0.0263322,-0.0334005,0.0140357,-0.0700081,-0.0123005,-0.0591474,0.0996158,-0.0144147,-0.0864823,0.0526963,0.0473977,0.00751287,0.0404426,-0.0522603,0.0251626,0.0228199,0.0233498,-0.0549255,0.0627622,0.0490694,-0.0683375,0.0180177,-0.0491063,-0.00919581,0.00161424,-0.0269629,0.115054,-0.122474,0.0269917,0.0501412,-0.0066037,-0.0362067,0.0465301,0.104281,-0.0321246,0.0190148,0.0775612,0.0360476,0.0631395,0.0519679,0.0985911,0.0107231,0.0748453,-0.00661844,0.00796356,0.0283558,0.0117118,0.00970453
0.0911483,-0.0416479,-0.0202257,-0.0642599,0.0496717,0.0934891,-0.0568724,-0.0587058,0.00667659,-0.0322222,0.077898,-0.00505987,-0.0903887,0.0293502,-0.0189492,0.133523,-0.0968523,-0.0261958,-0.105712,-0.0438197,0.0130081,-0.0113729,-0.00165087,-0.0356684,-0.0202955,-0.000917485,-0.0641225,0.0161971,0.0499852,-0.0635241,0.0154795,0.067468,0.0134007,0.0118168,0.0669391,-0.124642,0.0354323,0.121493,0.110749,0.107924,-0.0326075,-0.0656109,-0.0247528,-0.0112244,-0.127995,0.0257072,0.0386223,0.0618048,-0.0480647,0.00342716,0.0784128,0.0596329,0.0179742,-0.0160034,-0.0148325,-0.0937349,-0.026661,0.0122825,0.0362141,0.0741083
-0.0931332,-0.0656953,-0.0502106,-0.0472251,-0.0547306,0.0340968,0.0351509,0.0265714,0.0782096,-0.00624054,-0.0263558,0.0459178,-0.0540192,-0.0648767,0.0345438,0.031408,0.0112356,0.032421,-0.056123,0.0220254,-0.0760334,0.0174239,-0.0348913,-0.0511289,-0.0108947,0.0148247,-0.104517,0.139221,-0.00527922,0.00791542,0.101567,0.0627583,-0.0219938,-0.0135762,-0.0368261,-0.0233542,0.0660004,0.0629956,-0.0330107,0.0856398,0.0697708,-0.0649954,-0.0146838,0.0590263,-0.0512921,0.0930238,0.0748843,0.0195962,-0.0633734,-0.0206193,-0.0941326,-0.00421478,0.0520669,-0.0547075,0.0176398,-0.00280833,0.0250591,-0.0361662,0.0878839,-0.010682
0.0685065,0.0134855,-0.155795,-0.025718,-0.124127,-0.0504505,0.10588,-0.0415609,-0.0279268,0.0642702,0.0920763,0.035762,0.132689,0.00924567,-0.0182681,-0.00610722,0.0287906,0.120289,0.04718,-0.027822,-0.0729983,-0.00854455,-0.0629044,0.0491452,0.065475,0.057335,-0.0163552,0.0505259,0.101603,0.0380477,0.0235606,-0.031869,0.0541127,0.0650015,-0.0301469,0.070531,0.00235097,-0.0916181,-0.0471622,-0.0360629,0.000188001,0.0480066,0.0864929,0.0255384,0.00219579,0.00268705,0.00480702,0.0181869,0.0750701,0.0207422,-0.0322986,0.00539068,-0.0689071,0.0958095,-0.000568931,-0.0032404,-0.025017,0.015371,0.0289373,0.083518
0.0253841,-0.0405892,-0.0530279,-0.100252,0.077627,-0.0700812,0.0421482,0.0552389,-0.009613,0.028376,0.07669,-0.0897188,0.0336862,0.0358911,-0.0280875,0.013685,-0.0392067,0.00912755,-0.00704377,-0.0525839,-0.113805,0.0252491,0.0488555,0.0520661,-0.0553743,0.0646929,0.0387553,-0.00942496,0.0431575,0.0405128,-0.0306318,-0.0722216,0.0519255,-0.0612878,0.0211232,0.00221503,0.0430852,-0.0343468,0.0134481,0.0774833,0.0427662,0.000684055,0.0101072,-0.0229471,3.73362e-05,0.0546855,0.0352756,0.0476777,-0.101065,-0.0235677,-0.00211762,-0.00900022,0.0468503,0.0868757,0.0446186,-0.0297333,-0.0705841,-0.0171786,-0.1261,-0.0389803
0.0740238,0.00231925,-0.0311547,-0.0986539,-0.0295065,0.0177825,0.0455243,0.0124655,0.0100261,0.0277744,0.0360166,0.06247,-0.0218663,-0.0441182,0.0206592,-0.0341887,0.149755,0.0178354,0.0598853,0.0642748,0.118187,-0.00658448,-0.0550741,0.0706338,-0.0181172,0.0518332,-0.0414381,0.0609184,0.0483864,0.0227866,0.0540068,-0.0379383,0.04666,-0.0339936,-0.106046,0.0380091,0.0670837,0.0168342,-0.0431829,0.0618603,-0.0696879,0.0581631,0.0773455,0.0193571,-0.0131692,-0.130135,-0.11331,0.0202218,0.066692,0.077639,-0.028577,-0.0708081,-0.0337386,0.0776074,-0.0189572,-0.114027,0.0381342,-0.00631236,-0.0353015,0.0879205
-0.0251945,-0.068358,0.0239752,-0.109766,-0.0529417,0.0294638,0.027063,0.0538406,0.110554,0.0504154,0.0142891,-0.0701028,-0.00679215,0.0429142,-0.0775598,-0.032653,-0.00787475,0.0460379,0.0234722,0.132045,-0.0148649,-0.0125187,-0.0937488,-0.0173032,-0.00800253,-0.0153403,0.0165292,-0.153894,0.0127984,0.0123484,0.0108003,-0.0438597,-0.0471523,0.0536499,0.00503103,0.0347725,-0.0316463,0.103973,0.143684,0.0905219,-0.0268756,-0.113554,-0.0415511,-0.0255313,0.0133037,0.0370747,0.0127006,-0.043491,-0.071976,0.0337137,0.0602701,0.0215726,0.085778,0.0124367,0.0427712,-0.000670575,-0.0747607,0.0221865,-0.0221251,-0.054361
-0.0117063,-0.00404587,0.0552891,-0.0696711,-0.122832,-0.0144617,0.00489429,0.0900883,-0.00443295,0.0693676,-0.017776,-0.00853482,-0.0624922,0.0304443,-0.00264485,0.0367486,0.0286098,0.0390258,-0.0638808,0.0366979,-0.0389304,-0.0216979,-0.0345752,-0.0654367,0.134502,0.0659003,-0.00763314,-0.146764,-0.0679304,0.0248487,0.146534,-0.0130476,-0.0103437,-0.068275,0.0743994,-0.0443787,-0.0415173,0.0509213,0.0561916,0.0682461,-0.102618,0.0203279,0.012997,0.0169815,-0.0520674,-0.0480584,-0.0789835,-0.0938846,0.0708805,0.0277818,0.0110491,0.045355,-0.00279414,-0.0015014,-0.0963391,0.0632684,0.0309786,-0.122885,-0.0807239,-0.0169943
0.040199,0.0449188,-0.016808,-0.0204038,0.0702658,-0.106546,0.0506242,-0.0886471,-0.0449543,-0.0569669,-0.0493686,0.0936714,-0.00217529,0.0192583,0.123306,0.0925155,-0.0377073,-0.151752,0.0108448,0.152717,0.076024,0.0101752,0.0122164,-0.115407,0.042586,-0.0100525,-0.0107958,0.0182918,-0.0114281,-0.021754,0.00626925,0.0354701,-0.0363639,-0.0367359,-0.041108,0.0214559,0.0605344,0.0425968,-0.05689,0.0477898,0.00896531,0.0966728,0.0605317,-0.0548787,-0.00393301,0.00922038,0.026423,0.0772419,-0.0230839,0.0474837,0.0874827,0.0375506,-0.0517802,-0.053441,-0.00662461,-0.0765463,0.0843965,0.0214217,-0.0160583,0.044297
0.0282103,-0.0790001,0.056046,0.0800288,-0.0606422,-0.0558748,0.0816934,0.0443572,0.079139,-0.0500038,-0.0706097,-0.0623578,0.0135042,0.0488184,-0.00546478,0.0293746,-0.0623481,-0.0329699,0.0374662,-0.0751263,-0.0117227,0.0187438,-0.105227,-0.00788147,0.00942041,0.0574806,0.0221142,0.00533216,-0.0169727,0.11276,0.0216963,-0.0891984,0.11577,-0.00912181,0.0383026,-0.125414,-0.137767,-0.0172622,-0.0671402,-0.0236783,-0.0204272,0.0524832,-0.052329,-0.0221052,0.075023,-0.00856922,-0.0754668,0.0167762,-0.0512908,0.089106,0.0184611,0.03159,-0.0986411,-0.0195782,-0.0533901,-0.0280354,0.0593142,0.0586795,0.0308424,-0.0380973
0.00425751,-0.128418,0.0730827,0.0103367,0.0304779,-0.0514226,-0.0164774,-0.0502881,-0.0259042,0.00241212,0.0433083,0.0608496,0.0149007,-0.0201036,-0.124183,0.0604436,0.0807282,-0.0136983,0.0155659,-0.0622536,0.00252074,-0.126212,-0.101501,0.0413533,0.102794,0.0632264,0.0585494,0.0715839,-0.0195968,0.0152986,0.168973,0.0260819,-0.0855205,0.0654552,0.0308798,-0.0284761,0.0296854,0.134463,-0.0324862,0.029657,0.00236937,-0.0413883,-0.0142684,-0.0764557,0.033815,-0.147562,-0.0418306,-0.0801575,-0.0321435,-0.00407744,-0.0863495,0.0668949,0.074071,0.153888,-0.00354279,-0.0798394,-0.0876449,0.00345878,-0.033693,-0.0780223
0.0547243,0.0307608,0.0306234,0.0249548,-0.0321552,-0.0290208,0.0266137,0.0504284,0.0559134,0.0566681,0.0821503,0.0132072,0.110552,0.0225831,-0.106531,0.0127271,0.107424,0.121765,0.0371594,-0.0205272,0.0604426,-0.0164833,0.0690121,0.132472,-0.0916894,0.0551634,0.109153,0.0611766,0.0967317,0.0471145,-0.0638116,-0.112119,0.0447011,0.113056,-0.0101173,0.00682117,0.0350154,-0.0797942,0.0689332,-0.037672,0.144247,0.0462017,-0.094198,0.112437,0.0142886,-0.0147841,0.0623192,0.0281542,-0.0623111,0.037388,0.00554049,-0.0255104,0.0449482,0.0751994,0.0897028,-0.0588274,-0.0555432,0.0740886,0.0612158,-0.0186943
0.144688,-0.00732722,-0.0162142,0.0751724,0.0241402,0.136688,0.0650518,0.0590422,-0.0488111,-0.051401,0.0114566,0.00861057,-0.0290544,-0.0196135,-0.0249723,-0.0166124,0.0409151,-0.0711918,-0.0395606,-0.0227731,-0.023655,0.0745833,-0.0433072,0.00320024,-0.0153618,0.0769178,0.0713347,-0.00833093,-0.122154,0.0589983,0.0465626,-0.0498329,-0.00971602,0.0353001,0.0113666,0.0627285,-0.0229069,-0.0447038,5.15721e-06,0.0399651,0.0454913,-0.0427049,-0.00430376,-0.0150748,0.105102,-0.0286952,-0.0202389,-0.00539597,0.0288285,-0.0307045,0.062524,-0.0479957,-0.116756,-0.0421517,-0.00418243,0.080245,0.118372,0.0575978,-0.135924,0.0701432
0.0155601,-0.039678,-0.0057921,-0.048195,-0.0864707,0.0204244,0.0426108,-0.0380722,-0.0484648,0.0226512,-0.0750294,0.0553954,0.0590073,-0.0214572,0.0371692,0.0502973,0.102937,0.0148377,0.0673665,0.0240489,0.0667242,0.0929974,0.0782186,0.0221286,-0.00561903,0.0197744,0.0148669,0.0190962,-0.1333,0.0216391,0.0299261,0.0259193,0.0382363,-0.0827224,-0.0063073,0.0247833,0.0341749,-0.0196445,-0.00765147,-0.0402053,-0.0350253,0.0551719,0.0710122,0.105238,0.00485606,0.0701805,-0.0307599,0.0429826,0.0197447,0.0798298,-0.00773691,0.0425668,0.0701766,0.0197418,-0.0146413,-0.0288331,0.00386335,0.0221013,-0.0965954,-0.0161244
0.0568337,0.0152336,0.0749697,-0.0182504,0.042733,0.00293252,-0.0369959,0.0258212,-0.00601336,0.0772228,-0.0272183,0.0107242,-0.0655269,0.0130328,-0.0309817,0.067858,0.0111784,0.0400291,-0.0258605,-0.0185603,-0.00409217,-0.0267159,-0.0223654,-0.0237672,0.0840433,-0.00459198,-0.0240506,0.012493,0.031831,0.0430607,0.0395146,-0.0111725,-0.0292843,-0.0723458,0.0716238,0.0346916,-0.0299972,0.053454,0.0713449,0.036383,0.133416,-0.0234676,0.0308188,-0.0241653,0.078447,-0.0695849,-0.0707593,-0.101347,-0.00517934,0.0632862,-0.0521001,0.00451919,0.0152731,0.0185808,-0.055042,-0.0501405,-0.00284353,-0.0265867,0.11379,-0.0298522
0.0337343,0.0610411,0.0440538,-0.0465422,-0.0915305,0.0331202,-0.00117511,-0.0161381,0.0175745,0.0148205,-0.0264364,0.0339395,-0.0501939,-0.0122713,0.00135251,-0.0893966,-0.0355973,-0.0559474,0.0636999,0.0431567,-0.0121845,-0.037713,0.0193195,0.0503239,0.00590971,-0.0518366,-0.0238307,0.131607,-0.0591917,0.0176243,-0.0357035,-0.00177453,-0.0802117,0.0658792,0.0499706,0.0845126,-0.0741901,-1.30986e-05,-0.0545698,-0.0156606,0.0065591,0.0528591,0.0761153,0.0786295,0.0516429,0.116671,-0.100016,-0.0478846,0.010104,-0.0997035,-0.0405458,0.0358653,-0.0820713,-0.0735553,0.0368684,0.0374041,0.0493079,-0.100276,-0.0283642,-0.00621388
0.0347754,0.0646131,0.0349096,-0.0225212,-0.0755329,-0.0765067,-0.0303234,0.0797596,-0.0419686,-0.0423905,-0.0262482,-0.000451212,-0.0168521,0.0954835,0.0267717,0.0265717,-0.00234882,0.0481725,0.00286257,0.0544707,-0.0651113,0.019374,-0.0630787,0.0955422,0.0466601,-0.0752752,0.0627849,0.0254673,0.0120666,-0.0126103,1,-0.0189253,-0.0197198,-0.0136787,-0.033936,0.042566,-0.104141,0.0532447,0.0446434,-0.0268621,-0.111095,-0.0191906,-0.036851,-0.0434126,-0.0443113,0.00707668,-0.00142147,0.0754662,0.0367235,-0.0531447,0.0317573,-0.0428845,-0.0438919,-0.00635849,0.0128862,-0.00379341,0.00893722,0.0470284,-0.0325879,-0.0477138
-0.0227378,0.00427861,-0.0187539,0.0630585,-0.0922303,0.124765,0.0526907,0.019406,-0.052246,-0.0543155,-0.0309035,-0.0569373,-0.0709747,0.0219962,-0.0228068,-0.00683186,-0.0728688,0.115313,-0.0351432,-0.0922631,0.0813265,-0.0102884,0.0200176,-0.0965811,-0.0601613,-0.0423664,-0.0210659,0.111905,-0.0178685,-0.0222582,0.0321315,0.0546001,-0.0573726,0.00541765,0.0174142,0.0242971,0.0381346,0.00794456,0.0707341,-0.0771385,0.0125138,0.0517779,0.010291,-0.00925903,0.000134882,-0.0108637,0.0249181,-0.0117812,-0.00609796,0.0146802,-0.00986124,0.0495674,0.0264874,0.0318473,0.0689442,0.0522876,0.00505319,0.0318829,0.121262,-0.0704693
-0.00881544,0.045215,0.0137946,0.0191886,0.00769867,-0.0148753,0.0347119,0.0987001,0.0541807,0.0416468,0.0341029,-0.0427866,0.0124184,-0.12535,0.0545078,-0.042355,-0.0279378,-0.0920616,-0.0112827,-0.0050727,0.0786983,-0.0783361,-0.0715313,-0.0182042,0.037198,-0.0677126,-0.00705651,-0.0828455,-0.0540365,-0.0110623,0.0199281,-0.0660896,0.0435854,-0.05227,0.00187912,0.0787099,0.0722235,0.0347319,-0.052671,-0.0163024,0.0447834,-0.0859609,-0.101535,0.0523446,0.0738409,-0.0275352,-0.0250636,0.0580792,-0.0977377,0.0547867,-0.0253622,-0.0516898,0.0658445,-0.0620212,0.0363643,0.0626704,0.0266375,0.000108245,-0.018516,0.0719457
-0.00765497,-0.0508854,-0.00848518,0.0491323,0.0243904,0.0143666,0.0448873,-0.0177175,0.00742768,-0.00780981,-0.000297894,-0.0161233,-0.0407725,-0.0636872,0.0151771,0.0310536,0.0852633,-0.0725573,-0.0233824,-0.0555906,-0.0309023,0.104632,-0.0534377,-0.00851597,0.0512411,-0.0510649,0.00417593,0.023075,0.0138446,-0.0187749,0.123916,0.0198506,-0.00747489,-0.0472117,0.0638276,0.0297009,0.123651,-0.037309,-0.0917641,-0.0388985,-0.130734,-0.00746901,-0.00976771,0.0453037,-0.0160533,0.0436498,-0.0380367,-0.03077,0.100887,0.0146248,0.0537958,-0.00617669,0.0676199,-0.0325838,-0.0887968,-0.120673,-0.0111654,-0.0154573,-0.11357,0.0480988
-0.00974856,0.113874,-0.120293,-0.0512984,-0.0866519,0.0632857,0.0898841,0.0336904,-0.010588,0.0129718,0.0596898,0.0278973,-0.0189763,-0.0672347,-0.0490594,0.0109088,-0.0698888,0.118953,0.0765306,0.0578889,0.037776,-0.0241996,-0.013509,-0.0796982,-0.0268576,-0.0107799,0.00965842,0.0387002,0.0470148,0.0111228,0.0931576,-0.0220623,0.050438,0.0428304,-0.0862638,0.0568917,-0.0410381,-0.0121601,0.00168886,-0.032692,-0.0212633,-0.0558938,0.0471806,0.00103466,-0.0829807,-0.107472,-0.00265389,0.039146,0.0335593,0.0348153,-0.0741026,0.0570059,0.0256212,-0.0583032,1.39914e-05,0.0189859,-0.0616439,0.144073,-0.0394183,0.0786145
0.041551,0.0535844,-0.0737849,-0.00279115,-0.0502023,-0.0128904,-0.0248593,-0.0218298,-0.0247607,-0.0404933,0.0940634,0.0937958,0.0213458,0.0166196,-0.025663,0.103699,-0.083979,-0.0139631,0.041285,0.00774344,0.0617807,-0.00164973,0.0259933,-0.0207882,-0.0163951,0.0724485,-0.0445889,-0.104317,-0.00953088,0.0722174,-0.00801871,-0.022345,0.013307,0.109476,-0.013856,-0.00415558,-0.0589263,0.0470486,0.0171428,0.044767,0.0637056,0.0327896,0.0129927,0.0370386,-0.0353251,-0.0608773,0.0700793,0.0330099,0.0678297,0.00650348,-0.0435102,0.0209179,0.0205877,-0.0237357,0.0663772,0.00873668,-0.049589,-0.0536497,-0.0574092,-0.00619664
-0.0427959,0.0132056,-0.0534964,0.0334379,0.0530076,0.0491214,-0.0371348,-0.0286288,0.0554032,0.0568341,0.113215,0.0753406,-0.0278496,-0.0630904,0.037176,0.0313556,-0.137376,0.0147429,0.0867914,0.0633435,0.0195206,0.0636922,0.0865003,-0.0920618,0.085569,0.0809172,0.0869931,-0.00117897,0.102727,-0.115355,-0.0462785,0.0512269,-0.0634873,-0.00578717,-0.0930229,0.0226177,0.0582759,0.0172131,-0.0335271,-0.0239921,0.00709751,-0.049509,0.00661366,-0.133775,-0.0899238,0.0813874,0.0142818,0.0621343,-0.0020693,0.0897302,0.1202,0.0657271,0.00739043,-0.0685547,0.0660604,0.0469749,0.128564,0.0712597,0.0441814,0.00236598
-0.00242091,0.00758436,0.0679483,0.0117922,0.0822338,0.0414542,-0.0496102,-0.0687691,-0.0755354,0.0048633,-0.0460628,-0.0941855,0.0615768,-0.0958937,-0.0459473,0.0756523,-0.041002,-0.0903205,-0.0263354,0.0221211,-0.0425136,-0.0435201,0.105908,0.0349078,-0.0148685,-0.044338,-0.100059,0.000707161,-0.0301527,-0.0267603,-0.00503698,-0.0854337,-0.0480511,-0.00419168,0.0133822,0.0787894,-0.000804011,0.0629368,0.0288182,0.0147846,0.0595594,0.0678282,-0.0630726,0.0472302,0.0403708,0.0491958,0.0170634,-0.171368,-0.0243897,-0.0731653,0.0196667,0.0919213,-0.0125671,0.0370622,0.0461495,-0.0549468,-0.00851922,0.0865637,0.0540712,-0.0168383
0.0287553,0.000739411,0.00825618,-0.0326789,-0.0314934,0.0349547,-0.0670376,-0.0104424,0.015272,0.00686364,-0.0558095,0.0796974,-0.0724573,0.00606593,-0.0967745,0.038603,-0.0190727,-0.023529,-0.0457012,0.0136322,0.0650178,0.0643719,0.0605816,0.0678798,-0.0237993,-0.122622,-0.0132723,0.0187332,-0.00693188,-0.00850601,-0.0757523,-0.0940704,0.0406969,-0.0340791,0.0608654,-0.0120553,0.0967452,0.0382344,-0.030808,-0.056388,-0.014084,-0.0688879,-0.0808234,-0.0092865,0.0231753,0.0153324,-0.0383711,-0.00793192,0.058072,-0.0252129,0.0410931,0.00244885,-0.0705614,0.0172794,-0.00438124,-0.0230019,0.041306,-0.0476828,-0.116214,0.0836084
0.0047072,-0.0286649,0.0156856,-0.138369,0.0368971,0.00188806,0.0310039,-0.0325402,-0.0111058,-0.133729,-0.00354454,-0.00471247,0.0205591,-0.0258317,0.0244622,-0.047896,-0.00409071,-0.0907195,0.11116,0.0501153,-0.0311851,0.0264933,0.00794091,-0.00654261,0.0107005,0.0207259,0.0202019,-0.0467292,-0.0659317,-0.0104748,0.00347031,-0.029659,0.0209141,-0.00709256,-0.0463057,0.00106205,0.0385936,-0.0592195,-0.0610597,0.0812633,0.0382356,-0.00849707,0.0438506,0.0730345,0.0403272,-0.0838011,0.0163826,0.0346975,-0.0261233,-0.0761203,-0.108525,0.100756,0.0470423,0.0361976,0.0207553,-0.0772343,0.0258929,0.0366391,-0.0607477,-0.0569143
-0.0243297,0.00450939,-0.0279141,-0.0606738,0.0581427,0.0273553,0.0454768,0.0110308,0.00453484,-0.0953888,-0.0445446,0.0324232,0.105139,-0.00639456,0.080861,-0.00478742,-0.0286447,0.110219,-0.0541501,-0.0381446,0.0720024,0.0711468,-0.089459,-0.0312692,-0.00362833,-0.138631,0.021506,-0.0631079,-0.0609971,-0.0744801,0.0617461,-0.0530377,-0.073117,0.00340978,0.0192171,0.0689834,0.0411163,-0.0670471,0.0295365,0.011514,-0.0931613,-0.029003,-0.0385282,0.0700169,-0.0121733,-0.0090579,-0.0732123,0.120366,0.0997108,-0.0569615,0.004282,-0.0205922,-0.00860395,-0.00116345,0.029783,-0.0022396,0.0121156,0.00970567,-0.0528293,-0.0238398
0.0479275,0.00207787,0.0311467,-0.122412,-0.00195259,0.00996908,-0.0673549,0.0200264,-0.0123817,-0.0351799,0.0919971,-0.014951,0.00971691,0.0456652,0.0116793,-0.0455282,-0.00583132,0.0506275,0.0171926,0.0820827,0.102617,0.0269964,-0.012989,-0.129877,0.0615782,-0.029439,-0.0700598,0.141232,-0.00706147,0.000538778,-0.113191,0.0321977,-0.0571747,-0.0677689,-0.109597,0.0322304,-0.0249534,-0.020509,0.0525027,-0.0774822,-0.0304005,-0.050685,-0.0553666,-0.0163836,0.0505629,-0.0822911,0.0574593,0.0233127,0.00832601,0.0921838,-0.00213706,0.071234,0.0455315,0.0544773,-0.0246249,-0.0179984,0.0290926,0.0244692,-0.0678922,0.0019726
0.0201565,0.0894399,-0.0579433,-0.0848027,0.0061258,0.0452152,-0.0459156,0.100079,0.0484702,-0.0018384,0.056827,0.0242416,0.0383934,-0.163062,-0.0436188,-0.0156035,-0.0377559,0.0469262,-0.00733366,-0.0231247,-0.101322,-0.00251226,-0.110618,0.0848064,0.00986119,-0.0308446,-0.0503292,-0.0278209,0.127752,0.0856102,0.0544912,-0.0723325,0.0195839,-0.0607101,-0.0249328,0.0320461,-0.100519,0.032651,0.0232177,-0.0456828,0.00471668,-0.0376398,-0.0586184,0.063241,0.00651048,-0.0462819,0.048962,0.0110937,0.00419937,0.0652658,-0.0154944,-0.0214947,-0.0426308,0.00903883,0.0473128,-0.087354,-0.00872202,-0.0186465,0.0543689,0.183553
-0.00343425,0.0776989,0.00602213,0.00635449,0.0513738,0.104122,0.0306904,0.0484796,-0.0463621,0.0368294,0.0531704,0.000224563,-0.150694,0.0882075,0.0107411,-0.00267782,-0.0459498,0.0591104,0.0521366,0.0255273,0.0259575,-0.0299849,0.00152701,-0.0222501,0.028359,0.0173292,0.0934547,0.000697971,0.00609369,-0.1093,-0.0849607,0.0465355,0.0546038,0.0105057,-0.0400612,0.0291373,-0.0822561,0.0247694,0.0891416,-0.0623492,0.0246602,0.136859,-0.0334042,0.0360357,-0.015507,0.021051,0.0677412,0.0500046,-0.00816977,-0.0540954,0.0771126,0.0346431,-0.0398642,0.109052,0.0202169,0.0866437,0.0479065,0.118149,0.0290286,-0.0258216
0.0730912,0.0103067,0.112832,0.0213457,0.0843865,0.0353175,0.0613223,0.0839167,-0.0481305,0.00829596,-0.0171846,0.0191394,-0.060038,0.000757629,-0.0271172,0.0238665,0.00251377,0.108565,0.00460379,0.0490015,-0.0378339,0.0924979,0.0276979,0.00873464,-0.0400733,0.0397851,-0.051667,0.148677,-0.0240838,0.115322,-0.0382685,-0.091763,-0.0204312,-0.0381779,-0.0487187,0.0476504,-0.0244311,-0.0104487,-0.0391785,0.0266076,0.0182642,-0.0701866,-0.0475897,0.0760497,-0.0165624,-0.0619418,-0.0271475,-0.00619847,0.00853698,0.0381126,0.02737,0.0363069,-0.0652511,0.0442106,-0.0430922,-0.00441978,0.110068,-0.0458108,-0.0571112,-0.0500194
0.0506013,0.0148983,-0.0947476,0.0836049,0.0355974,0.0506792,0.143947,-0.0535675,-0.0209812,-0.0406325,-0.0668391,0.0539098,0.0925945,0.113146,-0.0200061,-0.00802873,-0.0505956,0.0109177,0.105576,-0.0160612,-0.0586583,-0.0265912,-0.0798571,-0.00260286,0.0257025,-0.0672218,0.0061122,-0.0336078,0.0774261,-0.00861028,0.0418211,-0.0912112,-0.0784768,0.0336563,0.0185149,0.0272719,-0.0601685,-0.16103,0.00757733,-0.0248316,0.0696657,0.0270737,-0.0177382,0.0694598,-0.0649928,0.0987584,0.00901693,0.0410769,-0.0132093,-0.115398,0.00685769,-0.0743074,-0.0320716,0.0239052,-0.00361681,0.0719253,0.0654677,-0.0958085,0.0968115,0.0409119
0.0416132,-0.032066,0.106009,-0.0262553,0.0301458,-0.00862519,0.127852,-0.0489489,-0.0251545,0.0378922,0.0646045,0.0319657,0.0101831,0.0414539,-0.0239843,0.0445924,0.0318078,-0.0702058,0.0288959,0.0396136,-0.00725395,-0.0179321,-0.0560008,-0.0020814,-0.0908145,-0.011201,0.0869565,0.0011506,-0.0589268,-0.0632301,0.0479842,0.0232529,0.15174,0.0359981,0.118573,-0.0764275,-0.0458521,0.0570809,0.0323672,0.0426518,0.108943,-0.0655202,-0.0842005,-0.00647607,0.0403747,-0.0174804,0.00615585,-0.0115725,-0.0357068,-0.0655111,0.0287063,-0.00375375,-0.00353722,-0.00675876,0.00811018,-0.00197169,0.0421548,0.0489034,0.0087024,0.0448132
-0.00720322,-0.00790789,0.0641491,0.0528225,-0.0792614,-0.0601435,-0.103241,-0.01476,0.0934273,-0.0600726,0.00085117,-0.0754246,0.0455751,0.105585,0.073038,0.141891,0.00665244,-0.036928,0.0198494,-0.104017,0.0409718,-0.0882513,-0.0309641,0.0424823,-0.113613,-0.0362937,0.0432047,0.0350192,0.0830373,-0.0071579,-0.0511743,-0.0654353,-0.00326133,-0.101924,0.0030769,0.091299,-0.0287756,-0.0433194,0.0308791,0.0108297,0.0554934,0.0463996,0.107983,0.157181,0.0592,0.0209073,-0.0387917,-0.00229137,0.0451875,-0.0196855,0.0533367,0.125056,0.0930676,0.100969,0.0213911,0.0332485,0.0205737,-0.0373973,0.0309338,0.132474
0.0461561,0.00148075,0.0583038,0.0511429,-0.0323523,-0.0565128,-0.0622124,0.073499,0.00629626,0.0344732,0.0629978,-0.0226552,-0.0173495,0.021822,0.0130471,0.0132709,-0.0576829,0.000112036,0.0629441,-0.0120598,0.0679742,-0.0846818,0.0165619,-0.0372554,-0.0642898,-0.0762202,0.0276432,0.0211541,0.0249573,0.0619351,0.0441089,0.0209875,0.109496,0.0382684,0.029066,-0.101091,-0.0333275,0.0565561,0.0809397,-0.00916995,0.0595195,0.0192602,-0.053744,0.0410337,-0.0170749,-0.0437389,-0.0521624,0.0200442,-0.0743779,-0.0445769,0.0312192,-0.038993,-0.0252936,-0.0368077,0.0841166,0.0105407,-0.131191,-0.0754538,-0.0784975,-0.0633449
0.0573941,-0.098178,0.0361737,-0.0103134,-0.0539918,-0.105321,0.0245423,0.0349982,-0.0882283,-0.145542,0.0781887,-0.0113947,0.0297541,0.0463943,0.10611,-0.0113758,-0.0328565,-0.0591171,-0.0348501,-0.0541336,0.108612,0.0338704,0.00201127,0.0145209,0.0727488,0.101015,0.012698,-0.00303377,-0.00322863,0.0504177,0.0186817,0.0101182,0.106847,-0.0787813,0.00574972,0.0296949,-0.0352187,0.0467954,0.00629007,0.0866447,-0.016261,0.0374626,0.125894,0.00541861,0.0636462,-0.0398071,0.0706918,-0.0514819,0.0149137,0.0310924,0.0438679,-0.0418619,-0.0288638,0.0239494,-0.0192124,0.0158213,-0.0403135,-0.0218313,-0.0651085,0.00474003
0.0108031,0.0222307,-0.0658518,0.00988156,0.00661058,0.11025,0.0503179,-0.0127121,0.0613017,-0.0232451,0.00752523,0.0472309,-0.0789706,0.000550309,-0.024989,0.112259,0.0680439,-0.00337336,-0.100281,-0.051608,0.0114312,-0.0133464,0.0153396,-0.0408228,-0.0459861,-0.0540362,-0.0674411,-0.0684999,0.120281,0.0593638,-0.0130729,0.0557716,0.0592567,-0.0165209,-0.0409224,0.0872039,-0.0118027,0.0232849,0.0234697,-0.0651497,-0.0164224,0.079834,0.0395559,0.00639877,0.0694926,0.0853203,0.00617945,0.040809,-0.0538297,-0.000607386,-0.00655562,-0.0561326,-0.0470547,0.0950546,0.00883783,0.0996024,-0.0581228,-0.0343103,0.0481865,-0.106622
0.0752904,-0.12315,0.0669428,-0.0203833,-0.0395572,0.0433415,-0.024886,-0.047928,-0.060053,0.0282614,-0.0140761,0.0193661,-0.0945194,0.0118022,0.0481704,-0.0428121,0.00810258,-0.133421,0.0327823,0.0394033,-0.110472,-0.118897,0.00151561,0.0598971,0.0666737,0.0100537,-0.0206493,0.0190527,-0.048398,0.0754018,-0.0351493,0.00688865,-0.0384675,0.043696,0.0313098,0.0775322,-0.0485745,-0.00487873,0.0963407,0.0670384,0.0106615,0.0374303,-0.051491,0.0166201,-0.0152645,-0.100489,-0.00580872,-0.0729699,0.0918215,-0.0754539,0.0370453,-0.0707045,0.0682787,0.0254232,-0.0342644,0.0933859,0.0149444,0.0486048,0.0480361,0.0268458
-0.0083668,-0.157323,-0.00845641,0.00705862,0.0207804,0.00636743,0.045956,0.100064,0.00363783,-0.0280701,-0.0222518,-0.0210374,-0.0603436,-0.0187413,-0.0467262,0.10184,-0.137039,0.0294197,0.0528106,0.0192805,0.0525454,0.0173003,-0.0561022,0.164102,0.104999,-0.0086595,-0.105175,0.117934,-0.0403861,0.0577544,0.0346393,0.0964052,0.0475375,-0.0346508,-0.0892054,0.067353,0.0400452,-0.0381177,0.0578785,-0.0710429,0.0815579,0.0607705,0.106996,-0.0716506,0.0449745,-0.06236,-0.0245305,-0.106024,0.0498335,-0.0610599,-0.0395121,0.0329791,0.0675651,-0.0280598,-0.0174994,-0.0181748,0.0547063,-0.00133673,0.2181,0.00277324
0.043763,0.0565352,0.02023,-0.0317638,0.0906281,-0.00844918,0.0357223,-0.0840216,-0.0144049,0.0123801,0.0214196,0.0873612,0.0482269,-0.0429555,0.0123567,0.0155949,0.00312557,0.0466102,-0.046137,0.069947,-0.027747,0.0293174,-0.106367,-0.0642497,-0.0495193,-0.0594854,0.0380896,-0.0290911,0.0741953,-0.0807358,-0.0108339,-0.0294444,0.00282087,0.0352716,0.0771838,-0.0109548,-0.015047,0.0796069,-0.0357078,0.0138842,0.113302,0.101614,0.0695117,0.0174864,0.00477183,0.0616585,-0.0394455,0.10641,0.0345973,-0.0609597,-0.0725373,0.0775055,0.0975374,-0.0188947,-0.0527672,-0.00468949,-0.00629467,0.0683591,0.0541227,0.0319373
0.0210694,-0.0692945,-0.00894158,-0.0425194,0.0338054,0.00933528,0.0674098,-0.0819698,0.0514958,0.038611,-0.0271479,0.00923159,0.00713552,0.0214858,-0.0500505,0.107393,0.0507421,0.0349558,-0.0337303,-0.0219891,-0.0241466,0.0183048,0.0553322,0.036723,0.0420397,-0.0900472,0.0438344,-0.0174066,-0.0510486,0.0495055,-0.0421837,0.0439389,0.0104766,-0.0142606,0.0561743,-0.0283089,-0.0113744,0.102699,0.0449358,0.0807776,0.00239414,0.0366632,0.102937,0.0104995,-0.0287687,0.0588276,-0.0129403,0.0588702,-0.0191225,0.0391444,0.0153475,-0.0734011,-0.0185848,0.0133111,0.0938732,-0.042428,0.0269099,0.0580744,0.159964,0.0279623
0.0162686,-0.0502215,-0.0976182,-0.028159,0.0344749,-0.0400997,0.0098815,0.10707,0.0250315,-0.0403996,0.0143054,0.113041,-0.0323077,-0.0442093,-0.00594287,-0.0301351,-0.0974388,0.076848,0.0366631,0.0454419,0.0567118,0.035169,0.058208,0.00425815,-0.0113967,0.0202443,0.051147,-0.0630219,0.00592511,0.0178246,0.0484178,-0.014619,-0.0231317,0.0331698,0.0654401,-0.0388602,0.0196073,-0.0155272,0.0919028,0.0310465,0.078783,0.0382072,-0.0129292,-0.00501416,0.010819,0.0419204,0.0347214,0.0877931,0.0972537,0.0240762,0.00247894,0.00599692,-0.0407284,0.0205522,-0.0188439,0.114978,-0.034074,0.0162611,0.0616225,-0.0292267
0.0145944,-0.0435232,0.0580955,-0.0611185,0.0515538,0.110931,0.0379174,-0.00557177,-0.00828836,0.153637,0.0320312,-0.0278688,0.068466,0.0376747,-0.000877971,-0.0247037,-0.022175,-0.073436,0.0119721,0.0509558,0.00865054,-0.0188035,0.141011,0.0781387,-0.105571,-0.0379863,0.01049,0.00730608,0.0673086,-0.0305684,0.0915455,0.0220214,0.0821581,0.0010145,0.0156381,-0.0600638,0.000123744,0.167973,-0.0360524,-0.0491627,0.00685911,0.143723,0.0405161,0.0485801,-0.0401386,-0.00102645,0.052133,0.101311,-0.00969182,0.00618377,0.00738941,0.0443878,0.0340385,0.0365688,-0.0367917,-0.0501073,-0.033106,-0.0480137,0.0891281,-0.0700293
0.00775346,-0.034904,-0.0932649,0.126888,0.0392263,-0.0426938,0.0246345,-0.0270725,-0.0292557,-0.047832,0.0642587,0.0676051,0.0517984,0.02994,-0.00419235,-0.0216535,0.00421704,0.0252528,0.0216877,-0.0605185,-0.0419374,0.050312,0.0510713,0.101142,0.0111529,0.0466973,-0.0201148,-0.0127583,0.0246851,0.0255961,0.0681861,-0.0321035,-0.0362904,0.0467802,-0.0225467,0.0301298,-0.0130487,-0.0474028,0.129428,0.0482418,-0.00154121,0.0163807,0.0777274,-0.0243291,0.0429403,0.0224013,0.0786647,0.0584727,-0.0838863,-0.0170107,0.0235593,-0.0299371,-0.0040677,0.0825131,-0.066564,0.0581214,-0.00491063,-0.0483952,0.100481,0.0862164
0.0423818,-0.00669975,0.00626172,-0.113837,0.0330053,-0.025666,-0.00843703,0.0048875,-0.0202852,-0.012455,-0.0702762,-0.0543071,0.0634477,-0.0857674,-0.0239992,0.106359,-0.0644924,-0.00493185,0.0218419,0.0152982,0.0758606,-0.0459476,0.0673814,-0.0408953,-0.150816,0.0628655,-0.0473309,-0.064202,0.0156532,0.0559351,0.0630906,0.0518069,0.0618137,-0.0511363,-0.0602435,-0.0196463,0.00828011,-0.00374269,0.132911,-0.0228486,-0.0123017,0.0411218,-0.0148084,0.126337,0.0374316,-0.0366709,0.0604305,0.0228037,-0.0175665,-0.00651123,0.0604063,0.00818122,-0.00933887,0.102154,0.0242009,0.0539925,0.0354653,0.0972432,-0.0073843,0.0502022
-0.035809,-0.000704234,0.00230791,-0.039604,0.0855912,-0.0426807,0.000295903,0.0647293,0.0578805,-0.0571182,0.000621048,-0.0176219,-0.0483528,0.0299705,-0.00123489,-0.020099,-0.0413957,-0.00218197,0.0302422,0.0272322,-0.00644536,0.0129073,0.0448856,0.072805,0.101809,-0.0158098,0.060194,-0.0586805,0.00870538,-0.030352,-0.0377819,0.100868,-0.0234226,-0.100571,-0.0135057,0.0448224,0.0890166,0.0477642,-0.0520114,-0.048785,0.0263397,0.113909,0.000953736,0.115699,0.0785608,-0.0384405,0.0230071,0.015894,0.0207285,-0.066778,0.0092883,0.113667,0.115003,-0.0161229,0.0753705,-0.050897,-0.00629417,0.0868089,0.00518617,-0.00858596

max: 1
min: -0.171368
avg: 0.0063209
