0.030914,0.000341854,-0.00387013,0.0338326,0.024922,-0.0571766,-0.00848164,-0.0187242,0.0956232,0.0215484,-0.0146859,-0.0940339,0.0432255,-0.00758301,0.0470436,-0.00982472,-0.0689096,-0.00910601,0.00880233,-0.0206882,-0.0604864,0.0645896,-0.00880147,0.0406362,0.137774,0.064964,-0.00488267,-0.000937499,0.0130977,0.0120481,-0.0798517,-0.014873,-0.00649232,-0.0341849,-0.00953077,-0.0788484,0.0310014,0.170195,0.0292874,0.0966552,-0.0197204,0.0587397,0.00759776,-0.057984,0.0722304,-0.00160031,-0.0533409,0.0846049,0.10832,0.0219597,-0.108661,-0.186034,0.00438025,-0.00490058,-0.0855877,-0.0376859,0.00747534,0.00946409,-0.0427951,0.0171034
-0.0336897,0.0065427,-0.0286198,-0.0290443,0.0790545,0.0130521,0.0345653,-0.0796673,-0.0607821,0.0830616,0.0115518,-0.0632015,-0.0138456,0.0358351,-0.0134159,0.00177071,-0.0825838,0.0554445,-0.0226778,0.0431663,0.117546,-0.0183303,0.0432452,0.0466646,-0.000582648,-0.00677391,-0.0413745,0.0168425,-0.00351123,0.00646811,0.012868,-0.0844344,0.0219044,0.0863951,0.0774519,-0.0445584,-0.00393314,-0.00923054,-0.110257,0.0968222,0.0262605,0.052811,-0.063296,0.0905743,-0.0681652,0.00776102,-0.0432354,0.00578014,0.033464,-0.0716144,0.0507335,-0.0178648,-0.111958,0.00102947,0.0513217,-0.032229,-0.0730683,-0.0256864,0.0651925,0.0148479
-0.0675706,-0.0517652,-0.00735339,0.0142931,-0.0357862,0.072164,0.0262814,0.029588,0.0162409,0.101686,0.111623,-0.0202776,0.0441239,0.0645682,0.0310565,-0.0640646,0.0296656,0.114555,-0.0489415,0.0350157,-0.00643148,-0.0974517,0.0496738,0.0380717,-0.0420624,-0.0017225,0.00813489,-0.0569294,0.0639816,0.0247549,-0.00468224,-0.0396902,0.050277,-0.0477164,0.0172065,-0.00617886,0.0468783,0.109297,0.0179343,-0.0939973,-0.0208688,0.179194,-0.0144393,-0.00684724,0.0750383,0.0389611,-0.00669564,-0.0385875,-0.00476511,-0.0991146,0.0370513,0.0465876,-0.0624555,-0.145781,0.0793161,0.0042556,-0.0637878,0.00274013,0.0107831,-0.0325745
-0.0211789,0.0301581,0.0336331,0.0104018,0.00551537,-0.0887016,0.124531,-0.0442265,0.0162916,0.131917,0.0473827,0.0598481,0.0836786,0.0371113,0.0380179,-0.00177981,0.0974854,0.0342439,0.0432146,-0.0766757,-0.039527,-0.0275963,-0.0429046,0.00547952,0.0157953,0.0490624,0.0724027,-0.0970804,0.00453944,-0.0106005,-0.0773761,0.0862673,0.0679013,0.0721929,-0.0086161,-0.099931,0.046538,-0.085425,0.0883462,0.0150051,0.0814625,0.000435273,0.0667713,-0.0947866,-0.0447317,-0.0688638,-0.0373031,0.0382717,-0.0246691,-0.00906654,0.0649411,-0.0426065,0.0580667,0.0291969,0.102387,-0.0269762,-0.0529189,-0.00518319,-0.0559154,-0.0484182
0.0439234,0.0661347,0.00407378,0.0678732,-0.0185181,0.0516898,-0.143551,0.0864137,0.00507758,-0.035289,-0.0362282,-0.00754396,0.133419,0.112676,0.0103539,-0.00786825,0.0657596,-0.0127654,-0.00894289,-0.0155315,-0.0608391,-0.0326412,0.0712937,0.0738676,0.0470554,-0.00987651,0.0819187,0.08558,0.0174632,-0.00719,-0.00334172,0.00361935,-0.0550133,-0.0287631,-0.0201381,-0.088581,-0.0318881,-0.0216957,-0.0576617,0.0600543,-0.00788997,0.00154819,0.00844141,-0.0144761,0.0213319,-0.00470356,-0.0086717,-0.0576492,-0.0501231,0.0808439,0.0822495,0.116727,0.00932246,-0.0159017,-0.0607453,0.0170956,-0.0234269,0.0285722,0.0594799,0.0954734
-0.0649449,-0.0161288,-0.0274178,0.100014,-0.0252424,-0.0373341,-0.00670869,0.0497692,0.0880508,-0.0079696,0.115484,0.0256743,0.0194326,-0.058647,-0.00985773,0.0330845,-0.032724,-0.0777412,-0.032693,0.0036282,-0.0130577,0.0588397,0.00439005,-0.00524577,0.0818777,0.0211054,0.0714877,0.0430368,0.0172279,0.0639415,0.0763268,0.00546003,-0.0505067,-0.068627,0.0021121,0.0988189,-0.0164857,0.0166742,-0.0557186,-0.0490409,-0.133469,-0.0247626,-0.0105861,-0.0346281,0.0161421,-0.000164441,0.00252367,-0.0358695,-0.0150988,-0.076461,-0.06492,0.0754942,-0.0265043,0.0190764,0.109754,-0.064155,-0.00219459,-0.0123265,0.0379792,0.0335218
0.00739766,0.0688481,-0.148082,-0.0397187,0.0102345,0.00519197,-0.0177126,0.0586575,-0.0350774,-0.037573,0.071403,-0.064136,0.037782,-0.0535801,-0.0640585,-0.0499061,0.0664087,0.0768967,-0.0360813,-0.00526254,0.0543536,-0.0193803,0.0345643,-0.0119695,0.0475061,-0.00283149,-0.0208765,0.0134333,0.0445012,-0.0129576,-0.0639953,0.0517431,0.121063,0.0839302,0.0777931,-0.0946816,-0.00250095,0.0106302,-0.0382776,-0.00404195,-0.0233627,-0.0191729,-0.107724,-0.004513,-0.0109944,0.0525448,-0.115926,0.0473932,-0.0404654,-0.0675495,0.0560823,0.0158568,-0.0288532,0.064985,0.13222,0.0147533,-0.00618437,0.00191865,0.0250317,-0.0129155
0.0565795,0.0436259,0.0318639,0.00657194,0.0922497,0.0279815,-0.0312654,0.0489164,-0.0318983,0.0419771,-0.0356978,0.00355347,-0.0335948,0.0296365,-0.00208203,-0.0985979,-0.115438,0.0036423,-0.0821657,-0.0434883,-0.0249697,-0.0189732,0.0188244,-0.109972,-0.0204845,-0.0452158,-0.0151033,-0.0116189,-0.0775006,0.0385381,0.0305604,0.0421474,-0.0222875,0.0794094,-0.0295576,-0.0080077,0.0846608,-0.126119,0.0124725,-0.0141869,-0.0577332,0.0437063,-0.0667346,0.0921593,-0.0745939,0.0365152,0.0364526,-0.108315,0.0071565,-0.0179961,0.0230365,-0.0251458,-0.0393056,-0.0251604,0.00610685,-0.101478,0.0163699,-0.0748888,0.0702462,0.00433696
0.102074,-0.0725818,-0.0760566,-0.0511805,-0.0419535,-0.0173112,-0.0375155,-0.0720707,0.0495889,-0.0934037,0.0894842,0.0495324,-0.000705531,-0.028977,0.114025,-0.110177,-0.0358738,-0.0807718,0.00867575,-0.0593604,0.0875373,-0.00392801,-0.0500716,-0.0311173,-0.0326033,0.0236644,0.0329046,0.0687792,0.064805,0.0272274,-0.00551391,-0.0424825,0.048723,-0.0648448,0.0900137,-0.0236915,0.0485548,-0.0412531,0.0422142,0.0396957,-0.119345,-0.0828254,0.0164231,-0.0632213,0.0451854,0.0303919,-0.0595065,0.0970161,0.0263607,0.0761862,-0.0252816,-0.0292298,0.0520877,-0.00338712,0.119098,0.0537509,-0.016515,0.130975,-0.0578681,-0.0299662
-0.0458065,-0.022155,0.0277016,-0.106265,-0.031832,0.0403056,0.108406,0.0455777,-0.0366065,-0.0321222,-0.131719,0.0404229,0.0109756,0.0210488,0.0596876,-0.0236231,0.0905961,0.160657,-0.053457,0.0347745,0.0123361,-0.0518568,-0.0998694,0.0911555,0.0330813,-0.00266598,0.029389,-0.00200456,0.0225276,0.00264437,0.000355589,0.122295,-0.0511037,-0.120341,0.0928645,-0.119348,-0.029311,0.06633,-0.0165207,0.0806993,0.0242573,-0.0140088,-0.0555209,0.0880234,-0.00478126,0.0293474,0.0904444,0.00538463,0.0962668,0.0222271,0.0889036,-0.00844777,-0.0595538,0.00593016,0.040669,-0.0136739,-0.050408,0.0165517,-0.0771377,-0.101192
-0.0159833,0.0663137,0.00541774,0.0202783,-0.0310078,-0.0460423,0.0268732,0.0314849,-0.0147166,0.0433022,0.00856649,0.0564956,-0.0288526,-0.107155,0.00562694,0.0558114,-0.0154768,0.0627305,0.0140088,-0.0252494,0.0100754,0.00846432,0.0298255,-0.0223661,-0.13013,-0.0771716,0.0604884,0.068128,0.0768727,-0.0221411,-0.0507536,-0.043761,-0.0887115,-0.040515,0.00177636,-0.066911,0.0553684,-0.0407188,0.0281247,-0.064845,0.0265378,0.0164131,-0.0586539,-0.024534,-0.0159582,0.0782332,-0.0185741,-0.0216271,-0.0122032,-0.0428866,-0.00460941,0.0811326,0.0431466,0.0447228,0.0815067,-0.0517456,-0.0563483,-0.000419322,-0.0886156,-0.0260173
-0.0144789,-0.0553221,0.00656895,0.05151,0.104457,0.00344353,0.105091,0.0870138,-0.0906256,0.047332,-0.0252572,0.0187844,0.0329326,0.0661637,0.00936052,0.000237148,-0.0961454,0.0363366,0.0523879,-0.0940749,0.00886824,0.00248568,-0.0876359,0.0425969,0.0148004,-0.115049,0.00975772,0.145055,-0.0275939,-0.125077,-0.0278897,0.00400899,0.0540284,-0.00805813,-0.0109285,-0.00843071,0.00805386,0.0157842,-0.0122931,-0.0707523,0.00167147,-0.012425,0.0178688,-0.0169247,-0.0333703,0.0719893,0.00143058,0.0649697,0.00183162,-0.00122861,-0.0664597,-0.112656,0.0426836,0.0488729,0.0237272,0.100249,0.104983,0.000543538,-0.00186588,0.0621182
-0.0367957,0.0134256,-0.00207843,-0.0463971,-0.0517884,-0.00518003,0.0540072,0.0308402,0.0445814,0.111282,0.00020839,0.0177234,0.028359,-0.107663,-0.000919252,0.00287596,0.02283,0.0437556,-0.00701587,-0.030443,-0.0550177,0.0238467,0.0721365,-0.0392832,0.00811989,0.0660026,-0.0463679,-0.0300095,-0.0787107,-0.0694572,0.0299488,-0.0611939,-0.0274039,-0.0138974,0.0928747,-0.0269568,-0.0669259,0.0820677,-0.0145907,-0.0457733,-0.0673713,-0.0848828,0.014156,-0.085306,0.0131526,-0.00135439,-0.0167003,-0.0204535,0.0112605,-0.0112984,-0.0167867,-0.00589164,0.0830137,0.043063,-0.123985,0.0735723,0.100292,0.00300562,-0.0335554,0.0914277
-0.0191484,-0.0281589,-0.0633886,-0.0134527,-0.0182481,-0.0924291,0.146959,0.0331318,0.053085,0.0521137,-0.0230701,0.0442792,-0.0259971,-0.0329372,-0.125554,-0.00491326,-0.00842591,-0.018104,0.0218991,-0.0316113,0.11855,-0.0875409,0.0959866,-0.0846343,0.0304197,-0.056313,0.0676909,-0.0601478,-0.041303,0.0280534,-0.0717776,0.0136652,0.0594957,0.0838768,0.058318,0.145028,0.0623428,-0.0500581,0.0435173,0.059112,0.00726273,-0.00856225,-0.088298,-0.0592116,-0.0998483,0.0215945,0.0647793,-0.0444037,-0.0436815,0.0277261,0.0377742,0.00341798,0.0254382,0.0700263,0.00831539,0.0968502,-0.0702314,0.0201243,0.0345974,0.000192542
-0.0458554,0.0236016,-0.0583945,-0.0639699,0.00166242,-0.0109437,0.066708,0.0890431,-0.0949338,-0.0745562,0.0835901,0.0512996,0.0317552,-0.00566234,-0.0543385,0.0137336,0.0419263,0.0810121,0.0361634,0.0213583,0.0379214,0.00850668,0.124823,0.0659362,0.14689,-0.0403003,-0.0671861,0.0858583,-0.0913398,0.00249955,0.0273687,-0.00645584,0.00820541,0.0257654,0.0513754,0.0830082,-0.00102429,0.0455408,-0.0178204,-0.0219466,0.0338328,-0.0772223,0.0469341,-0.0735641,0.0612585,-0.0875212,-0.148775,0.0614847,0.111726,0.0951745,-0.0789416,0.0595965,-0.038112,0.0380129,0.0432404,-0.0287577,0.0116274,0.0275588,0.105182,-0.0392421
0.0203422,-0.0710227,0.0597987,0.0659741,-0.000255883,-0.000981013,-0.0162339,-0.0199515,0.0300049,0.0368419,0.0471538,0.113736,0.0656199,-0.00458854,-0.0150321,-0.0404472,0.14968,0.14238,0.0281991,-0.103347,0.00554526,-0.0086044,-0.0259737,0.0176811,0.027014,0.0125097,0.046111,0.0234206,0.147927,-0.0590283,0.0428393,0.00552013,-0.0798602,-0.0052589,0.0322731,0.144571,-0.042198,-0.0224637,-0.0434975,-0.0101838,0.00628298,0.018272,-0.0674696,-0.0345233,-0.02742,-0.0646908,0.0119012,0.0304653,-0.0513875,-0.00793253,0.0992076,0.0546137,0.0373124,-0.0196562,-0.0197114,-0.00724592,-0.0432839,-0.0858967,0.159937,-0.0226235
0.0242122,-0.0475689,-0.0235542,0.0305925,-0.0630596,0.000211322,-0.0185793,0.0585374,-0.0139153,-0.0342602,0.0041737,-0.00758152,0.0744589,-0.0142232,-0.0791864,-0.0521309,-0.0366968,0.0532275,0.0474599,0.0773549,0.0432436,-0.0948388,-0.0128293,0.0622738,0.0569585,-0.010254,-0.0187489,0.0697119,-0.0231892,-0.00635741,0.0535656,0.0322953,-0.0381618,0.0395151,-0.0588681,-0.00427135,0.0251334,0.0451678,-0.00081821,-0.00850385,-0.068176,-0.0550653,-0.0264339,-0.0126233,0.0198941,0.144395,-0.0291757,0.0244222,0.0492065,0.137614,0.0139568,-0.0136401,-0.00768336,-0.00982032,-0.0570424,0.00197263,0.0884664,0.0520829,-0.0394262,0.0203189
0.0415169,-0.0433031,0.0834887,-0.0984808,0.00931367,-0.0266008,-0.0117211,0.0874424,-0.0198445,-0.0540324,0.0188726,0.0801066,-0.0446861,0.0795155,0.0104658,-0.0250562,-0.0604492,0.0792495,0.124366,0.0929144,0.0495671,0.00505747,-0.0485763,0.0408607,0.0723444,-0.0664737,0.0731336,-0.0439631,-0.0380676,0.0297307,-0.103619,-0.0183416,0.032127,-0.0369652,0.0300569,-0.0331329,0.03978,-0.000318385,0.0406054,-0.0590665,0.116158,-0.0426974,-0.037146,0.0310484,0.0140156,0.0317185,-0.0450435,0.043229,-0.0577354,0.0370357,-0.00460191,-0.0168729,0.0180694,0.0272293,0.102924,-0.0311198,-0.00989253,0.0262145,0.049071,-0.00314719
-0.0353972,-0.0452207,-0.0106328,0.0552505,-0.0302977,0.031115,0.0336958,0.0472425,-0.0636649,-0.0827918,0.00573003,-0.0241938,0.0281482,0.0204725,0.0254784,-0.0171012,0.0619888,-0.0146729,0.0319022,0.0595425,0.0338128,0.0708764,-0.10629,-0.017905,-0.00924999,0.0152743,-0.0512929,-0.0224751,-0.004641,-0.0913831,0.0300488,0.0635855,0.0341786,0.0343771,-0.0910122,0.077906,0.0677355,-0.0293683,-0.0439795,0.0614729,0.0497751,0.0453981,-0.0564961,-0.0325526,0.0591077,-0.0543657,0.0094084,0.0559431,0.00200707,-0.0672437,0.0197027,-0.148127,-0.0654863,0.0501493,-0.0175099,-0.0909667,-0.0282778,-0.10386,-0.0459924,0.00187083
0.00920849,-0.00420315,0.0514981,0.0750902,-0.0130834,0.0203589,-0.0237961,-0.0576987,-0.0267171,-0.069863,-0.0296917,-0.0220552,0.0228405,-0.0238081,-0.0807727,0.00985525,0.000323504,0.00235352,-0.0379366,0.0250004,-0.0314243,-0.0183941,0.0567149,0.0179696,0.0458846,-0.0710317,0.0211765,-0.0225681,-0.0172175,-9.5172e-05,-0.0359486,0.052846,0.0116637,0.1063,0.135179,-0.0808993,0.0182714,-0.0262772,-0.0838164,-0.0914393,-0.0292873,-0.114823,0.0698263,-0.167065,0.0500417,0.0921248,0.0208418,0.0285324,-0.0500712,0.125394,0.0615805,0.0952737,0.0406518,-0.069292,-0.034131,-0.00196685,0.0459908,-0.056734,-0.0929333,-0.0311361
-0.0794567,-0.0245906,-0.0479096,-0.0698694,-0.00922866,-0.00872747,0.0422219,0.0351702,0.0257688,0.0252758,-0.0755559,-0.0566141,0.028771,-0.0471984,0.0777348,0.00535444,0.0576988,0.000160622,-0.0162444,0.0298944,0.0185087,0.0477863,0.0287801,-0.0600765,0.05733,-0.0056352,0.0354686,-0.0354046,0.0644852,0.168265,-0.0298392,-0.0601029,-0.00889761,-0.0189297,-0.0174043,-0.0268311,0.0354069,0.028848,0.0432014,-0.0747291,0.0942967,0.0736149,0.0138655,0.0299076,0.0471502,0.0277202,-0.0105082,0.0299044,0.0703722,-0.0678878,0.0599283,-0.0428124,-0.0476042,-0.0547707,-0.0745586,-0.0791185,-0.117656,-0.0182883,0.0994946,0.0382578
-0.0101733,-0.0648753,-0.0102347,0.0504335,-0.0218085,0.035515,-0.0650984,-0.0185605,0.0436113,0.0445987,0.0374199,-0.0233885,-0.0274702,0.0547202,0.0265531,-0.0219323,-0.0196478,-0.00408209,0.00627179,0.0594198,-0.00973025,0.0855744,0.00590943,0.0067007,0.0794879,0.0521163,-0.103962,0.010223,-0.0207677,0.0011015,-0.0486363,0.0171672,-0.0224892,0.0671605,0.0626823,0.0302451,-0.0641292,0.0903106,-0.0466548,-0.0315873,0.0480837,0.0133782,0.0525062,-0.0339252,-0.00725025,0.0833277,0.0919707,0.0641825,0.0802075,-0.0122386,-0.0391707,0.0192425,0.0223986,-0.0245648,0.00229608,0.044541,0.117263,0.0108066,0.0931186,-0.0221723
-0.0934304,0.0429311,-0.0122477,-0.0103786,-0.0349666,0.0246335,0.0696648,0.0293532,0.0789234,-0.0110352,-0.0257111,0.0798314,0.0564439,-0.0908959,-0.0273163,-0.0445911,0.00968151,-0.0456272,-0.0351322,-0.0811915,-0.0238034,-0.0794433,0.0148095,-0.0334664,0.0210528,0.101778,0.0234222,-0.03862,-0.0464072,0.0621289,0.0520771,0.0172462,0.0893313,0.0349322,-0.0504557,0.00730342,-0.0719625,0.0526865,0.0906533,0.0577239,-0.0132926,0.0715994,0.0265421,0.0350323,0.0457222,-0.0590299,-0.0846944,0.0214206,0.155965,0.00331,0.0456147,-0.0172614,-0.0749149,-0.030099,0.0372974,-0.00922069,0.0109557,-0.0459063,-0.0268814,0.0469637
0.0784204,-0.0456546,0.0425927,-0.0936211,0.0446205,0.0470172,-0.0861699,-0.0574316,-0.00174838,0.037326,0.00449836,-0.0621064,-0.018533,-0.0607119,-0.0337828,0.0701504,0.040322,-0.0598678,0.0618733,-0.031637,0.0299538,-0.00885762,0.0293713,0.000449084,0.0068781,0.125264,0.0017054,0.00439502,0.0469448,-0.00878054,-0.194616,0.0404766,0.0567677,-0.00514414,-0.104416,0.0335418,-0.0038132,0.0696266,0.0412778,0.0468913,-0.0524966,-0.0353691,-0.165071,0.032975,0.0225114,-0.0428926,-0.0954443,0.0296007,0.0342691,0.0577075,0.0869255,0.0484839,-0.0181031,0.0442397,0.0588029,0.0372498,-0.0609568,0.102158,-0.0401805,-0.00661583
-0.137194,-0.0770663,0.0457372,-0.0687619,-0.00131227,-0.0613956,-0.00256609,0.018156,0.0144958,-0.0221835,0.0839936,0.0687202,0.0278283,-0.0270918,-0.0224124,0.0471163,-0.00438055,0.0568102,-0.0218289,0.042779,0.00662696,-0.0727439,0.0414158,-0.0542166,-0.0128638,-0.0554205,0.00895522,-0.120414,0.0514053,-0.0848772,-0.0219655,0.000818037,-0.0236631,0.0717077,-0.0507594,0.0742595,-0.00301861,0.00744286,0.0585522,0.0317457,-0.0332878,0.0261357,-0.0405031,0.0191228,0.0241245,-0.0354392,0.0315523,0.0228277,0.0414149,-0.00731144,0.0370416,-0.0202556,-0.0418315,-0.0105825,-0.0462352,0.0127455,0.0712642,0.0296801,0.117555,0.0832496
0.0143323,-0.156853,0.00788398,0.099157,-0.0368746,0.0287369,0.144131,-0.0505315,-0.0448229,0.0756816,-0.0132866,0.0661862,-0.0170233,0.0891786,0.00861326,0.00922821,0.14817,0.0158474,-0.028914,-0.0442306,0.00457285,0.0561843,0.0678655,0.0445096,0.0236188,0.0403863,-0.00682477,0.0401322,-0.0282203,0.00330702,0.0309133,-0.0237001,0.0825298,-0.0647087,-0.043862,0.00923426,-0.0852471,-0.0347932,0.0326026,-0.0492528,0.0324508,0.0765628,0.0599239,-0.142166,-0.0815452,-0.0509981,-0.0717099,0.0524026,0.0361442,0.0139192,0.0245735,0.0821143,0.0707038,-0.0420284,-0.0286122,0.0132718,0.0638106,-0.0277747,-0.00378481,-0.0201886
0.0902997,-0.0422972,-0.00203554,0.0119194,-0.0816025,0.0210146,-0.0561646,-0.0950893,0.00550129,0.0180434,0.169951,-0.0380783,-0.00880882,-0.0924322,-0.124724,-0.0323855,0.0302356,-0.0818481,-0.0303974,0.0296762,0.0205307,0.0393038,-0.0760438,0.0651264,-0.0490935,-0.0159812,-0.0316105,-0.00784146,-0.0444064,-0.0288769,-0.0646587,-0.0830646,0.0351616,0.0677081,0.0887393,0.0384585,0.0166988,0.00331806,0.1006,-0.0425942,0.00555131,0.0339008,0.0177429,0.0914406,0.0163922,-0.00443545,0.0780985,-0.0167894,-0.0410825,-0.0365942,0.0581792,0.0534915,0.135757,0.0484779,0.0473145,0.025193,0.0207025,-0.0180909,0.10346,-0.00149285
-0.0115782,-0.0681769,0.101695,0.0731618,0.0991824,-0.0603182,-0.00938947,0.0102582,-0.00285264,0.11639,-0.0418784,0.0199882,-0.0325024,0.103462,0.0870032,-0.11946,-0.0988003,0.00142604,0.0779722,-0.035433,0.190556,-0.00369975,0.0104614,0.0169216,-0.041553,-0.013255,0.0280311,0.0307295,-0.0251162,0.0711227,-0.0528945,0.0223081,-0.115968,0.00686258,-0.0332814,0.0814713,0.116835,0.0271815,0.0133158,0.0325463,-0.0294209,-0.00724288,-0.040773,0.0469018,0.00883897,-0.0204293,-0.0581305,0.0313089,0.0705539,0.104151,-0.0536238,-0.0368572,0.0381583,0.0465371,0.0943132,0.00472073,-0.00196017,-0.0464738,0.0971581,0.0481083
0.00249082,-0.0231287,0.00720459,-0.0762813,0.0293217,0.0109645,-0.0312674,0.0404606,-0.0533226,0.0168159,-0.0624633,-0.0257441,0.0656059,0.0301568,-0.0626911,-0.0218289,0.0600175,-0.00458135,0.0026606,0.0692447,0.0301256,-0.0135774,-0.0478337,0.0414839,-0.106355,-0.0201932,-0.0243272,0.0991716,0.0168309,0.0199172,-0.045802,-0.0684303,0.0154314,0.0465696,0.0286557,0.0556662,-0.0113753,-0.0251377,0.00754128,0.0116744,-0.0507672,0.0854767,-0.0542379,-0.0172193,-0.00659844,0.00786898,0.0174259,0.0252449,0.0756331,-0.0909434,-0.0869946,-0.0793178,0.0445311,-0.0634906,0.0349813,0.0368865,-0.0393826,-0.00821028,0.0264071,0.00575745
0.0223236,0.0637884,-0.0424766,-0.00966359,-0.0427206,-0.119255,0.0152068,0.022075,-0.0101729,-0.019042,-0.0811876,-0.00842628,-0.000376295,-0.0208582,0.0305803,0.00893535,-0.00663763,0.0588388,-0.0321269,0.0295137,-0.068091,-0.0255058,-0.0011152,0.0671764,0.0382201,0.0085553,-0.105502,-0.0486008,0.00732869,-0.066647,0.0133255,0.000395875,0.0240362,0.00858271,-0.0791226,-0.0120754,-0.07151,0.0127653,0.029493,-0.0357547,0.053791,0.022767,0.0321885,0.0390586,0.027648,0.006381,0.0182469,0.0585082,0.0251541,-0.0995429,0.0683118,0.0347787,-0.0421741,-0.0337731,-0.0150541,0.0289372,0.058697,-0.0182334,0.102574,-0.0503522
0.0798611,-0.0136671,0.0284016,0.00811097,-0.00496107,0.0386124,-0.0225347,0.0100202,-0.0621939,0.0199136,-0.0430688,0.050106,-0.0377837,0.0663638,0.0481263,-0.0148944,0.0207968,0.135059,0.150803,0.111843,-0.0153921,-0.0595016,0.0481922,-0.0906297,-0.0426429,0.0983886,-0.0279324,-0.0162396,-0.0284088,-0.0149987,1,-0.0853652,0.0661624,-0.0975952,0.0531705,0.0693632,-0.00965722,0.0526738,-0.0437748,0.0288167,-0.044801,0.0258363,-0.0603701,-0.0829577,0.0904881,0.00864504,-0.0637245,0.0161562,-0.0971504,0.0518694,-0.0173079,-0.000568784,0.0372934,-0.0622891,0.0342263,-0.0315883,0.0705387,-0.0497147,-0.000813925,-0.0010401
0.0145746,0.0110059,0.000498172,-0.0290928,-0.0498335,-0.0440054,0.0332328,0.10036,0.101183,-0.058152,0.0603553,0.0525978,-0.063536,-0.00396506,0.101023,0.107977,-0.0580753,-0.00315866,0.0635511,-0.0117762,0.0946626,-0.0155527,0.0769977,0.00382359,-0.0333375,-0.0745743,-0.0138609,0.0223191,0.00425132,-0.0477629,0.0297409,-0.044771,0.00304428,-0.0584293,-0.0209958,-0.0372306,-0.0249995,0.0707175,0.127552,0.00830203,0.00244598,0.016462,-0.0141597,0.112008,0.0284657,0.0552243,0.07448,0.075491,-0.112191,-0.0109207,-0.0548081,-0.0391247,0.080149,0.0611736,0.0176038,-0.0355117,-0.075967,0.08828,-0.00444321,0.0716861
0.0461007,-0.0467801,-0.0118838,0.0215703,-0.112016,0.0131883,-0.0628392,0.0446098,-0.0336962,0.0670267,0.123596,0.0243736,0.00953619,-0.0535988,0.0061646,-0.0661282,-0.0432846,-0.00410812,0.0200136,0.0496281,-0.0208932,-0.0905729,-0.013024,0.0733837,0.0931546,0.0405861,0.0666444,0.0265013,-0.0574513,-0.0893116,0.0686941,0.119501,0.000707606,-0.0615034,0.0199461,0.0252079,0.122438,0.00138065,0.0648438,0.0193467,-0.0308711,0.0232,0.0413143,-0.00899609,0.0285617,0.0423232,-0.104392,0.0529406,-0.013483,0.0655062,0.105438,0.0330278,-0.0221787,0.0199889,0.0190162,0.0453656,-0.0345552,0.0410502,-0.0519508,-0.0395318
-0.0624586,-0.0795996,0.0180952,-0.0229143,-0.0308785,-0.0337247,0.0715309,-0.0119684,-0.0509625,-0.0216785,-0.000597681,0.0412751,0.0182875,-0.088004,-0.0886691,0.0100679,-0.0110359,0.058037,0.00175337,0.0592038,0.00241252,-0.00923117,-0.027123,-0.0317916,-0.100391,-0.023492,0.00916681,-0.0543872,-0.0993289,-0.0924108,-0.0311344,0.0482352,0.0200402,0.0431165,-0.115333,0.00495472,0.0193203,-0.046622,0.0732358,-0.0792535,-0.0369698,-0.0845404,0.0466073,0.0273076,0.0474032,-0.0754626,-0.117746,0.0613073,-0.0402484,-0.00563457,-0.0500124,0.0322952,0.0823526,0.0690736,0.0189076,-0.0333246,0.0445309,-0.0284923,0.0452038,0.0803743
-0.0412322,-0.0510692,-0.0411522,0.0293896,-0.0153109,0.017871,0.0587831,0.0538976,0.0848507,-0.0319632,-0.0611485,-0.059674,-0.0615881,-0.132399,-0.00412657,-0.0187687,-0.0380869,-0.00637555,0.0976502,-0.00698655,-0.0340695,-0.0548601,0.0176795,-0.0411026,-0.013664,-0.0678029,-0.0214923,-0.0230663,0.00702855,-0.00567364,0.126563,-0.0191317,-0.0910676,-0.0724582,0.0400521,0.0123232,0.0970972,-0.0374293,-0.0356836,0.0315425,0.0757274,-0.110266,0.0305996,0.00271694,0.0792461,-0.0278919,0.0751833,-0.0476211,0.00199425,0.0442662,0.0101051,-0.0446673,0.0581337,-0.0356769,0.0169527,-0.0140852,-0.0205967,0.0196719,0.0169132,0.0935754
0.0633508,-0.014783,-0.119191,-0.00784627,0.0399121,0.00850748,-0.0341569,0.0672731,-0.01825,-0.0410808,-0.0539372,-0.000234046,0.0545899,0.00623663,-0.0196918,0.0281766,-0.0991877,-0.084312,-0.0578546,0.00380093,0.00118574,0.0148151,0.165553,0.0162689,0.0951584,0.0555481,0.00267604,0.0069535,0.0553465,0.0483294,0.0520388,0.00940836,0.0168249,0.000612246,-0.0856472,-0.0267496,-0.0350462,0.0817931,-0.0590842,-0.00654033,-0.0196005,0.0398464,-0.0316493,0.0835919,0.0208405,-0.0305449,-0.0647103,0.0213243,-0.0197578,-0.0625615,0.0286835,-0.0400476,0.0195062,0.062592,-0.0167658,-0.0447749,0.0573731,-0.00789946,0.00982654,0.0619438
0.105335,0.00905428,0.0789651,0.016668,-0.0331455,0.0259208,-0.0386781,0.000864772,-0.0650769,-0.0250029,0.0740679,0.153859,-0.0387692,-0.0561758,0.0207546,-0.0165016,0.0382525,0.0412976,0.0486857,0.0530207,0.107727,0.00942882,0.0450104,0.0226984,0.171758,-0.0556318,0.040048,-0.0103525,0.062092,-0.0587924,0.0874444,0.0154662,0.0315021,-0.0361576,-0.0768184,-0.0116231,0.00728952,0.0285634,0.121971,-0.0113063,-0.0175314,0.0571432,0.0647713,0.14374,-0.0739726,0.0854711,0.0116798,0.0148787,0.1218,-0.00854794,0.103132,0.00854318,0.0905233,-0.0355856,-0.00599494,0.047018,-0.0906224,0.017963,-0.0129016,-0.0764516
-0.0651032,-0.0907678,-0.0423494,0.0127963,0.101642,-0.0488614,-0.0010341,0.00823008,0.075693,0.0267034,-0.0215512,0.00608272,-0.0309772,-0.00769665,-0.0945486,-0.0980197,-0.0414999,0.0606461,-0.0210693,0.0140839,0.00778134,0.083654,-0.0135265,-0.0631268,-0.02494,-0.0933415,-0.00457996,0.0184663,0.0672469,-0.00541609,0.0717451,0.0428719,0.00382666,-0.0261533,-0.00848601,-0.0483518,0.0833741,0.0095837,0.0684377,0.0127327,-0.0341499,0.0268324,-0.0432443,0.101283,-0.000148025,-0.0168922,-0.0239615,0.012196,-0.0315195,0.00637093,-0.0427332,-0.0290114,-0.0538329,-0.0546259,-0.0126177,-0.143425,0.0503093,0.0461894,-0.0158372,0.0497532
0.00750166,-0.0744952,-0.0520949,-0.0619799,0.00267212,-0.104794,-0.0406619,-0.0336802,-0.0596923,0.0254048,0.0291619,0.0422436,0.0569612,0.0275204,-0.0721865,0.0429502,-0.0169903,-0.0397978,0.0857108,0.0300637,-0.080616,0.0901016,-0.0431048,-0.0148281,0.0303719,0.0714651,-0.0147486,-0.0531531,0.0705183,0.0585803,-0.0756872,0.0267161,0.0707792,0.0350217,-0.00130734,0.0477619,0.0648411,0.0148332,0.035165,-0.0367484,0.0335189,0.0378141,-0.0537607,-0.0134229,-0.00425615,-0.002419,-0.0546995,0.040875,0.0559829,0.0693015,-0.030342,-0.067176,-0.0699085,0.0158108,0.0143849,-0.022444,0.000617537,-0.0468137,0.0206799,0.00889122
0.101288,0.0388795,-0.0451188,-0.0538274,-0.0575915,0.045308,-0.0179468,0.12509,-0.100753,-0.0333676,-0.0139498,-0.0153756,-0.0209155,0.049871,-0.0460207,0.0243876,0.0599513,-0.0137881,0.0623586,0.0739969,0.0157056,-0.00189857,0.0180902,0.0438396,0.00696448,-0.0671435,-0.0628653,0.0161569,0.0932632,-0.0155146,-0.00125214,-0.0884778,0.0181122,-0.0305413,0.00678266,0.114359,0.0197186,-0.0236282,0.0398465,0.0172899,-0.135104,0.00367118,-0.0139232,0.00592327,0.097153,0.0799671,-0.0653705,0.0575559,0.0599376,-0.042722,0.0311824,-0.0310567,0.10306,-0.048227,0.0229855,0.0163427,0.00662132,0.0242352,0.0421744,0.0518377
0.0665545,-0.000151017,0.00459449,-0.0333146,0.143079,-0.0210532,0.0857447,-0.101465,0.0296533,0.00583457,-0.0542252,0.0441272,-0.0165478,-0.0631759,-0.0422378,0.00940602,0.0246468,0.0982678,-0.00865142,0.0300868,0.0340376,-0.0498062,0.0610334,0.0274457,-0.0710816,0.0486078,-0.0550294,0.0450296,0.0423398,-0.0602624,-0.031011,0.000657421,0.012178,-0.0108772,-0.0530308,-0.0706956,0.0271695,-0.00406649,-0.0303071,-0.049285,-0.0130846,-0.0443924,-0.00551291,-0.0752949,0.00710958,0.0178933,0.0422783,0.0175277,-0.037914,0.0443736,-0.0022226,-0.0103557,-0.0100659,0.0279007,-0.0493215,0.0150259,0.0363621,-0.0247474,-0.0421016,-0.0154309
0.0459756,-0.0203305,-0.0246133,0.0169138,-0.0788384,0.090732,-0.0262344,-0.00367954,0.0588855,0.0379024,0.0048979,0.0229989,0.155891,-0.0188086,0.0614197,0.00869198,0.0386164,0.0673388,-0.000993461,-0.0959764,-0.0812011,-0.0143072,0.0473882,0.000696545,-0.114962,-0.0430155,0.00294314,0.0840932,0.0162873,-0.0450179,0.0437608,-0.00202252,-0.0502356,0.0499076,0.0778996,-0.0386209,0.0714106,-0.0142235,-0.0157343,0.0559867,0.0491491,0.0549591,-0.0498109,-0.0256266,-0.036066,0.0495583,0.0681688,-0.10761,-0.0246888,-0.00737172,0.0797861,-0.0368489,0.102247,0.0264915,0.0159024,-0.017141,-0.0054202,-0.0527946,0.0390838,-0.0275956
0.0943258,0.0090616,-0.0432432,0.140148,0.0128022,-0.044346,0.0103329,0.0761706,0.0157719,0.023132,0.0841044,-0.00962158,-0.0186411,-3.76261e-05,0.0487584,-0.0852506,0.0945949,0.0395041,-0.0656442,-0.0358246,-0.0223353,-0.0518008,-0.0205914,0.0818086,0.0381739,0.0340927,0.0465743,-0.0389763,-0.055755,-0.0742421,0.0317045,-0.0201034,-0.0320596,0.0539261,0.107856,-0.0612987,0.0315969,-0.0509292,0.0446504,-0.0502339,0.0399135,0.0517154,0.0161998,-0.0612282,-0.0201118,0.0943185,0.0159608,0.0025106,-0.00644333,-0.0394797,0.0263622,0.0171813,-0.0488398,0.0437679,0.0481965,0.0276552,-0.0609284,-0.0109697,0.0480307,-0.0501674
-0.0363989,0.0181442,-1.68043e-05,-0.0160601,-0.00651629,-0.109817,0.0351049,0.00260862,0.0650023,-0.033962,0.0803739,-0.00255093,0.112247,0.00921,0.00762644,0.0183139,-0.0409215,0.0281082,0.054602,0.0421763,0.0510102,0.0281178,-0.0386175,0.102673,0.0898951,0.093802,0.0968552,0.0405593,0.103267,0.0539637,0.0666739,0.120617,-0.000912546,0.0249032,-0.00465034,0.0142314,-0.0192567,0.00391268,0.000876923,-0.0963812,0.0290876,-0.0981418,-0.033796,0.0523511,0.0101038,-0.0308296,-0.00813742,0.0398469,-0.0313354,0.0395423,0.0428181,-0.00458657,-0.0171366,0.00245477,0.0258925,0.0352108,0.0381695,0.0258414,-0.0297743,0.00417774
-0.117768,0.0666373,0.0666929,-0.0394487,-0.0448833,0.0753391,-0.0551195,-0.0437843,-0.051401,0.0410923,0.0278666,0.0580018,-0.0795388,0.0965971,0.0170486,-0.0869918,-0.00763526,0.120866,-0.0244355,0.0591239,-0.0389951,0.0117687,0.00254989,9.60132e-05,0.00739198,-0.0246692,0.00480843,-0.0400034,-0.0262764,0.050414,-0.128993,-0.0961555,-0.0284786,-0.0446153,0.0259873,-0.149843,0.0758408,-0.0119661,-0.0134959,0.0621522,-0.00574089,0.00814151,0.0112268,-0.0527687,0.0423134,0.0283495,-0.0301166,0.0712641,-0.122338,0.0166704,0.0534878,-0.0181538,0.0653694,0.0538873,0.0210063,-0.00581854,-0.0734515,0.0215316,0.00958335,0.0457121
-0.028971,0.114812,0.00676876,0.0438016,0.0627825,-0.0172772,-0.0208281,0.00386901,-0.0194414,0.0199907,0.0474513,-0.155376,0.0425045,-0.0224907,-0.0284749,-0.0019139,-0.0674333,-0.0419121,-0.0767435,0.01643,-0.0359094,0.0428314,-0.00172649,0.0144797,0.0304993,0.0470085,-0.0219641,0.0262028,0.00664584,0.0200565,-0.114538,0.0412646,0.106301,0.00811481,0.0318711,-0.0975811,0.0386916,0.0261543,-0.054256,0.0965816,0.0466355,-0.0718617,-0.0908123,-0.0260024,-0.0111021,-0.0221309,-0.0768429,0.0259603,-0.00261146,0.0553883,0.038619,0.0121511,0.0110821,0.0193673,-0.0871103,0.00269445,0.075301,0.058789,0.0943646,0.0852354
-0.0179168,0.0139384,-0.102965,0.013357,-0.0669685,0.0641232,-0.0288697,-0.0881514,0.0230014,0.0196636,0.0256394,-0.015953,-0.0126179,-0.0135001,0.0550716,0.00191939,0.00438842,0.0888568,-0.0573621,-0.0327847,0.0256425,0.0875263,-0.0241331,0.108172,-0.0502856,0.00938273,-0.0270305,0.055342,0.0226187,0.0669341,0.00185064,0.104861,-0.0129427,0.0989692,0.0773895,0.0354201,0.0391054,0.0568611,-0.0397403,0.133968,0.0734769,0.0430385,-0.0249906,-0.0671529,-0.0521544,-0.0306105,0.0144654,0.0344969,-0.0687333,0.0330912,-0.0870875,0.0833939,0.0750468,0.0270837,0.110206,0.040675,0.168774,0.0452646,-0.0813904,-0.0410373
0.0159465,0.0455179,0.018109,-0.0538978,-0.0302683,0.0770107,-0.11917,-0.0365737,-0.0297008,-0.0540109,0.0946527,-0.00605114,0.090714,-0.0482001,-0.0342408,0.0107336,-0.00794008,0.0013275,0.0387677,0.049316,-0.0426895,0.0628639,0.0546968,0.0476366,0.0246911,-0.00788788,0.0361145,0.00199147,-0.0495108,-0.0522814,-0.0344909,-0.0577451,-0.0647032,0.0702908,-0.080569,-0.00215076,-0.0840539,0.0164404,-0.0309418,-0.084417,0.016851,-0.0802523,0.0200357,0.0280341,0.133568,0.0138447,0.0277874,0.0372727,0.00532906,-0.0276423,0.0161619,-0.0284454,0.0610793,-0.00348494,-0.115619,0.0422625,-0.0791047,0.0150353,-0.0411862,0.00439828
0.0416652,-0.0185411,0.0330738,0.081082,0.0654202,-0.171058,0.0460983,-0.125077,-0.0216468,-0.0959892,-0.00248895,0.0647178,-0.0745742,0.04242,0.0868645,0.0339174,0.0251042,-0.0827209,0.00465525,0.0366504,-0.0656408,-0.0449009,0.116901,0.00846293,-0.0449985,-0.121468,-0.0231319,0.0077453,0.0411468,0.0384582,0.0332169,-0.0740267,-0.0192492,-0.0934182,0.00106002,0.000235036,-0.0692235,0.0413634,0.099808,-0.00194891,-0.03212,0.00535505,0.0361449,0.0305529,-0.0548745,0.0247777,0.0306861,-0.0203258,0.044611,-0.0786693,0.0086575,0.0209525,-0.00087607,0.0358394,0.0185639,0.0591149,-0.0189946,-0.00821626,-0.0749112,0.0598514
-0.00069983,0.0142874,-0.0987119,0.018164,0.0460754,-0.0303548,0.004099,0.0339758,-0.0311232,0.15471,-0.0401057,-0.0439882,-0.0256783,-0.0167318,0.0275156,0.0701219,0.104605,-0.0415145,-0.0601618,-0.0195888,0.0551869,0.0477971,0.031434,-0.0176976,-0.0314499,0.0869396,-0.0155813,-0.00295272,-0.0446247,0.00721224,0.130285,0.0165874,-0.0445824,-0.0215949,-0.0387961,-0.0697032,0.0720682,0.00719129,-0.0944417,-0.0390873,0.0130731,0.0560421,-0.029944,0.0263177,0.0758242,2.52793e-05,0.0497075,0.0121067,-0.0250402,-0.0318194,0.0614601,0.129205,0.0092068,0.037278,-0.0141782,0.0284292,-0.00806709,-0.0416762,0.0166496,0.0797572
-0.0463152,-0.0732966,0.110305,0.0292719,-0.0376362,-0.146769,0.0754568,-0.0229886,0.015154,-0.0384431,0.0767298,-0.00772661,-0.0240949,0.0856049,0.0814114,0.113384,-0.0567659,-0.134879,-0.0502048,-0.0180115,-0.0359697,-0.015748,-0.0545098,0.0831837,0.0257799,0.0774473,0.0130952,-0.0209949,0.082158,0.0740425,0.014072,-0.0234765,-0.00657588,0.0190243,-0.0218203,-0.00272036,-0.0117517,0.0566823,-0.0103804,-0.038098,0.00708305,0.0521772,-0.0644383,-0.0195157,0.00542364,-0.00140212,0.130755,0.118477,0.0709924,-0.0455014,0.00721892,-0.00212966,-0.0114189,0.0189285,-0.0689338,-0.00665189,-0.00500695,0.0821028,-0.0661586,0.00545981
0.0170816,0.0298086,-0.0232154,0.0271153,-0.0764058,-0.0418291,-0.0220071,-0.0489741,-0.00474408,0.0516731,0.11732,0.0719917,0.0346782,0.0232637,0.0132636,0.0476566,-0.0693114,0.147163,-0.00498916,-0.000328603,0.0120993,0.103651,-0.0851851,0.0443867,0.112965,-0.128138,0.0216211,-0.0314133,0.0495212,-0.00693887,0.0292018,-0.0539056,0.0166898,0.1524,0.0393719,-0.081996,-0.0406288,0.080914,-0.0678994,-0.00706214,-0.0167492,0.0699725,0.0811652,0.0835165,0.130022,-0.0243022,0.0722971,0.0115789,0.0777843,0.0274335,-0.0217773,0.0237371,0.0534396,-0.0730129,0.0368274,0.0487712,0.160193,-0.0195086,-0.051424,0.023981
-0.0956016,0.0654396,0.0212716,0.0278738,-0.012213,-0.0508908,-0.155956,0.0247349,0.0101364,-0.0212027,-0.0540802,0.0241031,-0.0210062,-0.0278675,-0.0587381,-0.00269024,-0.0451953,-0.0709452,0.0066218,-0.0657023,-0.0154626,0.00761781,-0.122237,0.0933623,0.0239305,0.00786184,0.0273196,-0.0125495,0.0433686,0.0993022,-0.0121807,0.044321,-0.03132,0.00517091,-0.115727,-0.007339,0.00215495,0.034675,-0.0797931,-0.016312,-0.00282111,0.0678974,-0.0806894,0.103373,0.00790125,-0.0066263,0.00326114,0.0608047,0.00827027,-0.0166374,-0.0478753,0.0126045,0.0100259,-0.0914472,-0.0208296,-0.0252073,0.0365289,-0.00368533,-0.0234363,0.0594825
-0.0835067,0.00381603,-0.0511824,-0.0846235,0.0014603,0.0561299,-0.000492561,0.0636801,0.0392151,0.0362679,0.0657509,0.024657,0.0735144,0.0214387,0.0115397,-0.156849,0.0298064,-0.0299958,0.0558972,-0.163025,0.0335889,0.039229,0.113016,0.0612341,-0.0553022,0.0743461,0.0955365,0.03788,-0.0392396,-0.028283,-0.0213656,-0.0260895,0.00545242,-0.0493836,0.0374628,-0.00783219,-0.107172,0.010482,-0.094653,-0.0479203,0.0261035,0.029909,-0.0183458,-0.00854966,0.0164756,0.0150655,-0.0470927,0.115417,-0.0855365,-0.0230868,-0.0275708,0.0978423,0.0665647,0.0960759,-0.0183275,-0.0996204,0.0516608,0.0233305,-0.0242947,-0.077496
0.0441559,-0.0521638,-0.0587685,0.0431061,0.0202672,-0.0222213,0.114314,-0.0237957,0.0268077,-0.0302549,-0.0672305,0.0637808,0.021668,0.0810589,0.111783,-0.0438397,-0.0127144,0.0421656,-0.0362601,0.00950213,0.0909117,-0.0255362,0.136845,-0.0831814,-0.0311301,0.0557686,0.0157384,-0.0324187,-0.0676515,-0.11239,0.064357,-0.0103281,0.00851925,0.0665296,-0.0353288,-0.0189214,-0.0484065,-0.060854,0.0819472,-0.0186159,-0.0303547,-0.0775443,0.19007,0.0165626,-0.0478561,0.0323512,0.0439332,0.0208624,0.0444285,0.0842491,-0.0269594,0.0178796,0.0405191,0.0374558,0.0903579,-0.00483804,-0.078477,0.0210801,-0.0428957,0.0140623
0.0537273,-0.0204917,0.000967559,0.126082,0.0270258,-0.0458489,0.000924604,-0.0374985,-0.0619275,0.00482059,-0.00106585,-0.0602418,0.0444712,-0.0363029,0.111864,0.0417489,-0.078883,-0.0791928,-0.050824,0.0323928,0.108271,-0.0466726,0.0816802,-0.0710024,-0.0188853,0.056488,-0.0568908,-0.0433737,-0.0443128,-0.0342039,-0.0420434,0.0215789,0.098857,0.0332968,0.17128,-0.020462,0.0810123,-0.0672652,0.0241385,-0.0565544,0.0234338,-0.0347643,-0.0122267,-0.0174357,0.105547,0.0177737,-0.0665184,-0.0238686,-0.0108597,-0.038413,-0.0327029,0.0834015,0.101629,0.085237,0.0365683,0.0394044,0.0294652,0.122574,-0.0296106,0.00301917
-0.0449929,0.0176958,0.039143,0.0134295,-0.029295,-0.0736661,0.00301878,-0.0225311,0.0559601,-0.0253245,-0.0783084,-0.00678716,0.0516907,0.012453,-0.010052,0.077307,-0.0766195,0.0185109,-0.0470075,-0.00407139,0.00300678,-0.0438431,0.0694962,0.0241427,0.117275,-0.00719827,0.046275,-0.0291559,0.0227045,-0.0885336,0.0464642,0.031113,0.00278842,0.0428279,0.0540253,0.0209039,0.0494219,0.0173606,0.0880081,-0.093768,0.0264254,-0.0516033,0.0276597,0.0337643,-0.04611,0.0804074,-0.00516656,-0.0739298,0.00440746,0.0418919,-0.107099,-0.0641012,0.023978,-0.0751908,0.0940796,-0.0586559,-0.105602,-0.0518623,-0.0171764,0.0839688
0.0493479,0.0159094,0.0712574,-0.0839342,0.0223714,-0.0114339,0.0437376,-0.0275403,0.156406,0.0448433,0.016699,0.039939,0.0769767,0.0241032,0.00909676,-0.0160557,0.0501051,0.0562392,-0.0207243,0.0866861,-0.097096,0.0146847,-0.0988688,-0.0237894,-0.0166046,0.0527441,0.0568663,-0.0697377,-0.0270143,0.0288023,0.0341941,0.020457,-0.0127239,-0.0373173,0.0655776,-0.0506343,-0.0142787,0.135836,-0.0527475,-0.0464457,-0.0192663,0.0706795,-0.0961465,-0.0197058,-0.0487151,-0.0521158,-0.037458,-0.0423417,0.0588191,0.0376745,0.0263111,-0.0517419,-0.021132,-0.0515679,-0.0317933,0.0350596,0.00562126,-0.0492722,-0.0602349,-0.0253261
-0.0269841,0.0354803,0.0283615,-0.049228,-0.127959,-0.0187061,-0.0492485,0.0450185,0.0545592,-0.0789231,0.0158759,-0.104352,-0.0169746,0.165978,0.0362953,0.0424382,-0.0514677,0.00808195,0.0213288,0.0299065,0.125128,-0.0993714,-0.000618422,-0.0692872,-0.182524,0.117181,-0.000172845,0.0423811,0.0809871,-0.0332537,-0.0743793,0.00868941,-0.0409024,-0.0473902,-0.0310175,-0.0282065,-0.0404459,-0.0777698,-0.0457564,-0.0553099,-0.106629,-0.0914528,0.0426197,0.020152,0.0768827,-0.0597068,-0.00848384,-0.0195863,-0.0229872,-0.0282388,0.150598,-0.0384366,0.00786218,-0.0824592,-0.0312131,0.0196723,0.0414599,-0.100497,-0.0657779,0.00483446
-0.0265258,-0.0978924,-0.0159866,-0.00602831,0.0316022,-0.0519244,0.136097,-0.0961279,0.0283891,-0.016908,0.0945322,0.0406793,-0.0599216,0.0341497,-0.031124,-0.0246171,0.0360451,-0.0207901,0.106179,-0.0365876,0.0192585,-0.0733651,-0.0941821,-0.00883019,-0.0186416,-0.0269842,-0.0431216,0.0184302,-0.0556388,0.0316132,-0.0640929,0.002961,-0.0532816,-0.00875153,-0.0453729,0.0546722,-0.0691279,-0.00879867,-0.0739506,0.00272527,-0.0802437,0.0199453,0.047905,-0.0714747,0.0255435,-0.0137273,0.0628706,-0.050074,0.0876572,-0.0282963,0.0507192,0.00506343,-0.0320789,-0.00994241,-0.00324358,-0.0295672,0.054661,-0.0740651,-0.0332289,-0.102315

max: 1
min: -0.194616
avg: 0.00396136
