-0.054352,0.0372141,-0.0507075,-0.0427467,-0.0278602,-0.0242431,0.0962803,-0.108725,-0.0749929,-0.163721,-0.0326339,-0.00862543,0.056456,0.0542793,0.123108,0.0230936,-0.0383936,-0.0131711,-0.00816671,0.0620252,-0.0492704,0.11762,-0.0179873,0.00118188,-0.0232134,-0.0504379,0.0270695,-0.0325089,0.0440729,0.0445931,0.120985,-0.0225522,0.0213532,0.0548876,0.0497466,0.0435585,0.0122307,0.0520713,0.0426453,0.0235069,0.0185036,-0.0414255,0.0472657,0.0125485,0.0483201,0.0521746,-0.0359746,-0.00363823,0.0424409,-0.0215501,0.00475996,-0.0320096,-0.00704421,0.031136,0.0822454,0.092246,-0.0414596,-0.027925,0.0560944,0.0710566
0.0388428,0.00848937,-0.00659201,0.0282944,0.0155065,-0.0242374,0.017192,-0.0163033,-0.0205395,-0.0639012,-0.0389988,-0.0815439,-0.0287202,0.0827909,0.099525,-0.118841,0.056161,0.050147,-0.0294574,-0.0409755,-0.00436142,-0.0170881,0.0792972,0.00671716,-0.0195357,0.0694879,0.0197183,0.0887515,0.0347905,-0.0483436,-0.0529637,0.0689216,0.11077,0.0428704,0.0385478,0.0782065,0.0632401,-0.077039,0.0117618,0.106594,0.0126064,0.0514098,-0.0615254,0.0110384,0.120896,-0.0429601,0.0852828,-0.00803191,-0.0406466,0.0733029,0.0304064,0.0156595,-0.103859,-0.0374201,-0.107867,0.0151544,-0.0444749,-0.0787944,-0.0152389,0.0251712
0.0759369,-0.0880614,-0.0297819,0.0859483,0.000308713,-0.0350685,0.0433694,0.0260041,0.00344374,0.034608,-0.0417698,0.00490884,-0.0502461,0.0373682,0.0176738,0.0344631,0.0374042,0.0451985,0.0579137,-0.0145354,-0.113027,-0.0262193,0.0055491,-0.0811203,0.17436,-0.0278396,0.0812501,-0.0220314,0.0414415,0.00825507,-0.0143211,-0.022836,0.0630933,-0.104757,0.0251853,-0.0656665,-0.0232402,-0.0228945,0.077736,0.0565844,-0.099646,-0.0699627,-0.0130188,-0.0582225,0.0883237,-0.00176305,-0.00508917,0.116053,-0.0788979,0.0495545,0.0187863,0.00919761,-0.0651754,0.00119422,0.0497197,0.0789341,-0.0217476,-0.101985,-0.0590031,-0.0158637
0.0162627,-0.0499969,-0.0199071,-0.0117573,-0.0526633,-0.0743049,0.0716346,-0.061312,-0.0135907,0.0722131,0.00283047,0.0406268,0.0397455,0.0208939,-0.129666,0.0235182,0.0690175,-0.00870806,0.00712181,-0.0391204,0.10273,0.00526438,0.0317011,0.0345406,-0.0391617,-0.0859149,-0.0172397,0.00379793,-0.0792877,-0.0284707,-0.0799968,-0.0221756,0.0119207,0.0197438,-0.0734795,0.00779936,0.0709478,-0.0383121,0.0939419,0.0398559,0.0425529,0.00938031,-0.0409221,0.0337578,0.0140726,0.0596301,0.0872776,0.0761133,-0.0294441,0.00318256,-0.00189056,0.0161031,0.0336151,0.0981521,0.0836497,-0.0159746,0.0485569,0.0195721,-0.039305,0.020278
0.0754845,-0.0290341,-0.0802755,-0.0314784,-0.0169385,0.0121708,-0.0247655,-0.0793007,-0.0531813,0.0481343,-0.00940542,-0.0871044,-0.00547046,0.0180378,0.0614819,-0.051983,0.0429933,-0.0404783,-0.00147385,-0.191926,-0.00240413,-0.0783246,0.0053427,0.0266341,-0.0590633,0.0607351,0.0554789,-0.0736072,0.0928465,-0.0297555,0.0565884,0.084828,0.0429735,-0.0474809,-0.086028,0.0161812,0.0655042,-0.126664,-0.00303391,-0.0131977,0.0898537,0.0571643,0.0572926,0.0885908,-0.0044967,0.0168815,0.0696494,-0.0102719,0.00554968,0.0656221,-0.00948065,-0.0265109,0.0956692,0.00271353,-0.0834978,-0.0672233,-0.0231263,-0.0211602,-0.0175973,-0.0126012
-0.0370402,-0.00908323,0.00342396,-0.0241997,-0.0217827,-0.115099,0.0122213,-0.0188383,0.0083376,0.0991601,0.0394797,-0.0264872,-0.0501848,-0.0231047,0.0767828,-0.145577,0.00920271,0.0162063,0.0518012,-0.0375051,-0.00211098,0.0213872,-0.0688584,-0.00769742,0.0267792,0.0117915,-0.0683857,-0.0559814,0.0588747,0.00759199,0.0103446,0.165855,0.0476723,-0.0951582,-0.0108856,0.0342564,-0.0177081,-0.0913935,-0.0186376,-0.0363127,-0.0553253,0.0111788,-0.0298037,-0.132026,-0.01657,0.0172653,0.0227587,0.0283921,0.00914009,0.0269069,-0.0199506,-0.00593302,0.0438751,0.0267937,0.0404924,0.0381566,0.0440983,-0.0375553,-0.00760833,0.0401696
-0.00921823,0.00464536,0.0489007,0.0778319,0.014165,0.0358791,0.0311851,0.0484896,0.0464924,0.0242976,0.0724812,-0.100083,-0.127836,0.0204395,0.0466154,0.0678823,0.0868892,-0.00462802,0.0115594,-0.00146845,-0.0599612,0.077414,-0.0548112,0.00877771,0.0923443,-0.0215982,-0.062702,-0.0876691,0.00383029,-0.0545473,-0.0438378,-0.0349879,-0.0511352,-0.0293575,-0.0694471,0.0402904,0.0190026,-0.0275884,-0.0394096,-0.0126735,0.0142328,-0.0658689,-0.00647203,-0.0907772,0.0233409,0.0665284,0.0692897,0.00691465,0.0207068,-0.131845,-0.1032,-0.0063909,-0.0275559,-0.078612,-0.0494236,-0.0516067,0.0325965,0.00646316,0.0535443,-0.00621383
0.0664227,-0.00760213,-0.0211072,-0.0484045,0.0380743,0.0418561,-0.00611367,0.0587206,-0.0857474,-0.00383626,-0.0396389,-0.0612905,0.0266272,0.00346286,0.0261718,-0.0752329,-0.0480946,0.0644298,-0.036273,0.104649,0.0678546,-0.0375228,0.0144447,-0.069333,-0.00767611,-0.0131796,0.00474936,-0.0480186,0.107449,0.097437,0.0614539,0.0489061,0.0140464,-0.0271713,-0.0663189,-0.0631418,-0.0599649,-0.0670669,0.0188137,0.0264467,0.00735103,-0.0843049,0.0138559,0.0307059,0.00686293,0.00181974,0.0171148,0.0128322,0.0697232,-0.033469,0.0658569,-0.0769154,0.0263438,0.0717672,-0.078267,0.00686565,-0.0668126,0.0470418,-0.0872857,0.0594847
0.0560976,-0.0634173,-0.0986726,-0.0593162,0.047295,0.0454319,-0.0849534,-0.0518364,-0.0711328,-0.0838028,-0.0146046,-0.176349,0.000988629,0.069228,-0.0774703,-0.0167238,0.000465499,-0.0942252,-0.108745,-0.121983,0.0820775,0.0239575,-0.0491094,0.0342299,-0.119951,0.00128633,-0.0260512,-0.0755735,0.0568224,-0.0711298,-0.0179219,-0.00883907,-0.0664045,-0.0181288,0.0426972,-0.0891669,-0.0748496,0.0173824,0.0457233,-0.00790104,0.0956124,0.0964856,0.0356533,-0.0495864,-0.00804151,-0.00397055,0.103945,0.069715,-0.0606088,-0.110278,0.0936815,0.00622456,-0.175111,0.00749626,-0.0130269,0.0428763,-0.0608524,-0.0407576,-0.097121,-0.0767429
-0.0892097,0.0134476,0.0286048,0.0791388,-0.0684377,0.00876057,0.0323979,0.00622628,0.040167,0.0410043,-0.00603535,0.0570604,-0.0514276,0.0297088,-0.0164102,-0.0303751,0.0854235,0.0218105,-0.0741465,0.0542716,-0.0267512,-0.0473694,-0.0128754,-0.063638,-0.000301895,-0.0100067,0.0640708,-0.0175534,0.0934095,-0.0337806,-0.0437811,0.0492382,-0.0671867,0.0321526,0.0404564,-0.0528846,0.0186405,0.0829462,0.0335468,-0.0572723,-0.0026128,-0.02158,0.0153629,-0.0125855,0.0206507,0.0453839,0.0577145,-0.123606,-0.00240061,0.116455,-0.0165971,-0.0231548,-0.0521958,-0.065788,0.088112,0.0134539,0.0904382,0.0345532,-0.0648377,-0.088174
-0.0654947,0.101772,0.0684544,-0.0363695,-0.0726936,-0.0325481,-0.0338624,0.0349992,0.0201413,-0.0448097,-0.0181326,0.0976748,0.030492,-0.00878855,-0.0675687,-0.0865123,-0.105839,0.0484936,0.0063407,-0.0972132,-0.0400972,-0.0677253,0.0468247,-0.00700311,-0.00111983,-0.0416566,0.065522,-0.0332951,-0.0350499,0.0583107,-0.0612701,-0.00266857,-0.066884,-0.0373759,-0.0255241,0.00659906,0.0414489,-0.0260964,-0.00492775,0.0337242,-0.0686322,-0.0607492,0.0999035,-0.0343141,0.0953811,0.0981667,0.073447,-0.0183613,-0.0390497,-0.0657915,0.0725722,-0.0705066,0.0290942,0.0635812,-0.0261305,0.0533986,0.0114758,-0.102081,0.0222004,0.131831
0.0383989,0.00466623,-0.0191504,0.084666,0.0486591,0.0723179,0.00217493,-0.0123775,0.00671498,-0.0128725,0.100401,0.101898,0.0890077,0.0234669,0.0379261,-0.0255656,-0.00839864,-0.0622067,0.0539229,-0.0273166,-0.039595,-0.0285001,0.043686,0.012012,0.0514508,0.0252194,-0.101835,-0.0291428,-0.0712947,-0.108474,0.0381764,0.00633871,-0.000424089,-0.133811,-0.0270279,0.010249,-0.0383814,0.00308448,-0.0637768,-0.0693273,0.0585909,-0.0329381,-0.0286925,-0.105133,0.0590231,0.0655771,0.0376944,0.0104911,-0.0781341,-0.0316513,0.00242669,0.0398979,0.0547071,-0.0115838,-0.00259067,0.0363666,0.0362588,-0.032027,0.00435872,0.0436712
0.0300535,0.111274,0.00126994,-0.0346065,0.00388859,-0.0653001,0.0573505,0.0171446,-0.157292,0.0402066,-0.079355,-0.0307566,0.0744726,0.0152335,0.121082,-0.0171649,0.0279012,0.0831426,-0.023614,0.00517824,0.00914754,-0.0013282,0.0355858,-0.010644,-0.103737,0.0248918,0.0781586,0.025103,0.00620375,0.0294343,0.01871,-0.0265844,-0.0309425,-0.040411,0.0501348,-0.00997006,-0.0300604,0.0517081,8.16391e-05,0.0222923,-0.0347765,0.0632979,0.0609686,0.037481,0.0293648,0.00320456,-0.0481454,-0.0939206,0.00542035,0.0270677,-0.0482886,-0.0592301,-0.0466799,-0.0316124,0.0486946,0.0713771,-0.0201924,-0.0834136,-0.0148532,0.0460584
-0.0123404,-0.0943826,0.0118985,0.077585,-0.0633416,0.0534659,0.0700966,-0.0498983,0.0603492,-0.0104659,0.0843133,-0.0153407,-0.0649344,0.00888163,0.0225548,-0.0178163,0.115544,0.00816162,-0.0464981,0.0564607,0.00904103,-0.051609,-0.0253914,0.0171058,0.0307571,0.0274752,-0.00245944,0.0466108,-0.0658674,-0.0217031,0.138887,-0.0151017,-0.0702961,0.00839446,-0.0461017,0.0461763,-0.00438983,0.00983023,0.043054,0.0580816,-0.112502,0.0301808,0.00970823,0.0334217,0.0167788,-0.0593536,0.0167774,0.0160472,0.0770237,-0.0101278,0.00874006,0.110893,0.0724675,-0.0398083,0.0100089,-0.0383844,-0.0971565,-0.00922201,-0.0518986,-0.101464
0.0307293,-0.00124754,0.0513667,-0.0581836,0.125127,-0.0289456,0.00153937,-0.0322913,0.00853961,0.00730351,0.0213868,-0.0579723,0.0637467,0.0318724,-0.0867014,0.0189153,-0.102629,0.126753,0.108865,0.0290709,-0.0668044,0.0619987,0.103063,-0.0645563,0.0395917,-0.0713605,-0.0550495,-0.0438725,0.028177,0.0114392,0.0548949,-0.0760875,-0.0570157,-0.137041,-0.0527008,0.0163987,0.0675514,-0.0417478,0.0764803,0.018607,0.0461385,0.00389745,0.0254311,-0.0468483,-0.0920345,0.0650201,-0.0660843,0.0650383,0.0544791,-0.0596324,-0.00181585,-0.0142298,-0.0481927,-0.000234025,0.00446991,-0.0585599,0.0203441,0.11572,-0.00622747,-0.058955
-0.0132657,0.083366,-0.00342329,0.0197373,-0.0341217,-0.0265957,0.0123931,0.0241516,0.00301586,0.0208205,0.0653518,-0.0345633,0.0128289,0.0366624,0.00743425,-0.0205255,-0.0555192,0.131587,-0.010082,-0.0307275,0.0362171,0.147885,-0.0337622,-0.0428107,-0.0210477,-0.0117505,-0.0220738,-0.0519123,0.0194477,-0.000210478,0.0193127,0.0377561,-0.00237722,-0.0805144,0.0287098,0.00905319,0.0275416,-0.0656819,-0.0399936,0.0175981,0.0367972,-0.0111622,0.000510968,0.00668546,0.0779973,0.0457192,0.0543503,-0.0570681,-0.0858282,0.0210852,-0.0905347,0.034868,0.0786335,0.055186,-0.0486201,0.0700595,-0.0230689,-0.0303562,0.03696,0.0538742
-0.104978,0.000309924,0.00394074,-0.0353611,0.0930706,-0.0543385,0.112246,0.0238734,-0.0679039,-2.08411e-06,-0.000839272,-0.022787,0.0158954,-0.0367752,0.0884401,-0.137928,-0.0729903,0.0606496,0.065211,-0.0803533,0.06145,0.0924622,-0.0581955,-0.0238771,-0.0546103,0.025246,-0.0795479,-0.122744,0.00600876,-0.0729542,-0.0827061,0.0199299,0.0193898,0.00588705,-0.0587894,-0.110718,-0.00750764,-0.0154582,0.031615,-0.000520119,0.0234797,0.0127209,-0.0496069,0.0380123,0.00173222,0.0463984,-0.000559128,-0.0134912,-0.0333191,0.104734,-0.0187947,0.0526403,-0.0778318,0.00977517,-0.00448627,0.0583877,-0.110543,0.119552,-0.0190526,0.0354561
-0.0250686,0.0635844,-0.100777,-0.029712,0.0950926,-0.0384511,0.101649,0.0266397,0.0321542,-0.00716729,0.00121208,-0.0358649,-0.0279858,-0.00338192,-0.119816,0.0621014,-0.00875167,0.0638161,-0.0193923,0.0377255,0.0527027,0.0530641,0.0280571,0.0121016,0.00129713,-0.0289674,0.0732056,0.0627487,-0.0130053,0.0256408,-0.00602637,0.056322,0.00883243,-0.0250663,0.0126631,-0.0961635,0.00288333,0.106245,-0.0762889,0.0704789,0.000423212,0.0519494,0.0436868,-0.0543014,-0.0888519,0.00940085,0.0299775,-0.0563953,0.0352528,-0.0251748,-0.0953614,0.043053,-0.0410311,-0.00390617,-0.0895053,0.00907848,0.022106,-0.0379,0.0525641,0.118086
-0.0579325,0.0824311,0.0416174,-0.0252339,-0.0643166,0.0664122,0.115207,0.052404,0.0259564,0.0165095,-0.0539989,0.0412698,0.108721,-0.0434475,-0.0297069,0.0438668,0.0882691,-0.0505623,0.0269707,0.0276545,0.00056929,-0.0752374,0.0210503,0.0180671,0.0370307,0.0312555,-0.0284564,-0.0219073,0.0153221,-0.0635345,0.00523874,-0.0621702,0.0403302,0.0428316,-0.00117406,-0.0648527,0.01116,-0.0417402,0.0504101,-0.00509135,0.0350058,-0.0782444,-0.0457542,-0.0263015,-0.0604195,0.0533134,0.00913891,-0.101826,0.133891,0.00376239,-0.00257194,0.0424301,0.0796823,0.0645249,0.00698701,-0.0335469,0.00932245,-0.0373086,-0.00506118,-0.0273415
-0.0366636,0.00882874,-0.103661,0.0213756,0.0303241,0.00997071,-0.0653838,-0.0071656,-0.0816604,-0.0246035,-0.0752418,0.00196905,0.0713347,-0.0165791,0.0308471,-0.144353,0.0860273,0.0807388,0.116971,-0.0260995,0.0297133,0.0583647,-0.013754,0.0658168,-0.014049,0.094605,0.0186802,0.0605554,-0.0760393,0.0624441,-0.031655,0.0215649,0.0940086,0.0700625,0.036784,-0.00981527,0.0366063,-0.0719483,-0.117642,-0.0308445,0.036478,0.0217191,-0.0261997,-0.0766796,-0.012178,0.0249923,0.0256628,0.0265073,-0.0238567,-0.0505866,0.012254,-0.0921148,-0.121438,-0.0959482,-0.0901872,0.0904335,0.0833059,-0.103428,-0.00351463,-0.0241314
-0.0604561,-0.0301493,-0.0882019,0.069522,-0.046345,0.0678765,-0.072683,-0.00714478,0.0510089,0.0101142,-0.0225883,0.0242114,-0.0083674,0.0122084,-0.0963971,0.0311257,-0.0128523,0.0588747,0.00976292,-0.0508016,0.109871,-0.000594544,0.0954331,-0.00462456,0.0225331,0.0407949,0.0419345,0.0210585,0.0947676,0.0235562,-0.01791,0.0161665,-0.0375517,-0.00992114,0.0342918,0.0437344,-0.0568232,-0.0688039,0.0319156,0.028191,0.0304702,0.0901257,0.010777,0.0243633,-0.0543579,0.0873592,-0.0282474,0.136323,0.0516913,-0.0133718,-0.0189255,-0.0339386,0.125479,0.0240185,-0.0189707,-0.0148059,0.0124686,0.0762137,-0.0077348,-0.0566927
0.0286069,-0.0185074,0.00998143,-0.0078767,-0.0669132,0.0647365,0.044504,0.0923983,-0.0215624,-0.0316216,0.0399345,0.109792,-0.00606449,0.0126333,0.0353165,0.0915379,0.022541,0.0539932,0.0367832,-0.0869849,-0.0492303,0.0331592,-0.0235611,-0.108885,-0.0263137,0.000945603,0.026169,-0.0346721,-0.0138432,0.0543191,-0.0865063,-0.126399,0.0478085,0.108346,-0.0220402,-0.0615466,-0.00311922,-0.0400979,-0.046403,0.104937,0.00392436,0.10662,-0.0535512,0.0111218,0.105723,-0.0603625,-0.0319882,-0.0479869,0.0174012,-0.0110989,0.0335614,-0.0339585,0.0131042,-0.0349737,0.01674,0.104279,0.0517177,0.0163594,0.0568776,-0.00313489
0.0354827,0.0770341,0.0117588,-0.0309975,-0.051893,0.08869,-0.0194092,-0.0322684,-0.0332804,0.058063,-0.0650264,-0.0299612,0.0161348,-0.0470392,0.0266904,0.0176309,-0.119203,0.0542525,-0.00185743,-0.0240879,-0.0399591,0.0354862,0.0632686,0.00312124,-0.0408297,0.0430494,0.0531245,-0.0412587,-0.023371,-0.0262044,0.0872826,0.000932983,0.00829061,0.00260581,-0.0880567,-0.0472452,0.0411947,0.00607507,0.0901475,0.00561894,0.0270772,0.0373493,0.00589728,-0.0412017,-0.10608,0.00822652,0.0138379,0.021208,0.0019605,-0.00439101,-0.0273265,-0.0630773,-0.0109401,0.00854252,0.00593345,-0.0215097,0.00872702,-0.0403427,0.0496719,-0.0299966
0.0507608,0.033254,-0.0334342,0.0951776,0.0466994,-0.159147,-0.0353154,-0.0419516,-0.00526251,0.0457683,-0.0421784,0.0492222,0.0845386,0.0665779,0.0123898,0.00223199,-0.0394132,0.0072896,0.0296156,0.0539558,0.000792977,0.141588,-0.0402503,-0.0211399,0.00527902,0.0485528,0.0295148,0.0489034,-0.0279267,0.065348,-0.0523744,-0.0505727,-0.0736841,-0.161133,-0.00283369,0.0295173,0.0232117,-0.0333968,-0.0576273,-0.040567,-0.0372074,-0.0260395,-0.0225026,0.0959667,0.101002,0.0022818,0.00226639,0.0100556,0.00781233,-0.00722703,0.00180002,-0.0493657,-0.0107836,-0.079974,0.0406854,-0.025541,0.0154237,0.0607111,0.0985539,-0.103646
-0.0129116,0.00404854,-0.0163101,-0.0455949,-0.0859284,-0.0199798,0.0391739,-0.0366015,-0.0156478,-0.0612713,-0.0313562,-0.0274434,-0.029245,0.0488968,-0.076121,-0.0105875,0.0124212,-0.0467132,0.0234888,0.0114066,0.0383038,0.00126643,0.0382897,0.0288391,-0.0410186,-0.00519444,0.0365692,0.0363965,-0.0165282,0.0472295,-0.059217,0.0349279,-0.121694,0.0113352,0.0537781,-0.0722845,-0.0440129,-0.0129847,0.0578331,0.0473697,0.0455851,0.0218057,0.0261463,-0.101464,-0.0723277,-0.0180871,-0.0186053,0.036953,-0.0415591,0.0470419,0.044119,0.0133735,0.106559,0.05663,-0.0133124,0.0433338,0.0714425,-0.055106,0.0727725,-0.0813853
-0.0666237,-0.0930025,-0.020126,-0.0389809,-0.0105755,-0.0646424,0.078084,0.0424901,-0.021076,0.0672194,-0.032014,-0.0145758,-0.0536954,-0.0744181,0.0610921,0.0589822,-0.0490503,-0.0250009,0.0459488,-0.0295993,-0.0442106,-0.0421776,0.0741672,0.0359456,-0.000991248,-0.0288251,0.0208175,-0.112335,0.0682545,0.0272788,-0.00972721,0.0638934,-0.0172657,-0.112784,-0.0244746,-0.0114323,-0.0653424,0.0959481,0.0464227,0.0758379,-0.0641639,-0.0105083,0.0659052,0.0362663,-0.0804092,0.10747,0.150796,0.0771133,-0.00459395,0.0722448,-0.0325905,0.149715,-0.0910742,0.0233767,0.0433313,0.0901043,-0.028094,-0.00695036,0.0304122,0.0744225
-0.0179718,-0.00370097,0.0336344,0.0404578,-0.110997,0.0125185,-0.0167902,0.0289268,-0.0721935,-0.00738748,-0.0829194,0.0355507,-0.0723511,-0.0299927,-0.0228964,-0.0825071,-0.00860554,0.0402513,0.030689,-0.0315671,0.0346267,0.0467003,-0.00184595,0.0338882,-0.0736338,0.0399731,0.0452088,-0.032236,-0.00229848,0.111444,0.0121504,0.0732285,0.0205237,0.0463473,-0.0309969,-0.0388565,0.019935,-0.0295637,0.0635713,-0.00212508,-0.0561659,-0.141768,0.0780727,0.0995705,0.119024,0.000488057,-0.00274785,-0.0480755,-0.175114,0.0435628,-0.0313235,0.0221772,0.0519351,0.0261824,0.109663,-0.126757,-0.0290131,0.0120349,0.0726812,-0.000810636
0.0897882,0.0210808,-0.00130101,-0.0569976,0.0855223,-0.0162428,0.089221,-0.0912211,0.129408,-0.0175605,-0.0450495,0.0391092,-0.0787035,-0.00755004,0.0616299,0.0141401,0.020976,0.0128254,0.102763,-0.0496262,0.0581622,-0.12634,0.0919022,0.0175979,0.0739848,0.0681101,0.0254828,0.0176685,-0.0349581,0.023114,-0.0382623,-0.0708424,0.0401969,0.0251524,0.0632225,-0.0304569,-0.00784441,-0.0438874,-0.0103681,-0.00663682,-0.0643835,0.00175996,-0.0506691,-0.0261866,-0.0238801,-0.0224894,-0.0691711,-0.00619688,0.0890067,-0.0673394,-0.0501271,-0.0525655,0.0201407,0.0598123,-0.0246117,-0.0197721,-0.00494814,-0.00145923,0.0444594,-0.00316498
0.00238757,-0.0377726,-0.0436148,-0.0541631,0.019975,0.0132977,0.0806367,0.000615369,0.0436143,0.0635766,0.00353931,-0.047079,-0.0554575,-0.01974,-0.0334386,-0.0135178,-0.00382942,0.0844134,0.0021029,-0.0648152,0.0218131,-0.0836475,0.03767,0.0386047,0.0243621,-0.0662534,-0.0692434,0.0723277,0.029917,0.0424061,0.0781852,0.10571,-0.0484447,0.0237192,-0.0438594,0.0242326,0.00933662,-0.0940974,0.0247105,0.0273831,-0.0267127,-0.041182,0.0596028,-0.0490777,-0.0889206,-0.087387,-0.112348,-0.0480282,-0.0178521,-0.002801,0.05798,0.109217,-0.0308592,-0.0614233,-0.0447753,-0.0675466,0.0731877,0.116152,0.0852574,-0.0175147
0.00430098,0.0468849,-0.00136771,0.0131238,0.0245781,-0.00791394,-0.040812,-0.0334552,-0.0538349,0.112334,0.0413,0.053089,0.0392748,-0.120485,0.0636052,-0.0358883,0.0107496,-0.0579643,-0.00957577,0.00184347,-0.035784,0.0152752,-0.0298788,-0.0125617,0.00932388,0.0966942,-0.00759092,-0.0542793,-0.0591831,0.0131718,0.065851,-0.0258575,0.0407615,0.0580276,0.0416978,0.0391778,0.0588342,-0.00206642,-0.0301249,-0.0669365,0.0644995,-0.0509496,0.0213835,0.0884291,0.00871072,0.0768167,0.0515862,0.0254741,-0.00207118,0.0897963,0.0304848,-0.0207849,-0.0602319,0.041742,0.0488279,0.0221317,0.0991826,-0.0443528,-0.00567399,0.0146841
0.00549214,-0.0526058,0.0533525,0.0484233,-0.052772,-0.0309702,-0.0146857,-0.049162,0.000729394,0.0298651,0.06454,-0.0820572,0.00766168,0.108305,-0.0309261,-0.00120131,0.0636693,-0.0465432,0.0755387,-0.0632601,-0.00591149,0.0821792,0.00662859,-0.0114279,0.0958843,0.0287469,-0.00404123,0.0175316,0.00267894,-0.0395705,1,0.000288553,0.00806418,0.00588461,0.0453616,-0.00478602,-0.121889,-0.041685,-0.000437566,0.00872785,-0.0145705,0.0167936,0.100086,0.0214586,-0.0206339,0.00280097,0.0516023,0.070588,-0.0483833,0.0324058,-0.105792,-0.0359905,0.13953,-0.113686,-0.117128,0.0866133,0.0416338,0.020883,-0.0178125,-0.0333952
0.0295123,-0.143777,0.0312873,-0.0104155,-0.0342524,0.162167,-0.0757,-0.0518785,0.113916,-0.0301545,-0.051082,-0.0403226,-0.0327077,0.00858137,0.0779926,0.0453915,0.0591327,0.0865181,0.05515,-0.0153766,-0.0236376,0.0233473,-0.0222359,-0.0561822,0.0574359,-0.0117538,0.0877147,0.0838256,0.0175637,-0.0987291,-0.00396499,-0.0129366,-0.0369141,0.0333963,-0.155076,0.0934983,-0.0520038,-0.0281207,-0.096862,-0.162816,-0.0450308,-0.0868888,0.0928198,-0.038372,-0.0528792,0.0237764,-0.0488159,0.0122223,-0.00537373,0.185274,0.17318,0.0260459,-0.0498719,0.0623429,-0.0190339,-0.0763802,-0.108088,-0.00479939,-0.0490954,0.0296732
-0.0122905,-0.0282837,0.039398,0.0235432,0.101411,0.0543247,0.0533222,-0.00577434,0.0387892,0.0165828,0.0268554,0.0430492,0.0597563,-0.0945496,0.0692306,0.0088852,-0.0152551,-0.0259771,-0.0518148,0.0935445,0.00803676,0.000915116,-0.0847199,-0.0692709,-0.0790735,0.0154324,0.0332356,0.0221349,-0.0271543,-0.0751425,-0.071109,-0.00651497,0.0451101,-0.0952453,-0.0291454,0.0145676,-0.0224387,-0.0832419,-0.0122521,0.0285802,-0.0460713,-0.0577049,-0.00288404,0.0268563,-0.0217304,0.0925461,0.0640553,0.0548595,0.0691435,0.0755398,0.0137241,0.0646498,0.0184009,-0.0497951,0.0250623,0.059517,0.0598483,-0.0117052,0.0399033,0.0486667
0.0340561,-0.00405827,0.0636899,-0.00559788,0.0116187,-0.0560613,0.0881723,-0.204532,0.0539202,0.110709,-0.0130897,0.041842,0.048411,-0.00687427,-0.101785,0.0373446,0.072775,0.0442645,-0.0473466,-0.105048,-0.0915609,-0.105673,0.0139267,-0.0111392,-0.0615666,0.0833109,-0.0105252,0.00320354,-0.0133871,-0.0158187,0.0428666,-0.0345821,-0.0169049,0.0637503,-0.0299758,-0.108826,-0.0642096,-0.0380268,0.00840958,0.047548,0.0156943,0.0417696,0.0834334,-0.00927814,-0.0368495,0.09032,-0.101249,-0.00149731,0.0345954,0.0204463,-0.0344984,0.0191476,0.0941243,-0.0900366,0.029695,0.0067421,-0.0706844,0.0470982,0.0463188,0.0134083
-0.0170994,0.0636123,-0.0205582,0.113014,-0.0155552,-0.0649228,0.13405,-0.0725841,0.0424566,0.0132484,0.05875,-0.0341945,-0.0372144,-0.0767935,-0.0310425,0.0628913,-0.0762438,-0.0833049,-0.0177764,0.00885114,-0.09475,0.101544,0.0619304,-0.0102142,0.11292,-0.0283232,0.0579503,0.0305128,0.0696009,-0.0488127,-0.00378436,-0.0750645,-0.0611047,-0.0364655,-0.0745763,0.0935713,-0.0190972,-0.0485539,0.0674789,0.0021914,-0.0592597,-0.0438425,0.070286,0.0220341,-0.0721419,0.0204842,0.0340933,0.0207285,0.0762547,0.0126218,0.0329839,0.0471406,0.0917066,-0.0465247,0.0428606,0.0821682,0.0780255,0.0121851,0.0316932,-0.0684237
-0.0371958,0.0803817,0.0633515,0.00720209,0.0247823,0.0869268,-0.133274,-0.0964137,-0.027112,0.0287616,-0.0359039,0.0736565,0.000486139,0.0296197,0.0679382,0.0467244,-0.0257784,0.0100886,0.0457099,0.0350122,0.0549736,0.011751,0.00262936,-0.0215761,0.0593024,0.0356086,-0.0123011,0.0963737,0.0360023,0.14203,-0.0605397,0.0600177,0.051565,-0.0194407,0.0415287,-0.0312773,0.0225337,-0.00619783,-0.0302936,-0.0324905,0.0618601,-0.0253654,0.0518642,-0.10575,0.015479,-0.00853689,-0.0956632,0.0655863,0.0782918,-0.0353228,0.00221819,0.00592151,-0.0620147,-0.135512,-0.00656127,0.0442203,0.00748834,-0.0834521,-0.0432367,0.0826042
0.0022006,0.0437806,0.0293271,-0.0368876,0.0751374,-0.0217253,-0.0623068,-0.0240768,0.0402395,0.00984349,-0.106225,0.0626641,0.0535134,-0.0684259,-0.042753,0.0409115,0.0742066,0.0607793,-0.00624345,0.0675925,-0.0121713,-0.067247,-0.025363,-0.0223835,-0.113751,0.0880739,0.0592422,0.141112,0.00710797,-0.0696327,0.0853819,-0.0102506,-0.0918041,-0.00462237,0.00966322,0.0857663,-0.049623,-0.00467846,-0.0777618,-0.0433663,0.0445073,0.0207307,-0.0328054,0.0124413,0.0377926,0.0155067,0.0215972,-0.0135339,0.107985,0.0799721,0.0971826,0.00873097,0.0969858,-0.0343968,0.0674762,0.0430796,-0.0133693,0.0951347,0.00445542,0.058898
-0.0304079,-0.0479549,0.0352296,1.12764e-05,0.0774144,-0.0273057,-0.118398,-0.0160351,0.128384,-0.0717742,0.0183782,-0.0338217,0.0281133,-0.0386338,-0.0364556,0.0245935,0.0337748,-0.0839049,0.0259316,0.0564567,0.0468887,-0.0840542,-0.0245069,0.126444,-0.00871564,-0.0439335,0.0691875,0.0314989,-0.169362,0.0710251,0.0114846,0.0459275,0.0395494,-0.009966,-0.019745,-0.0691861,-0.0917066,-0.0238035,-0.0306784,-0.026946,0.00586599,-0.0071369,0.0130595,0.0847695,0.0349197,-0.0441371,-0.0188382,0.0167068,-0.157936,-0.0680175,0.0957695,0.060213,-0.0209095,0.0762487,0.0830661,0.0289359,0.0101902,-0.120754,-0.0475361,0.0786593
0.0570476,0.00623908,0.0722616,0.00633479,-0.0416866,-0.0757482,0.0378135,0.0646456,0.00696732,0.0425636,-0.0305885,0.0122686,0.0538614,-0.0119552,0.0660609,-0.0590144,-0.0651207,0.0314475,-0.0939837,-0.0323738,-0.00166188,-0.0448036,0.0270532,0.0358901,0.00416054,0.00337712,0.034403,0.0386784,0.0880834,-0.116026,-0.0344907,-0.0353842,0.0164546,0.039232,-0.0178622,-0.000393149,0.0561374,-0.0369588,0.122732,-0.0445335,0.0612637,0.0299895,0.0341826,-0.071823,-0.144986,0.0559618,-0.019631,-0.0295043,0.0574124,-0.0130648,0.0301725,-0.00440839,0.0507613,0.0931864,0.0124148,0.0351186,-0.050537,0.0251826,0.099392,0.0504749
0.0485473,0.00419868,-0.035868,0.0768426,0.0297489,0.0657296,-0.0422486,-0.0453458,-0.121434,-0.0766265,-0.0158265,-0.131842,-0.0088307,-0.065096,-0.125021,0.00346169,-0.0196799,-0.0185141,0.0317371,0.0268146,-0.11585,-0.0216868,-0.0378217,0.00639867,-0.000469726,0.0325045,-0.0604008,-0.0150045,0.16392,0.0261926,0.00652584,0.134045,0.0539753,-0.00370621,-0.0496236,0.0210288,0.0544759,-0.0915698,-0.0579758,0.0564832,0.0357824,0.0202755,-0.0411347,-0.0324963,0.0714139,-0.037129,0.0340289,-0.0896964,-0.0481557,-0.0889118,0.0675573,0.00871282,-0.0713391,-0.037341,0.0402744,0.0407957,0.0408273,0.00160768,-0.0922399,0.024095
-0.0738105,-0.0566641,0.11785,0.0039039,0.0350481,-0.00609065,-0.00535825,0.00300631,0.0844444,-0.0443893,-0.0227582,0.165001,0.0358791,-0.00855349,-0.0370147,-0.0666158,-0.0321249,-0.0457567,0.109284,-0.127686,-0.00288379,-0.0248128,-0.021792,0.000889787,0.080745,0.00211913,0.0106163,0.00461833,-0.0457657,-0.0848235,0.0407008,0.0465742,0.0941853,-0.0973121,0.0615465,0.0218692,-0.00414407,-0.0438157,0.0127577,0.0364456,0.0498394,-0.0301276,-0.00846843,0.0219676,-0.0336036,0.0223239,-0.0234875,-0.00159385,-0.00582774,-0.059227,-0.0806248,-0.0532049,0.00336224,0.0047594,-0.0681067,0.0224321,0.0849399,0.120544,-0.0660469,-0.0154541
-0.0185839,0.0104241,-0.0143559,0.0722766,0.0414448,0.0776945,0.0888189,0.0563869,0.11005,0.0582737,0.0430508,-0.0346303,-0.0310708,-0.0106295,-0.0189863,0.0338906,0.00700051,0.0589465,0.0114308,-0.0181127,0.040883,0.0342222,-0.0390291,0.0178782,0.0311068,-0.126078,-0.0159645,-0.0351123,-0.0036493,0.0420519,-0.0293734,0.00801304,0.026281,0.0115316,-0.141283,0.0567697,-0.0674229,-0.0612796,0.0484263,0.0409616,0.0195177,0.0661957,0.0182563,0.0157624,-0.0556465,0.0046472,0.0485708,0.0417015,-0.00107023,0.0406843,0.0308886,-0.00997846,-0.0201813,0.121458,-0.00149557,0.0567785,0.0189768,-0.0800473,0.000178175,-0.0206293
-0.0436151,-0.00734721,-0.0118705,0.0144137,-0.055939,0.028648,-0.000842745,0.0174977,-0.00673311,0.013773,-0.0328124,0.0219668,0.0676262,-0.00923318,-0.0309203,0.0202241,-0.078519,0.0117211,-0.0183097,-0.0405016,-0.0914639,0.0593496,-0.074058,-0.0604308,0.100979,0.0221196,0.0381125,0.0599059,0.0201052,0.098548,-0.0658465,0.0684698,-0.0506277,0.0546717,0.131838,-0.0953495,-0.0387146,0.0833684,-0.0117244,-0.0631417,0.077779,0.0135145,-0.016693,-0.0382599,-0.038318,0.0671052,0.026327,0.0629345,0.0257488,0.0463495,-0.0937781,-0.0342672,0.0482972,-0.00763646,0.0625797,0.0867595,0.0405021,-0.0263814,-0.130229,-0.0575985
-0.055279,-0.0104937,-0.0466739,0.00985042,0.0613832,0.0515823,0.101776,0.110568,0.00330391,0.0318176,-0.0579255,0.0694753,-0.0827096,0.0880395,0.0878301,-0.00109512,0.0802632,-0.0161517,0.0201321,0.0632859,0.0283295,0.0147931,-0.0933338,0.156445,-0.0320839,-0.0261074,-0.0760258,-0.132626,0.0108515,-0.0181782,0.0103493,0.038003,0.0431222,-0.042139,-0.0607921,0.132481,0.00376025,-0.0149642,-0.12287,0.0213031,-0.0650844,-0.040354,-0.0962703,0.000410247,-0.0126669,-0.0481465,-0.0592937,-0.0905827,-0.058972,0.0121606,0.0558083,-0.0942759,-0.0697909,-0.0461339,-0.0555111,0.0271111,-0.0211169,0.0251779,0.123324,-0.114208
-0.0475428,0.0127717,0.0344404,-0.0204996,0.00655373,-0.0552376,0.0344525,0.0356016,-0.0381519,-0.0385104,-2.96774e-07,0.0569166,-0.110932,0.0525007,-0.00147048,0.0912749,0.0953806,0.130089,0.0580699,0.0194715,-0.047555,-0.0936083,0.0114749,-0.0249663,-0.00346111,0.0339427,0.0377707,-0.0130125,0.0704571,0.00629474,0.00808074,-0.0208118,-0.0517148,0.00124275,-0.0158655,-0.0057844,-0.0157263,-0.00858426,0.0311326,0.0115331,-0.0714988,0.0237841,-0.000776807,0.00853376,0.0253058,0.0422876,0.033472,0.0442761,0.0519452,-0.0334865,0.0153643,-0.0793599,0.0215614,-0.102104,0.0392139,-0.0377628,-0.0120748,-0.00981536,-0.0813183,0.0239599
0.0796821,0.00555444,0.0585475,-0.0132607,0.0120943,0.049234,-0.0268991,0.00255378,-0.0393817,-0.118636,0.0653996,0.0122655,0.00182502,-0.0264934,0.00602067,0.0355496,-0.076783,0.0105757,-0.0144243,0.051433,-0.0134947,-0.0205154,-0.0121015,-0.0247849,0.0161533,-0.0280013,-0.000801729,0.101922,0.0121302,0.0883758,0.0749875,-0.0503377,-0.0622925,0.0964599,-0.0589655,0.00578082,0.0136023,0.0943664,0.0733219,0.0374179,-0.135717,-0.0766848,-0.0901742,0.0226897,-0.0556427,-0.0859896,-0.00308389,-0.0568894,0.0471351,0.0361099,-0.0217028,-0.0692394,0.0796178,0.00696898,0.01923,-0.0261945,-0.00510318,-0.000139971,0.00689558,-0.120184
0.0209391,-0.104989,-0.0424206,0.0325687,0.0852622,-0.0407947,-0.088961,0.0263114,-0.0335474,0.0499864,-0.00359037,-0.0410838,-0.0763154,-0.0226044,0.0749073,-0.031219,-0.0671069,0.00378691,-0.0381476,0.0284258,0.00790056,0.0512273,-0.0223625,0.0425346,0.00143081,-0.0505078,-0.0234385,0.0325035,0.0518472,0.016584,0.0870764,-0.0218357,-0.0156454,-0.0709923,-0.0364291,0.0415685,0.000602082,0.0574924,0.028979,-0.0720986,-0.11843,0.0323644,-0.0229572,-0.0157999,0.0517942,-0.0470544,0.0139927,-0.0965253,-0.0609376,0.0108723,-0.0238095,-0.0234086,0.0112906,-0.0311048,0.0470167,0.0973064,-0.028679,0.0464462,-0.0958115,0.0171717
0.00292621,0.0388573,-0.0755125,-0.0367697,0.069902,0.0703608,0.084503,-0.015206,0.0278425,0.142564,-0.0738157,0.00854829,-0.0300587,-0.0960531,-0.0555821,0.0140599,-0.017023,0.048141,0.0272309,0.0710405,0.104087,0.0526732,-0.0456605,-0.011462,-0.0705472,0.076917,0.0538057,-0.0618891,0.0108122,0.0592013,-0.0304936,-0.00067741,0.0263062,0.0171236,-0.0740312,0.0444297,-0.00132672,-0.0195717,0.0563361,0.0259488,0.105639,0.0436634,4.89696e-05,0.0193041,-0.00714556,-0.0723773,-0.0163778,0.0367319,-0.0819615,0.0334191,0.0140842,0.0053772,0.0242728,0.0355366,-0.0178594,0.0606569,-0.0545868,0.0747142,0.00424751,-0.020421
0.0288847,-0.0453738,-0.0514359,-0.138335,-0.0203198,-0.0210531,-0.0560359,0.043649,0.0248647,-0.0114866,-0.0296291,-0.0560267,0.0384358,-0.0652132,0.0684071,0.114427,-0.0196136,-0.0133087,-0.0121295,0.107431,0.109466,0.00360264,0.0774451,-0.113768,-0.0386932,0.0426175,0.0616947,-0.113371,0.0288057,0.0728025,-0.0853836,0.00114752,-0.00872668,-0.0942545,-0.121561,-0.0191427,-0.0195511,0.0144925,0.0814755,-0.0746398,-0.140857,0.00204687,0.0925636,-0.0654668,-0.022102,-0.0265139,0.0626268,0.00419258,0.0240327,0.111098,0.0906747,0.0479462,-0.0114837,0.00199897,-0.0603473,0.0604775,0.109425,0.0251623,0.11637,-0.0164132
-0.0754448,0.0490091,0.00585816,0.0913285,0.0421553,-0.0227459,-0.0589599,0.228574,-0.0687961,0.035009,-0.0813901,-0.0709321,-0.0235553,0.0110065,-0.0669318,-0.0772665,-0.0157936,0.0570077,0.0633089,0.00307043,-0.0594347,0.0318714,-0.0317693,-0.0648834,-0.0256556,-0.0780003,-0.022747,0.0313903,0.0159578,0.0343748,0.0184998,0.0812744,-0.00982488,0.0338605,0.00515092,0.00519602,0.0304466,-0.0530281,-0.0108255,-0.0952373,0.0750116,0.0921347,0.0782211,0.0234549,0.013532,0.00475705,-0.00885709,0.0624885,0.000713962,0.0134356,0.0473491,-0.0152014,0.0474754,-0.0408946,0.0197648,-0.0504026,-0.0141608,-0.123904,0.012178,-0.0474392
0.0796409,-0.0449642,-0.0693123,-0.0709142,0.069058,-0.0354905,0.014864,0.0942127,0.00909055,0.0376407,0.0348474,0.0154288,-0.0161413,0.0305182,0.0733346,0.0259933,-0.0913281,-0.059386,0.119551,0.0136241,0.0441188,-0.0345797,0.0777605,0.00146621,0.036806,-0.0500145,0.0215773,0.120943,0.0086019,0.0316658,0.0012916,0.00681802,-0.088751,-0.00322503,-0.0142554,-0.0583531,-0.0584006,0.000703103,-0.00596734,-0.0885684,-0.0185038,0.0432142,0.0399696,0.0224787,-0.0380184,-0.0185373,-0.00138413,0.0803121,-0.109863,-0.101484,0.00901774,0.0314433,-0.0926189,-0.0644569,-0.0633748,0.0875812,0.0286409,-0.0267886,0.0654219,0.0383112
0.0380422,-0.0179356,-0.0626399,-0.0593189,-0.0773849,0.0141697,0.0931081,-0.0469823,-0.0029898,-0.0216662,-0.0975872,0.0748377,0.0401288,0.0216409,0.0853571,-0.11124,-0.126164,0.111752,0.0499178,-0.0214026,0.0210557,0.0159063,0.0657118,0.0828468,0.012102,-0.104359,0.0332796,-0.0428137,0.0533303,0.00076056,-0.0808386,0.0273967,-0.109389,0.0011117,0.0872569,0.03751,-0.0395084,-0.0237241,-0.0407461,-0.0477842,0.110998,0.0583305,-0.0254599,0.0341201,0.0687356,0.057662,-0.0567972,-0.0204293,0.0206738,-0.0561974,0.0212152,-0.000861723,-0.018577,0.0218836,0.0101842,-0.0615736,0.0235336,-0.054406,-0.0232556,0.0409839
0.0146438,-0.0656244,-0.0313165,-0.0736845,-0.023836,-0.00122262,0.000377723,0.0484078,0.00328941,0.0645741,-0.0822278,-0.0344156,0.0492417,-0.0637544,-0.0311603,0.141378,0.0328831,0.0210149,-0.0544271,-0.0610763,0.0359534,0.0357242,-0.0115105,-0.0757887,-0.0609189,-5.68181e-05,0.00202848,-0.0363608,0.0668022,0.0193556,0.023346,0.0519021,-0.0231064,-0.130891,-0.0311049,0.0025675,0.0544367,-0.0700025,-0.159551,0.0319742,0.108773,-0.00493752,0.109666,0.0282049,-0.0287774,0.0538644,-0.0114667,-0.0566098,-0.0926634,-0.0843568,-0.0800505,0.0245524,0.076785,0.0893875,-0.0835529,-0.116151,0.0941676,-0.0177083,-0.0161646,-0.0486237
0.0166762,0.109461,0.00016257,0.0557527,0.132358,0.0295275,0.0152772,-0.0178979,-0.0567381,0.0272899,0.0167799,0.0435404,-0.0174614,-0.0275446,0.115163,-0.0532974,-0.0457536,-0.0400817,-0.066027,-0.0729098,-0.0533155,0.0460915,-0.101676,0.0917687,0.0689594,0.0224756,-0.0757271,-0.0941932,0.00460812,0.0156832,-0.0404789,0.062983,0.0926437,0.0318768,-0.0854218,0.00189501,0.0670187,-0.104989,0.00293803,-0.0224165,0.0579298,-0.0633487,0.045611,-0.0176443,-0.0412625,-0.0119434,0.0134043,0.00582539,0.0360663,-0.0355003,0.0991849,-0.160827,-0.0382404,-0.00465966,-0.0258736,0.0482333,0.091049,-0.00425829,-0.00809794,0.0480774
0.0791295,0.0868329,-0.0606972,-0.0476788,-0.0790583,-0.016419,-0.023229,-0.00243252,-0.0333121,-0.0267895,0.00946369,-0.100114,0.103847,-0.00035737,0.0353601,-0.0376015,0.0535829,-0.0806896,0.0336681,-0.0245433,-0.00640239,0.0521513,0.00626401,0.0371195,-0.0426368,-0.0342339,0.0970301,-0.019111,-0.0418215,-0.00586317,-0.00738144,-0.0649003,0.0533541,0.029791,0.122205,-0.0355946,0.00119289,-0.0281015,0.0453679,-0.0462166,0.11288,-0.0392917,-0.00999904,0.0795455,-0.0740831,-0.0166092,0.0221858,0.105473,0.0532368,0.0522379,-0.0479072,0.0189178,0.0916078,-0.0546584,-0.039661,-0.000787699,-0.0143047,0.0487802,-0.048235,0.0527961
0.00854699,-0.0971028,-0.00787981,-0.0111526,0.00241022,-0.00919593,-0.080575,-0.03936,0.0692587,0.0525355,0.0577073,0.0197828,0.0847911,0.0151368,0.0239135,-0.080549,0.0853928,0.0314011,0.0559105,-0.0266983,0.0463892,0.00713975,-0.0454762,0.0966792,-0.109732,-0.0617097,0.0512582,0.00313065,-0.0439375,-0.0532413,-0.0579755,0.039124,-0.0161054,-0.0497375,0.0181985,-0.0252605,0.0126825,-0.0277929,-0.078938,0.0137423,0.00789561,-0.0493182,-0.00721528,-0.0955834,0.017427,0.0396831,0.036823,0.0114295,0.10371,-0.0290489,0.123907,-0.0307688,-0.0304742,0.0543428,-0.0257798,0.0166699,0.0467854,-0.000522541,0.0234917,-0.0487408
-0.132408,-0.0871542,-0.0204643,0.0898168,-0.0398992,-0.0263603,0.00718874,-0.137467,0.0440491,0.0143559,-0.00071667,-0.0259574,-0.0843408,0.0903325,0.0301089,0.080846,-0.0273416,0.0121837,0.0401121,0.0254742,-0.0248156,0.0339516,-0.0466831,0.0467346,-0.0500775,-0.0375566,0.0122725,-0.0119626,0.0174455,0.0362636,0.00095254,0.000552242,0.0543621,0.00024803,0.10713,-0.0594947,0.0257835,-0.0322631,0.0230768,0.0576194,-0.0485063,-0.0469684,-0.0443833,-0.0821717,0.0606901,0.00694818,0.0202973,0.148633,-0.0486314,-0.000230634,-0.0520716,-0.0183631,0.0225765,-0.0148412,-0.0506619,-0.0150611,0.0398447,-0.0428813,-0.0423641,0.0179182
0.0283514,0.106069,0.0179553,-0.00443217,-0.0916134,0.024215,0.0283406,0.00824016,0.0868992,0.00275449,-0.0961256,0.168386,-0.0880848,-0.0275988,-0.0340313,-0.0361727,-0.0707209,-0.0364568,0.140221,0.0257756,0.0413297,0.0550362,-0.00383644,-0.040315,0.129817,0.0404459,-0.0868966,0.0513696,0.0424789,0.0271344,0.124414,0.0304938,0.0453608,0.03582,-0.0429843,0.0334867,-0.0350145,0.0217779,0.0388891,0.0840608,-0.0889247,0.0748448,-0.0595317,-0.124578,-0.0279255,0.0388628,0.049396,-0.0698978,0.00316329,0.0273005,-0.013704,-0.0261939,0.114065,0.0367248,0.00251813,0.0381254,0.00633762,0.0196059,-0.00829669,0.0585232
0.0462636,0.0671215,0.0613415,0.0241545,-0.0352196,-0.0258583,-0.0298717,0.0975311,-0.0774728,-0.052363,0.00205636,0.0220422,-0.06235,0.0110427,0.0736456,0.00470489,-0.0401705,0.049616,0.124773,0.0759903,-0.0771785,0.0709152,-0.00571322,0.0569708,-0.0825383,0.0302225,0.0399559,-0.0648809,0.0386632,0.0315446,0.00736767,0.0108621,0.00634455,-0.0606096,0.110503,0.063756,-0.00887832,-0.106802,-0.0325421,-0.00616106,0.0503518,-0.0282841,0.0783757,-0.170566,0.0564651,0.152984,0.0563586,0.000930062,0.0459648,0.170436,0.0139707,-0.0505981,-0.0393184,-0.0159999,0.0652846,0.0996768,0.0640022,0.066084,0.0260196,0.00886405
-0.0223695,0.0154881,0.0296013,0.00852948,-0.00696376,-0.0430499,-0.0287178,0.00808019,0.0962616,0.0974268,-0.0851638,0.0738779,-0.0209273,0.0311759,0.0866459,-0.0628128,0.0570887,-0.0552004,0.0363458,-0.0865674,0.0165436,-0.0367874,0.0900949,0.0473728,-0.0432719,0.0399444,-0.042831,-0.0249135,0.0277063,0.0345001,0.00345872,-0.0263051,-0.0333373,0.0331556,-0.0480464,-0.0575488,-0.0368634,-0.020498,0.0131716,0.0429404,0.0326585,-0.00447916,-0.0748476,-0.00093871,-0.0665428,0.0118262,0.0728194,-0.0155168,0.0934937,-0.0351327,-0.0776335,-0.0902508,0.035538,0.0120439,0.00388361,0.0227159,-0.0498144,0.0502561,-0.00914945,0.0161993

max: 1
min: -0.204532
avg: 0.00219649
