0.0593069,-0.0155641,-0.0304235,-0.0398216,0.0336321,0.0363228,-0.00629468,0.0555549,0.0667392,0.0179058,-0.0358828,0.104207,0.00347341,-0.047344,-0.00328068,-0.0238611,-0.123977,-0.0459298,0.00948542,-0.00727086,0.00812627,0.0492923,0.0559763,-0.00563816,0.0659103,0.0314483,0.0662552,-0.0209528,0.0289338,-0.0084285,-0.0528706,-0.00635829,0.0371996,-0.0329561,0.0535831,-0.00237872,-0.0194317,-0.0240361,0.01774,0.0276838,0.019866,-0.0887085,0.0978503,-0.00762809,0.121779,0.0212972,-0.0620297,0.0114507,0.0876013,0.00865411,-0.0539419,0.0543665,-0.0341938,-0.0160585,0.0249717,0.00240853,-0.137666,0.0177679,0.101917,0.0728704
0.0997244,0.00830685,-0.0779312,0.0921903,0.00850737,-0.0634248,0.00120749,-0.111233,0.00641288,-0.0055581,-0.0563256,0.0348286,0.0486969,-0.07818,-0.0855204,-0.0629518,0.00467342,0.056395,0.0606983,0.00230381,0.0358822,-0.0479916,0.0590029,-0.0815761,-0.0311918,0.0410588,0.0901109,-0.0205239,0.00773763,0.0732557,-0.00478511,-0.0161138,0.07138,0.0644683,0.0961273,0.0885606,-0.0488852,-0.0342168,-0.0794395,-0.125398,-0.0255561,0.0350943,-0.0628732,-0.039687,-0.0223194,0.0729566,0.0255787,0.0131554,-0.0916841,-0.0207451,-0.0606679,-0.082243,-0.00108094,-0.00687102,0.0890537,-0.0320127,0.0162324,0.00023481,-0.07698,-0.0272345
-0.0286169,0.0147288,0.0241535,0.0320811,-0.0160848,-0.0750031,-0.0584467,-0.0559007,0.00853678,0.0594792,0.0806251,-0.0415556,0.0445208,-0.0637402,-0.0365787,-0.0190794,0.0675256,-0.0380952,-0.0187861,-0.0398836,0.0527575,-0.0214951,0.0295887,0.0430838,0.0240159,0.00481211,-0.051385,0.0678731,0.0531544,0.102032,-0.0814668,0.0311226,-0.0691888,-0.100618,-0.0480328,0.0360929,0.00769239,-0.00271194,0.0232725,-0.0621974,0.0253693,0.000440022,-0.00759703,0.0187972,0.0850324,-0.0556907,-0.00128314,-0.0514656,-0.0768956,0.0389441,0.0341629,0.0657599,-0.00548748,0.044615,0.0885107,-0.00369057,-0.0610274,-0.0816431,0.0301462,0.0869037
0.013115,0.00736691,0.0800517,-0.0367832,-0.0634755,0.0147817,0.0350139,0.0436265,0.0289078,-0.000126963,0.0675268,0.0223169,0.0288205,-0.0855308,-0.093003,0.0950108,-0.0331033,0.0560807,-0.0264932,0.0146124,-0.00698764,0.0647564,0.0067539,-0.0698942,-0.0327992,-0.0478254,0.0466118,0.113047,0.0307622,0.0341737,-0.0134648,0.193965,-0.00876143,-0.0775527,-0.0301628,-0.0233708,-0.0321292,-0.0478022,0.0548466,0.00936004,-0.016974,0.0683013,-0.0398033,-0.0372896,-0.00971918,-0.0539829,0.0488689,0.0963361,0.0926525,0.0180664,0.0884936,-0.0803977,0.0505058,0.0386487,0.0852599,0.0556333,0.0328888,-0.0963286,-0.00596514,0.0278336
-0.00876453,0.0642444,-0.000661696,-0.0875411,-0.0420446,0.0167256,-0.0575184,-0.0952406,0.0116433,0.010654,0.0324459,0.0405878,-0.0346792,-0.0211513,0.0585994,-0.115886,0.0915042,0.0340016,0.0410553,-0.0011922,0.0275115,0.0445446,-0.0356149,-0.036542,0.0137372,-0.0437866,0.0283734,-0.0374196,-0.0707272,-0.0847687,0.0358221,-0.0440657,-0.0381745,-0.0478256,0.0416034,-0.0139626,-0.0112545,0.0536496,-0.0676212,0.0499823,0.125784,0.0519448,-0.038836,0.0176821,0.0111046,0.00243147,-0.0341615,0.0299502,0.0732482,0.0530412,-0.00133299,-0.0308136,-0.00610729,-0.0278275,-0.00966401,0.0128068,0.0764108,0.0614448,0.0232565,-0.0869249
0.119161,0.0322361,0.010566,-0.0173163,0.0820576,0.086838,-0.00120821,0.0166917,-0.0360428,-0.0566172,0.152335,0.0487372,0.064529,-0.070968,-0.025948,0.0573346,-0.0728585,0.0929676,0.0185943,-0.0509947,0.00867378,-0.0320088,-0.00518278,0.0239059,0.0605329,-0.0141291,0.0696097,0.0984902,-0.00246113,-0.087532,0.0148908,-0.0393242,0.100933,0.0322625,0.00745061,0.04642,-0.0545319,0.0307479,-0.00757855,0.0986078,0.0763597,-0.03373,-0.0296399,-0.0198594,0.0112554,0.0288465,-0.0389438,0.0989497,0.0462552,-0.0586451,-0.0327,0.016568,-0.0369574,-0.0320188,-0.00811456,0.00312959,0.0995852,0.160355,0.0346074,0.00949913
0.0590154,-0.0443261,0.0362258,-0.0336883,-0.00529844,-0.0176471,0.0646862,0.0704171,-0.01106,-0.0319459,-0.0168295,0.0838158,-0.035904,0.119762,-0.00772136,0.0749695,0.00329707,-0.0400731,-0.0579269,0.00521118,-0.0747317,-0.0744026,-0.025809,-0.0415629,-0.0424487,-0.0146536,-0.0245069,-0.0183051,0.00733399,0.0319322,-0.0284998,0.0338066,-0.0588009,0.00779812,0.0450965,-0.0344588,0.0547138,-0.0620241,0.162141,0.0357867,-0.00538119,-0.0219104,-0.0149974,0.030359,-0.0601337,-0.0560529,0.104674,-0.0161717,0.0279141,-0.017517,0.00822474,0.0196955,0.0395499,0.0100564,0.0347367,0.048343,-0.00110755,0.0363613,-0.00825609,0.0510077
0.0616704,0.0698787,0.00146034,0.0838437,0.0218753,0.000576255,0.016948,0.0217016,-0.0275894,0.00869027,-0.0122138,-0.0303524,-0.0418227,-0.102134,0.0879591,0.0559897,0.0630904,0.0675145,-0.0374357,-0.0425223,-0.00838387,-0.111608,0.0515047,0.00636409,-0.059941,0.0294742,-0.0355581,0.0279883,0.0752466,0.0459528,0.0232291,-0.0146747,-0.110448,0.01298,-0.0282396,-0.0322471,-0.00368847,0.0233217,0.118569,0.0571582,-0.0891456,0.0998804,0.155024,-0.0358101,-0.0757391,0.0188863,-0.0305662,-0.00868646,-0.019073,-0.00861309,-0.00530133,-0.0470287,0.0269906,0.101031,-0.0340706,0.147161,0.0286603,-0.0565106,-0.0333262,-0.032564
0.0924259,-0.102308,-0.0381844,0.0195542,0.00798397,-0.0365349,0.0336994,-0.0643835,0.0778729,0.0569029,0.051797,0.0737185,-0.114596,-0.1108,-0.0204312,0.0971632,0.0631177,-0.0278232,0.0825132,-0.043232,-0.0974589,0.0253138,-0.0090641,-0.00903566,0.129801,0.00151366,0.0366327,0.0221591,-0.0201072,0.0249784,-0.0533818,0.0204108,-0.0903323,-0.00051968,0.0153265,-0.0403856,0.0343718,0.0168679,-0.049349,0.0775528,0.147303,0.0497558,0.00977498,-0.0860296,-0.0464929,-0.0385381,-0.00567972,0.087574,0.0512044,-0.0821011,0.047067,0.04726,0.0532862,0.0660634,0.0529138,-0.0358715,0.02386,0.031938,0.0543059,-0.0780609
0.0448985,0.0489189,0.00442798,0.00497834,-0.00635957,-0.0478776,0.0358558,-0.0393128,0.0396083,-0.0333994,0.110354,-0.0441922,-0.00811038,0.101465,0.0305255,-0.0123453,0.0352284,0.0217384,-0.00506164,-0.0893734,-0.0190726,-0.0308352,-0.101502,-0.0549218,0.0607923,0.0371772,0.0189146,0.0796313,-0.109745,0.0217919,0.0670467,0.0477899,0.0452288,0.0797269,-0.117131,-0.0228695,0.00938857,-0.0555305,-0.0426107,0.035849,-0.042919,0.0946085,-0.0949682,0.0513087,-0.00314029,0.0182377,0.00851564,-0.0193281,-0.0547714,0.105793,0.0197939,-0.0139045,0.0647205,0.0504787,0.00792632,-0.0774338,0.00842032,0.0125138,-0.00487075,0.0450019
0.0384182,-0.0368789,0.0261172,-0.0558843,0.0139562,0.0432136,0.148553,0.0519733,0.0821973,0.0208104,0.0117161,-0.0288949,0.00951008,0.0477133,0.00825639,0.00309344,-0.000348928,-0.0657299,-0.0271549,-0.0122982,0.0447092,-0.0192444,0.0288067,-0.0420737,0.0179048,0.16277,0.0102537,-0.0513111,0.031893,-0.0928196,0.0320005,0.0568147,-0.0611884,-0.0615731,0.0295474,0.0702718,0.117821,-0.028374,-0.0460322,-0.0596638,0.116553,0.0506216,0.0542848,0.0241536,-0.0174216,-0.0234543,0.0189705,-0.000630748,0.0549232,-0.0494818,0.00819225,-0.0166944,-0.0084037,-0.00804284,0.045297,0.0505405,0.0150711,-0.0029851,-0.0254933,0.104072
0.0065264,-0.0242046,-0.0232602,0.0860656,-0.0561011,0.0708449,0.0197911,-0.0276343,-0.0107724,-0.0324906,0.0453795,0.0367632,0.0710111,0.0144793,0.0588417,-0.154663,-0.00372266,0.000324045,-0.01309,-0.0539826,0.0211614,-0.0337746,-0.0161772,0.0368207,0.101749,-0.0854151,-0.0643612,0.090878,-0.0264081,-0.0173817,-0.0767064,0.0240756,0.015924,-0.0311066,0.0225745,0.0746793,-0.0230232,-0.0106807,-0.00193068,0.0369188,-0.0184923,-0.0965496,0.111027,0.0201596,-0.0234397,0.104298,-0.138924,-0.00987947,0.0192564,-0.0127779,-0.0081046,-0.024835,0.0305098,-0.0714318,0.0364376,-0.0186759,0.0786828,-0.0385641,-0.0545917,0.0186069
0.0256387,0.0428307,-0.00812606,-0.000616444,0.0130897,-0.0282894,0.0167974,-0.0421134,0.087088,-0.0418171,0.0230154,-0.0285004,0.0412675,0.0546223,-0.0409476,0.0417831,0.100085,0.0294326,-0.0140354,0.0160799,0.0149328,-0.0146232,-0.0408303,0.00272782,-0.0970312,0.0965884,0.0649963,0.0747179,-0.0573097,0.040026,-0.0816979,0.000903247,0.0374177,-0.0357194,-0.00347078,-0.0100066,-0.045375,-0.0465072,-0.0726438,0.0637746,-0.0138889,-0.0610775,0.0346415,-0.101828,0.0357604,0.036817,0.0700062,-0.0648785,-0.0513644,-0.025495,-0.00682654,0.00912615,0.0316316,-0.0750938,0.0415101,0.120156,-0.0505183,0.0566928,-0.0457214,-0.0479575
0.0183026,-0.0246016,-0.064972,0.048331,-0.037852,0.0149855,-0.0193779,0.0960996,-0.108091,-0.0878438,0.0458708,-0.0116863,0.0194139,0.0572613,-0.0469854,-0.0424467,0.0824937,-0.0826766,0.052484,-0.00783789,-0.00669429,0.0602251,0.0402105,0.0169608,-0.0270972,0.107152,0.0606348,-0.00172653,-0.0566694,-0.0832982,0.0808754,-0.0105646,0.0128942,0.0744932,-0.0144656,0.070001,-0.131738,0.0150688,-0.0253495,0.0758383,0.0142152,0.0469622,-0.020128,0.0531544,-0.0961542,-0.00228521,0.000518053,0.0754211,0.0487524,0.023319,0.00737887,0.0396567,0.0280059,-0.019447,0.0609663,0.0193757,0.0496282,0.00654293,-0.0491827,-0.0377468
-0.0452799,-0.0465426,0.0978869,-0.0569471,0.0166919,-0.131277,0.0387569,-0.123176,-0.0137435,0.0254268,-0.00802605,0.0822904,-0.0247822,0.0110576,0.104609,0.0325396,0.0571116,0.0146469,0.0272852,-0.0606307,0.0882065,0.042621,0.0465811,-0.0284449,0.00728376,-0.00291603,-0.0122098,0.0797092,-0.0159705,0.0368065,0.0466351,-0.0219495,0.0178539,-0.0254925,-0.00526923,-0.00462828,0.0425087,0.0476037,-0.0447405,-0.00714483,0.0250554,-0.05974,0.0436842,-0.0191256,-0.0677026,-0.000229961,0.0332707,0.0549058,0.0356965,-0.0035086,0.0806384,-0.0219305,-0.112452,-0.0252777,0.0444354,0.0573248,0.131343,-0.0753098,-0.110713,-0.0696626
0.110294,-0.0432794,-0.0376631,-0.0849281,-0.120961,0.00719591,0.0518056,-0.0178925,-0.0104954,0.0211362,-0.0127689,-0.000850415,-0.0393837,-0.077666,-0.0345639,-0.0338046,-0.00379152,0.0430607,0.0168914,0.0383105,0.0195561,-0.0220021,-0.0493537,0.00597142,0.0318108,0.00969573,-0.124578,0.0332852,-0.0350484,0.104632,0.116528,0.0333776,-0.0916937,-0.00926403,0.0250551,-0.0979509,-0.0126992,0.00732718,0.0274201,0.0685367,-0.0169427,-0.156191,-0.0191683,0.0306058,0.0316526,0.0163388,0.0139244,-0.0386684,0.0270486,-0.0522504,0.057924,0.027391,0.0546774,-0.0850316,-0.0567855,-0.120573,0.0278247,-0.0724321,0.11615,0.0663826
0.0702283,0.0902968,-0.0413174,-0.105873,0.0535689,0.0159167,-0.0282343,0.0455015,0.0906829,-0.0937609,-0.000677675,-0.0369146,-0.0178683,0.0320696,0.0131126,0.0629382,-0.0179004,0.127447,0.0561596,0.0140342,-0.0505143,0.0485789,0.0191488,0.0172036,-0.0569845,-0.04963,0.0401232,0.044321,0.00401713,0.0745827,0.0320341,-0.000929182,0.00516265,0.0117012,-0.00875473,-0.00424712,0.0623864,-0.00635329,-0.0346111,0.0758172,-0.0701187,0.0477576,-0.0264167,-0.0118126,0.024214,-0.0126619,0.0667694,0.0106813,-0.0564742,0.105364,-0.0240894,0.0791941,0.0410898,-0.0414338,-0.015886,0.0121891,-0.018507,-0.0147672,-0.0649266,-0.0314873
0.0272635,-0.0233978,-0.0154531,0.0860187,0.078406,-0.0407331,0.0290089,-0.0270968,0.00174195,-0.00306328,-0.0188504,0.0793498,-0.035435,-0.0254139,0.00816119,0.0561513,0.105169,-0.00280104,-0.0114877,-0.0413077,-0.00655055,0.0322339,0.0287845,-0.00855664,0.00211805,-0.0630708,-0.00229444,-0.0986749,-0.0822309,0.0552676,0.0307853,0.0135946,0.0328417,0.0797318,-0.00751715,0.0879947,-0.0256264,0.0780042,-0.0309709,-0.0703145,-0.0545389,0.0606387,0.0382828,0.089234,0.0620129,-0.036667,0.0401203,0.068524,0.0580545,0.0939336,0.105782,-0.0628595,-0.0263674,0.0892234,-0.0233323,0.0161668,0.0201007,-0.0841374,-0.0716983,-0.0591573
0.0344238,0.0173061,0.019382,-0.00977329,-0.0346296,0.0127767,-0.0149558,0.0271421,-0.0768013,0.00974133,0.0240013,0.00308231,-0.0613988,0.0186135,0.0624865,-0.0861029,-0.0519978,-0.000887731,0.0602706,-0.00379609,0.0766223,0.0314959,0.0452681,0.00401442,-0.0192488,0.0844041,-0.00178193,-0.00739858,-0.08085,-0.0348847,0.0748567,-0.0231535,0.0464245,-0.0534673,0.135114,0.080767,0.026149,-0.0418569,-0.0584209,0.0403452,0.0283492,0.0246499,0.00847897,0.0604026,-0.0123463,0.0423807,-0.0646372,0.101991,-0.0303301,0.0169988,-0.0327,0.0386464,0.0747157,-0.00655788,-0.0524193,-0.03361,-0.039223,0.00473864,0.0291159,0.0307888
-0.0144023,0.0174604,0.0267621,-0.0594428,0.106425,-0.00911187,0.00206503,0.05019,0.003404,-0.0820997,0.0651858,0.0150542,0.0354013,-0.0848127,0.010616,0.110965,0.0724638,0.0382011,0.0806481,-0.062415,0.0163777,-0.00322258,0.0859502,0.169984,0.0468483,0.0360746,0.0351455,-0.0707218,-0.0615034,0.0218264,0.102472,0.00351888,0.0603329,0.0363016,-0.106333,0.124391,0.0727162,0.053609,-0.140327,-0.0566859,0.012656,0.00182503,0.06523,0.0257137,-0.0346506,0.04926,-0.0669549,-0.0292286,0.0946855,-0.0160817,-0.0324024,0.0192674,0.0376474,0.0133524,-0.0693677,-0.0164091,0.0328264,0.0805202,0.0580782,-0.018838
-0.0611141,0.0247792,0.0212159,0.0647699,-0.00159811,0.0384735,0.0199298,0.0902516,0.0242004,-0.0380319,0.0390753,-0.0109614,-0.00273389,0.0216921,-0.0270575,-0.00768921,0.042136,-0.111019,0.136063,0.0233782,0.116208,-0.0407635,0.0148652,0.0174617,0.122797,0.00562954,0.0629015,-0.082211,-0.0597249,0.0502003,0.0810145,-0.0142174,0.0387695,0.0120092,-0.0107171,0.102834,0.0502213,0.0314052,-0.0200328,-0.0715303,-0.114212,0.0247202,0.123841,0.026081,0.00103939,0.017696,0.0695504,0.108679,-0.0587692,0.0989183,0.0525895,-0.0119076,-0.0131889,0.036763,0.0482473,0.00727374,0.135567,-0.00160242,-0.0120818,0.0947669
-0.0623917,-0.042894,0.0144777,0.0256606,-0.0566724,-0.0650882,-0.0700844,0.0651353,-0.0678199,-0.000127411,0.0275287,-0.0566877,0.132474,0.126678,0.0475977,0.0205874,-0.00114668,-0.0945612,0.0174422,-0.0278914,0.0511717,-0.0435687,0.0788994,-0.0456268,0.0897214,-0.0387128,-0.0271811,-0.00995618,0.087468,0.00154347,0.103209,-0.0262828,0.0331276,-0.0302528,-0.0286268,0.028954,0.0222854,-0.0532653,0.0223221,-0.0442761,0.0833945,0.154473,-0.0133062,0.0456899,0.0310427,0.0158769,-0.0378734,-0.00902253,0.0479914,-0.00681805,0.0556393,0.0138792,-0.0466944,-0.0476134,0.0219291,-0.0232187,0.046029,-0.00218388,-0.0675329,0.0673115
0.0914303,0.126764,0.0177792,-0.0299205,-0.0208223,0.0147239,0.0880902,0.0354949,0.0054374,0.0188094,0.081027,0.00360986,0.0726786,-0.0141522,0.138541,0.0586404,-0.00560057,0.0315259,0.0145493,0.00416642,-3.08502e-06,0.0577554,-0.0577109,-0.000414439,0.0663449,0.0751607,0.00981916,-0.0628044,0.0796815,-0.0769426,-0.0618132,0.0156232,0.0442915,0.0569273,-0.0847856,-0.056956,-0.0340578,-0.00471599,0.083085,-0.0462719,0.0864108,-0.019315,-0.0392011,-0.0434155,-0.0233042,0.11077,0.022909,-0.00839773,0.00316417,0.0208893,0.0969713,0.0823184,0.000968597,0.0260737,-0.0401622,0.13168,0.0175411,0.0775374,-0.0273498,0.058279
0.0347206,-0.0128599,0.00100299,0.0684011,-0.00147815,0.0521329,-0.106796,-0.0530744,0.0728768,0.0728081,0.0394208,0.034552,0.019837,-0.161838,0.0116584,0.0801751,-0.0303443,-0.0147837,0.00374986,0.0154886,-0.000729018,0.0654933,-0.0698985,-0.0440014,0.0692657,0.134659,0.0469608,-0.0437492,-0.0575193,-0.0541819,-0.0510974,-0.0458405,-0.0713593,0.0895869,0.0337668,0.0820832,-0.0353667,0.109891,-0.0321699,-0.0513239,0.0476186,0.0898113,0.101254,0.0422466,-0.0342188,0.0401204,0.137706,0.0354419,-0.0402238,0.0147518,0.087768,0.0255113,0.00151148,0.0454505,-0.00432664,-0.000743657,0.0586092,0.00366794,0.0446261,0.0510937
-0.00117185,-0.0771031,0.027436,-0.0355896,0.0522394,0.0316751,0.14102,0.0649723,-0.025543,0.065751,-0.0732491,0.00365941,-0.00952214,-0.0536843,-0.0832302,-0.0702701,0.0476923,0.0533252,0.0206236,0.0764765,-0.0215012,0.0848347,-0.00203254,-0.0676894,0.126473,0.0291612,0.00623578,-0.0368365,0.0303296,0.10296,-0.0330228,0.0185374,0.0941754,-0.100959,-0.0678735,-0.033245,0.121151,-0.0621018,0.00590633,0.00197204,0.0554623,0.0502517,0.0142693,0.021249,0.0371155,0.114316,-0.00322476,-0.0437829,0.00653884,-0.0223148,0.0862259,-0.0704731,-0.0792729,0.00172752,0.0416783,-0.0422459,-0.00411457,-0.0115678,0.0579881,0.088577
0.0603434,-0.0154312,-0.0592974,0.0318063,0.0841915,0.0498966,0.00286759,-0.027727,0.000499555,0.11238,0.115088,0.0164149,-0.00669552,0.00633787,-0.069483,0.0670024,-0.0279599,0.00274399,0.0930355,-0.0196047,0.0206154,0.0381582,0.0661565,-0.0984363,-0.019489,0.0378348,-0.0804099,0.0995257,0.0130333,-0.0124091,-0.0190025,-0.00872476,0.0619282,-0.124397,-0.0334774,0.0639543,0.0913572,0.00857822,0.00683014,0.153021,-0.0448691,-0.000936073,0.00665827,-0.0929547,-0.0303559,0.102428,0.0430784,0.116758,-0.0492671,0.0140844,-0.11125,0.0260604,-0.033098,-0.0188169,-0.0486065,-0.0542799,-0.0347077,-0.0111306,0.0401818,0.0400916
-0.0787773,0.100874,-0.00168648,0.0356715,0.0752096,-0.059507,-0.0927432,-0.0367834,-0.0844941,0.0521732,0.086886,-0.0338749,-0.030718,-0.015445,-0.0265549,-0.0339522,-0.00206891,-0.163269,-0.0254381,0.00301394,-0.024854,0.0181619,-0.0435368,-0.00113642,-0.00385528,-0.0507035,-0.167288,-0.0367736,0.0107583,-0.0639497,-0.0304989,0.0312133,-0.0164863,-0.0415196,-0.00733283,-0.0548915,-0.0249599,-0.0337526,0.106343,-0.0266588,0.142638,-0.0231534,0.0479229,0.0502454,0.0593755,-0.078719,-0.0321767,0.0263057,0.0786045,0.121715,0.0718783,-0.161599,0.0586997,0.0449778,-0.0821617,0.0820597,-0.00131076,0.0408251,-0.0236244,0.0362044
-0.00373631,-0.0545457,-0.00278036,0.112855,0.00737457,-0.0759053,-0.0169709,0.0825819,-0.0441275,0.0014899,0.0183916,0.0913961,0.116789,0.0352859,0.00513685,0.0225513,0.0493711,-0.0441384,0.0568594,0.107989,0.070645,-0.0863942,0.0581568,0.0245741,-0.0360569,-0.137936,-0.0142193,-0.0468176,-0.0447201,0.0250219,0.0197732,0.083767,-0.0933134,0.0701659,0.113727,0.096059,0.0374104,-0.0224938,0.0874252,-0.0314679,0.0660672,-0.0681651,-0.00465112,0.0803925,-0.00859023,0.0952499,0.068355,-0.0350564,0.0587201,-0.0104062,0.0720974,-0.0472387,0.0264365,0.0564697,0.0519697,0.0310391,0.0592043,0.0504383,0.124543,0.0054754
-0.0445312,0.0480498,-0.0101809,-0.00177313,0.0639318,0.0282495,-0.0851499,0.00906941,0.0541041,-0.00662776,0.0815318,0.109921,0.00968731,-0.0450179,-0.00830673,0.0754136,0.0236995,0.0919867,0.202716,-0.0169272,-0.0855821,-0.0448146,-0.041022,-0.0547455,0.0315645,-0.051994,-0.0862725,0.0185461,-0.0957569,0.0730378,-0.0716781,0.0588414,0.0649057,0.0440849,-0.0297989,0.0326728,-0.0213912,-0.0978239,0.0892851,0.0135796,-0.0201577,-0.0170842,0.0280939,-0.0594858,-0.101058,-0.0614359,-0.0701281,0.0494747,0.00200293,0.110145,0.103031,-0.027516,0.136097,-0.0394904,0.127815,0.129784,0.0353696,0.00994739,0.0246771,-0.0618782
0.0325895,-0.0307549,-0.0856705,0.0371499,-0.089985,0.0558644,0.00474419,0.0745556,-0.022365,0.0562201,0.0784866,0.00939516,-0.0372424,0.00554972,-0.0248209,-0.108179,-0.0614396,0.0511791,0.0394366,0.0389092,-0.0334579,0.0383152,-0.0346095,0.0638123,0.0574736,0.0353821,0.0376592,0.0107242,-0.0574027,-0.0651338,-0.034356,-0.0292348,0.0579041,-0.0642632,0.127074,0.0943953,-0.0490232,0.0673126,0.0497702,-0.044279,0.0467884,-0.0360787,-0.0487318,0.0821905,-0.0802031,0.0513603,-0.0190057,-0.0124538,0.0145406,-0.124725,0.0613919,-0.0184097,-0.0347292,0.0451739,-0.0333955,-0.0320794,0.0144967,-0.0138199,-0.0195993,-0.00997217
-0.0502744,-0.0508274,-0.000848495,-0.12422,0.0971393,-0.0142897,-0.0515744,0.055018,0.091129,-0.0667488,0.0905963,-0.0226527,0.0158421,-0.0934055,0.116017,-0.0993201,0.0686789,4.65081e-05,0.00940699,0.00435826,-0.104847,0.0355296,0.0103591,0.0369414,0.0796901,0.0546734,0.00517952,0.0144978,-0.0182645,-0.0468607,1,0.0732881,0.0225687,0.0154348,-0.0129477,0.0588443,-0.0118169,-0.0136648,0.0409731,0.104769,0.0778794,0.0400056,0.0782728,0.0950614,0.0866937,0.0435635,-0.00761064,-0.0508327,0.0552546,-0.135943,-0.0397982,0.0547044,-0.0147365,-0.0482975,-0.0413814,-0.0256715,0.0500737,0.00226287,0.020814,-0.0127096
-0.0461428,0.0175672,0.0799697,0.103566,0.00728205,0.132839,-0.0283014,-0.0201508,-0.046929,0.00332258,0.033262,-0.0131273,-0.0241224,-0.0307225,-0.0607023,0.0824531,0.141332,0.0857256,0.0564759,0.0506081,-0.016585,0.105519,-0.0715108,0.0715744,-0.035523,0.0546761,-0.0606203,0.00274181,-0.0198184,0.0132828,-0.0125186,0.00577699,-0.0182344,0.0103691,-0.0264247,0.00375905,-0.000448596,-0.0279077,-0.0350431,0.027591,-0.0378487,-0.0277907,0.0743945,-0.0191288,-0.00141434,0.0439913,0.110695,-0.00940255,0.0851114,0.097554,0.0611401,0.0114051,0.0369649,-0.0329978,0.0245986,0.0273686,-0.0142993,-0.026314,0.111547,0.0582481
-0.0338961,0.0144853,-0.0325627,-0.000245032,0.0585245,-0.00605054,-0.011878,-0.0911321,0.0182206,0.00764473,-0.0181481,-0.00273322,0.0516337,-0.0206944,0.0549966,0.0595993,-0.0214926,0.0183973,-0.0502891,0.0563805,0.0259325,-0.00400152,-0.043622,0.0970227,-0.0169976,0.00253162,-0.106138,0.0226116,-0.0168248,-0.056776,-0.0245232,0.0127172,-0.0357411,0.0297088,0.0466976,0.0222814,0.0407226,0.00888858,0.0522585,0.000451662,-0.0275717,-0.140715,-0.0390046,0.11503,0.0266435,0.0391198,0.0453113,0.0348203,-0.025572,-0.0678825,0.101547,-0.0031416,0.00674725,-0.00810517,0.0157842,0.0295665,-0.0718014,0.045337,-0.0600978,-0.0564812
0.00550644,0.124895,0.0630513,0.00642847,0.0271111,0.0464631,0.119969,0.0529495,-0.106615,0.0488154,-0.0154402,0.0128686,-0.0725973,0.0850491,0.0071458,-0.0234119,0.0296722,0.00209541,0.0618027,-0.0974706,0.0287942,0.0681187,0.0518187,0.0604908,0.00997051,0.0949794,0.00143101,0.0852345,-0.0231801,-0.140242,-0.015641,0.0249444,0.108047,0.037017,0.0173357,-0.0533494,-0.00850255,0.0270923,0.062945,-0.0113212,-0.0653141,0.00441982,0.0314026,-0.0390187,-0.0359235,0.00363165,0.0794578,-0.00664751,0.105141,0.060884,-0.0288456,-0.0292193,0.0135735,0.0490071,0.00936941,0.0745637,0.0139802,-0.151001,-0.0655092,-0.0185418
0.0510046,0.103804,0.00376042,-0.0693297,-0.0829993,0.0406671,-0.0818089,-0.0135598,0.0808411,-0.0775225,0.148399,-0.0411631,-0.0129382,0.0548221,0.0134472,0.053496,0.00951029,0.0113734,-0.0219551,-0.00307448,0.00618607,0.182703,0.0812178,0.0641714,0.0659322,-0.060954,-0.02787,0.00940051,0.0304342,0.0481168,0.0397644,-0.00522398,0.0193023,0.0252311,0.00418507,-0.0830502,-0.0649443,-0.0333148,0.00370632,-0.0945855,0.020297,0.0197716,-0.0869882,0.0594864,-0.0479321,-0.0569359,-0.0309548,0.0294158,0.00110937,-0.0976061,0.0263021,0.0427933,0.00823286,-0.0293246,-0.0326432,0.0505207,-0.0330396,-0.0342142,-0.0341596,0.0286803
0.0497115,0.043787,0.0245348,-0.0135571,-0.089254,-0.0200108,0.12053,-0.0303877,-0.0621716,-0.106584,0.0034755,0.0934976,0.00246626,-0.10755,0.000474825,-0.0148702,-0.0257827,0.0207309,-0.0232952,0.0725904,0.122961,-0.0140404,0.0225915,0.0408881,-0.033913,0.0769411,0.0160106,-0.061613,0.0329891,-0.0247413,-0.0299382,0.0243993,0.013798,0.116096,-0.0685332,0.0302566,-0.09268,0.0298035,-0.0581752,0.0479961,0.0248959,-0.0106919,-0.0876533,-0.040964,0.0600745,0.0793737,-0.067465,0.0326625,-0.0053168,-0.0717254,-0.0797631,0.0786451,0.0566188,-0.00565323,-0.0411988,-0.0745082,0.061828,-0.0327746,0.0981121,0.0127626
0.0499749,-0.0652263,-0.0391688,-0.0129911,-0.0375122,0.0622326,0.0199323,0.131952,0.0468672,0.0655442,-0.00611366,-0.0738091,0.0437772,0.0892024,0.0605584,0.104446,0.0604044,-0.0455291,0.0324029,0.038767,-0.0168554,0.0443859,-0.0644969,-0.0378065,0.110181,-0.046145,-0.0269622,0.114455,-0.0298286,0.0536837,-0.0522011,0.0598786,0.0355275,-0.0700296,0.0867524,0.00686272,-0.0197001,0.156523,0.0180585,-0.0604636,0.0101304,0.00904204,0.0640963,-0.00418272,-0.00110704,0.000815292,0.0440569,-0.0187541,0.0485442,-0.0137336,0.0994684,0.125038,0.0206693,-0.0210781,-0.0514388,0.00651007,0.0261859,-0.0155031,-0.0862275,-0.0302451
-0.0393561,0.0149095,-0.057709,0.00732845,0.0696019,-0.0193199,0.0533083,0.0493211,0.0998606,-0.0617661,0.0414677,0.00627631,0.0171932,0.0810485,0.0427943,0.0147994,-0.0573808,-0.00597221,-0.0825457,0.0173511,0.0160591,-0.0235451,-0.0122371,0.0504804,0.0351406,0.00814747,-0.048284,0.045064,-0.0721041,0.0208687,-0.0302324,-0.068692,-0.127365,-0.00583758,-0.0914703,-0.0128015,-0.00483464,-0.0888803,0.0357909,0.107571,-0.04026,0.0791248,-0.00732652,0.0744347,0.0211252,0.0625629,0.045764,0.0635123,0.0212792,-0.0371756,0.0178281,-0.0733713,0.0558086,-0.0668094,0.0388866,-0.0712691,-0.00521238,-0.00829719,0.048806,-0.00659157
0.0182531,-0.0451073,-0.0213076,0.0426467,-0.0285219,0.0405994,-0.0109075,-0.0158748,0.0807126,-0.0760669,-0.0394674,0.0615606,0.0366642,0.0847564,0.117059,0.030063,0.123573,-0.0262094,0.170005,0.0981271,-0.0348343,-0.0670229,0.0147319,0.0976328,0.00677015,-0.0776766,-0.0188977,-0.0187571,0.0301324,0.0499106,0.0153885,0.0989233,-0.044497,0.0978633,-0.0566769,-0.114929,0.070105,-0.0268526,-0.0394169,0.0176475,0.0131023,-0.11562,0.0212978,-0.0443551,-0.00814012,-0.0360701,0.0237439,-0.054002,-0.070879,0.144732,0.083441,0.0902131,0.0509998,-0.102018,0.0103472,0.0776164,-0.0228173,-0.125081,-0.0481172,-0.027883
0.0305444,0.0500674,-0.077592,-0.0854399,0.0276766,0.0160976,0.00613343,0.0636856,0.0524555,-0.0893677,-0.0876387,-0.10569,0.00296754,0.0406531,-0.013972,0.0565425,-0.0711582,0.0371273,0.035569,0.00704314,0.0644388,0.0265682,0.0184158,0.0219848,-0.0171362,0.0572928,-0.000562958,-0.0499305,-0.0314928,0.0363513,0.0158104,0.040557,0.0693616,-0.0409123,0.0456236,0.0688052,0.020782,0.0628388,0.111461,0.00289377,0.0453961,-0.0366295,-0.121197,0.116172,-0.112924,-0.0242838,0.060051,0.0733422,-0.0307603,-0.00804539,-0.0846614,0.127965,-0.00564425,0.0348359,0.113653,0.0497683,0.00320874,0.0701162,0.0611524,-0.0480924
0.0687561,-0.00965758,-0.0387909,0.0416426,0.0687108,-0.018714,0.00339044,0.0558089,-0.0896045,-0.0656955,0.0268788,0.0766941,0.00332952,-0.0223236,-0.0191708,-0.0538144,0.0231035,0.0459033,0.0138488,0.0576673,0.0924898,-0.0314615,-0.0235204,-0.0556849,0.0526231,-0.00040576,0.0521432,0.0395204,-0.0403646,0.0365229,-0.0299851,-0.0661437,-0.022905,0.0329286,-0.0786035,-0.0339508,0.0173728,0.0226935,0.0273702,0.0754582,-0.0278373,-0.117668,0.0284972,-0.0896497,0.000514561,-0.0233515,0.0718049,0.0443539,-0.0289548,0.0854992,-0.0332855,-0.0922469,0.0497873,-0.0450853,0.102181,0.0893994,-0.0357321,0.0408628,0.0599513,0.0560429
0.0583885,-0.0116459,0.0173984,0.0438705,0.0659721,-0.0018815,0.017583,-0.0447562,0.0670773,-0.0720671,0.00229244,0.0196715,0.0205556,-0.0214423,0.0282945,0.00887632,0.0565359,-0.0288406,0.0843965,0.0965891,-0.0848384,0.019727,-0.0132571,0.0593389,0.0123638,0.0218312,-0.00400804,-0.0543231,-0.0247035,0.0501692,0.0365066,-0.0643048,-0.00397179,0.00046768,0.0102128,-0.0604285,0.0850778,-0.0193469,-0.0238463,0.0838509,0.0723958,0.0772241,-0.0565711,-0.0615793,0.0238177,0.0172506,0.0980786,0.0472108,-0.0609217,-0.0445519,-0.0890367,0.0116461,0.00157264,-0.0496595,-0.110649,-0.0397236,0.0889911,0.077789,0.0338398,0.050821
0.0725275,0.0156708,0.0152413,0.0461418,-0.110843,0.0281895,0.0178274,-0.0446282,0.0488526,0.0265988,0.00964607,0.0828078,0.0677724,-0.102739,0.079242,-0.0288788,0.0538057,0.042641,0.00407848,0.0102197,0.0353513,-0.0513704,-0.011666,-0.0522732,0.0837371,-0.00169512,0.101501,0.0182819,0.0182547,0.0631927,-0.0734767,0.0393576,0.00637311,0.0169602,-0.015352,-0.112178,-0.0944112,0.0401899,0.0420088,-0.00116333,0.038344,0.00918836,0.00443187,0.113261,-0.000476744,0.0495359,-0.0493093,-0.0433867,-0.00442323,0.0342172,0.175492,-0.00266231,-0.0613423,0.06131,-0.037972,-0.0695932,0.0171705,0.0137604,0.0376529,0.00790019
0.0141007,-0.0908319,-0.0101927,0.0326058,-0.104712,-0.0663415,0.0777362,-0.0194677,-0.00465227,-0.0629222,0.00872702,0.00727412,0.0463688,-0.0136754,-0.053885,0.0281815,0.0189535,-0.0103368,-0.0838664,0.0147726,0.0392778,-0.0209154,0.0201505,-0.0677146,0.0817241,0.0456634,0.0313914,-0.0875399,0.00855,0.075055,-0.0641865,0.0789435,0.0713103,-0.0253449,-0.0684111,-0.0600244,0.0504351,0.0427505,-0.0058971,0.0728983,-0.00907114,0.170656,0.10733,-0.038396,-0.0131114,-0.00214808,-0.0127009,0.124635,0.119184,-0.0722734,0.0453415,-0.0833009,-0.00472028,0.0254656,0.0312666,-0.0119825,0.0498752,0.0410002,0.0132195,0.0499116
-0.0137715,-0.018034,0.00348531,0.0216875,-0.10615,-0.00716476,-0.00688989,-0.0880654,0.105894,-0.0455396,0.0952849,0.0449121,-0.0216123,-0.0668617,-0.00285058,0.00828281,0.00468726,-0.0756387,-0.0133803,0.0272935,0.0793408,0.000715448,0.00276012,-0.0422054,0.0262398,-0.0509126,0.00904212,-0.00422602,0.0216868,0.0203505,-0.0378946,0.0142047,0.0203766,-0.149323,-0.0670819,-0.0116368,0.0242101,0.0429182,-0.0797529,0.063645,-0.00427153,-0.0473714,-0.0540776,0.00827202,0.00776088,-0.0279235,0.0423944,0.0196758,-0.0273581,0.0116348,0.0166788,0.0205644,-0.0102905,-0.0130951,-0.0089513,0.0193631,-0.0916233,-0.0675671,0.074222,0.0751596
-0.0178433,0.0374359,0.0184556,-0.0820906,0.0956823,0.0388885,-0.0159231,-0.0455901,0.0240276,-0.0301343,-0.111619,0.08847,0.0796512,0.0621482,0.116227,0.015715,0.00921953,0.0274909,-0.0351971,-0.0585533,0.0530229,0.0116774,0.060653,0.0315806,-0.0303732,-0.0452796,-0.0653739,-0.081974,-0.0291521,-0.0576824,0.142388,0.00599601,0.0995347,0.0652538,0.0617808,0.0335012,-0.110329,0.0517453,0.0564911,-0.0410964,-0.0612438,0.0948008,0.0319992,0.0201923,0.0809529,-0.106393,-0.00195171,-0.0544837,0.0957536,0.0571836,0.111344,0.131459,-0.07856,-0.095902,-0.0427883,0.0469239,0.0330171,0.0630884,-0.101747,-0.048845
-0.0239534,0.00123066,0.0312449,0.0856789,0.0143733,-0.0638134,0.0632392,-0.0314898,0.0139946,0.0436529,-0.0306835,-0.0558495,-0.0321863,-0.0623862,0.0332088,0.0727153,0.0331712,-0.0765684,-0.100174,-0.0444285,0.0338316,0.0407674,-0.0755133,0.0287338,0.0533886,0.0388338,0.0484004,0.0368267,0.0841749,-0.0923259,0.087977,0.0142972,0.0590191,-0.0382204,-0.0374106,0.0368691,0.00511812,-0.0557197,0.0193865,0.0700492,-0.00253212,-0.0242487,-0.0441741,0.0150372,-0.00483712,-0.0652746,-0.0183094,-0.0620915,-0.000364338,-0.0952557,0.0792416,-0.121791,0.0431608,0.0156517,-0.0561085,-0.026694,0.00127668,0.118261,0.00457899,0.00154569
-0.0372989,0.0756988,0.0961076,0.0142173,0.00495389,0.0199098,-0.00942115,0.00995747,-0.0100723,-0.0364296,-0.0275798,0.021741,-0.0297741,0.0581033,0.0246522,0.0247232,-0.0492941,0.118791,0.0617082,0.104765,0.162456,0.052356,0.0144143,0.0312024,0.0303032,0.0912585,0.0652771,-0.0618646,-0.0753191,0.04367,-0.0270361,0.0310162,0.0649506,-0.0803951,0.04243,-0.0227193,0.016485,0.0354555,-0.011024,-0.0114889,-0.0506823,-0.0201464,0.0707223,0.0445493,0.0276394,0.032734,0.00319017,-0.0173225,0.0312106,0.0213984,-0.0631091,-0.0441643,-0.0262102,0.0539304,0.079003,-0.0187493,0.0316929,-0.0633298,0.174161,0.0328233
-6.10464e-05,-0.0448085,0.0556247,-0.014023,0.0871721,0.046512,0.117788,0.0228413,0.104091,-0.0876614,0.0486199,0.0893587,-0.100015,0.0195737,-0.0472061,0.00703485,0.00528685,-0.0841385,0.00514474,0.0131447,0.103217,-0.0331157,0.057481,-0.0839826,-0.0661781,0.00735752,0.0450682,-0.0024489,0.0235422,-0.011136,-0.0180862,0.023752,0.0369514,-0.00095511,-0.00133633,0.118363,-0.00433037,0.0560302,0.0749747,0.0086387,0.096403,-0.0899064,-0.0233838,-0.053509,-0.0680188,-0.0842454,0.0436451,-0.130671,0.0370324,-0.0225412,-0.0425521,-0.0773418,0.0113492,0.0326013,-0.0294956,-0.0298589,0.0550243,-0.0154104,-0.00264687,-0.0242016
0.0304479,0.0842604,-0.0835797,0.0190413,0.0131336,0.000831441,-0.062588,-0.048229,-0.0180736,-0.0670061,-0.0366169,0.0298048,-0.0230747,0.0246093,0.00806339,0.0923316,-0.0603952,-0.0656098,-0.0156997,-0.0128565,0.0555259,-0.0119615,-0.014837,-0.0123369,0.0155193,-0.00204533,0.0106649,0.0780948,0.0262338,0.0849191,-0.0237918,0.102284,0.163453,0.0165759,0.115671,-0.0448628,0.0703671,-0.142772,-0.058539,0.0425853,0.0473628,0.0206191,-0.0304806,-0.0263824,-0.0385552,0.0301789,0.00614522,0.0526374,0.0716578,0.0290298,0.0973049,-0.0266729,0.0526185,0.00633698,0.0277522,0.0153913,-0.0783198,0.168124,-0.0696794,0.0907815
0.0120196,-0.0107192,-0.00104473,-0.00728581,0.0650174,-0.00833906,0.0117007,-0.0167735,0.0722073,0.0424326,0.0385773,-0.0758838,-0.0471355,-0.00725532,0.000913153,-0.0136072,0.0116467,0.0274871,-0.0816774,0.0166288,0.103762,-0.0642157,0.0692439,0.0070722,0.0501547,0.0491597,-0.108874,0.120546,0.00443944,-0.0618692,0.0324885,-0.0347194,0.0747355,0.0334951,0.10842,-0.0466939,-0.159556,0.0522844,0.0701529,0.0507324,-0.0131739,-0.0567556,-0.0218995,0.0450402,0.012058,-0.00833212,0.0317127,0.0743451,-0.00130412,0.0741451,-0.100941,-0.0174364,0.0208553,-0.0111923,-0.00933769,-0.0659748,-0.090586,0.0391014,-0.098612,0.0674209
0.0453475,0.00593372,-0.0204586,-0.0106501,-0.0520228,0.00991037,0.0510184,-0.0184572,0.0408445,0.0868769,-0.0026894,-0.000128717,0.0630837,-0.0511171,-0.0782866,-0.0173351,-0.0674148,-0.0125321,-0.0349634,-0.0265941,0.0139412,-0.0693653,-0.082273,-0.0641573,0.00676858,0.00392733,-0.0108447,0.0416559,-0.0854239,0.0332015,0.112576,0.133759,0.0499131,-0.055616,0.10384,0.0153135,0.0188351,0.0372746,-0.10365,0.0563989,0.039758,0.0956259,0.0226603,-0.0347745,-0.00610837,-0.0827009,-0.137141,0.00108457,0.0297256,-0.0855281,0.132682,-0.0768599,-0.0376435,-0.0315192,0.046364,-0.040486,0.0688939,-0.0365066,-0.109298,0.0441873
-0.00868035,0.0176013,0.0112853,-0.0411885,0.000698628,0.119302,0.0428348,0.0169864,0.0604985,0.00900747,0.0922936,0.0903625,-0.0297213,-0.0752805,-0.102298,-0.0471393,0.0200677,-0.0353438,-0.108901,0.127484,-0.0252623,-0.00890934,0.0673852,0.077359,0.0392379,0.0205655,-0.00540693,-0.00837372,-0.0350733,-0.0473196,-0.0235454,0.00531399,0.0115183,0.114137,-0.0140005,0.0645998,-0.0353715,-0.0896372,-0.0641749,-0.00606384,0.0679035,0.0174424,0.13908,-0.0497997,-0.00686711,0.0616105,0.00633524,0.0760107,0.0376592,-0.0378562,-0.0489834,0.0456572,0.0263291,-0.0199989,-0.0320031,0.0715334,0.121163,0.0338956,-0.047894,0.0594785
-0.0812156,-0.0501006,0.0326318,-0.077884,-0.0365145,-0.0686909,0.157259,-0.0481243,-0.0718331,0.0603002,0.0610529,0.0152008,-0.0228847,0.0737256,0.0486914,-0.0135222,0.0477766,-0.0215625,-0.0136516,0.0563949,0.0420149,-0.0265665,-0.0943434,0.00493126,-0.0108212,0.00565318,0.033462,0.00443932,-0.0560127,0.0078609,0.0576139,0.0117414,-0.118481,-0.0374983,-0.0263631,0.0974713,-0.0741155,0.00010537,-0.0516557,0.0327314,0.158587,0.0944508,0.12624,-0.00918775,-0.0694297,-0.0413145,-0.0118421,0.0652131,-0.0226153,0.0864059,0.00487137,-0.0760389,0.00372636,0.0543533,0.0270553,-0.112591,0.00670166,0.0825476,0.0756966,-0.0237559
0.026,-0.0298602,-0.0588555,0.0562731,0.0206784,0.0285848,0.0711097,0.0598511,-0.0497474,0.0119121,0.00400979,0.0213231,0.0114688,-0.00178289,0.0457325,0.152442,0.0103738,-0.00769249,-0.00212246,-0.033177,-0.0344434,-0.0355676,0.0375932,-0.0466517,-0.00727108,0.0288639,0.0634613,-0.00627179,-0.109393,-0.0249374,-0.105036,0.0230362,0.0267511,-0.0377598,0.119112,0.0183114,0.0267292,-0.0321721,0.0112269,-0.0152737,0.0336976,0.0604751,0.0196029,-0.0758172,-0.0833371,-0.0513502,-0.172854,0.0170142,-0.0979983,0.0463964,-0.0863436,0.0560915,-0.0530079,0.0478852,-0.0515367,0.0308146,-0.013535,-0.000568131,-0.00661103,0.050896
0.0352569,-0.061013,0.00777754,-0.0318748,0.00895112,0.142817,-0.0534792,-0.119386,0.0392045,-0.0124802,0.0624766,-0.0260639,-0.00796734,-0.0673515,-0.0568078,-0.0114871,0.151021,-0.023195,0.0317615,-0.0181115,-0.0329762,0.0955661,-0.00701643,0.0722148,0.0526967,-0.0242849,-0.0747007,-0.0500848,0.00690221,-0.0712684,0.0448928,0.0703308,-0.0985901,-0.0613861,0.0416229,-0.00636909,-0.0553761,-0.0839858,-0.132498,0.00717444,0.0768338,0.0235531,-0.0463026,-0.0283758,0.0293786,-0.0227598,-0.0145742,0.0351288,0.0140686,-0.0255958,0.0500581,-0.049717,0.0239654,-0.00998759,0.0634365,0.0810416,0.0925799,-0.0505109,0.0165394,-0.0537988
0.048721,-0.0101583,-0.0159744,-0.088086,0.0219727,-0.0775419,-0.078646,-0.0284697,-0.0454335,-0.0341617,-0.0311454,-0.0173259,-0.0370163,0.0225628,-0.0583274,0.0343497,-0.0265732,0.0548117,-0.0178687,0.0673115,0.00315671,-0.00455029,0.0909691,0.00586623,-0.0142961,-0.0545633,0.0352384,0.0157006,0.0792092,0.0512995,0.0547312,0.0188606,0.00652899,0.0535187,-0.00692288,0.0408705,0.0167021,0.103794,-0.115355,0.0128376,-0.0453022,-0.0310244,0.146598,0.0659351,-0.0918983,-0.0293589,-0.0453073,0.0461168,0.0173837,0.0608029,-0.099568,-0.0132858,-0.00444534,0.0717798,-0.0566106,-0.0216389,0.00791172,0.00144,0.0124636,0.0480061
0.00390123,-0.0818091,0.0406466,-0.0169935,0.156549,0.0339132,0.00271774,0.041027,-0.0286376,-0.000750714,-0.0277584,0.00387763,-0.0172531,0.0517261,-0.0957205,0.130981,-0.0404269,0.12661,-0.0364169,0.0826611,-0.12763,0.0530309,-0.0163831,-0.0200379,-0.0235843,0.0228337,-0.0339186,0.107439,-0.0053844,0.0120903,-0.127341,-0.067502,0.037957,-0.00118384,0.0208797,0.0196065,0.0883596,0.00925031,0.0151742,-0.0164647,0.0559086,0.108927,-0.00170763,0.110512,-0.0561769,0.128166,-0.0529727,0.0268354,0.0133225,0.0142666,-0.0432546,-0.0252961,-0.0462772,0.0324157,-0.0654036,-0.062624,0.0321289,-0.0600978,0.0635137,-0.0101321
0.0161408,-0.0771489,-0.0462746,0.0995362,-0.053609,0.00371972,0.00713344,0.0252655,-0.00426434,0.00560524,-0.0185548,-0.0764338,-0.101378,-0.0178985,-0.0109449,0.0480375,0.0254357,-0.00671096,0.0691075,-0.00808569,0.0643964,0.0325179,0.0262428,-0.0338932,0.0798052,0.0378867,0.113485,0.121869,0.0105379,0.0601477,0.0280384,-0.0217986,-0.0457037,0.0150585,-0.150929,0.046001,-0.0398159,-0.00797278,0.0395494,-0.0514091,-0.0759805,0.0522595,0.0669347,0.0424593,0.0715123,-0.0540218,-0.0364045,-0.0270338,0.00897538,0.0613021,-0.0512426,-0.0190868,0.112243,0.0679617,0.0959148,-0.0244825,0.134221,0.0307048,0.0711459,0.0212081
0.0469471,-0.0555858,0.0520438,0.0372739,-0.0763198,0.016562,-0.0317913,0.0346349,0.119029,-0.0150832,-0.0228834,0.0345251,0.0406689,0.0764133,-0.0173182,-0.0594871,-0.0155289,0.0633976,-0.0482752,0.0632702,0.0306468,-0.0154174,0.0582067,0.0750045,-0.107655,0.0634706,-0.0799235,0.0604213,0.049972,-0.0301572,-0.0637239,0.0285121,-0.0822396,-0.038565,0.0336124,-0.041106,-0.0970166,-0.0996192,0.00709894,0.0628635,-0.0694742,-0.0388778,-0.0153203,-0.0617632,-0.0452678,-0.0676215,0.012768,0.0117029,-0.130801,-0.0753881,0.0481803,0.0107298,0.105598,0.0684345,0.00478382,-0.0414962,-0.0583594,0.0645406,0.0715818,0.073512

max: 1
min: -0.172854
avg: 0.00742859
