-0.0837766,0.0350648,0.109779,0.0546939,0.00476786,0.0179767,-0.0796667,-0.01037,0.10643,0.000191531,0.0245471,-0.0291779,0.00536213,-0.00933239,0.0353426,0.0403571,-0.00289376,0.0407317,-0.0461752,-0.0232932,-0.066214,-0.0464113,-0.080962,-0.0145456,-0.0139832,0.0637102,-0.023538,0.0980675,0.0502924,-0.0539852,-0.0278455,-0.0627226,0.0236585,0.0151021,-0.00508543,0.0173564,-0.0313107,-0.0659613,0.0371441,-0.030603,0.0386524,0.034349,-0.00976216,0.0110627,0.0140234,0.0309411,0.00085466,-0.0465177,0.0347657,0.111686,0.0417153,0.0771642,-0.0161262,0.0157934,-0.0335993,0.0368648,0.0128804,0.0718792,0.0331959,0.0452943
-0.0313073,0.0611899,0.0992843,-0.0346291,-0.091802,-0.0545787,-0.0943104,0.0749216,0.0264053,0.0370155,0.0602764,0.085043,0.0128789,-0.0595328,0.00714419,-0.0403535,-0.0565764,-0.0644805,0.00334613,-0.0467703,-0.100917,0.109319,-0.0419897,-0.0378158,0.0318652,-0.0193367,0.0869969,0.0151006,0.0550897,0.0972773,-0.00380102,0.0448116,0.016421,0.0534229,0.0816533,-0.0758066,0.0929866,0.0561756,-0.0397681,0.0148618,-0.0414756,0.0140664,-0.011868,0.0548846,0.0243452,-0.0682153,-0.0179832,-0.109993,-0.0288534,-0.0425958,0.0729886,0.0788164,0.0926395,0.0956806,-0.0254885,-0.0684487,0.0508178,-0.0301201,0.0955887,-0.026399
0.123585,0.00800253,-0.0434803,0.0919643,0.0368232,0.0578133,0.0138944,0.0147736,0.0200905,-0.0667477,-0.143874,0.0049407,-0.0106112,-0.0250726,0.0446868,0.0658677,0.0208917,0.0464321,-0.121986,0.0314619,0.0375851,-0.0235895,0.0331163,-0.0758446,-0.00211328,0.0390127,-0.0173418,0.0997972,0.00961822,0.161971,0.0456226,0.106488,-0.0157564,0.0380701,0.00507748,-0.00473708,-0.0591201,0.00587185,-0.0729026,-0.0879443,0.0560375,-0.0390167,0.0706877,0.112478,-0.0453298,8.39764e-05,0.0632132,0.0351745,-0.0419787,0.108699,0.0896402,0.0161805,0.0120526,0.041112,0.0263986,0.00113677,-0.00944748,-0.0384342,-0.0106842,0.0237994
0.0798188,-0.000459683,0.0964031,0.0148455,-0.0361402,-0.0414275,-0.00801095,0.0261765,0.0371436,-0.060802,0.0462051,-0.0328613,0.0218495,0.129392,-0.00655125,0.0348189,-0.0109003,0.0295074,0.0936956,0.012901,0.0425163,0.0252684,0.0278746,0.013268,-0.0133659,0.0508238,-0.0145797,0.0240701,-0.0438476,-0.0938501,0.0324125,-0.075054,0.0157876,0.0184257,0.0342676,0.0181512,-0.0616085,-0.0161575,-0.0886738,0.00569927,-0.0325307,0.041969,-0.0184842,0.0209984,-0.032439,-0.0695587,0.0947466,-0.0310521,-0.0533643,-0.0477567,-0.0666441,-0.0267243,0.0711715,-0.0457282,0.124785,0.0340191,-0.0209796,-0.117835,-0.112451,-0.0353337
0.0625994,-0.0138604,-0.0258996,0.141692,-0.06672,-0.0454432,-0.00412334,0.0293603,0.0724966,-0.00774581,-0.0835981,-0.0769497,-0.0309344,0.0612027,0.0353423,0.0263125,0.0556587,0.0972899,0.0287454,0.060309,-0.0730173,-0.0734142,-0.00437659,0.00143036,-0.10527,0.104288,0.0204399,0.0514952,0.0871161,0.00274505,0.0804483,0.145408,0.0528298,-0.0995514,-0.00972209,-0.0325072,-0.104656,0.0215782,0.0852696,0.0846575,0.00999853,-0.0834751,0.0330865,-0.0460198,0.103532,-0.0410669,-0.114607,0.0344757,-0.0408822,-0.0404438,0.0049267,0.0578521,0.00642706,0.081214,0.0487688,0.0291546,-0.0535527,0.0681992,-0.0515358,0.0703508
-0.0890745,0.0881944,0.0306722,0.0398339,0.039983,0.0906888,0.0138559,-0.00408392,0.0869382,-0.0295283,0.0100281,-0.0063445,0.0641853,-0.0310243,-0.0163864,0.0856657,0.0348484,0.0852402,-0.0649033,-0.0100957,-0.0644427,0.0899079,0.0706237,-0.0459154,-0.0616377,0.0178155,-0.00186135,-0.11658,0.145712,0.0382242,0.0717757,0.0871442,0.104178,0.120445,0.0233308,0.0671335,0.0712023,0.0542511,0.0984727,0.0217915,-0.0707236,0.080808,0.0219799,-0.0455612,-0.0423465,0.0213031,-0.0777916,-0.0579754,0.0372345,-0.0155153,-0.0703973,0.0432077,-0.0174831,-0.0215295,0.0107887,0.0420825,0.0402559,0.06151,0.0137157,-0.00803125
0.00693808,-0.0521386,0.0844601,0.107946,0.0651005,-0.0139806,-0.0330642,0.0571496,0.0190677,0.00543155,0.030037,0.0113193,-0.0214837,-0.0181993,-0.0618675,0.0380228,0.099761,0.0353199,0.0433383,-0.0926317,-0.010475,0.00775889,-0.0371919,-0.0761122,0.0234637,-0.120519,0.0695114,0.047882,-0.0443788,0.108841,0.00944657,0.0359931,-0.0679551,-0.015025,-0.0371334,-0.0447867,-0.0852043,0.037897,-0.027485,-0.0414148,-0.0731982,-0.0983206,-0.0154344,0.0361034,-0.0116397,0.0214091,-0.0685232,0.0558224,0.041967,0.0486568,0.0565714,-0.0975538,-0.0471573,0.0813196,0.070747,0.0142617,0.0636583,0.028679,0.0416173,0.0234755
-0.02976,0.0622305,0.087847,-1.4508e-05,-0.0508259,-0.0353325,0.0501083,0.0600934,0.0197291,-0.0137707,0.0434215,0.0564785,0.0191997,-0.0293704,-0.0689147,0.0809694,0.0863153,0.0414229,0.0387982,0.04852,-0.0464728,0.0231435,0.0944969,-0.0492361,-0.045021,-0.068903,-0.078832,-0.00455956,-0.0641742,0.0179084,0.0369635,0.100911,0.0879771,-0.0165316,-0.0847285,0.0030933,-0.0235639,0.0587398,0.0233471,-0.042412,-0.0600048,-0.00389854,0.110955,0.0497375,-0.0130442,-0.00661557,-0.0432009,0.0344508,-0.0398452,-0.0924007,0.019211,-0.0410525,-0.109133,-0.0191501,0.12512,0.0586557,0.165854,-0.014523,0.00650542,0.00466181
-0.00145141,-0.122529,0.0297035,-0.0573694,-0.0206471,0.041692,0.0325331,0.0479032,-0.110565,0.0397863,0.0716453,-0.0776443,0.0313395,-0.020823,-0.0488987,0.0597037,-0.0958892,0.0755851,0.0349464,-0.0183237,-0.0644686,0.0950174,0.0411017,0.0741902,0.0491294,-0.0412375,0.0385452,0.00628034,0.035501,-0.0870863,0.0378163,0.00712976,0.022686,-0.0869588,0.102632,0.0304736,0.0443148,-0.00516648,-0.00973996,-0.00194763,-0.0169126,0.0126925,-0.00263698,-0.0165602,0.00345612,0.0357427,0.154466,0.0833305,-0.0409461,0.0304435,-0.034504,0.0499257,0.0809077,0.00635078,0.130211,-0.0046829,-0.0188322,-0.0182388,-0.042136,0.0574978
-0.0380836,0.0661572,0.0530637,0.0465443,-0.046692,0.0629755,-0.0222549,-0.0528697,-0.0559137,0.02502,0.0914955,-0.0123501,-0.0937208,0.0413476,-0.107835,0.0710491,-0.0596167,-0.0461244,-0.0330204,-0.0598324,0.075664,-0.0345538,-0.0861379,0.0854472,-0.0437429,0.048881,0.00294417,0.0459656,0.0793183,0.0694606,0.0442113,-0.0118381,0.0294866,-0.0309261,-0.0502821,0.0753383,0.0682622,0.0406733,0.0298628,-0.00937586,0.0174336,-0.147468,0.0897074,-0.0314439,0.0554267,-0.00316573,0.0135156,-0.00898433,-0.00747736,0.073076,0.0127832,0.00315288,-0.0334363,-0.107869,0.0529914,0.02315,0.0712358,0.119485,0.0458049,0.0242242
0.000340702,0.00170946,-0.0574911,0.0189047,0.102305,0.138769,0.0727254,-0.0362417,0.00460021,0.0251031,0.0219475,-0.0245838,0.0440628,-0.108154,0.00363772,0.0106213,-0.0201937,0.019857,-0.046067,-0.0815878,-0.0122886,0.0560474,-0.0337486,-0.07235,-0.110822,0.0397351,0.0139722,0.0405519,0.0928419,-0.0765352,-0.00802844,0.0538591,0.0767619,0.13254,0.0118608,-0.0243191,-0.0298258,0.0688421,0.0226726,0.00963608,-0.0267852,0.0662021,-0.00560361,-0.0998152,-0.0907577,-0.0771321,0.00858154,-0.0970254,0.0343648,-0.0800251,0.0427868,-0.0330303,0.0314723,0.124473,-0.0342049,0.0361565,-0.0212943,-0.0267757,0.0193076,0.0266576
-0.112245,-0.0292658,-0.0230099,0.0289023,0.0380476,0.0154639,0.00927119,0.00471194,0.0437177,0.0201687,-0.0358091,0.0664035,0.033598,-0.012117,0.0112112,-0.0143183,0.0648166,-0.0386535,-0.070116,-0.0671996,-0.0168445,-0.0721295,-0.0470165,0.110054,-0.104957,-0.00697273,0.0328652,-0.0145024,-0.0362778,0.0802359,-0.0869098,0.0176437,-0.12136,0.0225912,-0.0916523,-0.00876801,0.0165723,0.0493306,-0.0274305,0.128518,-0.0292468,0.0500564,-0.0678892,0.0210373,-0.107873,0.0252182,-0.0643165,-0.0171486,-0.0141806,-0.0676742,0.0218261,-0.0397967,-0.0209448,-0.0373105,-0.013296,0.019424,0.0741355,-0.0034711,0.0346703,0.121016
-0.0641641,-0.0736524,0.0307216,0.0395963,0.0145176,-0.00108577,0.0487167,-0.0298464,0.0538867,-0.0128632,-0.0872883,0.0816985,0.0390031,-0.0275223,-0.105401,-0.0804686,0.105524,0.10517,0.04204,0.0542275,-0.00706594,0.0633884,-0.0130994,-0.0417525,-0.00121505,0.0116722,-0.099951,0.0687782,0.0204787,-0.0797476,-0.00178097,-0.0582987,0.0583258,0.0111652,-0.0286886,-0.0758229,0.017421,0.0401874,-0.00605845,-0.130269,-0.0377046,0.0228281,0.0756759,0.0392002,-0.0353552,-0.00139419,0.00463858,0.0462379,0.0257214,-0.102752,0.0430131,0.0780825,-0.0534326,0.100552,0.0966527,-0.0349193,-0.119505,0.0352464,-0.0231447,-0.00905658
0.0525796,-0.11448,0.0478622,0.0358273,0.0280726,0.00396936,0.00466638,0.0793347,-0.00943339,-0.0294957,-0.0207488,-0.09293,0.0202657,-0.0171032,-0.110423,-0.0369976,-0.112415,-0.00556098,-0.0711922,-0.036145,0.0237527,0.0828607,-0.0467618,0.00411903,0.029239,-0.0195657,0.07315,0.0105917,0.0298715,0.0673154,-0.00500962,0.103558,0.0836968,-0.0691592,-0.00215563,-0.0135443,-0.0368986,0.057909,-0.0140106,0.0388309,-0.075279,0.0640433,0.0698246,-0.0173423,-0.0829039,0.0683414,-0.0457153,-0.0852197,0.0363259,-0.049433,-0.0372574,0.00490022,-0.0580011,0.100786,0.0394502,-0.0240402,-0.00739088,0.107328,0.00483193,-0.106161
0.0643962,-0.00252378,-0.05229,-0.0188077,-0.0603834,0.0730239,-0.0356743,-0.0340814,0.0634928,-0.0868518,0.0399107,-0.109224,-0.0576176,-0.00818224,0.121235,0.00285081,0.0453391,-0.0851818,0.025386,-0.104658,0.0623753,-0.0498544,0.0269849,0.0193597,0.0180001,0.0713421,0.0425362,0.0323557,-0.00518417,0.0388266,0.10915,-0.0629847,-0.116316,-0.0862808,0.0346953,-0.154512,-0.035488,-0.178801,0.013036,-0.0567881,0.018992,-0.00150654,0.0695273,0.0140645,0.0911942,0.0491041,0.0610591,0.0569632,-0.0409196,0.0373807,0.140651,0.0768579,0.0605986,0.0103204,0.0113018,0.0145919,0.00918194,0.013312,0.0243484,-0.0207631
0.0761158,0.0513499,-0.0798088,0.00182508,-0.0471213,0.0360125,0.0977022,0.0142108,-0.0417737,-0.0333206,0.0359671,-0.0685818,0.0128157,0.082269,-0.064698,0.00273486,0.0779858,0.00447453,-0.15219,0.0132284,-0.0625931,-0.0699939,0.0101409,0.0984432,0.0235136,0.113258,-0.09537,0.00513955,-0.0293788,0.0475759,-0.0663356,0.0614174,-0.00650945,0.134271,0.0273409,0.00178038,0.0126813,0.0991894,-0.00850503,0.0319519,-0.0176318,0.121026,0.0400262,0.0414847,0.0405626,0.0768658,0.068067,-0.00117927,-0.0617201,-0.054797,0.0220292,-0.00348496,0.0475231,-0.0717605,0.0463534,0.0575886,-0.0589391,0.0782856,-0.0290923,0.0218512
0.0480671,-0.0540983,-0.0160146,-0.0254856,-0.0452945,0.0672236,0.0155414,0.0588856,-0.0599811,-0.0485133,0.0999608,-0.0108846,0.0325783,0.0102074,0.010615,-0.0911433,-0.0429818,0.106697,0.0155463,-0.044148,-0.064171,0.0168066,-0.00500495,0.0181296,0.00989196,-0.074139,0.0376079,-0.00970352,0.0413951,-0.128248,-0.0565985,0.0136809,-0.00863992,-0.0485691,-0.032938,0.00343605,-0.0921498,0.0122358,-0.0415468,0.0318148,-0.0321906,-0.0860844,0.0794689,0.0796622,-0.0236245,-0.0458585,0.00976833,0.00459695,-0.0290223,-0.0615284,0.0670255,-0.0256165,0.0595523,-0.00773726,-0.119453,-0.0728471,0.0538832,-0.0753441,0.164095,-0.0193557
0.0156631,0.0219184,-0.0491665,-0.0687115,-0.0920747,-0.00872119,0.05702,-0.0101313,-0.0269978,0.0317453,0.0347162,-0.0543526,-0.0257842,-0.0278537,0.0355136,-0.00413279,0.0631804,-0.0508892,0.0159503,0.0144191,0.0524549,0.00798244,0.057186,0.13007,0.0227412,-0.0353323,-0.0153998,-0.100918,-0.0111647,-0.135954,0.00867492,-0.00243369,-0.0189066,0.0436343,0.078946,-0.0121158,0.0993482,0.0752016,-0.0323345,-0.00301547,0.0306587,0.0021112,-0.0102576,-0.0169397,-0.0297833,-0.0332663,0.038534,0.0736203,-0.00349898,-0.0903177,-0.0821114,-0.0565721,0.00167204,-0.0755226,-0.0397574,-0.00787017,0.049331,0.0688098,-0.00667349,0.0928616
-0.0421066,-0.0547435,0.0414618,0.0856303,0.118012,0.0155478,0.00883212,-0.0386381,-0.0313375,0.0780859,0.0172375,-0.0628151,0.0321384,-0.00782057,-0.0608556,0.0581909,0.00501876,-0.0345027,-0.0536512,-0.0380161,-0.00219257,0.088212,0.0822289,-0.00242008,-0.0155294,0.0239786,0.0629115,-0.099103,-0.00386262,0.0336826,-0.119728,-0.0656935,0.0014957,-0.0606195,0.0780921,-0.0147655,-0.0543141,-0.0156015,-0.0640575,0.163263,-0.0327515,0.0297016,0.0449428,0.0471396,-0.0779668,0.0487998,-0.0366767,-0.000706632,-0.00119592,0.0692733,-0.0612817,0.00605442,0.0500965,-0.0294285,0.0355898,0.0268771,-0.0400844,0.0658412,0.0771923,-0.0213532
0.0960689,0.0222513,0.0295864,0.133497,0.0803089,0.0445852,-0.0641426,0.0254283,0.0688262,-0.116341,0.0499323,0.0843277,-0.0387777,0.118515,0.181902,0.0583914,-0.0449562,-0.0821157,-0.00314923,0.00799129,0.182226,0.0551072,0.0620018,0.0215254,0.0884106,0.055697,0.0768201,0.10921,-0.0244154,0.00310116,0.0718544,0.032121,0.0525938,-0.021116,0.0156625,-0.0432197,0.0344859,-0.00112702,0.032764,-0.00601114,-0.0420258,0.0433108,0.0100885,0.0879445,-0.044635,-0.0411155,-0.0896875,-0.0482563,0.0109601,0.0639717,0.00186594,0.00253205,0.128685,0.0440639,0.0655999,-0.101091,0.0702173,-0.0714906,0.0436223,-0.0865365
0.138883,-0.0458817,-0.00960605,-0.0256746,0.0639293,-0.0521248,0.0334938,-0.0412924,-0.140988,0.0825732,0.110357,-0.0301663,-0.0826334,0.0337163,0.0589895,-0.0147897,-0.0145485,0.0015612,0.0554549,0.0443425,-0.0719056,0.00348858,-0.0261398,0.0089611,-0.0746024,0.103428,0.0381302,-0.0236494,0.0569651,0.00748337,0.106729,-0.0609875,0.0213897,0.0502485,0.0146719,0.0982018,-0.0167295,-0.0262094,-0.039702,0.0521417,-0.0947865,-0.0265225,0.0712616,0.00787384,0.00935299,-0.048297,-0.0442665,0.108004,-0.074958,0.0596649,0.0994016,-0.0758478,-0.0547039,-0.064209,0.0291888,0.0340216,0.00888457,-0.0139924,0.00971208,-0.110757
0.0216802,0.0491523,0.0443826,-0.0194229,-0.0689926,0.027382,-0.00215339,0.0694576,-0.0440214,0.12006,-0.013742,0.0128178,0.00750451,-0.0633773,0.0604758,0.0876955,0.0794671,0.0292385,0.0253511,-0.0940238,0.0634502,0.0906485,0.0311143,0.0657833,-0.0195779,0.0246411,0.0107381,0.109598,0.027204,0.0709693,0.000839912,-0.00853478,0.0393738,0.0926375,0.00870674,-0.0372963,-0.0403772,0.0791331,0.0191703,-0.0673469,0.0280042,-0.0421729,0.0415934,0.0299432,0.137135,0.0929794,0.0547499,0.0693909,0.0316794,-0.0547561,-0.0624105,0.0128263,0.0369225,-0.0120184,-0.0553921,-0.0193673,0.0456071,-0.0282568,-0.0831802,-0.0595788
-0.015203,0.00204923,0.0966539,0.0106707,0.0704078,-0.0241332,0.0563938,0.0262975,-0.0433356,-0.0402012,0.105835,0.0284946,0.030375,0.0853678,-0.00556108,0.0504065,0.0331166,0.00605318,0.0460236,0.000797178,-0.039411,-0.0178481,0.114118,0.0756702,-0.0490583,0.0217738,0.0336215,0.0268294,0.181091,-0.0123867,-0.0507618,0.0207049,0.00969581,-0.00816259,-0.133164,0.00714833,0.0471625,0.0652936,-0.035567,-0.0264433,0.0414283,0.00883592,-0.0128126,-0.019068,0.0885514,-0.010671,0.0274178,0.0276664,0.0502084,-0.0133442,-0.1034,-0.0937575,0.0274383,0.00418936,-0.0296622,0.0133469,0.0203099,-0.0403974,0.0164806,0.00712051
0.104675,-0.0643253,0.0587602,-0.0804307,0.0751929,-0.0267252,-0.0670239,-0.049529,-0.0426287,0.028584,0.020267,0.0278944,-0.0409929,-0.0276238,0.0187458,-0.0415527,0.0137908,0.0274484,0.117813,-0.0605671,-0.0349944,0.00702493,-0.05979,0.0362366,-0.0218054,0.00361854,-0.0543903,0.0208584,-0.0304828,0.0342736,0.0675386,-0.100671,-0.0297961,-0.104082,0.043849,-0.0486564,-0.0151633,-0.00180575,-0.0373497,0.0112562,-0.0765622,0.00995527,0.127014,-0.0292376,-0.0816168,-0.0335133,-0.0582842,0.067362,0.0501228,-0.130091,0.0111497,0.0915407,-0.0781715,-0.0485218,-0.0284716,-0.0180631,0.0514451,0.00899259,0.0302,-0.0175386
0.000670019,-0.00989013,-0.0456688,-0.0135099,0.0284455,0.00424535,-0.0259992,-0.0333393,0.0160114,-0.0540086,0.0622865,-0.0635437,-0.0282791,-0.0310865,0.00390218,-0.0389413,-0.0463883,0.0412697,0.0831856,0.0289394,-0.0608559,0.0512523,-0.0690167,0.113005,-0.0265255,0.111869,0.0159397,-0.0351043,0.0305016,-0.0105068,-0.121662,0.0047396,-0.0185449,-0.025376,-0.0121426,0.0593142,0.075167,-0.0479789,-0.0978447,0.0410129,0.0824033,0.0161315,0.00507603,-0.0706225,0.00789258,0.0138777,0.103533,0.0438747,-0.00584853,-0.0268436,-0.130702,0.0823118,0.0413069,0.0502752,-0.0521508,0.0832555,0.0258354,-0.0275505,-0.0337188,0.0875765
0.0183381,-0.069915,-0.00108091,0.0226295,-0.0118998,0.0489206,-0.0184086,-0.049103,-0.00400135,-0.102866,0.0510019,0.0204394,0.0504975,-0.010876,-0.0371587,-0.10644,0.0165408,0.0269863,0.0440196,-0.00259363,0.0277684,0.0578532,0.00446377,-0.0551708,-0.0240418,-0.0116565,0.0128891,0.0154975,-0.049753,-0.0207778,0.0833137,0.0199663,0.115259,-0.0872228,-0.0393686,0.0554006,-0.0330011,0.0104819,0.163755,0.0373679,0.00870237,0.0325718,0.0306711,0.0152827,0.0698245,0.0145335,0.0206354,0.058372,-0.0521942,-0.0533556,0.06517,-0.0730205,0.0239223,-0.0978022,-0.0813871,0.0661893,-0.0178037,0.019929,0.0827527,-0.0447404
0.000307823,-0.0829748,-0.106193,-0.0101532,-0.154052,-0.0391292,0.0456951,0.129205,0.063077,0.0526313,0.0558175,-0.0130321,0.149196,0.102968,0.0164633,0.0430428,0.0253007,0.063258,0.0797505,0.0143272,0.114699,-0.077099,-0.00288344,-0.0617406,-0.000947397,-0.0231476,0.00895148,0.0542838,0.060544,0.160422,-0.0232787,-0.0080183,0.0226425,0.114594,0.0128843,0.0216795,-0.00770713,-0.0951492,0.0746043,0.0398067,0.0057067,-0.0239741,0.0128172,0.0243502,-0.00547612,-0.13265,0.0516488,-0.0395425,0.0251744,0.0155209,0.0979476,-0.0329277,0.0225905,-0.0452584,-0.0234098,0.0134271,-0.108502,0.140209,-0.0533641,0.0797939
0.00899291,0.104578,0.0122642,0.0661442,0.00942909,0.0566983,-0.0946147,0.0438443,-0.0950969,0.082599,0.0608218,0.00305786,0.0483091,-0.015774,-0.0325997,0.0325482,0.0406143,-0.000731372,0.0446087,-0.0156463,-0.0896219,0.0204089,-0.00918783,-0.0903827,-0.102686,0.0166616,-0.00793747,-0.0315423,0.00960491,0.0965211,0.0479163,-0.0642827,0.0636001,0.000272598,-0.031275,0.148375,0.0332523,-0.0713193,0.0835643,-0.0137799,0.0390866,0.129179,-0.0850298,-0.0707355,0.0694367,0.00562978,-0.0440107,0.0328316,0.0165885,-0.0756999,-0.0981711,-0.0538508,0.0446705,0.0763949,0.0230749,0.000483763,0.149452,0.0166427,-0.0393027,-0.0332933
-0.0733473,0.0398408,-0.0432058,-0.0925457,0.0701051,0.0621383,0.0382662,0.107736,-0.101949,0.109957,-0.0215039,0.0375516,0.0669274,-0.0296607,0.0246433,0.0888605,-0.0695888,0.0206726,0.0272635,-0.0117468,0.00546532,0.15119,-0.036128,-0.0814843,0.0463455,-0.0163571,0.0717577,0.0155484,0.0353032,0.0387985,0.0041392,0.00816078,0.144519,-0.0209574,-0.145884,-0.0243138,-0.018199,0.0156526,0.0671127,0.0369663,-0.0656832,0.0411878,-0.0369603,0.00672594,0.00233949,-0.0378448,-0.0765775,-0.135835,-0.0174046,0.00192201,0.0259905,0.0958255,0.058515,-0.004856,0.0120129,0.0445084,-0.0107401,-0.00453069,-0.105384,0.0383345
-0.0129993,0.0983347,0.00851142,0.0021739,0.117823,0.00989002,-0.0756386,-0.0254391,-0.0124912,0.04209,-0.0203886,0.0386404,0.085626,-0.0638811,0.114502,0.0671814,0.0673956,0.0568889,-0.0595458,-0.0544061,-0.0596948,0.104469,0.00587309,0.0253548,-0.036825,0.0708973,0.00647242,-0.0289414,0.126683,0.0191461,-0.0468252,-0.0327565,0.0160936,0.0736908,-0.0504494,0.0417452,-0.0241747,0.0489419,0.116982,0.0743736,0.110998,0.0872472,-0.03859,-0.115599,-0.0276652,0.0632954,-0.0824842,-0.0609938,0.140768,-0.0173249,-0.0468207,-0.0466989,-0.0346824,-0.0109403,0.033963,0.0374045,-0.029901,0.0748998,0.0406286,0.044787
-0.130033,-0.0940872,0.0345942,0.0310851,0.0854563,-0.0530918,0.0265353,-0.0298688,0.00443397,0.0283033,-0.155219,-0.0481752,0.0533002,0.0190679,0.114789,0.0550468,0.0304655,-0.00235652,0.058913,-0.0551023,0.116864,0.0485344,-0.0571453,-0.0475022,0.0366372,-0.011997,-0.0090096,0.0939804,-0.0385691,0.00636658,1,0.0157208,-0.00728432,0.0410695,-0.00792082,0.078728,-0.0485282,0.138441,0.0958817,-0.0129273,-0.0203265,-0.0850732,-0.0117891,-0.0110009,0.0429885,0.0169651,-0.153648,0.118973,0.154123,-0.0158006,0.0673809,0.0424708,0.0191819,0.0716327,0.0553736,-0.0427669,-0.0724271,-0.00792965,-0.0602505,0.0426541
0.0901371,0.0214621,-0.0222541,0.0434151,-0.0221446,-0.0344109,0.0272478,-0.0504646,-0.109625,0.0326287,-0.0218127,-0.0136481,-0.0267873,-0.0264077,-0.0669692,0.00857228,0.0870211,-0.147776,0.0160731,0.0268315,0.020574,-0.025518,0.0720255,0.0105468,0.0567004,-0.0217653,-0.0431336,-0.0810548,0.00646839,0.0473878,0.0303865,0.0512106,-0.0355234,0.0498831,-0.00484411,-0.0544791,-0.0761833,0.04075,0.0331488,-0.0589046,-0.0360017,-0.0712485,0.060639,-0.045987,-0.0299104,0.0440662,-0.0274231,0.142471,0.00172772,0.00709424,-0.0286506,-0.0307423,0.0170338,0.067641,0.0363146,-0.0442137,0.0353412,-0.0372269,-0.0252384,-0.0146219
-0.00718057,0.0378718,0.0959394,-0.00715469,0.0700019,-0.0176937,0.00601517,0.0992559,0.0335575,-0.0318966,-0.0543814,-0.0250425,-0.0636092,-0.0246931,0.0602803,0.0324087,0.0264519,-0.00476644,0.0546054,0.0212321,-0.0736186,0.0334681,0.00575118,0.0270007,0.0706304,0.0566624,0.0100114,-0.0337161,0.069754,0.0933608,0.066677,-0.0627496,0.0122192,-0.0100431,0.0257362,-0.0266576,0.0960588,-0.0605352,0.0181917,0.0513534,0.027041,0.093716,-0.00257672,0.00944417,-0.0272785,-0.0848601,-0.0298627,-0.0150419,0.0229652,0.0224165,-0.0464361,0.0476483,-0.0214769,0.0576573,0.104015,0.0466916,0.0853937,0.0834508,0.0296336,-0.0348811
0.0320612,0.0025161,0.0160799,-0.0152232,0.0214989,0.0666863,0.0811976,-0.102658,0.0962432,-0.0387682,-0.0893975,-0.066132,-0.00892921,0.024848,0.016256,0.00419522,-0.0685925,0.00559966,0.0627878,0.151109,-0.0219096,-0.0933754,-0.0719206,-0.0112089,0.0384086,-0.0180201,-0.0202897,-0.0165246,0.107771,0.0397496,0.0929153,0.0451744,-0.00612965,-0.0370785,-0.122001,-0.0490939,0.0331475,-0.0957617,0.136334,-0.00816267,0.0489924,0.0632401,0.117277,0.0271855,0.0257711,0.0318923,0.0751445,-0.101498,0.091079,0.00714521,-0.0191499,-0.0304351,-0.0486178,-0.00618041,-0.157665,-0.0151197,-0.0304852,0.0363639,-0.10808,-0.0327123
-0.00889957,0.0873438,0.0429748,-0.0861007,-0.0831334,0.0428096,0.13739,-0.0145906,-0.00923043,0.0438039,-0.0115629,-0.0494853,-0.0790231,0.100608,-0.0679833,-0.0105261,-0.0180409,-0.00153044,-0.0590162,0.0339676,-0.0230313,0.052102,0.00682132,0.0548063,0.00622533,-0.0407091,-0.130163,0.0146904,-0.0386885,0.0446896,-0.205925,0.0391302,-0.0246532,0.0923417,-0.00988786,-0.0370725,0.0889289,0.140547,0.0217203,0.137595,0.0203214,0.0897018,0.0767709,-0.0135825,-0.0679437,-0.0167318,-0.080189,-0.108286,0.0177944,-0.0102926,0.0458445,-0.0424799,0.028504,0.0805618,-0.0502643,-0.00373284,-0.0311763,0.0552968,-0.143162,0.0239925
0.0547318,0.0518804,0.0199607,-0.0255522,0.185721,0.0570958,0.0574774,-0.0497209,-0.0923697,0.0281397,0.0457918,-0.0552309,-0.00833207,0.050086,-0.034926,0.060089,-0.0681027,0.003822,0.0759064,0.0411963,0.0755391,-0.0459372,0.0373048,-0.060092,0.00661665,-0.0215883,0.016484,-0.07648,0.016637,-0.0052856,0.0346131,-0.0119244,-0.00693503,-0.00590044,-0.0185769,0.0234916,0.043507,-0.0165314,-0.0510846,-0.0269918,0.0859696,-0.00960436,0.0602369,0.0582305,0.0251073,0.0626885,0.0785382,0.0622413,0.00636737,-0.00297212,0.0393325,0.0526083,0.021165,0.041654,-0.00477121,0.0612327,0.05271,0.0831418,0.170846,-0.00254962
0.0932275,-0.0289411,0.0824326,0.0359648,-0.0432883,0.00733091,-0.0337062,0.051169,0.0165545,-0.0175883,0.000922623,0.0447465,0.0363981,0.0777875,-0.0476982,0.00213976,0.0237391,0.0121705,-0.0612058,-0.0315821,-0.0716315,-0.0154579,0.0173174,-0.0259892,0.0997794,0.11902,0.0540468,-0.0472646,0.0909535,-0.00405334,-0.0913168,-0.0153921,0.0330481,-0.0132573,-0.0535086,-0.0477115,0.0606229,0.0937321,0.0344247,-0.032431,-0.0754844,-0.0279313,-0.0199438,-0.00531507,0.0429904,0.142028,-0.055151,-0.0713967,0.15655,-0.0146029,-0.0523529,0.0187515,-0.0288476,-0.0449106,0.0494327,0.020775,-0.0691825,-0.0616717,0.0510946,-0.0319306
0.0891571,-0.0288569,0.0479915,0.00737292,0.0308522,0.0592441,-0.0303432,-0.0164014,0.127244,0.0271287,0.028874,-0.0565031,-0.0670543,0.0502809,-0.028586,-0.0670021,0.0554398,0.0340672,0.0646456,0.0185662,0.00584965,0.0230972,0.0487968,0.0387135,0.017727,0.0277373,-0.0488375,-0.14192,-0.0219621,-0.0364342,-0.0725364,0.0191321,-0.0380142,0.053324,-0.00338328,0.0373019,-0.0191248,0.0438341,0.0727047,-0.0196205,0.0245548,0.059698,-0.0148007,0.12212,-0.0188141,0.129828,0.096768,-0.0835798,-0.08125,0.0447885,0.101021,-0.0703735,0.0732747,0.0966656,-0.00988078,-0.0641111,-0.0509347,0.107969,0.0735145,0.0103101
-0.0584758,-0.0212846,-0.0739249,-0.0753504,-0.0241797,0.0246331,0.00565595,0.130451,0.0239598,0.0921697,-0.0120558,-0.0246138,0.04016,-0.037696,-0.00830949,0.0495291,0.049987,0.0520485,0.085423,0.0328874,-0.0467029,-0.0445449,-0.0355556,0.0199973,0.003657,0.0323938,0.0371983,-0.129515,0.138542,-0.0150274,-0.0817612,0.102049,-0.0174217,-0.00310015,0.0403775,0.0747923,-0.10585,0.0194087,0.0277279,0.0189581,-0.0178997,-0.121206,0.0486793,-0.0606605,0.0774812,0.034447,0.0754509,-0.0307814,0.0433003,0.0175459,0.0881943,0.00346295,-0.02974,0.067205,-0.0334068,0.0350468,0.0110747,0.0422432,-0.037548,-0.0667236
0.00679165,-0.112723,-0.109557,-0.0140057,0.0050314,-0.0124954,-0.0817304,0.072701,-0.00798316,0.0379315,0.126101,0.119394,0.0488916,-0.0113473,-0.00086339,0.02005,-0.0871525,0.0517097,0.0249171,0.0961403,-0.0579044,0.0125495,-0.0390581,-0.0324903,-0.0289322,-0.0140403,0.0858127,0.0653227,-0.00901457,0.0353955,0.0308826,0.111707,0.0294562,0.0429323,0.0595675,0.0135637,-0.0351834,-0.0296813,-0.0387994,-0.064088,0.027453,-0.0738099,-0.131376,-0.0148712,0.0903201,0.0679965,0.0909716,-0.123412,-0.0390829,-0.0136458,-0.0295846,0.0936504,0.0306382,0.0257992,-0.0445439,0.103959,-0.0935294,-0.0143422,-0.0381163,-0.111036
0.0928568,0.0301549,-0.0338781,-0.0911484,0.00974265,0.0266853,0.000932479,0.0389083,0.0611431,-0.0223696,-0.0433275,-0.0952954,-0.0288544,0.127243,-0.0771849,0.0191831,0.0319441,0.0113067,-0.0719726,0.142273,-0.095417,0.0608232,-0.0814786,-0.021537,-0.0570148,-0.06856,0.0116484,-0.0845616,-0.0131803,0.00147702,-0.0323627,-0.00214358,0.0275271,-0.0522205,0.00364045,-0.0258311,-0.0257442,-0.010886,0.0496931,0.0687877,0.0836218,-0.0173707,0.00305028,-0.0386634,0.0518805,0.0784407,-0.00347644,0.0177891,0.0616879,0.0167891,-0.0470746,-0.0181054,-0.0389815,0.0584667,-0.020575,0.0494906,0.0424646,-0.0335904,0.0393699,-0.0223573
0.0137089,-0.0587485,0.0933741,-0.00454443,0.0486887,0.0801888,-0.0473952,0.00150243,0.0654403,0.0342881,0.106904,0.0487107,0.038858,0.0717301,-0.049966,0.0714245,-0.133516,0.00481234,0.00872305,0.0345159,-0.108761,-0.0366973,-0.0110351,0.0103034,0.0440259,0.0374659,0.00854561,0.0394521,0.0589114,0.0646207,0.035479,0.0643325,0.0153277,-0.0788456,-0.0723497,0.0357548,-0.0312468,0.0573952,-0.0120571,-0.101499,-0.0664537,-0.063646,0.0104788,0.0354482,0.0549651,0.0324965,-0.0248425,0.0355719,-0.011538,0.00452161,-0.117538,0.00644558,0.0609463,-0.0479056,-0.01734,0.0910572,-0.0140492,-0.0347741,0.0183758,0.0397537
0.00937137,0.0404016,0.07591,-0.0566187,0.0293875,0.0128015,0.0819377,0.0108105,0.00955374,-0.0334413,0.0409398,-0.0466627,-0.0191178,-0.100672,-0.0809337,0.0237627,-0.0624494,-0.0239381,-0.108082,-0.0333213,0.0965091,-0.0736958,0.129763,0.00654778,-0.143043,0.0125697,-0.0114915,-0.046315,-0.0333914,0.0348802,-0.0336343,-0.056776,0.0452119,0.0518817,-0.102594,-0.0168502,-0.0384773,0.0730768,0.0432083,0.0426251,-0.0128393,-0.168774,0.126558,-0.0115272,0.0504938,0.0254497,-0.0473299,-0.0582847,-0.00835629,-0.0681345,0.118182,0.0513248,0.0637851,0.0582754,-0.0140758,0.00243617,0.0609604,0.108867,-0.0536318,0.0358919
-0.0716726,0.0047795,0.0426621,-0.0248141,-0.0224067,0.062108,0.0443291,0.0626141,0.0325392,-0.00347326,-0.0739703,-0.135244,0.0402612,-0.0763149,-0.072167,-0.0449171,0.0357394,0.0314117,-0.045852,-0.0577711,-0.0712069,-0.0694364,-0.0508245,0.0202121,-0.0120193,-0.0396194,-0.0658673,0.00794932,-0.0161366,-0.149315,-0.00482168,-0.00608625,-0.0364372,0.0268441,0.0452752,0.10677,0.0965639,-0.0135598,-0.0148382,-0.138831,0.0900223,0.0625454,-0.00523955,-0.00169946,-0.0609999,0.0668635,0.0251462,0.00470933,0.0483462,0.0597841,-0.0472965,0.0394984,-0.0161712,-0.00835276,0.00730361,0.019777,-0.11702,-0.033634,-0.00354792,0.00622504
-0.0130976,0.035708,-0.00781519,-0.10986,-0.0484706,0.0557467,0.0862864,-0.145259,-0.055611,0.0345178,0.0426803,0.0173296,0.0223943,-0.06467,0.0572581,0.0374181,0.0122319,-0.0327982,-0.0529399,-0.112882,-0.029127,0.0301226,-0.0197703,-0.0327823,0.0583148,0.0218601,-0.000438394,0.00616715,0.0153823,0.0311335,0.0056836,-0.0848716,0.116144,0.00655394,0.0460423,-0.0220881,-0.0691829,-0.112871,-0.0150785,0.10058,0.0232853,0.0478579,-0.0353277,-0.0453552,0.0763962,-0.0143052,0.0605103,0.025924,0.00448958,-0.0321984,-0.0118092,0.0761655,0.00530544,0.000359654,-0.0367455,-0.046203,0.0863598,0.0389039,-0.0106441,-0.0476385
-0.0865405,-0.0582669,0.0590194,-0.115409,-0.0546112,0.0216268,-0.018932,0.0101982,0.0968732,0.17249,-0.0850983,-0.0305206,-0.0855069,-0.0532287,-0.0153871,0.0521496,0.10598,0.06907,0.0806192,0.050626,0.0378727,0.0628924,-0.00327741,0.0191822,0.155324,-0.00454729,0.00374363,-0.0240558,0.0386276,-0.06431,-0.0569379,-0.0837649,0.0529916,0.00806405,-0.0172777,0.0192658,-0.0464301,0.00912906,0.0439889,0.0519075,0.000373791,0.123685,-0.000966991,0.0228668,0.0370874,0.0478311,0.0907744,-0.112807,0.0339657,0.0157519,-0.00292808,-0.0503319,0.065843,0.0375512,-0.0539178,0.0127457,-0.0211483,0.0792841,0.0226327,0.0363886
-0.0232796,0.0594026,-0.0448228,0.0765898,0.0531726,-0.0426341,-0.0566078,0.0479401,0.0274427,-0.0313449,-0.050577,-0.00940486,0.00153377,0.0108658,-0.0429518,0.0402334,-0.0307013,-0.0369777,-0.0673054,0.0795421,-0.052894,-0.129587,-0.0152134,-0.0840759,-0.0744537,-0.040178,0.0482905,-0.0292568,-0.0280213,0.0211968,0.0541001,-0.124801,-0.0564949,0.0604107,0.0257531,-0.0466597,0.00174826,-0.0317467,0.0412985,0.0403388,-0.0280605,0.135099,0.0208736,0.0035086,-0.0318096,0.0214858,0.0472801,0.0659645,0.0615272,-0.0852281,-0.0128916,-0.0755998,0.0165973,-0.0234684,-0.0303855,0.0518312,-0.051128,-0.0282956,-0.10306,-0.0730816
-0.0874951,-0.00512211,0.0426736,0.00249253,0.047985,0.0067446,0.0358883,-0.0166775,-0.0221784,0.0344457,0.00450737,-0.00992387,0.0133697,0.0871969,-0.0325253,0.00710227,-0.047815,0.00922626,-0.0135829,-0.0319641,0.0124393,-0.0150494,0.0256156,0.0433484,-0.00113005,0.0175324,-0.0026649,0.0145523,0.00881471,0.0172456,0.0158561,0.0956667,0.043068,0.0625327,0.099971,0.0376363,0.0978718,-0.0929667,0.0393481,0.0674283,-0.0744975,0.0951125,0.0699793,0.0147773,0.00940348,0.0254751,0.0801373,-0.0826718,-0.00169527,0.0572788,0.101017,0.0685057,0.0189442,0.0491155,0.0268576,0.0185204,-0.0800045,0.0557836,0.106371,-0.0331151
0.0326089,0.0639179,0.00752099,-0.0590044,-0.0907218,-0.00364223,-0.124419,0.105396,-0.0402602,0.103013,-0.0136503,0.0181492,-0.107227,-0.095558,0.0658261,-0.0709332,0.0502793,0.0456374,0.105673,-0.0443788,-0.086868,0.0934943,-0.1584,0.0511084,-0.0100204,0.109054,0.0245359,0.0688795,0.0513502,0.148377,-0.119116,0.0363151,0.0203171,-0.0386241,-0.0286121,-0.0575127,-0.0661373,0.00552199,0.00429235,-0.0408452,-0.0748483,-0.0211154,0.0713594,0.0601687,0.0908135,-0.00560642,-0.027385,0.0555845,0.0102401,0.00407243,-0.0164873,0.00118173,-0.0144689,0.0177268,0.055915,-0.00906531,0.056989,-0.0260367,0.0760303,0.0430575
0.0332014,0.0740026,-0.0063138,0.0162099,-0.0614989,0.0163708,-0.0444667,-0.0713611,-0.0768465,-0.0469237,0.0556079,-0.0971231,0.0690966,-0.0475208,-0.00342858,0.0271588,-0.0199302,0.0933457,0.0249441,0.0306096,0.0183376,-0.066498,0.0905028,0.0536924,-0.022088,-0.0402015,0.0106742,0.0129309,0.0950485,-0.0457152,0.0663135,0.0250529,-0.0553157,0.014585,-0.00778117,-0.0320444,0.0860706,0.0795241,0.0691497,-0.155062,-0.0522505,-0.0485231,-0.0436134,-0.0906541,-0.0415043,-0.0327746,0.0693013,0.118562,-0.0654162,0.00293675,-0.0272046,-0.0332677,0.015537,0.0472241,0.0240218,0.00957319,0.00827704,-0.106241,0.0731691,0.0589382
-0.0621169,-0.07722,0.0199363,0.034312,-0.115113,-0.00741886,-0.0584459,-0.0349819,-0.0676765,-0.0634021,0.0536088,0.0301201,-0.0286554,0.0063949,0.133347,-0.0131407,0.0827948,0.0607273,0.0630172,-0.0698021,-0.0413093,-0.0536202,0.0273049,0.0169596,0.0194972,0.0521259,-0.033765,0.0575502,0.0731457,0.0208099,-0.0897352,0.0446269,-0.105802,-0.0142735,-0.0285698,0.0357391,-0.0442002,-0.128162,0.052543,0.0206016,0.0842473,-0.0192748,-0.125151,-0.0653462,0.0653072,0.025527,0.0855443,-0.0255928,-0.0269284,0.153887,-0.00972714,0.0279693,-0.118731,0.0283342,0.0806331,-0.0473563,-0.0499471,0.0113445,0.113764,-0.0285319
-0.0197922,0.0856483,-0.110285,0.0328447,0.0164719,-0.0591412,-0.0818045,0.0248404,-0.00260719,0.126181,-0.0142473,-0.101658,-0.0845515,0.0175412,-0.00820825,-0.0621565,0.050157,-0.0159622,0.126634,0.0666289,0.0576841,0.0504172,-0.0278682,0.0403975,0.0214978,-0.0300304,-0.0531212,0.128959,-0.0451676,-0.0330131,-0.00119315,-0.096372,0.0144719,0.0630991,0.0647172,0.0856107,0.104229,0.012867,0.0561807,-0.044764,-0.0512389,0.0215763,0.0411719,-0.038605,0.0427581,-0.0494222,0.0533075,0.0331617,0.0453703,-0.0113014,0.0111003,0.0392811,-0.0775553,0.0394965,-0.0823296,0.0377911,0.0630631,0.123162,-0.041895,-0.0563749
-0.108901,-0.0143203,-0.10227,0.0107259,-0.000716687,0.030074,0.0499791,0.104393,-0.000519981,-0.0604835,-0.00762477,-0.0938804,-0.0214474,-0.0358271,0.0429472,0.0630247,0.026716,-0.035694,0.0515248,0.052505,0.0154414,0.0106364,0.0734183,0.00387487,-0.0030014,-0.0566719,0.05012,-0.100812,-0.00530019,-0.0110147,0.0184852,0.0831382,0.0151059,-0.111182,0.0187915,-0.0137562,-0.0360326,0.0284746,-0.0283559,0.14577,-0.0892669,0.0977932,-0.0599866,-0.110708,-0.0750189,0.0447116,0.0536036,0.00820248,-0.0551393,-0.00542838,0.0419827,0.0968012,-0.107216,0.041019,0.0407808,0.0254865,-0.0138588,-0.0069908,-0.00355778,-0.0452117
0.0138593,0.0383376,0.0239694,-0.0128612,0.0539553,0.0832246,-0.0717582,-0.00998317,0.0447248,-0.0395575,-0.0153643,0.0774851,-0.0836626,0.0991449,-0.0396591,0.117013,-0.0136231,-0.121515,0.0558249,0.00690841,0.010979,-0.047696,0.0817089,-0.0530918,0.0434144,0.0737518,-0.0248628,0.0530548,0.0257535,-0.0431457,0.0678221,0.0187585,-0.026005,0.0651371,0.0668285,-0.00670031,0.0616373,0.064195,-0.0109474,-0.0312118,-0.00471582,0.0852742,0.0939338,0.0850946,-0.0338003,0.0699337,0.0826831,0.00795693,0.0609233,-0.094357,0.0647423,-0.0542438,-0.0721822,0.0259327,-0.00433956,-0.0675,-0.0511807,-0.0106359,-0.0104158,-0.0861829
-0.0259257,0.0356718,-0.0487889,0.00770293,0.107898,-0.0625432,0.00170846,0.02122,0.0683267,-0.0658651,0.00184712,0.0267962,0.0379703,0.0409249,-0.0325429,-0.0145094,0.0614853,0.0843291,0.00131131,0.0448492,-0.0375769,0.00406504,-0.00880132,-0.0756271,0.0868979,-0.0589262,-0.00586726,0.0385647,-0.0736148,0.0260529,-0.0469677,0.0452607,0.0286471,-0.0102964,-0.0779428,0.0597116,-0.0637792,-0.044274,0.0521905,0.0115253,-0.0171054,0.0639984,0.0816482,0.0566266,0.119399,-0.0039889,0.0549516,0.0629365,-0.0628903,0.0693776,-0.0210123,0.0226692,-0.0217863,-0.0388667,-0.0875666,-0.0763443,-0.0363467,0.0294859,-0.0219663,0.00642163
0.0935993,0.0247519,0.0694216,0.0510479,-0.0477433,0.0786978,-0.0402869,0.00117662,-0.0578411,0.000335811,-0.107642,-0.179274,-0.00290117,0.0943233,0.0948789,0.0260076,0.0413889,0.00996233,-0.0543511,-0.0749885,-0.100614,-0.00949783,0.081859,-0.0175094,-0.097311,-0.00352883,-0.0225297,0.0927995,0.0687527,-0.069934,0.035876,-0.0280559,0.023268,0.0331418,-0.026486,0.00554187,0.102279,0.00343197,0.103634,-0.0482972,0.0484296,0.0670172,0.0228978,0.0315194,0.0444002,-0.00203134,-0.0117732,0.0738527,0.00500044,0.028757,-0.0923234,0.031088,-0.07484,-0.0814022,0.00967973,0.0120557,-0.00143851,0.0404489,-0.00247672,-0.0527209
0.0239476,-0.0516728,0.00680939,0.0542246,0.0275852,-0.0443213,0.0124832,0.0595713,0.0135229,0.0156854,0.176873,0.030132,0.0870422,-0.00550269,0.00506397,0.114499,-0.0312546,-0.0321038,0.0554634,0.0310121,-0.0318861,0.0177772,0.0732443,-0.0183332,-0.0928087,-0.0175352,-0.0999693,-0.0894632,-0.0359008,-0.0182913,0.0313713,0.071626,0.0604332,-0.0720831,0.0213243,0.0979457,0.0754405,0.038102,0.0587758,0.0600458,-0.00412356,-0.00140387,0.0158245,-0.0859097,0.0403922,0.0276705,0.0152689,-0.0582537,-0.0665352,0.0872525,-0.03136,0.0305195,-0.0260975,-0.00192258,0.0448383,0.0134388,0.0596368,0.0221328,0.0217382,-0.0518433
-0.0514194,-0.0635376,0.0466608,-0.00788143,0.0318687,0.0129397,0.00910201,0.0286637,0.0692972,-0.109885,-0.0182106,0.00186577,0.00461935,0.0802496,0.0406907,-0.0441441,-0.0593317,0.0332814,-0.106369,0.030085,-0.0766007,-0.0344325,0.114061,0.0302862,-0.039051,0.0244265,-0.0321159,0.00561776,0.0282001,0.00828254,-0.0171123,-0.0970067,-0.00292699,0.147682,-0.0350408,-0.00569196,-0.00049286,-0.0355727,0.0331662,0.064575,-0.0125398,-0.095157,-0.0163226,0.0135998,-0.0551339,0.0304403,-0.0747062,0.0679435,-0.0136513,0.0117939,-0.0092303,-0.0124005,-0.0405213,0.0216726,-0.0437157,-0.0200162,0.0201369,0.0699933,-0.0161488,-0.0352918
0.00340481,-0.0513196,-0.000117386,0.0544876,-0.0101844,0.0581905,-0.0149552,-0.147449,-0.101718,-0.0540241,0.0668768,-0.0269391,-0.00503053,0.0262905,0.0188987,-0.042729,0.0681482,-0.0132685,0.0139858,0.0875128,0.0739286,0.0524179,0.10159,0.0149417,0.0676938,0.0370657,0.0355925,-0.0239536,-0.12836,-0.0109576,0.116668,0.0715743,0.0118749,0.0981246,-0.0104771,0.0195582,0.0474564,0.042023,0.0177549,-0.00849652,-0.0129095,0.101118,0.0232975,-0.0902893,-0.0515518,0.00120958,0.00734745,-0.0713458,0.0337425,-0.0455815,0.0292648,-0.0331019,-0.0356505,0.0326455,0.00196001,0.0114614,0.0447387,-0.063354,-0.0784741,-0.0210091
0.00477855,-0.0583069,-0.0294022,0.00162727,0.0701012,0.0944155,-0.131285,-0.000427465,-0.0204731,-0.00676785,-0.0679329,-0.0175423,-0.0114287,-0.110452,-0.0313679,-0.0273149,0.0968443,0.0902013,0.0388003,-0.00579517,0.0576562,-0.00464287,-0.0583435,0.0672426,-0.00442436,-0.0635005,0.000361059,0.0859783,-0.010876,-0.00287103,0.0312272,0.0832471,-0.0302253,0.012822,-0.0241967,-0.0685012,-0.0798248,-0.0465658,0.0256894,-0.0588713,0.00310693,-0.108332,0.102576,0.000248482,0.0847,0.00915569,-0.0275103,-0.151863,-0.125664,-0.0758379,0.0592631,0.0436088,-0.0500316,0.0251891,0.0551587,-0.000115767,0.0517269,-0.000144931,0.110158,-0.0718972

max: 1
min: -0.205925
avg: 0.00592956
