0.0135471,0.159741,-0.0170279,0.050645,0.0574003,0.0332974,0.0667441,-0.0847341,0.0694055,0.0734785,0.00451051,0.0254825,-0.0318886,-0.0260471,-0.0458113,0.0386751,0.0103602,0.0042703,0.00945742,0.00125604,0.124239,0.0888693,-0.00271787,0.0453347,0.00772825,-0.0410626,0.0736851,-0.10347,-0.193772,0.0594805,0.0244627,0.0300788,0.0412001,0.0124121,-0.0816324,-0.0809952,0.0247945,-0.0278783,0.0336777,-0.0467027,0.0434658,-0.0666322,-0.060219,-0.0373395,0.0355534,-0.00552031,-0.164925,0.015007,0.0225532,-0.00524157,0.0341562,-0.0750718,0.024499,-0.0516527,-0.00482512,-0.0599749,0.0812308,-0.0255692,0.0522778,0.104119
0.0756633,0.132724,0.1026,-0.0339046,0.0189645,0.0590418,-0.0359515,0.0607252,-0.0667037,0.0986523,0.015557,0.0289431,-0.00625892,0.0646109,-0.123401,0.0378377,-0.0759575,-0.0575101,-0.167231,-0.0616399,-0.0214167,0.0345322,0.0113787,0.0554413,-0.0706585,0.0603848,-0.0643692,0.00286883,0.0376281,-0.0425554,0.0383947,-0.0509462,0.0803185,0.033783,0.0469025,0.0385117,0.0414975,0.0212902,0.010343,0.0367787,0.0597844,-0.100442,0.0073043,-0.033536,0.0717919,0.0751234,-0.0476815,0.0366665,-0.0245185,0.0917367,-0.000184007,0.119325,0.0143859,-0.0202111,-0.00582601,-0.0546762,0.0493076,-0.0821377,-0.109703,-0.046606
0.0721733,0.0453538,-0.00750685,0.0134105,0.113869,0.0517245,-0.0427133,-0.0199687,-0.00109786,-0.0143509,0.0862797,0.0937477,-0.086652,0.0118166,0.0569649,0.0117663,0.0243862,-0.123097,0.0893828,0.0708726,-0.00385564,-0.1073,-0.0374277,0.0158521,0.00910021,-0.02048,0.0547053,0.0857847,0.0174732,-0.017521,0.0376319,-0.0847368,0.0501139,-0.0766905,0.00358615,-0.0247733,-0.119343,-0.0223688,0.093893,0.0207167,0.00317141,-0.0465047,-0.0444857,-0.0788826,-0.0801234,-0.005293,-0.0322402,0.0355751,0.0133432,-0.0725137,-0.0649407,-0.047038,-0.0421592,-0.0143026,0.0659639,0.043926,0.0355269,0.0643978,-0.0266128,-0.00310342
-0.049453,0.0599931,0.0363922,-0.00991034,-0.0952113,0.00296506,0.112839,-0.0500535,0.00414572,0.0399368,-0.104844,0.00732694,-0.0171862,0.00297635,0.0332079,0.0299387,-0.0184719,-0.073469,0.0043937,0.13035,-0.0157697,0.0279267,0.0743556,-0.0327014,0.0350393,-0.0353011,0.0824428,0.0528928,-0.0183365,0.0282071,0.113677,0.0187042,-0.0101518,-0.0196475,0.0514816,0.0577421,-0.025384,0.0536481,-0.0593586,-0.102118,-0.035154,0.0349119,0.0729016,-0.0152632,0.0210004,0.0449531,0.0162788,-0.0607422,0.00167049,0.0884447,0.0785284,-0.0466092,0.0337784,0.0354502,0.0429887,0.191103,0.0800077,0.053551,0.131669,0.0686051
-0.0387037,-0.147148,0.0555407,0.00203444,-0.0913505,-0.00702599,0.0196749,0.020483,-0.0198234,0.0391428,0.0161787,0.00242638,0.0539012,0.00958572,0.0249865,-0.0654456,0.0435772,0.0287157,-0.0173814,0.0548693,0.0492345,-0.0266169,-0.0252364,0.0521644,0.0980993,0.0178044,0.0924112,-0.0880567,-0.0110551,-0.00497276,0.114965,0.0629944,0.0873208,0.0290538,0.0392725,0.137087,-0.00789128,0.0547686,0.0268996,0.0939723,0.0151928,0.0601683,0.0304892,0.0190377,0.0655399,-0.00728607,0.0446418,0.048489,0.0272747,-0.0915055,0.0539347,-0.0145902,0.0719715,0.107486,0.0243996,0.0685806,0.0476087,0.0671726,0.0101794,-0.0821244
-0.10639,-0.0686209,0.028005,-0.0635255,0.0694084,0.00438495,-0.01711,-0.0305486,-0.0438167,0.0603987,0.0732535,0.0149542,-0.0362477,-0.0605221,0.0839535,0.0453337,0.00402415,-0.0476046,-0.051813,-0.00413836,0.0828943,0.0163404,0.00306671,0.0412756,0.00129077,0.0605937,-0.063023,-0.0594696,0.0199575,-0.0398135,-2.10969e-05,0.0493462,0.0155491,-0.0532519,0.0272986,0.021677,0.0586375,-0.0433456,0.00653687,0.048647,-0.00730645,-0.105932,0.0186979,0.127057,-0.043332,0.0206383,-0.02218,-0.0449919,-0.0253139,0.0734914,-0.0560828,0.0109977,-0.0387079,-0.0108256,0.0241784,0.00226979,-0.0345887,-0.0356729,-0.0298863,-0.00634341
0.0891737,0.0616439,-0.0602221,0.087291,-0.0189584,-0.0744052,-0.00319953,-0.0168062,-0.0762938,0.099918,0.0787731,-0.0379049,0.0375965,0.020857,0.077127,-0.0278332,-0.0853917,0.0889198,0.0446196,-0.0440441,0.0386755,0.0105358,0.0573495,0.119674,-0.00346743,-0.0532143,-0.0284572,-0.0477085,-0.0912016,0.0672369,0.00375767,-0.00506766,0.0423193,0.0459383,0.0362275,0.130738,0.0158765,0.0296092,0.127914,0.00107862,0.0719582,-0.00470964,0.123085,-0.134861,0.031904,-0.0355251,0.041781,0.0525531,0.0405545,-0.0153672,0.0664239,0.00686255,0.0249152,0.024952,-0.0331471,0.0674148,-0.0204839,0.0609032,0.0414418,0.0348652
0.0028708,0.00557961,0.0297561,-0.074879,-0.0279082,0.0783689,-0.162774,-0.0394515,-0.00359409,0.00637594,0.0986384,-0.0211343,0.0674235,-0.043325,-0.0473305,-0.0358669,-0.030402,-0.0333015,-0.0424676,-0.0357716,0.0774668,0.0622341,-0.0334445,-0.0102295,-0.0641117,0.120272,0.0843956,-0.0371049,0.00890979,-0.00422624,-0.0225028,0.0137783,0.015261,0.00342971,0.023661,-0.0246785,-0.125726,0.0384031,0.115738,0.0972735,0.0673226,-0.0528182,-0.0234682,0.0232478,0.0534321,-0.00677623,-0.0356301,-0.000940751,-0.0392325,0.00675065,0.1359,-0.00649392,0.0657392,-0.0441243,-0.040877,-0.0181843,0.0383574,-0.0376446,-0.0549284,0.00179868
0.0285714,0.00715655,0.0667705,0.0517036,-0.0392386,0.101906,-0.00887932,0.024763,0.0358685,0.0301806,-0.0481944,-0.025544,-0.0932715,0.0272425,0.0406443,0.00534016,0.0598822,0.0146669,-0.0375809,-0.00975748,-0.0267053,-0.0232205,-0.0290202,0.0235911,-0.0719036,-0.0387425,-0.0560483,0.0160649,-0.0189148,0.0641762,-0.00561879,0.0365907,0.0330971,0.00425977,-0.0159712,-0.0533038,0.0343255,0.0482135,0.0341407,0.108875,0.0356744,-0.0399982,-0.0410312,-0.0171327,0.0695802,0.0779243,0.0718546,0.0685787,-0.00961199,-0.0960534,0.0495186,-0.00173762,-0.0204237,-0.0884319,0.0485783,0.0245876,-0.0280312,-0.00665715,0.119072,-0.0564063
-0.0130506,0.14432,0.0981993,-0.0776169,-0.0745173,-0.034686,0.0515247,0.0940159,-0.0238398,0.0105561,-0.0302069,0.0702249,-0.00890631,-0.0395745,0.0451786,0.00913341,0.039898,-0.0589466,0.023476,0.0700153,0.00757718,-0.023757,0.0928745,0.063512,0.0262422,0.0100704,-0.020376,0.115094,0.060568,0.00429624,0.0264935,0.132417,-0.00147683,-0.0495151,-0.0753664,-0.0992137,0.0463396,-0.0297857,-0.0256431,0.00363521,0.06926,-0.0536689,0.0446897,-0.0255733,-0.0286697,-0.0275713,0.0462161,0.0694576,0.0156285,-0.02856,0.0900255,0.0294216,-0.000744279,0.00137289,0.0917093,-0.0104114,0.118379,-0.060215,0.0730357,0.0593872
-0.0067647,0.153762,-0.136154,0.0284489,0.0601789,0.0571563,-0.0503566,0.0362371,0.0117428,-0.0230054,-0.0366629,0.0504888,-0.0156948,0.0383413,0.077559,-0.00496251,0.0332505,0.123472,0.00317992,0.104315,0.0767766,0.0469318,-0.0496654,-0.00298574,-0.0181552,-0.00806875,0.0427448,0.028829,0.0189552,-0.00147023,0.0521878,-0.00179215,0.0456752,0.162815,-0.0551606,0.0962703,0.0164956,0.107363,0.012781,0.0305368,0.00082224,-0.10052,0.1009,0.0945087,-0.039691,-0.0434318,-0.0208116,-0.0647248,0.0216088,0.0166545,-0.0208759,-0.0573197,-0.0766186,0.00594871,0.0402733,-0.0591901,-0.0376577,0.0700663,-0.0975226,0.0444675
0.0376634,0.0215711,0.0316395,0.0408691,-0.0163393,0.0767184,0.0178249,0.0829022,0.0218682,0.0961281,0.0733353,-0.00650719,-0.0520371,0.0590731,-0.126333,0.0946147,0.114948,0.0187782,0.00325558,0.0376047,0.0223509,0.0245935,-0.0130135,0.0440559,0.0538412,0.126979,-0.0290494,-0.0383152,-0.04949,0.0485803,0.0411838,-0.00824933,-0.0464385,0.103137,0.0307446,0.0204851,0.0879549,0.0670799,0.0178779,0.0664257,-0.0133338,0.0553223,0.0408518,-0.00251927,-0.00597277,0.0474487,-0.0681301,0.0716901,0.0772404,-0.0470814,0.0338231,-0.00373283,0.11283,0.0242906,-0.00730893,0.0359733,-0.0128014,-0.0997256,-0.0214973,-0.0118708
-0.00215822,-0.0872099,0.0645016,-0.0023583,-0.0114169,0.00131991,0.0878149,-0.0377616,-0.0186939,-0.0336922,0.0272851,0.00595953,0.11653,0.00354886,-0.0112557,-0.0839183,-0.0974038,-0.0417332,0.0481438,0.00182974,0.0350252,-0.0649622,-0.0449064,-0.00629939,0.0340723,-0.0201227,0.0359655,-0.00511316,0.0231468,0.00478356,-0.0451186,0.0404471,0.010987,0.0522446,0.0302894,0.059461,-0.047489,0.0668013,-0.130008,0.0120609,-0.0710365,0.0569743,0.0245607,0.00785733,0.0125882,0.108188,-0.0177903,0.0827313,0.0107387,0.0469448,0.107032,0.09279,-0.0570686,-0.0448844,0.033001,-0.0341809,0.0130754,-0.0036867,0.0164743,0.0247914
0.0869485,0.0484155,0.0643162,0.0856739,-0.101009,-0.0120839,-0.107349,0.0322408,-0.0809147,0.0436922,-0.048489,-0.0129865,0.00891114,-0.0117332,-0.024892,0.00356742,0.123791,-0.0217238,-0.026588,0.0757519,-0.00167676,0.0544842,0.0362486,0.0502792,0.0291573,-0.0315839,0.016655,-0.0439791,-0.0227801,0.103385,0.0595143,0.0194517,0.0556598,0.0210574,0.00584843,0.134485,0.0623811,-0.0348722,0.0699739,0.0911473,-0.0128728,-0.0698967,-0.0133969,-0.0261241,-0.0506031,-0.0996302,-0.0318669,0.0232436,-0.0642038,0.0582447,0.0941895,-0.0157997,0.0141037,-0.0185281,-0.0359339,0.0328136,0.0240888,-0.0426848,-0.0479053,-0.076916
0.011066,-0.0190519,0.0128058,0.10265,0.00235575,0.0154192,0.0761577,-0.00934807,-0.00242035,0.0103346,0.0716119,-0.0126493,-0.040681,0.0190791,-0.0364264,0.0987265,-0.021685,0.000631583,-0.0299314,-0.010902,0.104807,0.00154777,0.010714,0.0523405,0.0359341,-0.00444939,-0.0654121,0.110284,0.100397,-0.0028929,0.0214751,0.0104044,0.035089,-0.0181819,0.0101389,-0.0193252,0.0742057,-0.0358338,0.170197,-0.00189152,0.0358307,0.0755932,0.0102466,0.0822557,0.061757,-0.0272448,0.00345262,-0.0561592,-0.0374392,0.136991,-0.0103038,-0.0403758,0.0498183,0.0499943,0.0981441,0.045653,-0.03895,0.00997285,0.0363155,0.00944875
-0.076212,0.0281169,0.00758387,-0.0281791,-0.0622481,0.0223842,0.00860323,0.0691522,0.0141437,-0.0232887,0.030519,0.0362111,0.084721,0.00663538,0.0647528,-0.00808624,0.0205168,-0.0110886,0.122922,0.0530184,0.0497787,0.015073,-0.00158568,0.00357919,0.0514981,0.0884754,-0.00527431,-0.0989043,0.0184078,0.0621291,-0.0318148,-0.0824205,-0.0461663,-0.0391291,-0.0236994,0.0230978,0.0169164,-0.0976571,0.0263435,-0.0206838,-0.0510127,-0.027076,0.03971,-0.0266282,-0.0713041,0.00731162,-0.0516137,-0.0392883,0.0134459,0.0514312,-0.00608276,-0.00143139,0.00159621,-0.0389565,-0.0229716,-0.0329324,0.0304905,0.0317635,-0.0665622,0.0114038
0.0125431,0.00984583,0.0265152,0.0260242,0.0301073,0.045571,0.0476859,-0.108704,-0.0804796,0.00672586,0.150386,-0.0112246,0.0285149,0.0352587,-0.0576347,-0.0567279,0.0538645,-0.0567524,0.0433017,0.0381001,0.0321165,0.0318923,0.0333169,0.0198545,-0.0555054,0.00804291,0.137278,0.0223164,-0.0648322,0.0202352,0.0406359,-0.0329384,0.00335563,0.0300127,-0.0545178,-0.0449391,-0.0099652,-0.0541619,-0.0197695,-0.0573925,0.0484339,0.0028082,0.0267551,0.0187276,0.0719843,-0.0425364,0.152122,0.0621151,0.0389724,0.0176512,-0.0121552,0.0417727,-0.0382317,-0.0253856,-0.00023381,0.121926,-0.00545664,0.0687362,-0.0970723,-0.0329125
0.00305372,0.0390006,0.00245727,-0.136708,-0.0601444,-0.00805338,0.064839,-0.0253871,0.115611,-0.0587814,-0.0314944,0.0321853,0.00883204,0.029751,0.0517951,0.0479593,0.0904139,-0.0411546,0.0290686,-0.0680601,0.0804301,-0.000669599,-0.0627356,0.0184506,0.0337397,0.0515406,-0.063957,-0.0574348,-0.0229962,0.095603,0.0459376,0.0191035,6.32188e-05,0.107508,0.153731,0.121323,0.0233092,-0.0206554,-0.0195901,0.0468493,-0.168585,-0.0275492,0.0519938,-0.0392485,-0.0137254,0.0431989,-0.0709119,-0.0827669,0.0831049,0.085526,0.0978884,-0.00144604,0.0592633,0.0818536,-0.0090938,0.03835,-0.122701,-0.011387,-0.11429,-0.047199
-0.0872449,0.062214,0.121698,0.040797,0.00272222,0.0231387,-0.0348885,0.047427,-0.0690139,-0.0761758,0.0087257,-0.0591568,0.0341576,0.0199792,-0.0293443,0.041282,0.0484874,0.10228,0.0408157,0.0365482,0.0236337,0.00123796,-0.000804822,-0.0921949,0.0770265,0.0901049,-0.0208588,0.00876906,-0.0211485,-0.0214183,0.0126568,0.0632922,0.00439194,-0.0102841,-0.0602067,-0.00158433,0.0330551,0.0686583,-0.121678,0.116462,-0.0439588,-0.0454543,0.0237515,-0.137807,0.0878198,0.0381315,-0.0389374,0.0459303,-0.0432301,0.120527,0.026005,0.0629462,0.00741701,0.111787,-0.0263421,-0.080584,-0.0555071,-0.091145,0.0413885,-0.0395457
0.0535761,0.109899,0.13845,-0.0317638,-0.118707,-0.0128802,0.0300428,-0.0279662,0.0268388,0.00234436,-0.0925602,-0.0587989,-0.111434,0.0297932,0.0797594,-0.0269943,0.12647,-0.00186529,-0.0609396,-0.0325076,-0.0184077,-0.0285981,-0.0378015,-0.0632934,0.0158186,-0.0380317,0.0574415,0.0100305,0.108432,0.0289193,-0.0387859,0.00531283,-0.0200318,0.00416451,0.113746,0.00854396,-0.0316144,0.0544723,-0.0204657,-0.0588175,0.00329065,-0.045366,0.0252298,0.00970787,0.0130844,0.0075514,0.00683462,-0.00113419,-0.00926026,0.0481463,0.0838163,-0.00508624,0.0756785,0.0288034,-0.016597,-0.0795592,0.0917639,-0.0234952,-0.0198095,-0.0300688
0.0332788,-0.0145301,0.0958953,0.0160527,0.0152312,-0.0197604,0.0523593,0.0976564,0.0316272,0.0905715,-0.0247208,0.0178818,-0.0412699,0.0469408,0.0586801,-0.00432556,0.0733082,0.0809241,0.0143543,0.0714883,0.00209227,0.0529905,0.0599763,0.102451,-0.0165645,-0.0590685,0.0895903,0.104807,-0.0286821,-0.0360339,0.0737066,-0.0145836,0.049548,0.105368,0.05029,0.0135807,-0.0827164,-0.0244686,0.00239545,0.00960734,0.0619068,-0.0247404,0.0459063,-0.0551152,-0.00776872,-1.75296e-05,-0.0263285,0.00249022,-0.0311214,0.0642265,-0.0161868,-0.0845231,0.0200136,0.0507298,0.0386082,0.00785814,0.0359193,-0.0371137,0.0343049,0.108876
-0.0393672,0.0316947,0.0135331,-0.00679672,-0.0552765,-0.0233745,0.0478646,0.0385051,-0.0441881,-0.027568,0.0129371,-0.0266116,0.0374538,0.00125196,-0.0666936,0.00585948,-0.0251471,0.0753253,-0.131661,0.0608315,0.0140957,0.0441351,-0.00585655,-0.00934906,-0.0343073,0.0117431,0.0722457,0.103785,0.0449524,0.0451013,0.0209338,0.0315189,-0.0293025,0.0568021,0.0372627,0.0113086,-0.0379048,0.00350928,0.00802472,0.0201458,-0.0484056,-0.0443995,0.0588956,0.016708,0.0499487,0.0504711,0.068432,0.00661764,0.0557009,0.0649144,-0.0562652,0.0252205,0.0101915,-0.0717119,0.0504759,-0.0988437,-0.0319579,-0.0635597,0.100587,-0.0391703
0.0539858,-0.00991547,0.0215161,-0.0135891,-0.00989211,0.0416162,0.0637221,0.0944503,-0.0208525,-0.0189292,0.035649,0.0846786,-0.0343082,0.0219673,-0.0140231,0.0416661,0.00511095,0.0399662,-0.00863976,-0.0705385,0.0145101,-0.0337865,0.0420215,-0.0207743,0.0589935,-0.00315206,0.0266954,0.0223267,0.0497086,0.0431188,0.0635553,0.0482548,-0.0271005,0.0395418,-0.110837,-0.0345556,-0.0152104,0.121151,0.0212476,0.0451248,0.0589511,-0.0529471,-0.0499124,-0.0537283,0.0167744,0.00383002,-0.0915935,0.0287349,0.0310472,-0.0378106,0.0100619,0.0505909,-0.0528618,0.057492,0.0646955,-0.00705174,0.0620868,-0.00954138,-0.0380641,-0.0194717
0.0581686,0.0104059,-0.041091,-0.0117608,-0.0247071,0.0838613,-0.0242213,-0.0838016,-0.169081,-0.0494226,-0.0352955,-0.00512061,0.0538023,-0.0709757,-0.215041,-0.000303016,-0.0145582,0.0457106,-0.0235333,5.96507e-05,0.0551084,-0.0632966,-0.0189909,0.00511449,0.0129371,0.0516747,-0.0165325,0.0514403,0.0511399,-0.00802542,-0.0498783,0.04106,0.00727628,0.171812,-0.00961236,0.029554,-0.041765,0.0101817,0.00112361,0.032924,0.0522087,-0.0320501,-0.0436338,0.0383394,0.038494,0.0219456,-0.0790538,-0.0718266,0.0207772,0.138393,-0.0446649,-0.0228623,0.0988447,-0.0143044,0.00935697,-0.0411703,0.0545947,0.0159785,-0.0746646,-0.01684
0.0018973,0.110424,0.0956975,0.068119,0.0267727,0.0304159,0.0356057,0.0999312,0.120237,-0.0157359,0.0305271,0.0444492,0.0213369,-0.0550022,0.0183323,0.0622914,-0.00734806,0.0271309,0.0234257,-0.0426631,-0.00209135,-0.0453779,0.017399,-0.0735549,0.000505928,0.125543,0.0629004,0.0247369,0.0377781,0.019678,-0.00937962,-0.0597643,-0.0308179,0.0208492,0.000195601,0.0743175,0.0829953,0.0562644,0.00657739,-0.00641112,0.0178402,0.0127047,0.000458092,-0.106957,0.0400162,-0.0837897,-0.0125359,0.0517884,-0.0658666,0.0662278,-0.00679239,-0.0595073,-0.0154555,0.0636235,-0.0236246,-0.0915209,0.0597352,-0.0482164,-0.00929921,0.0675246
0.0413424,-0.0438694,0.0206933,0.104562,0.0517037,0.0948797,0.0587829,-0.00284168,-0.00257718,0.00742612,0.0808324,-0.0253374,-0.0463828,0.0388774,-0.0605516,-0.0204329,0.0747055,-0.0317924,-0.0370216,-0.0251094,-0.08155,0.00607803,-0.0189128,0.0467196,0.0143866,0.0536572,-0.00221502,0.0705745,0.0602991,-0.0279462,0.0523541,-0.076163,0.0299536,0.0308803,0.0103049,0.0742685,0.0160684,0.0908292,-0.00119451,0.0398873,0.0232143,0.0127858,0.0168998,0.118259,0.0172603,0.0888847,0.0471151,0.0129046,0.151232,0.0583881,-0.025911,0.0266613,0.0653521,0.00334285,0.0306226,-0.0234745,0.0258554,0.0386604,-0.0272668,0.0500606
-0.06931,0.00552293,0.0464918,0.0129529,-0.0408284,0.0112031,0.0535407,0.0833485,-0.0690078,-0.0232593,0.0128477,0.0665879,-0.0872554,0.0214155,0.0464965,-0.014467,0.0114979,-0.023922,0.00469286,0.0395084,0.078078,0.0323911,-0.0267611,0.0553833,0.0357798,-0.0544354,-0.0172135,0.0220894,-0.0492708,-0.0281625,0.0310439,0.00851588,-0.0283234,-0.00222204,-0.0407616,0.0215743,-0.037431,0.0377583,0.0125651,0.0319448,-0.0391356,0.137354,0.00867858,0.214037,0.0220051,-0.0209741,-0.0192218,0.0183979,0.014284,-0.0185778,0.0186848,0.13693,-0.00900184,0.0253631,0.0224312,-0.100969,0.00871674,0.00285455,-0.0335149,-0.0872478
0.0988852,0.0137776,-0.0570684,0.0422363,0.103615,0.0186492,-0.037511,0.0494806,-0.00454694,-0.0351542,0.0562805,0.132918,0.0499367,-0.00693448,-0.0399291,-0.00344252,-0.0917004,-0.0478723,0.0172234,-0.0601822,0.162497,-0.0582238,0.0263992,-0.0611122,-0.0119695,0.00564779,-0.0354545,0.0659,-0.0314354,0.0197215,-0.0104926,0.0491013,0.0108705,0.00742613,0.0325373,0.0585028,-0.0434531,0.0742763,-0.0494574,0.0161195,0.0685936,-0.0526741,-0.0266523,0.0474761,0.00485777,-0.0544023,-0.0696956,-0.0187598,-0.0141985,-0.0292921,0.00186689,0.0398489,0.138889,0.0237263,-0.01217,-0.0363909,-0.0436473,-0.0659472,0.0483759,0.0643927
0.0973634,-0.00365375,-0.0271826,0.0376925,0.0056754,0.0216622,0.0309575,0.0260687,0.0413376,0.0116923,-0.0178604,0.007037,0.0513082,-0.00831279,-0.0507993,0.0504727,0.0533965,0.000585747,-0.00259272,-0.0349699,-0.0177918,0.0497528,0.0409536,0.0748382,0.0709931,0.0746494,0.0291823,-0.0358726,-0.00934956,0.0824845,0.0939516,-0.0561751,-0.0171971,0.0857877,0.0780225,0.138539,-0.00727071,0.0385265,-0.00775693,0.0749152,-0.0713361,0.0040857,0.110709,0.0841758,0.0698377,0.0346105,-0.0228862,0.0643354,0.0286128,0.013135,0.0728654,-0.0148888,0.124324,-0.00452312,0.0416255,-0.0405901,0.0122327,-0.0425072,0.0281461,-0.179985
-0.0435524,0.0528774,0.0282544,0.0367319,0.0517519,-0.00907939,-0.0583464,-0.0957943,-0.0373582,-0.102501,-0.0613182,-0.0445516,0.0230189,0.0923789,0.0619473,-0.0366382,0.049066,-0.0248409,0.120639,0.0849729,-0.0231595,-0.0766489,-0.0365451,0.0387337,-0.0436047,0.0456638,-0.00469169,0.0803029,-0.0832879,-0.0423265,-0.00615998,-6.48447e-06,0.0379929,0.0201972,0.0735671,-0.030282,0.112907,-0.0356493,0.03023,-0.00581048,-0.0519965,-0.0857722,-0.0464473,0.026943,0.093236,-0.059359,-0.023609,0.0233252,0.068839,-0.0207252,-0.00443313,0.0189682,0.00350177,0.0233502,0.0522173,0.0419599,0.0312386,-0.0154418,-0.0171049,-0.029515
0.0672633,0.0164926,-0.0459872,0.00195855,0.0362098,-0.0253372,0.0230071,0.0590889,0.0724195,0.0701639,0.142776,-0.0537478,-0.0239929,0.0322352,0.0788561,-0.0592623,0.0387496,-0.0270892,0.0831756,-0.0769025,-0.0579889,0.053724,0.0610089,0.0881795,0.0550439,-0.0354257,-0.113832,0.0594255,0.070953,0.0302067,1,0.0167883,0.011954,0.0320708,0.0195767,0.0325185,0.0131978,0.118509,0.0120931,0.0545182,-0.0379179,-0.000230906,-0.0300447,0.000666528,0.0108597,-0.101301,-0.0887682,0.0789754,0.00291062,0.0968168,-0.0298574,0.0546667,-0.123163,0.0690922,0.0296733,-0.103551,-0.0208641,-0.102368,-0.0564931,-0.0243504
0.0213373,-0.0895257,-0.00258642,-0.0406712,-0.0459264,-0.0820337,-0.0238502,-0.0914961,0.0131159,0.00711197,0.0544301,-0.0425909,-0.0616634,-0.00987953,-0.0653116,-0.0272219,0.0826537,0.0707732,0.0776477,0.0530134,0.0353828,-0.00942003,-0.034165,-0.0026999,-0.0171407,-0.00976022,0.0110449,0.0554936,0.0130665,-0.134355,-0.0793018,-0.0332541,0.0330677,-0.0619993,-0.0188886,-0.00463441,0.0421978,-0.0774636,-0.0976425,0.0241675,-0.0594219,-0.0137135,0.0232696,0.0515396,-0.0987414,-0.0366219,0.0385083,0.0245098,-0.0409287,-0.0239977,0.0394823,-0.0309183,0.0725522,-0.0555944,0.101869,-0.0275509,-0.109979,-0.0263731,-0.029202,0.00439233
-0.0283653,-0.0424233,0.04658,0.00531158,0.052535,0.0301621,-0.0152502,-0.0538862,0.0326118,0.0567266,-0.0195063,0.0630463,-0.0193296,-0.0182253,-0.0801369,0.0790553,0.0287792,0.134627,0.0400299,-0.0536068,-0.0359014,0.0731713,-0.0608844,0.0363451,-0.00048835,-0.0350161,0.0463969,0.0223938,-0.0546601,-0.0221354,0.0923419,-0.0386387,0.0173438,0.0447667,-0.0832061,0.0436941,0.0543816,-0.0621608,0.0402269,0.0392809,-0.0206058,0.0191813,-0.0463682,-0.0244007,0.0265129,-0.00599243,0.0489637,0.07583,0.0239188,0.0183633,0.0357683,0.0748931,-0.133458,-0.0643545,0.00993353,0.0383927,0.00725951,0.121953,0.118574,-0.0490516
-0.0320764,-0.0256307,0.0396126,-0.0294543,0.0874196,-0.0102812,0.0215271,5.29654e-05,0.043408,0.0269525,-0.0076664,-0.0131289,-0.00574139,-0.0200724,-0.0205359,0.0260837,-0.00386765,0.040623,-0.0648444,0.0539134,-0.019932,0.00877314,0.0486958,-0.0846497,-0.042947,0.0540128,-0.0594714,-0.0522394,-0.0144817,0.00595422,0.000919836,-0.00302176,-0.0564316,0.0899896,-0.110813,-0.11429,0.0875731,0.0162815,0.0261874,0.00511942,0.0781626,0.0172408,-0.029697,0.0383435,0.0817873,-0.0679813,0.0951711,-0.0283234,0.0883064,0.0190611,0.0520445,0.0501472,-0.041638,-0.0253182,-0.0500221,-2.9874e-05,0.0736949,0.0238243,0.020903,-0.0750281
-0.0440686,0.0691772,0.0142735,0.0100068,-0.0664136,-0.0383277,0.0314568,0.0923262,-0.146899,-0.0430179,0.046565,-0.00406286,0.0456164,-0.00653558,0.0601227,0.0140763,-0.0372852,0.0444469,0.0215835,0.0833758,0.0635653,-0.111777,-0.0167015,-0.0684254,0.0790771,-0.0053192,-0.0165342,-0.0548175,-0.0108275,-0.0874228,-0.0947361,-0.0140057,-0.0591489,0.015271,0.0837553,0.0877318,-0.0889251,-0.0824477,0.0119536,0.0747938,0.0921696,0.114941,-0.0798912,0.0545639,0.0504352,-0.0345703,0.00739746,-0.00754465,0.174394,-0.0244862,-0.00026836,-0.00369496,-0.033608,-0.0736965,0.0548507,-0.0745554,-0.0361093,0.0594006,-0.000975072,0.00571216
0.0214996,-0.0468161,-0.121503,-0.101468,0.0135991,0.0578363,-0.0762877,0.0313979,-0.0395267,-0.0494039,-0.0109737,0.0686536,0.00733377,0.0699121,0.00783252,0.0174902,-0.0600185,-0.0587131,0.075241,0.0355428,0.031125,-0.0554676,-0.00315675,0.00357579,-0.0309451,0.0891647,0.0798227,0.0266116,0.0249837,0.0597697,0.0746547,-0.113255,0.0998093,0.0121843,-0.0231783,0.057646,-0.0439029,0.000755057,-0.000300366,0.0164159,0.0286281,-0.06854,0.0497975,-0.0180283,-0.0612438,0.0412522,0.0950286,-0.017885,0.0754546,-0.0313426,-0.0104567,0.0369823,0.0479201,-0.0488783,0.0534964,0.122702,-0.0365883,0.0162815,0.0868197,0.0634742
0.083617,-0.0059052,0.0349642,0.103215,0.035365,0.0143403,-0.0567246,-0.0282423,-0.0216079,0.0779085,0.0191799,0.0536998,0.0478587,-0.0408203,-0.0161828,-0.00616985,0.00544788,-0.0291114,-0.00229337,-0.00514062,0.0110776,0.0341949,0.0134398,0.0978328,-0.0484812,-0.002445,-0.0767481,0.00302793,-0.0337026,0.0145256,0.0542375,0.034605,0.0732858,-0.0917737,-0.0138877,-0.0550247,0.041983,0.0193459,-0.0520764,0.00454338,-0.00719407,0.0601547,-0.0296387,0.0618534,0.0554968,-0.0566651,0.0179598,-0.0791194,0.106456,-0.00211072,-0.0469108,-0.0470745,0.119923,0.0899396,0.00226074,0.0286486,0.0912852,0.0492278,-0.00489672,-0.063139
0.00465815,-0.103538,0.0147686,0.0822362,-0.126241,-0.00128971,-0.012981,0.0887034,0.0679349,-0.0104452,-0.0562397,0.0207146,-0.00981098,-0.0233268,0.0504976,0.0359367,0.0327388,-0.0463775,0.0470921,0.129793,0.0269046,0.00584217,-0.0211613,0.0708312,-0.0202203,-0.032172,-0.00933768,0.0671783,-0.0878104,-0.0358533,0.0866785,0.1135,-0.0615055,0.106526,-0.00270421,0.0195063,-0.0554463,0.0664958,-0.00849041,0.068484,0.112046,0.0545548,-0.0583828,-0.0870609,0.0909292,0.0579778,0.113116,-0.04194,0.0690473,0.0475449,-0.0394376,0.0256325,-0.0270569,0.100125,0.0794743,0.0388342,0.0210497,0.0701748,0.101552,-0.0214359
0.0578821,-0.000137125,0.126783,0.0331879,0.0142265,0.107254,-0.0250328,-0.0666635,0.0487768,0.00511189,-0.0380457,0.0705374,0.0374424,-0.000559923,0.0472768,0.0340569,0.0805769,-0.0103029,-0.0154648,-0.0516861,-0.0512411,0.0990367,-0.0436372,0.0412098,0.00603391,-0.050991,0.0672437,-0.0763734,-0.0781615,-0.0651745,-0.0684782,-0.0986383,-0.105291,0.0956741,-0.0198425,0.037748,0.0312444,0.0678187,-0.0490817,-0.0567809,0.0519777,0.0523286,-0.0151847,0.0435402,-0.0305646,0.0452219,-0.0129792,0.00302226,-0.00077518,0.0492189,0.0683993,-0.0386018,-0.0569028,0.0594071,-0.00810502,0.0302366,0.144308,0.0865334,0.0909017,-0.00857966
-0.0355696,-0.00646778,0.12642,0.0517317,-0.0599719,-0.125692,-0.0523126,0.0113132,-0.0280486,-0.0208187,-0.00754489,0.0640361,0.0877816,0.0824193,0.00643941,-0.0499428,0.0312139,0.025136,0.0243176,0.0108734,0.0204143,-0.0107084,-0.0253184,-0.0464371,0.0572143,-0.0129241,0.0186024,0.0428506,-0.0581755,-0.0252912,0.0661934,0.0223821,0.0252916,0.0704318,-0.105645,-0.0093843,0.0316677,-0.076215,0.0245429,-0.0843995,-0.00849203,0.00122381,-0.0514284,-0.0283092,-0.0816407,-0.00436863,0.111867,-0.0165186,-0.00890937,0.0453229,0.0573476,0.0814877,-0.0217261,-0.0465734,0.0532367,-0.038613,-0.0322852,0.130394,0.0482406,0.081023
-0.0810713,0.0665007,0.115793,-0.0356887,-0.0469909,0.0322915,-0.0993454,0.110227,-0.0911562,-0.0346728,-0.0177591,-0.0342259,0.0163078,0.034806,0.0614367,0.128001,0.103831,-0.0547153,0.0166329,-0.0345149,-0.0149967,-0.0165167,0.00217701,0.0366995,0.02554,0.0577392,-0.140083,0.0153334,-0.0289933,-0.0909778,-0.0115673,0.117493,-0.0138286,-0.0368644,-0.056941,-0.0265445,-0.0393988,0.0285738,0.0670696,-0.00733759,-0.0895387,0.037441,-0.0182049,0.00809302,0.188342,-0.0383509,0.055689,0.0376114,0.0086807,0.00786108,0.00189924,0.138408,0.179858,-0.00314493,0.0619868,-0.0511891,-0.0409701,0.0497421,-0.00576577,-0.0114759
-0.0445574,0.0345535,0.0285066,0.0490068,-0.0370326,0.0010924,0.0618044,0.0351195,-0.000636792,0.0135258,-0.040698,0.0163494,-0.0431979,0.074964,0.00269885,0.0357737,-0.0119316,-0.014044,0.00669182,0.113003,-0.0900528,0.113331,-0.0276128,0.00123246,-0.0815106,-0.0552032,-0.149901,-0.0351041,0.0246298,0.0175182,-0.0645996,-0.017163,0.0282844,-0.0473373,-0.0346304,0.0505749,0.0697982,-0.0622046,0.036181,0.120571,0.0709297,-0.0388717,-0.0122093,-0.00101732,0.0214832,0.0266175,0.0364824,0.0783682,0.127228,0.0495879,0.061367,-0.000345786,-0.0395958,0.150987,0.016133,0.0540002,0.0380866,-0.0461876,0.0307225,0.0864506
0.0281642,0.0578803,-0.085045,0.0235557,-0.0223655,0.0674357,0.0357911,-0.016706,0.092627,0.0257322,-0.0865344,0.000201061,0.016205,0.0102778,0.00505504,0.00538418,0.0273929,0.0107439,-0.0168073,-0.138038,0.149504,-0.0983204,0.0246079,0.0354986,-0.0142342,-0.00310933,0.0438143,-0.0267946,0.00540338,-0.0567138,0.00859749,0.0557932,0.101978,-0.0272219,-0.0530757,0.0220429,0.0404636,0.00344367,-0.0198417,0.0228459,-0.0176912,-0.0314951,0.0268925,0.0021672,-0.0796087,0.0361752,-0.00074522,0.0220861,-0.0253068,-0.00258795,-0.0352001,0.00763434,-0.0045016,-0.0433912,0.0291175,-0.040394,0.0232339,-0.00257003,0.0335758,-0.0503145
0.0836916,-0.11799,0.0581639,-0.0417416,-0.0630184,0.0789643,0.072638,-0.00477984,-0.00136291,-0.0123044,-0.0779194,-0.00117975,-0.000567536,0.0119527,0.0521001,0.0188322,0.0752954,-0.151011,0.0577829,0.0810328,0.00319932,0.0377554,0.0291703,0.0684345,-0.0415085,-0.0275966,-0.0378332,0.0176617,-0.0773506,-0.00517374,0.050916,0.00646988,0.0145861,-0.0179177,-0.11916,-0.0850982,0.0952974,0.066714,-0.0383642,-0.010651,-0.0199947,0.0671599,0.0260783,-0.0715365,0.000974044,-0.0855755,0.0277478,0.0601911,-0.00821129,0.0504532,0.000440736,0.0814864,-0.0260952,-0.0141928,-0.0507258,0.0408417,-0.0373947,-0.00728302,0.0328135,-0.024973
0.0278501,-0.0219197,0.0334719,-0.00576781,0.0973365,0.00773028,0.046503,0.0913494,0.070954,0.0711996,-0.0540286,0.0120094,-0.0225789,0.0682982,0.0199568,-0.0891296,-0.0245448,-0.0466551,0.00391157,-0.0584413,-0.0422022,-0.0168351,-0.0712286,0.0181348,-0.102796,-0.00263895,-0.0272209,0.00902648,0.07673,0.0326055,0.0628968,0.0150735,0.0620569,0.0591335,-0.00363804,0.071085,-0.0227556,-0.0562739,-0.0301808,0.0529382,0.0112291,-0.0551749,0.0171913,0.0251684,0.0592173,0.0275995,-0.00848616,0.0345077,0.0705721,0.054675,0.000611048,0.12412,-0.0861832,0.0368547,0.0443612,0.000974493,-0.000414115,0.0818192,0.00445161,-0.100816
-0.0355084,-0.0210562,-0.0460299,0.0447945,-0.0233982,0.053705,0.026551,0.108284,0.0322961,-0.00401025,0.0144263,0.0487777,0.0484593,-0.042153,-0.0654707,-0.146374,-0.0348261,0.0206437,-0.00432045,-0.00236342,-0.0295692,0.0667565,-0.0490016,-0.0123947,0.0355165,-0.0234618,-0.0725426,0.0521324,0.0587269,-0.0219635,-0.0460547,0.0828765,0.0325825,0.00368744,-0.0193925,0.00825858,-0.0291363,-0.0119776,0.0538616,0.0137414,0.0848687,0.108646,0.0757239,0.00652043,0.0568759,-0.0869395,0.0653935,0.0133991,-0.0323594,-0.0657844,0.0849676,-0.0295219,-0.134766,-0.00830337,-0.0474095,0.00443098,-0.0335952,-0.0339701,-0.0454571,-0.043539
-0.0111925,0.101565,0.0266157,-0.0548932,-0.0331883,-0.00597517,-0.0234835,0.0156869,-0.0462143,0.0387522,-0.046108,0.0210582,-0.0461754,0.0785624,-0.0119495,0.0151406,0.000454434,0.0294841,0.0399169,-0.00627236,0.0129002,-0.0252836,-0.0291108,-0.0608275,0.0393933,-0.081822,0.00617412,-0.0525289,-0.0544177,-0.0233561,-0.0371111,-0.0837632,-0.0334715,0.0556556,-0.0349718,-0.0837805,-0.0745749,0.08276,0.0172917,0.00204921,0.0582568,-0.0412779,-0.0323246,-0.0690827,-0.0617194,0.0695261,0.0237734,-0.0540426,-0.0922968,0.0210933,0.0757331,0.0723822,0.0484024,0.0558465,-0.122143,-0.0373548,0.0363111,0.0295324,-0.00566,-0.0233719
0.00142939,-0.0132042,-0.00991191,-0.0400428,-0.0878833,0.0487121,0.0756304,0.0268987,-0.0084191,0.0655752,-0.0599496,0.0711084,-0.0146739,0.0574617,0.172195,0.0699692,0.0201216,-0.0106574,0.0539517,0.0306627,0.0524986,-0.0537936,-0.063155,-0.0658447,-0.0326522,0.0456494,-0.0241222,0.092761,-0.0429555,-0.043053,0.0171323,-0.00999541,0.0235213,-0.052207,-0.00530916,-0.049902,-0.00819215,-0.00742241,-0.00478281,-0.00911787,-0.00605465,-0.0343763,0.0253466,0.0408692,-0.0880285,-0.0313278,0.0451838,0.0813834,-0.0618388,0.00446265,0.0226711,0.128535,-0.0156569,0.04163,0.0208746,0.000639719,0.0324521,0.0176467,0.0478602,0.0577506
-0.0426346,0.0308582,0.0401862,-0.0906767,0.0638537,0.0328178,0.0669186,0.00593154,0.00874869,0.112086,-0.0865588,0.0129644,0.0656278,-0.0152011,-0.00584583,-0.0826053,-0.0165824,-0.0167335,-0.00597085,-0.0101015,0.056049,0.0445751,0.0302097,0.0598331,0.0589931,0.0546195,-0.0205847,-0.129911,0.00584822,0.0377146,0.00571889,-0.0354037,-0.0425575,-0.124085,0.0902283,-0.0273466,-0.0310661,-0.0118685,0.0748261,0.00557014,0.0442601,-0.0248415,-0.0170966,-0.0266681,0.00447839,-0.0088469,0.0394862,-0.027186,0.0115669,-0.0136734,0.00268538,-0.0190343,0.0303162,0.101855,0.024565,0.0885838,-0.0113852,-0.0405342,-0.031372,0.0201493
0.0413289,0.0766643,0.011015,0.0320586,0.0912103,-0.00207622,0.0774895,0.0440214,-0.0227825,0.0163501,-0.0587513,0.127813,-0.00731222,0.0295406,0.0391854,0.0776587,0.100488,-0.0450813,0.00886269,-0.00895416,0.0621262,-0.0632424,0.0399634,0.0491521,0.00836281,0.0842928,0.0353284,0.0501814,-0.0924116,-0.0191236,0.14751,-0.0320536,0.00363701,0.00669975,0.048048,-0.0766773,0.0156226,0.117529,0.0137658,0.00835315,-0.0292666,-0.0690009,0.0328411,-0.0937851,0.0356574,-0.0383634,-0.0249706,0.0970933,0.0215123,0.0259859,-0.0377049,0.0540517,0.0317244,-0.0353721,-0.0323472,0.0423635,0.0347426,0.0519323,-0.00558675,0.136087
-0.0464349,0.0450164,0.056522,-0.0150132,-0.0662333,-0.0563062,0.10153,0.00206207,0.0585007,-0.0468906,0.0148446,0.0227961,0.0696904,-0.0377633,-0.0908718,0.100964,0.0631343,-0.035816,0.111655,0.175454,-0.00438691,-0.0453547,0.0745533,-0.0776132,-0.0509983,-0.0390201,-0.0640937,0.00451777,0.0382192,-0.0512601,0.0536877,-0.013159,-0.0407228,0.0680298,0.0735293,-0.0178224,-0.0252014,0.0113415,0.087152,-0.00593927,-0.0660387,-0.051507,0.0133016,-0.00913261,-0.0651025,-0.00297723,-0.0939309,-0.0188273,-0.0410578,-0.0116348,0.095283,-0.0214844,0.0786941,-0.0348461,0.0632814,-0.00856087,0.0474529,0.0434167,-0.0852277,0.0050669
0.067771,-0.0302427,0.0450034,0.0674198,-0.0582247,-0.0103012,-0.111502,0.0184785,-0.0486138,0.0785184,0.11683,-0.0291726,0.0477321,0.0970735,-0.0951579,-0.0501726,-0.102853,-0.074493,-0.0165031,0.0116237,-0.0546592,0.0356469,0.0324976,-0.0999401,-0.0281489,0.0330958,0.0799999,0.0265447,0.0102379,-0.0647316,-0.102086,-0.1252,0.0813472,0.0232083,-0.0056627,-0.0170424,0.0106025,0.0675965,-0.00809556,-0.0348756,0.0824314,0.024438,-0.00878781,0.0550825,-0.0339371,-0.00926988,-0.0481624,0.0473068,0.0193544,0.000778622,0.00215287,0.03048,-0.0332362,-0.00529651,0.000840015,0.0566752,0.0309888,0.0592014,-0.0943195,0.0256572
0.13829,-0.0355384,-0.000726579,-0.0485522,-0.0754691,-0.108379,0.0225859,-0.0362902,-0.0359431,0.0400599,-0.0298938,-0.0116272,-0.0460053,0.0293919,-0.0182385,0.0388125,-0.0427348,-0.0471016,0.0452351,-0.0215272,-0.0556685,-0.00744402,-0.0372045,-0.0216923,0.031534,-0.0463126,0.0467619,0.00229156,-0.0775699,0.0348914,-0.0904116,0.0303317,-0.0125071,-0.0700826,-0.0181821,0.118325,0.0655882,0.13205,-0.0447408,0.00975407,-0.0028066,-0.0329285,-0.0105516,0.0432751,0.029173,-0.0493956,-0.0303763,0.0519871,0.0362343,0.0229795,0.00435061,-0.0452392,0.0597927,-0.0531356,0.045777,-0.0340261,0.0443153,-0.098739,-0.0599262,-0.0105441
0.071341,0.0400672,-0.0296892,0.0272043,-0.0193441,-0.0132029,0.0287943,0.038727,0.0354424,-0.0189545,0.0703963,-0.0286116,-0.0271422,-0.00917451,0.00604519,0.0291331,-0.0142379,-0.0163263,-0.0226419,-0.0134227,-0.0294897,0.104569,0.0163256,0.119411,0.00910496,-0.00237039,-0.0400891,0.0806018,0.0233838,0.0432295,0.00365693,0.0188475,0.0363585,-0.0344529,-0.0032849,-0.0202166,-0.0274848,-0.00598361,-0.0284301,-0.00213437,-0.00259124,-0.107766,0.0931526,0.0320554,0.0406472,-0.0134902,0.0578744,0.0318876,0.0127806,0.0503888,-0.0287825,0.0804374,-0.0373431,0.0844469,-0.0596009,-0.0605597,0.0297633,-0.00761921,0.0554921,0.0296271
-0.157035,0.0405384,0.115525,-0.0601619,-0.00764253,0.0828846,0.0272625,-0.0445402,0.0541047,0.0512779,-0.0403378,0.160265,-0.0229508,-0.0589208,0.00431056,-0.112471,0.00981729,0.0745767,0.0296547,0.0226933,-0.0191757,0.0354359,0.00534185,0.0479243,-0.0354482,0.0868098,-0.0188973,-0.0683941,0.0619924,-0.040464,-0.0461437,-0.00400469,-0.0248352,-0.048099,0.00999317,-0.025867,0.0294095,0.00108884,0.00904951,0.0195009,-0.0714512,0.0191713,0.0128643,0.0216591,-0.00628924,0.104604,0.0746569,0.00725813,0.112973,0.0987883,-0.0662461,-0.0287388,0.0327596,0.0607838,-0.0628328,0.0340178,0.0939735,0.0168135,0.0833259,0.0251156
-0.0127042,0.0514888,0.0602385,-0.0479834,0.00160314,-0.0906226,-0.0685218,0.0981951,-0.0116433,-0.0766651,-0.0881468,0.054797,-0.0256286,0.000465173,-0.0299397,0.144539,-0.00149204,0.0636674,-0.00946226,0.0756358,0.117619,0.0758823,0.00100248,0.0511477,-0.0362744,-0.00371027,0.0192076,0.0247457,0.0110273,0.0316359,-0.0214535,0.025202,-0.0604889,0.0288788,-0.0552883,0.062356,-0.0601548,-0.00994974,-0.0177902,-0.0337203,0.0432126,-0.0696193,0.108896,0.0115974,0.0243155,0.00695684,-0.0325548,0.0575404,0.0372876,-0.0649978,0.00150151,-0.00444047,0.057977,0.022044,0.064828,0.111049,0.0112694,-0.0376821,-0.106022,0.0258017
-0.0797015,0.0321445,-0.0670172,0.060292,-0.000712866,0.013841,-0.0208864,-0.00542893,0.0574504,-0.0253163,-0.011555,0.0560425,-0.0622949,-0.0386165,-0.0764738,0.00904816,0.0334722,0.0711117,0.0967645,-0.083204,-0.0342846,0.0418846,0.0567825,-0.0778722,0.125202,0.0218666,-0.0243202,0.0766533,0.0873134,0.0645981,0.0109501,0.0316069,-0.0286169,0.0341254,0.0406959,0.0692517,-0.0468269,0.0280481,-0.0117483,-0.0231091,0.0382276,-0.00405991,-0.0846013,-0.03419,0.00227051,-0.0517872,0.00928699,-0.0191015,-0.0993826,-0.0206702,0.0173152,0.000230273,-0.0671656,0.0139378,-0.0179416,-0.00509011,0.100213,-0.00625481,0.0246923,0.0307104
-0.0839901,0.0491762,0.0394082,0.020182,-0.0559707,-0.0136936,0.029446,0.000783107,0.010405,0.0198514,0.0462219,-0.0862198,-7.83667e-05,0.0332017,0.046491,0.00727737,-0.0193429,-0.0596304,0.0191968,-0.062365,0.0653444,-0.0603619,0.0226981,0.0313242,-0.00829337,0.0534649,-0.0159004,0.0456786,0.0385263,-0.0444625,-0.0561054,-0.084365,-0.0695641,0.0374428,0.00649201,0.0412702,0.0958946,-0.00769645,0.0110311,-0.0684831,-0.0255705,0.0111491,0.0493418,0.0765829,-0.045478,-0.0308677,0.00899465,0.0916288,-0.0729141,0.0368931,-0.059564,-0.0530623,-0.0308077,0.0491439,0.0805272,0.0870728,-0.0822448,-0.0514145,-0.132433,0.0774527
0.0637261,0.104972,0.0708058,0.0709212,0.00978188,-0.0409119,0.0400458,0.0866488,0.0211543,-0.051912,-0.111314,0.027366,0.0912745,0.0164263,0.0669067,-0.0195727,0.0529099,-0.0262158,0.0469474,0.0141378,0.0459424,-0.0285137,-0.0286847,-0.056126,-0.0264345,-0.0257759,0.0500166,0.134374,0.0111018,0.0157554,-0.00754481,-0.0481978,0.0825528,-0.0192069,-0.026283,-0.062029,0.0580453,0.0359161,-0.0297788,-0.0778107,0.00171072,0.0549298,-0.063848,-0.0317128,0.07563,-0.0621969,0.0186402,-0.0401589,-0.0625161,0.0100885,-0.0287435,0.0576768,0.0334509,-0.0144717,-0.00158826,0.000397068,0.0251505,0.0352749,0.0272499,0.039916
0.049172,-0.0113083,0.0210474,0.0754836,0.0233982,-0.0722803,0.0496156,0.0077814,0.0274501,0.108288,-0.000208999,0.00728516,-0.0104883,-0.0306166,0.012345,0.0872213,0.00200831,-0.0735031,0.0469565,-0.0341226,0.0279812,0.00380052,0.0365595,0.0037882,0.0311652,0.0173923,0.00519438,-0.0763537,-0.0196308,-0.0745966,0.0216423,0.059104,-0.0149308,-0.0589142,-0.0189675,-0.0512875,-0.0638316,0.0978053,0.0204919,0.0172252,0.0900561,-0.0252169,0.00144572,-0.0753631,0.040339,0.00330582,0.00325806,0.0186002,0.025819,-0.121004,-0.00295016,-0.0982254,0.0231272,0.108461,-0.0421971,0.104421,-0.0857477,-0.029508,0.00728431,-0.0450809

max: 1
min: -0.215041
avg: 0.00846381
