1.73723,1.68907,1.62091,1.72372,1.77049,1.68604,1.70223,1.74366,1.64422,1.66063,1.68754,1.7188,1.75461,1.68236,1.69513,1.66098,1.6765,1.67668,1.68459,1.59276,1.74125,1.71357,1.65801,1.68806,1.6573,1.64806,1.60894,1.66912,1.66887,1.71001,1.64346,1.68714,1.64371,1.60996,1.67595,1.68258,1.72365,1.64646,1.69276,1.75613,1.67589,1.60746,1.68353,1.67536,1.68581,1.65856,1.67394,1.69191,1.69847,1.72132,1.70713,1.65935,1.77776,1.66058,1.69629,1.76508,1.73892,1.70111,1.72178,1.69448
1.61946,1.65641,1.66776,1.68612,1.6912,1.6889,1.63357,1.69378,1.65361,1.6862,1.69719,1.67751,1.66525,1.74313,1.6129,1.5966,1.74669,1.64299,1.67602,1.66208,1.67379,1.6769,1.70118,1.71469,1.687,1.70667,1.65728,1.59598,1.65077,1.65603,1.75516,1.65099,1.74322,1.70245,1.61982,1.6853,1.76287,1.70972,1.65744,1.67657,1.73722,1.72341,1.71525,1.77385,1.7033,1.66455,1.70265,1.65122,1.71592,1.61309,1.69371,1.70128,1.62611,1.6477,1.62742,1.67942,1.68096,1.66801,1.73847,1.68826
1.67472,1.70906,1.71209,1.63998,1.68789,1.65634,1.66961,1.70305,1.75008,1.75412,1.71103,1.64957,1.72798,1.647,1.64427,1.66809,1.731,1.68732,1.73019,1.63858,1.67938,1.67305,1.64788,1.66946,1.61218,1.6464,1.6825,1.63391,1.64646,1.69025,1.67662,1.69254,1.63837,1.71655,1.70657,1.66916,1.59648,1.68647,1.66822,1.67845,1.66544,1.69142,1.72338,1.71671,1.68113,1.72667,1.67993,1.66066,1.61917,1.73585,1.59754,1.73505,1.71699,1.68968,1.65229,1.68055,1.62839,1.6567,1.67643,1.66914
1.62066,1.66197,1.73047,1.60999,1.62894,1.69776,1.67085,1.73164,1.62948,1.68672,1.65998,1.72183,1.67739,1.72183,1.75597,1.65997,1.63494,1.69274,1.72176,1.68755,1.65848,1.73407,1.69987,1.59943,1.76103,1.67768,1.64545,1.61831,1.7161,1.76332,1.65065,1.75964,1.63452,1.63827,1.62193,1.67592,1.65645,1.72006,1.67785,1.70462,1.65033,1.73357,1.66656,1.6415,1.70638,1.70697,1.72412,1.70782,1.67844,1.69706,1.71492,1.63663,1.68546,1.68349,1.63088,1.64596,1.6397,1.68777,1.68508,1.68783
1.71549,1.71334,1.65734,1.6891,1.67886,1.67096,1.71287,1.66261,1.66025,1.68987,1.69867,1.63407,1.67146,1.69444,1.64078,1.70383,1.7062,1.72602,1.62139,1.63311,1.66897,1.75611,1.63903,1.69529,1.67352,1.73862,1.70339,1.6374,1.6806,1.65498,1.68839,1.66143,1.65728,1.63993,1.69136,1.65463,1.65301,1.71448,1.66702,1.66774,1.74749,1.71822,1.6517,1.70228,1.74319,1.725,1.62939,1.68663,1.66167,1.70034,1.72863,1.68461,1.71187,1.68858,1.67694,1.7247,1.65961,1.71205,1.62314,1.67327
1.64689,1.65313,1.6495,1.73928,1.65461,1.59635,1.68004,1.68396,1.62124,1.72909,1.71601,1.72857,1.61543,1.59311,1.73309,1.63411,1.57147,1.62095,1.68954,1.71359,1.74287,1.66529,1.65865,1.67519,1.68824,1.65354,1.70575,1.64986,1.66459,1.68436,1.68008,1.64994,1.63599,1.67668,1.6504,1.63997,1.68287,1.6857,1.62564,1.67581,1.65996,1.68192,1.67924,1.77962,1.6807,1.65284,1.62892,1.7301,1.68931,1.65109,1.72818,1.69211,1.69478,1.73653,1.72257,1.70485,1.6715,1.74485,1.57909,1.63909
1.71751,1.69588,1.68706,1.66224,1.6887,1.68499,1.64413,1.70861,1.71903,1.68862,1.73096,1.60517,1.70136,1.69345,1.60601,1.68368,1.64897,1.60285,1.69447,1.68756,1.63932,1.68758,1.70069,1.70131,1.75664,1.65031,1.65075,1.70615,1.60884,1.63704,1.61209,1.74833,1.65148,1.72314,1.70949,1.63386,1.77577,1.65665,1.73174,1.64535,1.62742,1.67868,1.66173,1.64484,1.54697,1.63595,1.70211,1.63559,1.61459,1.66824,1.66223,1.61039,1.7108,1.70908,1.74894,1.72742,1.7319,1.74263,1.65573,1.65771
1.67809,1.7056,1.68399,1.6608,1.69471,1.71909,1.69241,1.69823,1.71726,1.67777,1.66673,1.64846,1.60577,1.72867,1.74569,1.68716,1.70378,1.64456,1.6468,1.67046,1.65232,1.65846,1.6838,1.63428,1.72153,1.6792,1.69837,1.73458,1.72784,1.67293,1.70093,1.63328,1.66386,1.67743,1.63568,1.64524,1.66731,1.67328,1.64335,1.70444,1.71365,1.64371,1.64624,1.6907,1.65371,1.66232,1.63809,1.62501,1.70201,1.65697,1.70978,1.67703,1.68598,1.6065,1.68593,1.69468,1.66312,1.62104,1.74128,1.57585
1.69472,1.68251,1.7665,1.77179,1.68061,1.77515,1.62352,1.61752,1.68123,1.68487,1.65761,1.70336,1.68176,1.6692,1.7204,1.72194,1.65276,1.67646,1.7534,1.72142,1.69209,1.70831,1.66988,1.70744,1.67447,1.62336,1.72417,1.66249,1.66186,1.63376,1.77066,1.67911,1.67825,1.64921,1.82283,1.61309,1.6415,1.6425,1.67351,1.68142,1.76519,1.74336,1.63843,1.62663,1.69078,1.70109,1.62773,1.7583,1.69464,1.65225,1.67214,1.7173,1.63631,1.62278,1.60794,1.67925,1.69137,1.74328,1.63585,1.67493
1.70899,1.70015,1.61915,1.66972,1.7065,1.65224,1.64609,1.73808,1.67307,1.70001,1.65717,1.68705,1.60159,1.68613,1.68789,1.72326,1.67525,1.7473,1.65864,1.67166,1.6919,1.66037,1.65256,1.67811,1.65771,1.69233,1.66548,1.63748,1.62014,1.64709,1.75507,1.73507,1.68952,1.633,1.74418,1.77292,1.76151,1.72222,1.73417,1.62562,1.67885,1.69419,1.69762,1.70392,1.69177,1.67148,1.62937,1.75228,1.64065,1.6246,1.72807,1.68878,1.6518,1.72601,1.74454,1.76732,1.66535,1.73954,1.75326,1.69419
1.63596,1.68062,1.70832,1.62535,1.71905,1.56259,1.68526,1.70408,1.67797,1.6673,1.67525,1.59595,1.69042,1.62482,1.69542,1.66189,1.72914,1.6603,1.75585,1.62826,1.68217,1.61932,1.69246,1.67659,1.65282,1.68433,1.66679,1.60506,1.67259,1.64881,1.73472,1.66805,1.73822,1.65597,1.61957,1.72511,1.68086,1.73011,1.69215,1.63256,1.67426,1.70174,1.62777,1.69091,1.70248,1.67998,1.64766,1.63877,1.70701,1.65263,1.7062,1.64923,1.67181,1.66259,1.64558,1.78448,1.56293,1.72743,1.69542,1.72615
1.68187,1.72636,1.72133,1.64142,1.73878,1.69446,1.65024,1.65369,1.65712,1.74246,1.6884,1.62763,1.72688,1.72808,1.67364,1.67284,1.71424,1.76511,1.67556,1.66822,1.68833,1.76691,1.67515,1.66141,1.53404,1.72908,1.6808,1.61707,1.66494,1.6978,1.73315,1.68461,1.59443,1.60281,1.67369,1.67365,1.67007,1.69576,1.60583,1.72299,1.63257,1.71508,1.70545,1.58952,1.71686,1.69677,1.63502,1.69387,1.66482,1.70499,1.63089,1.68424,1.63918,1.69047,1.68771,1.67878,1.6691,1.7205,1.6666,1.74264
1.76683,1.66396,1.76672,1.66069,1.65663,1.67785,1.65302,1.63764,1.70554,1.64405,1.6396,1.58637,1.71941,1.70399,1.66466,1.68495,1.68962,1.70275,1.69162,1.68788,1.70678,1.66204,1.70721,1.62981,1.73776,1.98996,1.63377,1.69982,1.7038,1.66119,1.64798,1.74727,1.61683,1.71057,1.68917,1.7258,1.73629,1.67085,1.6952,1.7477,1.66703,1.67989,1.68533,1.68319,1.65387,1.64314,1.67463,1.68504,1.71761,1.67917,1.64564,1.62874,1.60123,1.67913,1.67235,1.7168,1.65524,1.70933,1.65088,1.67179
1.68086,1.69621,1.65269,1.57418,1.64544,1.70813,1.65627,1.64329,1.72714,1.61477,1.63947,1.65439,1.64424,1.62386,1.63414,1.71112,1.66761,1.65427,1.65498,1.68895,1.64085,1.70177,1.61687,1.65955,1.6947,1.7058,1.63538,1.72782,1.70643,1.66169,1.70323,1.69762,1.67596,1.72971,1.68343,1.65059,1.68345,1.66163,1.65475,1.65125,1.62421,1.62312,1.68172,1.68735,1.63725,2.03156,1.69089,1.69528,1.64884,1.77404,1.67765,1.72115,1.71145,1.75476,1.72967,1.68329,1.67375,1.75741,1.71577,1.67132
1.58691,1.68629,1.67762,1.61498,1.70029,1.70618,1.66442,1.69028,1.68006,1.74024,1.73474,1.67476,1.70242,1.65279,1.69464,1.70422,1.65229,1.67243,1.61389,1.68174,1.68168,1.71928,1.69154,1.66199,1.68032,1.63898,1.64152,1.67873,1.65409,1.64096,1.68367,1.61819,1.7254,1.6597,1.58158,1.71666,1.68998,1.76894,1.58023,1.73497,1.6521,1.67918,1.6724,1.68889,1.68932,1.69441,1.66129,1.66265,1.65081,1.72066,1.67743,1.69778,1.77408,1.74074,1.64846,1.73681,1.69257,1.7029,1.64432,1.64937
1.62329,1.67301,1.70619,1.66656,1.66013,1.64125,1.6899,1.70431,1.70948,1.70493,1.66404,1.65445,1.67367,1.74424,1.67161,1.58724,1.63031,1.69063,1.65287,1.77824,1.73169,1.67472,1.58839,1.70062,1.70517,1.69219,1.69343,1.62198,1.71793,1.71784,1.70415,1.63552,1.64559,1.68048,1.66338,1.72933,1.79934,1.64246,1.73056,1.69871,1.73372,1.68727,1.67899,1.66864,1.62668,1.7115,1.68272,1.63048,1.68354,1.66413,1.67726,1.65751,1.68004,1.63429,1.67514,1.69087,1.63984,1.5776,1.69667,1.5898
1.63633,1.78295,1.73381,1.63953,1.73127,1.73519,1.65573,1.71213,1.61153,1.70393,1.57794,1.6927,1.60522,1.61371,1.73134,1.65815,1.71842,1.6536,1.70865,1.61538,1.68517,1.72079,1.6981,1.69102,1.62821,1.69125,1.7126,1.66034,1.73744,1.72778,1.68303,1.64712,1.69753,1.66188,1.66518,1.70904,1.67437,1.70955,1.62149,1.60528,1.63712,1.7114,1.69483,1.65594,1.62872,1.66774,1.65236,1.68063,1.68046,1.63416,1.63842,1.72717,1.65665,1.64816,1.69793,1.69752,1.74691,1.73812,1.7009,1.66591
1.66057,1.6433,1.71492,1.78622,1.65717,1.74701,1.64529,1.68268,1.74057,1.70651,1.65577,1.68664,1.65555,1.66663,1.68191,1.58781,1.65786,1.68093,1.69299,1.65944,1.66547,1.68038,1.6779,1.67695,1.66775,1.66527,1.74385,1.67504,1.79385,1.63987,1.70504,1.70334,1.65349,1.68543,1.63933,1.6675,1.61467,1.69673,1.71954,1.61154,1.71347,1.71487,1.68074,1.70483,1.66651,1.60291,1.75299,1.74876,1.69491,1.68889,1.79561,1.70237,1.58118,1.66931,1.67566,1.71146,1.63252,1.71807,1.71234,1.67343
1.6549,1.70073,1.66835,1.73812,1.69976,1.70491,1.70301,1.70244,1.71867,1.7017,1.70251,1.70208,1.64853,1.56623,1.6255,1.6865,1.6987,1.64187,1.68506,1.66581,1.64604,1.6811,1.63292,1.66061,1.61715,1.64229,1.67768,1.70872,1.67631,1.6262,1.70124,1.65511,1.66734,1.60379,1.66764,1.61842,1.7154,1.67103,1.70779,1.69023,1.64989,1.71774,1.65302,1.70035,1.67894,1.68271,1.6745,1.68723,1.64389,1.6866,1.71219,1.68311,1.65302,1.69988,1.73801,1.63789,1.70501,1.68226,1.70903,1.65461
1.6553,1.68998,1.70888,1.65311,1.65906,1.65744,1.58435,1.65034,1.70792,1.71799,1.69503,1.61247,1.64685,1.71673,1.66578,1.63747,1.65985,1.66327,1.68669,1.6987,1.71773,1.67469,1.62479,1.68502,1.63921,1.69948,1.70012,1.73595,1.67052,1.76228,1.67183,1.67151,1.67522,1.72274,1.73631,1.66601,1.6864,1.72947,1.75144,1.74517,1.64223,1.6913,1.6194,1.59515,1.58346,1.70091,1.68359,1.66202,1.69986,1.68059,1.6701,1.64356,1.58543,1.63165,1.70689,1.69296,1.64646,1.66326,1.62121,1.70745
1.68269,1.65753,1.62156,1.6793,1.70129,1.7603,1.71549,1.68657,1.70559,1.68551,1.62014,1.7138,1.70849,1.71897,1.7263,1.69021,1.67329,1.67966,1.67112,1.75355,1.72528,1.70954,1.68423,1.72786,1.68419,1.64142,1.68691,1.64502,1.74483,1.62761,1.65383,1.6724,1.67967,1.70255,1.74384,1.61159,1.61541,1.65884,1.64116,1.72671,1.65798,1.69093,1.68689,1.72646,1.6574,1.67177,1.71486,1.69829,1.64893,1.70142,1.70533,1.63436,1.72027,1.58869,1.71395,1.68125,1.73776,1.72401,1.62488,1.66338
1.70754,1.62289,1.63631,1.73817,1.76029,1.64401,1.6991,1.65443,1.63901,1.7178,1.77766,1.69792,1.74717,1.68347,1.72248,1.69719,1.58777,1.72839,1.60634,1.66744,1.63,1.67197,1.58707,1.67918,1.77927,1.64063,1.63806,1.68453,1.6843,1.63575,1.71434,1.5855,1.6511,1.68647,1.69016,1.64399,1.74196,1.6674,1.68971,1.62228,1.71012,1.69258,1.6355,1.69152,1.67144,1.70952,1.72646,1.71492,1.68685,1.7222,1.66504,1.66644,1.61632,1.69236,1.67608,1.6507,1.66367,1.62289,1.67533,1.70343
1.70609,1.57749,1.62553,1.70961,1.56201,1.67903,1.70742,1.6641,1.67406,1.71886,1.62425,1.70191,1.58233,1.64967,1.60181,1.641,1.69603,1.67363,1.72941,1.66883,1.62138,1.62039,1.67978,1.64098,1.64609,1.67161,1.5999,1.72525,1.66613,1.67966,1.65102,1.68658,1.64509,1.64205,1.62761,1.65624,1.64246,1.75694,1.62549,1.69946,1.69654,1.63502,1.72848,1.6953,1.77989,1.70559,1.70704,1.73388,1.60455,1.6428,1.68628,1.71832,1.7455,1.67966,1.7172,1.69011,1.70863,1.63887,1.68241,1.69974
1.63178,1.61755,1.58919,1.5945,1.71425,1.71418,1.66742,1.72489,1.68733,1.68545,1.74902,1.71449,1.75023,1.68584,1.65032,1.72159,1.66624,1.64261,1.62373,1.71518,1.62531,1.64184,1.74817,1.66357,1.65461,1.67063,1.7312,1.67031,1.61265,1.69825,1.65356,1.68097,1.70372,1.58413,1.63911,1.6286,1.62415,1.74758,1.71093,1.66098,1.717,1.71111,1.62294,1.71942,1.68913,1.65501,1.67768,1.67241,1.66738,1.69458,1.66296,1.68841,1.67079,1.64371,1.6771,1.62785,1.57368,1.62701,1.71358,1.7057
1.69965,1.66739,1.69906,1.69568,1.65932,1.6371,1.66867,1.72149,1.75418,1.70214,1.7225,1.58977,1.65814,1.63636,1.64036,1.75394,1.66454,1.62632,1.67219,1.6731,1.68452,1.68459,1.69125,1.69748,1.6197,1.68522,1.70838,1.67017,1.65525,1.61758,1.62115,1.68869,1.64073,1.71595,1.61734,1.77033,1.72374,1.71287,1.72801,1.70222,1.75186,1.65512,1.6182,1.71118,1.71111,1.66226,1.66975,1.61539,1.67108,1.64666,1.68779,1.67854,1.6576,1.64934,1.72867,1.68624,1.71496,1.68342,1.68323,1.70905
1.70534,1.65421,1.69297,1.70967,1.661,1.71855,1.70946,1.61088,1.67469,1.61792,1.7315,1.62585,1.72717,1.72715,1.67936,1.70721,1.70101,1.68772,1.64957,1.68885,1.7434,1.731,1.69116,1.70026,1.66756,1.64778,1.66529,1.72153,1.70963,1.70124,1.74066,1.7201,1.70042,1.69705,1.67449,1.69247,1.61664,1.69061,1.66806,1.63063,1.66561,1.68129,1.66149,1.66415,1.71634,1.66295,1.72312,1.70811,1.69604,1.69448,1.70658,1.68823,1.69394,1.69754,1.63295,1.66699,1.62227,1.67555,1.7022,1.61407
1.61214,1.66594,1.60471,1.71309,1.68395,1.67329,1.6797,1.66054,1.65197,1.68742,1.66544,1.6549,1.64037,1.65046,1.67491,1.69397,1.64599,1.65693,1.61148,1.61536,1.70958,1.64574,1.64047,1.61491,1.64952,1.62303,1.73572,1.63481,1.611,1.69038,1.68673,1.63509,1.70446,1.68431,1.71945,1.60997,1.67723,1.5948,1.68722,1.71656,1.74789,1.69227,1.7454,1.72813,1.66062,1.68197,1.71651,1.65723,1.71868,1.70574,1.65723,1.7319,1.72294,1.65173,1.67847,1.64964,1.68294,1.65336,1.72767,1.64713
1.74616,1.75585,1.72123,1.70294,1.6718,1.66698,1.63274,1.63982,1.68508,1.702,1.72344,1.70594,1.62185,1.64794,1.68851,1.69969,1.65328,1.68806,1.68851,1.6778,1.70594,1.77456,1.68917,1.67224,1.68069,1.71345,1.60944,1.64986,1.66482,1.65805,1.68963,1.66212,1.70603,1.63255,1.67608,1.63775,1.61098,1.62721,1.62047,1.69486,1.67772,1.6869,1.62842,1.57154,1.7106,1.73847,1.66593,1.65163,1.74379,1.65493,1.66832,1.61592,1.61646,1.58002,1.66687,1.76911,1.64733,1.70728,1.65989,1.68232
1.67321,1.73072,1.68498,1.60317,1.60914,1.68719,1.68872,1.63578,1.62134,1.6585,1.67452,1.70076,1.66315,1.65285,1.61443,1.63044,1.64292,1.7381,1.66144,1.71458,1.69065,1.71157,1.64173,1.70237,1.63951,1.61834,1.71991,1.75708,1.62032,1.70619,1.67221,1.67314,1.60604,1.67672,1.63434,1.66521,1.74246,1.6308,1.65919,1.68543,1.71637,1.65879,1.73784,1.62563,1.63192,1.74671,1.67845,1.71234,1.76768,1.63703,1.7475,1.70613,1.65236,1.63567,1.71581,1.62387,1.62739,1.62422,1.66793,1.63647
1.61087,1.66804,1.70499,1.74337,1.69141,1.62506,1.69781,1.70061,1.60166,1.69425,1.62362,1.60608,1.64081,1.75029,1.63081,1.68856,1.71066,1.6713,1.68059,1.65672,1.61859,1.68109,1.72259,1.6785,1.73512,1.69278,1.71776,1.66162,1.67565,1.64232,1.67983,1.64201,1.64484,1.75327,1.68981,1.69298,1.61702,1.637,1.61115,1.6096,1.67771,1.70217,1.61784,1.66411,1.64932,1.73277,1.69538,1.72584,1.61054,1.68569,1.70483,1.73641,1.69258,1.69587,1.72442,1.67047,1.72114,1.63145,1.65359,1.70062
1.66821,1.61431,1.63662,1.66028,1.64347,1.66832,1.6784,1.60844,1.61849,1.64345,1.68646,1.73605,1.73499,1.72185,1.64539,1.67135,1.69559,1.63424,1.72808,1.61147,1.67488,1.75582,1.64865,1.66099,1.68464,1.68168,1.59453,1.72197,1.66363,1.64799,3.61688,1.75173,1.62811,1.57195,1.66261,1.67932,1.57252,1.62353,1.67238,1.71204,1.75819,1.81001,1.63419,1.75972,1.64778,1.68027,1.68181,1.6083,1.63313,1.58587,1.74417,1.6301,1.63927,1.66898,1.70125,1.69807,1.64579,1.72573,1.70811,1.67397
1.68921,1.68837,1.67765,1.64195,1.69669,1.63683,1.5981,1.64771,1.72389,1.72367,1.70693,1.71779,1.70456,1.71944,1.69025,1.61431,1.70244,1.69398,1.67613,1.70685,1.62924,1.71256,1.71647,1.65159,1.63396,1.65945,1.66173,1.66827,1.67861,1.6595,1.73966,1.70659,1.60564,1.61986,1.68199,1.70387,1.66938,1.68144,1.6283,1.66386,1.67904,1.70469,1.64057,1.71253,1.64608,1.64382,1.67876,1.71365,1.72427,1.65386,1.6713,1.70783,1.63617,1.65951,1.66219,1.67097,1.65263,1.59315,1.67273,1.67267
1.6746,1.62979,1.63878,1.68591,1.68764,1.64658,1.69956,1.6407,1.71108,1.64102,1.70217,1.71616,1.70165,1.71634,1.72777,1.59368,1.66301,1.68729,1.64097,1.66611,1.62496,1.71364,1.66969,1.63657,1.70852,1.69476,1.65814,1.71777,1.7028,1.72265,1.74237,1.60743,1.74304,1.65586,1.6918,1.6433,1.69336,1.69072,1.67027,1.71105,1.67834,1.71072,1.65278,1.63841,1.59164,1.69146,1.69319,1.65799,1.65713,1.7387,1.74353,1.67682,1.64822,1.68111,1.70206,1.57679,1.63314,1.74965,1.73146,1.71182
1.63388,1.64414,1.63567,1.71932,1.62013,1.67961,1.68146,1.69097,1.62824,1.63658,1.71837,1.59163,1.66155,1.67079,1.7226,1.67481,1.67496,1.62844,1.6816,1.64749,1.65018,1.66506,1.64119,1.71785,1.72059,1.70347,1.66079,1.60473,1.74508,1.69032,1.70911,1.75207,1.66013,1.68938,1.64876,1.71072,1.69046,1.66192,1.6761,1.67162,1.66093,1.66322,1.69996,1.76313,1.60207,1.55712,1.69599,1.68966,1.70595,1.64041,1.60788,1.65952,1.62777,1.80115,1.73329,1.72861,1.66231,1.65155,1.64585,1.71248
1.74357,1.70495,1.61642,1.70524,1.73347,1.65895,1.70119,1.66597,1.63484,1.66498,1.62651,1.63982,1.61507,1.64483,1.56267,1.66208,1.73058,1.66167,1.70605,1.68236,1.74682,1.71208,1.66777,1.6863,1.69041,1.70311,1.65459,1.73092,1.68276,1.68687,1.6296,1.61882,1.66147,1.67779,1.72977,1.6992,1.57522,1.57361,1.66649,1.65356,1.6058,1.65794,1.72873,1.70952,1.72835,1.65986,1.70337,1.70458,1.66165,1.66904,1.65877,1.68962,1.71313,1.68488,1.67464,1.69464,1.67415,1.71149,1.70565,1.69663
1.66751,1.68328,1.61729,1.70313,1.72645,1.65102,1.67469,1.62782,1.64937,1.57335,1.68111,1.64685,1.65506,1.78267,1.655,1.69742,1.66026,1.70781,1.64611,1.76332,1.74593,1.6789,1.70367,1.66052,1.65419,1.7115,1.63593,1.69452,1.70316,1.65101,1.63755,1.70747,1.63907,1.78947,1.70848,1.70838,1.69458,1.66336,1.67873,1.72529,1.7326,1.66823,1.68158,1.67428,1.71265,1.6649,1.69469,1.62922,1.62722,1.72787,1.7391,1.65201,1.73703,1.70245,1.64813,1.67261,1.64047,1.6549,1.73528,1.65925
1.74892,1.68892,1.6532,1.72865,1.65674,1.66419,1.66643,1.61712,1.68423,1.66388,1.72018,1.73036,1.74162,1.64399,1.56995,1.6848,1.69558,1.61527,1.66175,1.69047,1.68834,1.67697,1.69083,1.68226,1.66045,1.65876,1.77338,1.69131,1.71742,1.64223,1.64971,1.64892,1.76821,1.66894,1.64556,1.69127,1.67942,1.6961,1.66512,1.64397,1.70204,1.68701,1.64221,1.69411,1.67974,1.64419,1.7002,1.68483,1.71151,1.62949,1.68059,1.6271,1.65526,1.67351,1.65139,1.61913,1.73179,1.68422,1.63345,1.67147
1.63862,1.65751,1.65437,1.68789,1.71109,1.64957,1.68256,1.71839,1.59767,1.63781,1.71622,1.70825,1.63966,1.73407,1.6892,1.6651,1.74916,1.7055,1.69421,1.67552,1.67464,1.66088,1.64468,1.70229,1.67997,1.7648,1.62597,1.72898,1.67421,1.64861,1.67321,1.70089,1.63848,1.70237,1.63501,1.63237,1.70619,1.69166,1.67828,1.68653,1.67866,1.67034,1.68095,1.63736,1.66043,1.582,1.6779,1.58457,1.67675,1.6532,1.6768,1.64484,1.69696,1.67669,1.68787,1.67228,1.7381,1.73776,1.59599,1.57484
1.62801,1.62435,1.66446,1.68181,1.63388,1.69058,1.7232,1.5999,1.63394,1.63565,1.66743,1.68954,1.71446,1.6034,1.62937,1.67407,1.69752,1.66923,1.63423,1.73189,1.67618,1.75577,1.67715,1.70234,1.65077,1.66495,1.65283,1.66003,1.65352,1.73523,1.7046,1.7301,1.67389,1.66911,1.70586,1.61669,1.61691,1.63329,1.56054,1.67473,1.6663,1.67848,1.56968,1.68248,1.66309,1.77683,1.64209,1.73495,1.67865,1.66517,1.67175,1.69634,1.70091,1.73075,1.68816,1.70968,1.58292,1.70161,1.65328,1.75356
1.67535,1.59793,1.72853,1.65302,1.60444,1.64152,1.65177,1.60495,1.6886,1.73832,1.68556,1.71744,1.6685,1.60102,1.6112,1.59577,1.77248,1.64843,1.69351,1.6951,1.6926,1.57216,1.67392,1.68637,1.64832,1.74133,1.61865,1.78427,1.62008,1.67847,1.69561,1.62598,1.63551,1.63802,1.7091,1.60517,1.7417,1.64784,1.66814,1.66459,1.69844,1.63722,1.63761,1.66199,1.66869,1.67847,1.61372,1.60702,1.73327,1.66874,1.69211,1.71846,1.66561,1.62273,1.73288,1.67689,1.66238,1.68702,1.62258,1.61488
1.67858,1.65332,1.67703,1.60893,1.67724,1.69805,1.70481,1.5621,1.61116,1.65811,1.65892,1.67435,1.78953,1.68998,1.64008,1.69069,1.73842,1.67837,1.67053,1.68607,1.70546,1.75425,1.67164,1.68447,1.65281,1.6489,1.67943,1.60578,1.68359,1.66614,1.67642,1.71302,1.68297,1.67933,1.62554,1.65371,1.6527,1.62699,1.6189,1.65655,1.64617,1.63747,1.72562,1.62235,1.66753,1.6327,1.649,1.70258,1.67321,1.61942,1.65975,1.63684,1.70008,1.70732,1.60531,1.67136,1.64401,1.68841,1.68916,1.65157
1.75997,1.75879,1.71285,1.68174,1.66535,1.7214,1.70104,1.60487,1.66456,1.66644,1.67725,1.66668,1.60604,1.69,1.67014,1.69829,1.68055,1.7341,1.73616,1.61867,1.7209,1.69972,1.67318,1.68693,1.67805,1.61552,1.73161,1.6634,1.72834,1.68995,1.70781,1.70582,1.73479,1.7165,1.69999,1.67446,1.73382,1.66639,1.70918,1.66618,1.67092,1.62914,1.65745,1.6122,1.69058,1.66697,1.64903,1.57085,1.66386,1.7091,1.72372,1.65095,1.64821,1.65852,1.70954,1.76149,1.64693,1.61589,1.77906,1.66658
1.67216,1.71895,1.65705,1.67968,1.66312,1.69528,1.7067,1.71413,1.68798,1.68359,1.70406,1.59777,1.66497,1.64726,1.69786,1.68831,1.65767,1.643,1.71308,1.60485,1.65071,1.6894,1.6415,1.7173,1.61074,1.58698,1.63343,1.59383,1.62462,1.59003,1.62677,1.62913,1.65534,1.69653,1.66818,1.65812,1.67134,1.67083,1.68591,1.65318,1.64546,1.67884,1.69483,1.70225,1.672,1.67114,1.76645,1.6156,1.7017,1.69082,1.63207,1.69294,1.61192,1.71493,1.71003,1.66086,1.7386,1.70113,1.67555,1.73658
1.61796,1.76827,1.70023,1.69183,1.67569,1.64904,1.70784,1.6559,1.63213,1.61644,1.67807,1.64598,1.75763,1.67026,1.75239,1.66531,1.63306,1.65789,1.74234,1.65793,1.68693,1.6064,1.67442,1.73698,1.67202,1.65581,1.6453,1.71825,1.62242,1.71412,1.71539,1.69829,1.73278,1.64511,1.57597,1.67597,1.68913,1.62266,1.59273,1.61159,1.7226,1.65631,1.68499,1.68359,1.60199,1.67232,1.64272,1.71289,1.62154,1.68896,1.59388,1.622,1.61571,1.71481,1.66523,1.64945,1.65884,1.61176,1.64944,1.71005
1.67353,1.7027,1.65624,1.68711,1.71117,1.67213,1.67572,1.6609,1.752,1.72638,1.73283,1.70314,1.71976,1.71377,1.65186,1.66237,1.72028,1.69981,1.69494,1.69015,1.60304,1.72428,1.68648,1.6961,1.66572,1.70168,1.65585,1.70797,1.60233,1.77011,1.63995,1.65691,1.6782,1.69606,1.6629,1.67724,1.71406,1.62057,1.65896,1.6313,1.7338,1.67729,1.61506,1.6833,1.67461,1.57871,1.6513,1.64474,1.65633,1.66031,1.67281,1.71518,1.64631,1.68731,1.69977,1.7051,1.59284,1.68697,1.63926,1.74218
1.60212,1.66007,1.63215,1.69689,1.61729,1.67623,1.68621,1.70183,1.62957,1.6769,1.57944,1.72138,1.61711,1.69166,1.68043,1.64377,1.72501,1.71373,1.62304,1.70686,1.68465,1.71481,1.6426,1.65912,1.69568,1.68875,1.65417,1.73986,1.64359,1.69023,1.62639,1.69737,1.71472,1.55917,1.70947,1.61389,1.68565,1.67118,1.64638,1.7101,1.64467,1.68189,1.67791,1.63578,1.64837,1.6489,1.6942,1.64923,1.67514,1.69075,1.69944,1.63236,1.77398,1.65677,1.6891,1.69788,1.67461,1.68716,1.75289,1.65476
1.68685,1.69901,1.68724,1.65791,1.71145,1.61278,1.68275,1.73244,1.66088,1.63838,1.69414,1.65227,1.67042,1.64692,1.65477,1.67383,1.65109,1.73685,1.69958,1.67388,1.70225,1.62002,1.62018,1.71447,1.64842,1.69319,1.6795,1.64379,1.72467,1.71729,1.6383,1.72396,1.69745,1.70018,1.67112,1.63279,1.66534,1.7078,1.68338,1.73824,1.67906,1.61777,1.70423,1.58985,1.71498,1.64173,1.71453,1.73174,1.72986,1.67294,1.68485,1.68303,1.61908,1.66225,1.70008,1.59129,1.69765,1.62911,1.65553,1.64396
1.74073,1.66084,1.66656,1.64942,1.7115,1.67123,1.65375,1.63077,1.70515,1.69952,1.61321,1.67888,1.69441,1.61668,1.6512,1.69427,1.6823,1.71127,1.74184,1.71339,1.66417,1.78103,1.68274,1.64967,1.60971,1.66491,1.658,1.64775,1.76911,1.72268,1.65827,1.6969,1.66471,1.64587,1.65152,1.66329,1.67976,1.68576,1.63285,1.63299,1.6897,1.72262,1.69408,1.68168,1.62405,1.63598,1.64299,1.62076,1.72722,1.65868,1.66666,1.69015,1.63469,1.58392,1.58277,1.62293,1.68881,1.63834,1.64384,1.67353
1.70215,1.62271,1.57101,1.59487,1.70775,1.66321,1.68221,1.60041,1.74149,1.63599,1.68076,1.6719,1.71978,1.72528,1.68558,1.70014,1.63946,1.63343,1.64789,1.70784,1.69278,1.71861,1.63498,1.65854,1.72079,1.70586,1.63264,1.65862,1.65255,1.72915,1.71133,1.63511,1.68143,1.73637,1.65488,1.66223,1.66392,1.59926,1.66465,1.69141,1.70632,1.62205,1.60946,1.6827,1.65353,1.68023,1.62355,1.72542,1.68778,1.63626,1.65042,1.64316,1.65926,1.65974,1.64838,1.72246,1.67037,1.7679,1.69242,1.64551
1.62069,1.61088,1.65438,1.72235,1.63755,1.62009,1.70111,1.7238,1.66646,1.59447,1.60206,1.61641,1.68216,1.55486,1.63591,1.56966,1.62471,1.71614,1.71435,1.69653,1.74262,1.69462,1.7185,1.6518,1.69398,1.74149,1.63546,1.70149,1.64721,1.68311,1.59741,1.7525,1.66103,1.66866,1.73275,1.66158,1.66927,1.70193,1.63594,1.67996,1.7083,1.69369,1.67632,1.68928,1.74108,1.68248,1.74761,1.74286,1.6782,1.68394,1.67858,1.70205,1.73802,1.69955,1.67609,1.6464,1.62333,1.68668,1.66599,1.63708
1.63217,1.7243,1.73776,1.65076,1.71598,1.68656,1.69773,1.70488,1.70578,1.61979,1.66354,1.67543,1.734,1.61,1.67738,1.6607,1.68489,1.64299,1.69599,1.70765,1.66504,1.69638,1.66316,1.66112,1.65703,1.70397,1.64218,1.72501,1.68442,1.66781,1.63248,1.74652,1.62289,1.71235,1.67322,1.6713,1.6524,1.67807,1.70904,1.70171,1.70566,1.62592,1.70324,1.70916,1.70498,1.68773,1.72025,1.76409,1.64794,1.64227,1.60592,1.68773,1.68599,1.72314,1.67631,1.70173,1.708,1.68128,1.69832,1.71313
1.67046,1.65734,1.71496,1.59128,1.77069,1.69962,1.60777,1.68712,1.70064,1.669,1.63094,1.60577,1.69353,1.70171,1.71388,1.69592,1.73118,1.6179,1.67486,1.65409,1.67161,1.63263,1.69228,1.65569,1.67123,1.66234,1.76107,1.63537,1.73761,1.67226,1.68149,1.74992,1.66432,1.66556,1.63949,1.70261,1.65734,1.73034,1.66423,1.62926,1.66453,1.64289,1.64814,1.70897,1.71271,1.70373,1.64608,1.66519,1.659,1.76792,1.66877,1.76895,1.70582,1.67761,1.63971,1.6971,1.57182,1.64552,1.67919,1.66481
1.71833,1.6886,1.7197,1.69444,1.71857,1.68351,1.62585,1.64195,1.67152,1.71844,1.64402,1.69218,1.67955,1.75755,1.64183,1.67111,1.75579,1.7292,1.63229,1.68184,1.6562,1.7077,1.66025,1.67386,1.6788,1.61991,1.66555,1.72355,1.64271,1.69515,1.63885,1.67707,1.6477,1.79598,1.70504,1.58092,1.65685,1.7068,1.7288,1.65326,1.69111,1.66495,1.68577,1.68986,1.67575,1.67392,1.63732,1.60401,1.62506,1.6817,1.69548,1.74351,1.7208,1.67947,1.68208,1.63143,1.65219,1.6758,1.57964,1.64858
1.62054,1.63724,1.68165,1.61023,1.68811,1.67708,1.63951,1.69783,1.70019,1.65026,1.62953,1.64838,1.60051,1.66835,1.6953,1.63138,1.61404,1.69293,1.62924,1.67528,1.69609,1.63396,1.63706,1.65339,1.69232,1.61277,1.59952,1.71017,1.77826,1.72338,1.67422,1.67401,1.76991,1.6791,1.74076,1.59172,1.68008,1.70702,1.63126,1.63476,1.74872,1.69568,1.64587,1.60157,1.65661,1.71229,1.7332,1.66351,1.71079,1.65342,1.73006,1.67457,1.71008,1.67247,1.65109,1.63452,1.74413,1.6583,1.69493,1.65316
1.67707,1.69674,1.64528,1.75792,1.67868,1.69245,1.63139,1.7137,1.65455,1.73571,1.67377,1.67783,1.72071,1.66216,1.66577,1.61971,1.66824,1.60823,1.66643,1.58541,1.66968,1.65415,1.72802,1.64989,1.74278,1.67234,1.67926,1.60843,1.67611,1.61826,1.69241,1.65966,1.61296,1.64299,1.66772,1.72523,1.69247,1.63719,1.68955,1.66803,1.63863,1.68008,1.63865,1.64604,1.6529,1.65245,1.76559,1.73392,1.69311,1.61392,1.64046,1.57886,1.67442,1.76113,1.74559,1.651,1.62085,1.64661,1.6844,1.71692
1.74048,1.644,1.72923,1.69606,1.72985,1.64719,1.62079,1.68274,1.70365,1.58194,1.63917,1.66176,1.63571,1.71217,1.7096,1.72428,1.72384,1.67039,1.68332,1.69433,1.66849,1.70013,1.69386,1.66274,1.65059,1.65724,1.56978,1.60509,1.63871,1.63858,1.63297,1.6445,1.57836,1.627,1.66868,1.6899,1.68613,1.6645,1.64713,1.72954,1.70581,1.67719,1.64589,1.62938,1.63867,1.64672,1.68978,1.59773,1.57357,1.59478,1.66747,1.65585,1.68841,1.68276,1.62477,1.66637,1.59595,1.5795,1.78338,1.74759
1.63114,1.73891,1.60809,1.63227,1.68802,1.68911,1.63979,1.65557,1.66862,1.60424,1.72148,1.68592,1.69584,1.67465,1.69949,1.59236,1.74221,1.6798,1.70571,1.68165,1.62914,1.75183,1.67729,1.6539,1.6571,1.73174,1.68468,1.69925,1.65838,1.66684,1.5755,1.6505,1.70257,1.56493,1.67706,1.67712,1.73814,1.6671,1.71111,1.70032,1.70033,1.71307,1.74158,1.60576,1.68604,1.6866,1.69991,1.61433,1.69186,1.57484,1.67011,1.68989,1.59595,1.63252,1.65369,1.71001,1.6263,1.64845,1.68457,1.69933
1.75404,1.66633,1.72353,1.68598,1.6406,1.76469,1.63288,1.63003,1.66433,1.68315,1.70193,1.72517,1.66406,1.75783,1.70023,1.65327,1.71332,1.61278,1.67587,1.67519,1.61376,1.63046,1.68518,1.77081,1.64882,1.66463,1.63383,1.68426,1.65312,1.72105,1.66618,1.69065,1.68769,1.61859,1.68089,1.69705,1.5972,1.70436,1.70574,1.71587,1.66963,1.72939,1.69969,1.70962,1.75953,1.70384,1.65426,1.6509,1.66681,1.73437,1.57845,1.66272,1.71046,1.66014,1.68191,1.70313,1.65858,1.65978,1.69275,1.6731
1.67958,1.70641,1.71353,1.67992,1.63711,1.62999,1.6716,1.62998,1.61022,1.69485,1.6377,1.63853,1.6376,1.62181,1.66984,1.70154,1.65067,1.64662,1.63859,1.66418,1.65276,1.71254,1.73381,1.72273,1.63212,1.64843,1.64329,1.6155,1.69693,1.67984,1.62144,1.56852,1.63124,1.72366,1.63966,1.66632,1.76634,1.70853,1.67259,1.70978,1.70242,1.59887,1.66825,1.68909,1.6856,1.69265,1.65775,1.71351,1.70614,1.64616,1.62481,1.65698,1.67135,1.66509,1.68895,1.70462,1.65526,1.71924,1.71013,1.73795
1.68394,1.63311,1.60703,1.7141,1.68007,1.66624,1.67772,1.66737,1.67387,1.61659,1.6917,1.609,1.68914,1.70299,1.66345,1.7196,1.6729,1.62046,1.70486,1.64988,1.63318,1.68651,1.71226,1.69215,1.67327,1.66798,1.67384,1.61531,1.69604,1.59274,1.64315,1.62739,1.61427,1.70662,1.5738,1.68134,1.70183,1.61592,1.70687,1.64413,1.66572,1.65992,1.61456,1.72069,1.68214,1.70442,1.7056,1.64872,1.63177,1.64487,1.66125,1.72551,1.669,1.68271,1.6963,1.6489,1.654,1.66547,1.73467,1.58951

max: 3.61688
min: 1.53404
avg: 1.67639
