1.53074,1.53933,1.47835,1.43463,1.55039,1.47813,1.52774,1.51338,1.46296,1.59592,1.43368,1.44225,1.46683,1.52359,1.48145,1.45878,1.54637,1.47871,1.43839,1.45835,1.53046,1.44243,1.55111,1.51362,1.50866,1.50526,1.50221,1.46828,1.44558,1.49672,1.48617,1.52664,1.54503,1.50521,1.47196,1.4436,1.45707,1.48145,1.49669,1.51409,1.45165,1.52436,1.49681,1.5254,1.45501,1.43302,1.47867,1.46188,1.50871,1.51544,1.54393,1.49079,1.46107,1.45567,1.45792,1.51471,1.53242,1.43691,1.42782,1.44137
1.39294,1.49021,1.50028,1.51326,1.53961,1.45305,1.50715,1.41175,1.49752,1.461,1.46018,1.48744,1.51935,1.48761,1.49698,1.53249,1.5456,1.43918,1.52648,1.50343,1.47477,1.5255,1.42136,1.51692,1.4433,1.48064,1.47511,1.47698,1.53127,1.51518,1.50463,1.52295,1.52767,1.45286,1.49771,1.49087,1.5013,1.41486,1.48133,1.46436,1.51903,1.45687,1.47787,1.53454,1.5746,1.49825,1.45966,1.49635,1.47353,1.41772,1.56407,1.46416,1.47471,1.44593,1.43037,1.51275,1.45196,1.47745,1.46014,1.58461
1.42304,1.45477,1.48707,1.39758,1.54294,1.47309,1.44382,1.44675,1.4936,1.48546,1.35548,1.44798,1.48941,1.50463,1.46139,1.54738,1.52647,1.57752,1.50336,1.5046,1.46588,1.47852,1.48788,1.47113,1.51009,1.40353,1.50098,1.49153,1.498,1.48624,1.51297,1.43393,1.55726,1.53661,1.52412,1.49293,1.44375,1.49356,1.54523,1.41329,1.45164,1.51427,1.48989,1.51368,1.4358,1.48207,1.47814,1.50253,1.4907,1.44613,1.45372,1.48154,1.46381,1.42683,1.49356,1.49284,1.48663,1.43413,1.49505,1.50143
1.48994,1.52132,1.47858,1.49434,1.54669,1.51259,1.5177,1.51004,1.47231,1.44842,1.51024,1.45197,1.52933,1.53938,1.52346,1.48157,1.49996,1.47679,1.50092,1.48197,1.45177,1.51418,1.48517,1.47677,1.46822,1.4603,1.44723,1.49022,1.5095,1.44505,1.54801,1.49604,1.54287,1.47199,1.462,1.44045,1.39474,1.44738,1.49349,1.45536,1.48816,1.45397,1.52498,1.51789,1.43213,1.46165,1.52833,1.47504,1.46259,1.51181,1.51503,1.4918,1.41409,1.54104,1.53661,1.51335,1.46313,1.50816,1.42497,1.48991
1.549,1.499,1.48376,1.5312,1.51801,1.51329,1.50351,1.47299,1.48914,1.50636,1.58554,1.48283,1.51933,1.44737,1.47425,1.42065,1.43541,1.53489,1.52144,1.51098,1.46553,1.54139,1.48795,1.46102,1.50957,1.48129,1.43069,1.50351,1.50735,1.42543,1.48325,1.479,1.51146,1.44172,1.50425,1.42476,1.38061,1.52479,1.47946,1.4934,1.52214,1.50453,1.50218,1.55288,1.4835,1.52502,1.45971,1.53439,1.51103,1.60529,1.51174,1.55239,1.48598,1.47023,1.50621,1.45799,1.46326,1.50481,1.52686,1.47633
1.48535,1.48147,1.39987,1.43196,1.43802,1.4713,1.47277,1.43408,1.45097,1.48231,1.50076,1.44288,1.42198,1.43597,1.48255,1.5005,1.44946,1.46484,1.50179,1.47478,1.54751,1.449,1.47217,1.48546,1.46118,1.47577,1.51277,1.4767,1.54289,1.38941,1.49565,1.51688,1.51765,1.52442,1.49382,1.46098,1.55249,1.39658,1.53942,1.46847,1.52036,1.52881,1.50278,1.5291,1.547,1.48885,1.45832,1.45421,1.58142,1.51435,1.44094,1.48034,1.52911,1.51748,1.45027,1.53761,1.44904,1.49783,1.47966,1.53296
1.54253,1.49486,1.44588,1.49143,1.49151,1.5439,1.46469,1.40647,1.58805,1.46325,1.54575,1.46414,1.48739,1.52067,1.46992,1.4194,1.49074,1.49244,1.53294,1.48453,1.4173,1.51296,1.42282,1.50504,1.50844,1.50689,1.46047,1.47903,1.43416,1.48908,1.48334,1.50259,1.47917,1.45375,1.47651,1.50656,1.53333,1.52759,1.44932,1.50202,1.48128,1.62259,1.48829,1.55343,1.47434,1.51607,1.44537,1.54044,1.51383,1.54042,1.45929,1.52694,1.48561,1.44514,1.43763,1.4979,1.60851,1.52472,1.4554,1.51995
1.43767,1.45193,1.40899,1.52959,1.504,1.46193,1.53859,1.44572,1.49118,1.52222,1.49291,1.46698,1.44405,1.49596,1.65116,1.46969,1.51074,1.54844,1.46521,1.47748,1.48957,1.48937,1.54748,1.50277,1.47602,1.49861,1.45097,1.39647,1.3779,1.513,1.42778,1.44853,1.41203,1.5159,1.51534,1.49841,1.4554,1.4725,1.53539,1.52759,1.48476,1.462,1.46601,1.50244,1.52089,1.4709,1.50771,1.55669,1.48234,1.52181,1.44763,1.50949,1.44039,1.46492,1.51946,1.54532,1.4265,1.46453,1.52077,1.50672
1.52826,1.45475,1.56814,1.43247,1.49164,1.46143,1.51052,1.46892,1.53143,1.51878,1.4732,1.51984,1.52212,1.47634,1.54271,1.53531,1.53254,1.50861,1.45948,1.51405,1.42801,1.51906,1.48668,1.51853,1.48219,1.51383,1.4954,1.4702,1.55245,1.52803,1.51674,1.47829,1.5306,1.5186,1.65274,1.45261,1.42683,1.49169,1.49337,1.53345,1.4788,1.46161,1.4709,1.5206,1.53426,1.47577,1.51857,1.48525,1.52435,1.47046,1.52413,1.49942,1.48425,1.47858,1.45805,1.4992,1.56306,1.5493,1.48305,1.39695
1.49823,1.43007,1.51461,1.52994,1.49325,1.48434,1.54982,1.52493,1.45762,1.42432,1.58333,1.47668,1.43882,1.44896,1.47829,1.46132,1.55235,1.45167,1.41487,1.45067,1.47967,1.44485,1.49999,1.48909,1.52052,1.48643,1.50431,1.47866,1.56311,1.47058,1.53813,1.49384,1.47538,1.4817,1.55594,1.60006,1.58484,1.45056,1.39155,1.52802,1.5155,1.51832,1.47173,1.5452,1.45113,1.55529,1.48095,1.53627,1.46466,1.51587,1.53738,1.56468,1.48421,1.4979,1.51647,1.56627,1.50429,1.5454,1.55053,1.51488
1.55413,1.55454,1.58674,1.47165,1.45412,1.50122,1.53488,1.53557,1.50266,1.44827,1.50001,1.52432,1.44572,1.44286,1.45473,1.50227,1.49204,1.51827,1.49659,1.50196,1.52819,1.54401,1.52628,1.45509,1.46695,1.48636,1.51254,1.53799,1.37663,1.49468,1.46916,1.47686,1.47173,1.59175,1.4931,1.54914,1.48327,1.50767,1.46209,1.51977,1.42672,1.52843,1.40748,1.46028,1.49222,1.48115,1.5459,1.48937,1.49926,1.48105,1.53575,1.4837,1.4173,1.53367,1.51483,1.63767,1.55871,1.5341,1.44349,1.49767
1.54424,1.57675,1.47058,1.53004,1.46461,1.48658,1.43119,1.5422,1.58398,1.40739,1.50805,1.50553,1.44979,1.53509,1.55972,1.51881,1.57362,1.48459,1.45815,1.39061,1.47842,1.52902,1.47226,1.5156,1.46771,1.44892,1.4452,1.52103,1.46982,1.47258,1.51071,1.51306,1.46139,1.45438,1.50412,1.46679,1.46233,1.55014,1.4689,1.51744,1.52734,1.46211,1.48411,1.51282,1.50301,1.524,1.47819,1.44492,1.48467,1.51617,1.46769,1.48492,1.51413,1.42856,1.46947,1.45846,1.54285,1.57138,1.49614,1.47562
1.51442,1.50055,1.48774,1.46106,1.6244,1.46879,1.54467,1.43512,1.4301,1.47784,1.48472,1.56768,1.51507,1.51035,1.47738,1.51594,1.50677,1.45697,1.57037,1.49762,1.56751,1.50287,1.57088,1.5966,1.48923,1.82662,1.55943,1.50389,1.48695,1.5338,1.47673,1.47375,1.57438,1.51298,1.52153,1.53733,1.50061,1.3997,1.54265,1.51916,1.45608,1.51735,1.40413,1.571,1.48646,1.53303,1.52329,1.52408,1.43721,1.51483,1.49077,1.4578,1.48255,1.50624,1.48335,1.46092,1.51813,1.50805,1.52271,1.49031
1.46947,1.48417,1.52712,1.52916,1.49779,1.45398,1.45858,1.50452,1.44617,1.52018,1.47718,1.49544,1.49294,1.50985,1.43865,1.46219,1.46892,1.47401,1.45657,1.47164,1.49354,1.47699,1.48472,1.53869,1.42599,1.47033,1.47029,1.52326,1.54014,1.53792,1.33567,1.53702,1.534,1.46152,1.52133,1.51773,1.43295,1.47031,1.48226,1.50663,1.56944,1.5392,1.48453,1.48586,1.56102,1.84599,1.49884,1.54117,1.4376,1.48528,1.44548,1.4781,1.46983,1.45372,1.48592,1.46017,1.46693,1.48634,1.50921,1.51819
1.48785,1.52077,1.47037,1.49865,1.50299,1.43624,1.49848,1.54731,1.4705,1.53161,1.44556,1.53106,1.49053,1.50224,1.51552,1.42874,1.46856,1.4504,1.52908,1.46936,1.55102,1.44401,1.51477,1.44526,1.48564,1.5613,1.43042,1.49015,1.47508,1.51104,1.48386,1.50392,1.47376,1.55434,1.42894,1.42645,1.44009,1.48617,1.52288,1.44397,1.47783,1.3888,1.47149,1.44509,1.42969,1.47449,1.50863,1.52061,1.49335,1.53266,1.55031,1.56159,1.49713,1.4753,1.5148,1.48441,1.50056,1.47617,1.49477,1.51624
1.48653,1.49695,1.526,1.50656,1.47426,1.4851,1.48278,1.57326,1.50175,1.51354,1.50563,1.4479,1.56408,1.51828,1.50695,1.45488,1.56244,1.43418,1.51089,1.50438,1.43016,1.47253,1.54918,1.47914,1.45192,1.50182,1.50549,1.55741,1.41517,1.5008,1.5508,1.49057,1.41453,1.56093,1.44491,1.47294,1.54502,1.46954,1.54702,1.48382,1.45715,1.50132,1.46098,1.55731,1.4887,1.45095,1.51743,1.49415,1.5263,1.49095,1.50068,1.46119,1.55762,1.35726,1.49357,1.42789,1.51362,1.49829,1.52498,1.52161
1.51449,1.51606,1.42568,1.52901,1.50051,1.44096,1.62121,1.52515,1.59148,1.44892,1.57463,1.44827,1.49155,1.53315,1.45866,1.481,1.48215,1.46164,1.56369,1.48604,1.53895,1.49261,1.54018,1.4404,1.48096,1.49336,1.4911,1.48863,1.57822,1.5229,1.45346,1.49523,1.48355,1.40753,1.52631,1.54144,1.44524,1.45436,1.5248,1.50833,1.51016,1.42883,1.55306,1.47942,1.50595,1.56417,1.50891,1.46191,1.4694,1.50479,1.55668,1.48763,1.53425,1.53808,1.43476,1.47585,1.60672,1.54079,1.46673,1.49832
1.47033,1.44796,1.54088,1.52171,1.57097,1.61055,1.47269,1.51802,1.49522,1.46514,1.40984,1.46619,1.46077,1.54055,1.43626,1.48589,1.44678,1.47507,1.52107,1.48487,1.50551,1.5267,1.5763,1.52973,1.49353,1.46449,1.46834,1.46024,1.48921,1.45058,1.52189,1.48392,1.40648,1.51913,1.49992,1.45268,1.50285,1.48348,1.48394,1.53423,1.51702,1.5113,1.49832,1.57655,1.54228,1.48965,1.44306,1.50975,1.54484,1.41421,1.44964,1.54436,1.50284,1.5453,1.53728,1.48275,1.44329,1.4771,1.50842,1.49771
1.4588,1.50586,1.56258,1.55846,1.43197,1.47971,1.37791,1.53143,1.43754,1.45751,1.55283,1.5105,1.46234,1.50963,1.47898,1.47533,1.5117,1.4219,1.52044,1.42776,1.49704,1.50864,1.48137,1.48917,1.52198,1.47168,1.47145,1.49877,1.51984,1.45442,1.51203,1.4821,1.43425,1.45117,1.44882,1.41137,1.53397,1.43452,1.54544,1.49698,1.48058,1.40827,1.49951,1.52766,1.45318,1.56448,1.49256,1.52611,1.46338,1.48014,1.47181,1.53314,1.43535,1.49619,1.50939,1.46148,1.46097,1.51087,1.54994,1.46224
1.4585,1.47309,1.4592,1.54719,1.43229,1.47004,1.498,1.51326,1.51019,1.53553,1.55123,1.45188,1.54783,1.42837,1.52451,1.45076,1.44032,1.45642,1.56719,1.5487,1.47955,1.58774,1.44093,1.53256,1.5249,1.55145,1.54569,1.51634,1.49997,1.43228,1.50222,1.51116,1.39509,1.44059,1.42299,1.45112,1.48356,1.51523,1.46645,1.43153,1.49755,1.45194,1.41606,1.4369,1.4146,1.43891,1.49263,1.51003,1.48833,1.43524,1.46819,1.50683,1.49686,1.48695,1.5288,1.57055,1.4012,1.51582,1.46732,1.46869
1.49583,1.55467,1.4773,1.50992,1.50045,1.61272,1.5216,1.48088,1.5048,1.52477,1.5207,1.50746,1.51859,1.50133,1.54552,1.47033,1.38407,1.46078,1.45683,1.51337,1.4164,1.46,1.5003,1.50273,1.50466,1.45599,1.54858,1.43298,1.5477,1.56434,1.53313,1.50611,1.44352,1.44338,1.4319,1.48004,1.46876,1.4568,1.52817,1.46288,1.47825,1.49417,1.4643,1.47922,1.5082,1.47089,1.51215,1.55789,1.48354,1.50972,1.53442,1.45763,1.49794,1.54138,1.41355,1.50124,1.53479,1.52797,1.54228,1.47659
1.46531,1.50621,1.40188,1.45699,1.53167,1.51698,1.47804,1.4965,1.49969,1.4776,1.41335,1.50897,1.49904,1.48238,1.42797,1.47299,1.49131,1.52356,1.54261,1.53002,1.49233,1.46232,1.54503,1.52728,1.49041,1.52554,1.45592,1.47521,1.49233,1.47657,1.46071,1.53386,1.47869,1.53999,1.51212,1.44445,1.46414,1.52216,1.43158,1.52257,1.45089,1.49001,1.46902,1.47393,1.47965,1.47386,1.44692,1.47547,1.47256,1.46845,1.38209,1.52492,1.4853,1.47159,1.49713,1.45384,1.43605,1.44059,1.42539,1.55165
1.49378,1.51443,1.56609,1.47689,1.54116,1.48349,1.49876,1.48978,1.47162,1.51299,1.48956,1.49616,1.47307,1.50831,1.57522,1.42732,1.5006,1.48389,1.49538,1.50408,1.45428,1.49025,1.45996,1.45,1.44622,1.50051,1.48779,1.5182,1.52134,1.45419,1.50558,1.56799,1.40442,1.45744,1.50862,1.52668,1.42652,1.44903,1.42697,1.51767,1.43048,1.44403,1.51582,1.48537,1.48559,1.51141,1.5348,1.44655,1.51415,1.49103,1.43581,1.50464,1.55743,1.47369,1.49488,1.50031,1.48171,1.50793,1.43572,1.49628
1.48231,1.54311,1.47674,1.41882,1.46574,1.45495,1.44384,1.46612,1.49929,1.54035,1.49263,1.48988,1.55953,1.48845,1.45741,1.4421,1.50191,1.45149,1.52219,1.53701,1.43952,1.5064,1.42893,1.51683,1.47165,1.53854,1.53948,1.51697,1.41499,1.47582,1.48017,1.47389,1.50976,1.52009,1.46182,1.39631,1.50524,1.51064,1.5136,1.53287,1.47681,1.46228,1.47469,1.46236,1.49723,1.51082,1.4626,1.50656,1.4978,1.39904,1.49492,1.49245,1.49291,1.52611,1.45813,1.45559,1.40012,1.53642,1.52795,1.52882
1.42466,1.48911,1.44922,1.51091,1.57084,1.47568,1.43017,1.51234,1.56792,1.55027,1.46162,1.42704,1.47841,1.42409,1.5232,1.49264,1.56767,1.51998,1.51465,1.50204,1.49093,1.49895,1.47649,1.43882,1.51679,1.4984,1.4083,1.52405,1.50216,1.46503,1.51336,1.51599,1.46935,1.51741,1.50334,1.46373,1.47455,1.54402,1.54468,1.50567,1.46932,1.53399,1.42048,1.53618,1.50369,1.5014,1.45338,1.49753,1.47269,1.51379,1.3854,1.51941,1.47815,1.46841,1.43347,1.47762,1.4929,1.40347,1.48363,1.53572
1.48963,1.55242,1.5881,1.43818,1.48955,1.53284,1.49081,1.52212,1.41081,1.43058,1.49531,1.47945,1.42095,1.48745,1.42938,1.48741,1.45344,1.52424,1.44594,1.48246,1.51826,1.40127,1.42456,1.52617,1.45721,1.48354,1.42905,1.48414,1.4369,1.45454,1.57359,1.50502,1.51557,1.46479,1.45716,1.56067,1.49521,1.42925,1.44954,1.52603,1.56154,1.51374,1.46963,1.52344,1.50077,1.53761,1.57444,1.50356,1.54353,1.44526,1.59333,1.50956,1.47352,1.50313,1.46555,1.4811,1.50599,1.57186,1.49841,1.43112
1.41737,1.53802,1.50234,1.49063,1.49239,1.47892,1.56788,1.48109,1.54408,1.52659,1.49118,1.54103,1.52447,1.4903,1.46436,1.48767,1.43418,1.46232,1.51224,1.53344,1.46813,1.51145,1.40772,1.45025,1.49785,1.44946,1.48949,1.40139,1.56367,1.49143,1.48136,1.44625,1.50245,1.53809,1.49624,1.4964,1.51004,1.48554,1.42695,1.53636,1.51039,1.55508,1.52762,1.50968,1.50742,1.55906,1.50412,1.52026,1.49914,1.54462,1.43438,1.48856,1.52843,1.44672,1.46484,1.51291,1.53679,1.50775,1.5732,1.43125
1.47717,1.56946,1.4735,1.45114,1.55583,1.48199,1.45068,1.53277,1.50188,1.53572,1.49897,1.53438,1.46399,1.46231,1.46837,1.49668,1.54039,1.58436,1.47932,1.43997,1.55445,1.55148,1.48054,1.5572,1.54,1.5046,1.54962,1.5157,1.43398,1.55736,1.42322,1.47227,1.43152,1.57296,1.47044,1.47411,1.44591,1.49582,1.51956,1.49599,1.45763,1.51633,1.41241,1.47123,1.47,1.47989,1.46675,1.50717,1.4676,1.52606,1.39317,1.48001,1.42249,1.496,1.45906,1.47122,1.58675,1.4127,1.50669,1.5211
1.51998,1.47603,1.5315,1.44278,1.47799,1.47688,1.51201,1.54132,1.55515,1.43109,1.53242,1.60352,1.46721,1.53993,1.4914,1.51366,1.4893,1.52535,1.53711,1.46153,1.47324,1.44373,1.58306,1.50443,1.40204,1.4523,1.48823,1.5289,1.48047,1.58423,1.47375,1.53626,1.50104,1.54749,1.47059,1.49919,1.44147,1.44542,1.43644,1.46564,1.49306,1.50556,1.45491,1.46694,1.51486,1.47086,1.5177,1.50483,1.54471,1.47208,1.47055,1.46235,1.39051,1.53068,1.50057,1.41823,1.46878,1.455,1.43579,1.5102
1.45286,1.46403,1.50361,1.49984,1.51911,1.49577,1.50032,1.58436,1.46222,1.48735,1.47173,1.43802,1.58077,1.49977,1.48728,1.51348,1.46346,1.53265,1.51758,1.56955,1.40534,1.5187,1.53825,1.4606,1.51941,1.51642,1.48546,1.52106,1.46067,1.54987,1.54242,1.52913,1.40091,1.49417,1.54517,1.47311,1.46212,1.48816,1.45958,1.45588,1.55345,1.53603,1.51821,1.4906,1.39749,1.49797,1.50871,1.50442,1.49254,1.56044,1.49756,1.50685,1.48218,1.48605,1.39484,1.45389,1.55336,1.41479,1.47852,1.47387
1.48912,1.52893,1.41895,1.43704,1.44523,1.4798,1.41397,1.4535,1.51648,1.45319,1.46001,1.49976,1.56014,1.45359,1.52388,1.44156,1.49318,1.46736,1.47349,1.47574,1.50911,1.51157,1.53272,1.55441,1.47137,1.50389,1.46819,1.50943,1.55096,1.5103,3.48304,1.52602,1.47529,1.49948,1.45178,1.49017,1.4722,1.49139,1.406,1.48989,1.51202,1.47579,1.51108,1.49799,1.4127,1.48282,1.51389,1.51317,1.43445,1.51304,1.53028,1.545,1.49032,1.49569,1.45562,1.47742,1.48266,1.48841,1.45217,1.54665
1.43353,1.48568,1.49612,1.48199,1.47084,1.43198,1.45339,1.45281,1.4973,1.4334,1.43119,1.49681,1.50123,1.5294,1.50777,1.51713,1.46528,1.48308,1.50821,1.47674,1.5229,1.48589,1.50828,1.48135,1.45765,1.5385,1.54631,1.45488,1.47953,1.48355,1.51419,1.43687,1.48083,1.46875,1.44745,1.51511,1.51519,1.46682,1.51145,1.5479,1.51224,1.42404,1.51191,1.51954,1.53001,1.43462,1.4583,1.54227,1.44636,1.38591,1.53958,1.49003,1.50725,1.40559,1.48482,1.47015,1.50425,1.50552,1.51668,1.50855
1.49365,1.48815,1.43201,1.39983,1.48295,1.45692,1.4822,1.55309,1.46772,1.49531,1.54105,1.52117,1.49008,1.51161,1.57716,1.52883,1.50801,1.51947,1.44275,1.54765,1.46429,1.48777,1.55805,1.52736,1.52683,1.44746,1.42635,1.54581,1.46586,1.50157,1.50842,1.41269,1.45209,1.55159,1.46943,1.46682,1.54357,1.46943,1.44513,1.51818,1.53717,1.51831,1.45459,1.47229,1.50834,1.44725,1.43133,1.63461,1.52203,1.49183,1.5052,1.52123,1.46138,1.45703,1.4859,1.50586,1.4708,1.47484,1.52864,1.41913
1.50386,1.46919,1.55751,1.44225,1.47853,1.56354,1.50594,1.39203,1.48938,1.48225,1.45208,1.49499,1.41835,1.3996,1.49896,1.44135,1.48285,1.44889,1.55494,1.48521,1.4405,1.50443,1.53507,1.50872,1.48077,1.50866,1.53554,1.56172,1.55876,1.4943,1.48604,1.57077,1.5378,1.48564,1.46039,1.5006,1.437,1.53766,1.44463,1.45873,1.50122,1.47275,1.43696,1.46831,1.46837,1.5068,1.56104,1.51365,1.47003,1.42896,1.52523,1.54979,1.48591,1.59035,1.44246,1.54028,1.47173,1.50685,1.41322,1.54461
1.46434,1.47463,1.52545,1.48317,1.62018,1.54658,1.46377,1.41167,1.43682,1.43262,1.55186,1.45346,1.48693,1.49773,1.52847,1.45005,1.47317,1.52945,1.48373,1.49218,1.49794,1.46028,1.50387,1.51161,1.44092,1.55177,1.48138,1.54358,1.52257,1.52249,1.53651,1.46918,1.44192,1.49431,1.38856,1.49206,1.52614,1.49469,1.50414,1.50345,1.46747,1.53751,1.49503,1.46864,1.51403,1.50855,1.43539,1.44955,1.46563,1.51534,1.46587,1.44687,1.50155,1.49856,1.52199,1.54432,1.51303,1.53457,1.49026,1.53901
1.50193,1.45908,1.41148,1.56872,1.48409,1.47661,1.49471,1.511,1.4861,1.46802,1.47916,1.5491,1.46123,1.58806,1.47437,1.4858,1.507,1.48466,1.51063,1.4789,1.52142,1.51697,1.47931,1.50646,1.50441,1.55512,1.49984,1.44207,1.48379,1.54112,1.49969,1.52853,1.48952,1.45174,1.47206,1.47396,1.44436,1.46403,1.44338,1.41829,1.39569,1.42954,1.5591,1.47671,1.46145,1.55469,1.49247,1.43073,1.52094,1.52151,1.47608,1.47027,1.43667,1.4527,1.49202,1.43667,1.51728,1.55639,1.50786,1.51854
1.49982,1.47972,1.54984,1.50448,1.49819,1.55255,1.4419,1.48022,1.48211,1.50561,1.52304,1.44949,1.48206,1.43086,1.50391,1.52068,1.49102,1.5082,1.50985,1.59234,1.55975,1.4958,1.39545,1.48093,1.46165,1.52991,1.54731,1.44898,1.4515,1.51169,1.51231,1.44459,1.50747,1.5355,1.46431,1.49254,1.47608,1.5157,1.53352,1.48068,1.46849,1.44244,1.48448,1.43361,1.42674,1.44106,1.50475,1.57021,1.44718,1.53829,1.46167,1.48069,1.57442,1.49552,1.47082,1.46933,1.48379,1.59752,1.53388,1.54445
1.5164,1.60592,1.45567,1.42477,1.47429,1.41352,1.42848,1.52072,1.44779,1.41764,1.46833,1.4337,1.49635,1.45389,1.45421,1.46663,1.53076,1.4583,1.48322,1.46631,1.47736,1.49716,1.56244,1.52574,1.49191,1.51521,1.45526,1.47181,1.56471,1.47893,1.51684,1.4743,1.50219,1.46599,1.43627,1.51065,1.48978,1.49356,1.52946,1.40128,1.55181,1.44906,1.49136,1.43809,1.4873,1.45586,1.53179,1.48597,1.49379,1.52171,1.47071,1.50287,1.46257,1.50767,1.50436,1.53637,1.49811,1.46894,1.46207,1.46694
1.47105,1.43678,1.3961,1.51287,1.45051,1.49002,1.50412,1.44368,1.61289,1.51777,1.45792,1.44729,1.52606,1.50453,1.50306,1.46049,1.48955,1.54694,1.46619,1.455,1.49623,1.52493,1.52361,1.48252,1.45459,1.48713,1.45712,1.50059,1.50399,1.49818,1.57451,1.50385,1.53448,1.44125,1.53013,1.53154,1.50805,1.49501,1.46167,1.43092,1.50037,1.3967,1.49967,1.52385,1.54461,1.51924,1.48367,1.47796,1.47813,1.47538,1.42091,1.41903,1.48513,1.49924,1.52658,1.51703,1.40564,1.50322,1.47948,1.41721
1.58081,1.50479,1.53456,1.53908,1.49356,1.48795,1.45562,1.48254,1.51038,1.54248,1.5269,1.56527,1.49101,1.49077,1.53238,1.44388,1.43512,1.39049,1.4802,1.54805,1.48212,1.50622,1.47984,1.42762,1.46566,1.42595,1.50714,1.43106,1.54493,1.48991,1.49905,1.47925,1.48902,1.4288,1.49417,1.54632,1.48769,1.50803,1.47308,1.50273,1.44587,1.34418,1.47316,1.52168,1.45115,1.41418,1.55389,1.44484,1.41245,1.49597,1.44318,1.48383,1.47902,1.49194,1.56039,1.41715,1.47904,1.53097,1.43329,1.52122
1.43478,1.51199,1.52818,1.52585,1.50718,1.45646,1.51714,1.47758,1.45267,1.52378,1.42599,1.49256,1.52748,1.43735,1.4616,1.45628,1.48778,1.55001,1.43585,1.50311,1.39504,1.4312,1.51084,1.46478,1.45685,1.53669,1.56563,1.43852,1.50497,1.51515,1.47285,1.52358,1.48511,1.45768,1.50661,1.47382,1.49677,1.52886,1.40013,1.442,1.55527,1.4466,1.49485,1.47208,1.53167,1.55477,1.53357,1.54741,1.36851,1.45568,1.49486,1.46047,1.52518,1.50182,1.48072,1.47574,1.53595,1.51996,1.52365,1.438
1.45711,1.51622,1.48395,1.48288,1.42913,1.53839,1.45473,1.49644,1.45497,1.46265,1.4797,1.46514,1.39875,1.47826,1.4707,1.43765,1.43342,1.4485,1.50783,1.45038,1.50569,1.46619,1.47033,1.50643,1.48727,1.54409,1.51589,1.4547,1.48871,1.46664,1.46596,1.44306,1.49943,1.42725,1.48792,1.45445,1.48739,1.48056,1.47427,1.42039,1.53661,1.49595,1.54675,1.50861,1.44497,1.48088,1.39785,1.49997,1.49285,1.49879,1.53051,1.4175,1.53451,1.47571,1.47222,1.51508,1.52531,1.42388,1.49385,1.48744
1.52899,1.45764,1.41888,1.53296,1.50528,1.41713,1.51308,1.47788,1.49962,1.53,1.54309,1.53068,1.50038,1.41197,1.52583,1.50268,1.52946,1.40378,1.54379,1.43214,1.47077,1.48667,1.44359,1.43918,1.47368,1.50868,1.52956,1.43452,1.44971,1.50106,1.47652,1.46585,1.56404,1.51698,1.44957,1.43559,1.43946,1.44595,1.49911,1.40319,1.53709,1.52277,1.48364,1.49233,1.48935,1.53254,1.55857,1.45026,1.53165,1.4774,1.53454,1.47626,1.54626,1.46888,1.50074,1.47457,1.46102,1.4265,1.4895,1.54378
1.44155,1.42671,1.50237,1.47056,1.47055,1.42104,1.51447,1.51741,1.47096,1.48083,1.49215,1.55794,1.52156,1.47265,1.4802,1.5662,1.56689,1.47855,1.45896,1.46744,1.53556,1.42556,1.50215,1.50305,1.52509,1.45831,1.45258,1.48455,1.47621,1.53707,1.44835,1.41849,1.49483,1.45038,1.52345,1.50845,1.45891,1.44098,1.4293,1.51234,1.4732,1.52984,1.5342,1.48449,1.49213,1.51831,1.44628,1.46333,1.5692,1.54851,1.54135,1.45709,1.50115,1.524,1.50338,1.55395,1.44401,1.37402,1.54495,1.47705
1.49078,1.46612,1.45785,1.52865,1.48372,1.53047,1.42772,1.43154,1.48821,1.43045,1.47392,1.41121,1.50747,1.49611,1.48115,1.51332,1.55612,1.55665,1.42675,1.51329,1.4744,1.55513,1.44002,1.50323,1.49732,1.51019,1.55464,1.58541,1.51029,1.45656,1.43724,1.5148,1.50222,1.48552,1.44748,1.44692,1.46679,1.49641,1.49752,1.47088,1.48093,1.48315,1.46557,1.47424,1.438,1.5058,1.47346,1.45084,1.51975,1.46502,1.44892,1.41986,1.46364,1.45304,1.48361,1.46248,1.51249,1.46209,1.45032,1.4703
1.42284,1.48055,1.45777,1.4928,1.50624,1.53326,1.49339,1.46281,1.52217,1.39273,1.44825,1.5004,1.44032,1.41302,1.51046,1.49619,1.5151,1.44822,1.47282,1.44504,1.45534,1.42773,1.55453,1.50816,1.45407,1.5007,1.50945,1.55963,1.50012,1.4874,1.43219,1.48031,1.49343,1.42282,1.52934,1.4838,1.47279,1.50159,1.49828,1.45636,1.3972,1.49507,1.50744,1.49098,1.42699,1.49494,1.48789,1.53074,1.52547,1.55858,1.49192,1.52444,1.49177,1.53411,1.51416,1.47274,1.50737,1.45088,1.45041,1.48321
1.48298,1.41472,1.4121,1.49903,1.47684,1.44997,1.31957,1.48255,1.40365,1.51218,1.44701,1.46691,1.50512,1.51248,1.47221,1.4519,1.41905,1.47325,1.56135,1.47659,1.44502,1.58692,1.50602,1.50559,1.44613,1.53257,1.49629,1.51592,1.43442,1.47355,1.5275,1.47571,1.48549,1.48714,1.45515,1.47944,1.48586,1.51437,1.4751,1.48297,1.49646,1.52541,1.41899,1.5376,1.43647,1.4811,1.44713,1.49007,1.49757,1.52455,1.52065,1.51401,1.49703,1.56492,1.50039,1.5468,1.50464,1.52496,1.48048,1.46445
1.45337,1.45815,1.52813,1.5803,1.51072,1.51233,1.53629,1.48794,1.49872,1.53147,1.50342,1.53209,1.48136,1.45033,1.51426,1.4928,1.43032,1.49923,1.50151,1.55153,1.51802,1.53615,1.4533,1.4642,1.47592,1.46584,1.47954,1.54364,1.49833,1.50757,1.53587,1.55647,1.43681,1.50054,1.464,1.54098,1.47727,1.44438,1.49504,1.49609,1.3942,1.52886,1.44797,1.45737,1.53511,1.48356,1.53108,1.48069,1.47148,1.43938,1.45286,1.47125,1.39944,1.4724,1.53136,1.54832,1.43677,1.49574,1.48865,1.44809
1.49656,1.49595,1.45813,1.48663,1.52478,1.46722,1.50906,1.56346,1.44408,1.49839,1.51037,1.53011,1.50915,1.53969,1.47177,1.4892,1.46626,1.48205,1.48208,1.48268,1.45201,1.53338,1.49393,1.52071,1.52701,1.50346,1.48645,1.46444,1.50525,1.44251,1.46035,1.48074,1.48697,1.46397,1.5241,1.48792,1.514,1.40083,1.49217,1.50262,1.44694,1.48212,1.50729,1.41245,1.50189,1.49324,1.51187,1.48713,1.53286,1.54182,1.46668,1.45279,1.51,1.43846,1.55999,1.51214,1.46066,1.51464,1.48708,1.50219
1.43016,1.54733,1.49703,1.46012,1.57073,1.483,1.45749,1.53675,1.49022,1.46981,1.44626,1.42281,1.48598,1.55218,1.4666,1.45526,1.58339,1.49861,1.46438,1.49502,1.48033,1.44525,1.53958,1.48162,1.5315,1.50129,1.43194,1.47946,1.47179,1.51813,1.55645,1.49971,1.51535,1.4527,1.43265,1.5476,1.50339,1.51082,1.4459,1.46446,1.51832,1.53282,1.49228,1.47862,1.58638,1.52831,1.43619,1.44338,1.49295,1.53228,1.43851,1.42623,1.4958,1.48136,1.42791,1.55322,1.50844,1.49683,1.53543,1.52206
1.51845,1.51318,1.50725,1.41079,1.50752,1.47095,1.49392,1.49047,1.50446,1.48558,1.49646,1.45221,1.56619,1.54355,1.50978,1.4988,1.47911,1.46188,1.5617,1.48078,1.47805,1.52708,1.49257,1.53631,1.47721,1.44118,1.41483,1.38653,1.40733,1.50503,1.51035,1.52847,1.46133,1.46966,1.45392,1.41952,1.39018,1.47304,1.46512,1.45711,1.47009,1.48745,1.57644,1.41989,1.48473,1.44674,1.51086,1.54248,1.46678,1.4487,1.40154,1.51962,1.43341,1.52324,1.5515,1.52327,1.5244,1.52453,1.48754,1.48658
1.50108,1.50832,1.47709,1.43152,1.53211,1.49587,1.49355,1.51144,1.45027,1.49755,1.47314,1.52138,1.40551,1.46473,1.53286,1.4555,1.47619,1.45791,1.50771,1.48186,1.51982,1.48191,1.44559,1.46651,1.52808,1.46622,1.44282,1.44729,1.52328,1.46393,1.48951,1.4945,1.46307,1.43789,1.53068,1.50621,1.51973,1.42456,1.53998,1.42786,1.49074,1.45358,1.48647,1.48768,1.40288,1.41577,1.48029,1.38681,1.50056,1.43417,1.52641,1.50689,1.50945,1.44366,1.49809,1.41165,1.41972,1.54901,1.4519,1.51956
1.47827,1.56283,1.4737,1.51961,1.5155,1.48793,1.46152,1.55295,1.52774,1.41273,1.51561,1.47069,1.47202,1.4947,1.42898,1.46517,1.51099,1.48194,1.49849,1.50428,1.45207,1.52578,1.52858,1.54101,1.50258,1.46694,1.48847,1.46008,1.45041,1.57851,1.42069,1.48335,1.46925,1.42557,1.53538,1.48282,1.47031,1.48474,1.51384,1.50784,1.47299,1.51777,1.48487,1.43751,1.43809,1.53574,1.47437,1.45176,1.4967,1.48254,1.42944,1.50038,1.548,1.44228,1.3974,1.53876,1.55722,1.43477,1.46071,1.45074
1.52187,1.51896,1.39509,1.46637,1.44836,1.49329,1.42967,1.45655,1.46681,1.4919,1.45426,1.53733,1.42609,1.46655,1.48592,1.50912,1.49201,1.56953,1.4764,1.46725,1.52391,1.47371,1.51948,1.51714,1.4811,1.50272,1.53262,1.48162,1.46176,1.55976,1.48555,1.50088,1.42936,1.5007,1.50878,1.57753,1.50485,1.48127,1.51364,1.46759,1.44524,1.48657,1.46687,1.39931,1.53566,1.46004,1.53664,1.43489,1.45315,1.45181,1.52686,1.42039,1.45732,1.50431,1.4761,1.51356,1.4716,1.49188,1.51177,1.53835
1.47532,1.5115,1.49098,1.40621,1.52209,1.45305,1.4843,1.45765,1.49626,1.44967,1.46621,1.51495,1.47131,1.47456,1.42784,1.51797,1.40185,1.50098,1.49464,1.46704,1.48275,1.47792,1.48534,1.38584,1.46562,1.45252,1.47535,1.43336,1.46011,1.52522,1.49882,1.54472,1.48249,1.45326,1.51937,1.47762,1.54866,1.48169,1.52036,1.49104,1.42825,1.56136,1.53077,1.4785,1.4699,1.46179,1.44032,1.43995,1.48126,1.49859,1.47613,1.50344,1.53528,1.44224,1.47652,1.48751,1.44595,1.44498,1.52553,1.46448
1.44799,1.50997,1.50746,1.49847,1.50151,1.41845,1.45955,1.50066,1.49766,1.48746,1.48792,1.4662,1.50247,1.47396,1.43873,1.48458,1.48564,1.48994,1.50253,1.48201,1.3791,1.47092,1.53494,1.55732,1.34251,1.48934,1.51153,1.44543,1.5134,1.46413,1.52854,1.52825,1.43974,1.55377,1.49196,1.47725,1.46031,1.462,1.44963,1.49694,1.48813,1.46447,1.48015,1.47589,1.44115,1.52739,1.41633,1.4955,1.49457,1.51205,1.4542,1.47749,1.43082,1.46476,1.50142,1.50572,1.49723,1.48159,1.54314,1.45243
1.51516,1.41213,1.43525,1.46566,1.47148,1.48571,1.42907,1.46232,1.49887,1.49751,1.466,1.47596,1.4775,1.49896,1.46126,1.48767,1.41909,1.48519,1.4985,1.46618,1.50602,1.51666,1.46725,1.48007,1.50481,1.53229,1.47921,1.50227,1.55381,1.46219,1.50595,1.50817,1.45667,1.42667,1.37288,1.54125,1.48164,1.50464,1.48125,1.53007,1.50371,1.50719,1.48371,1.46839,1.51039,1.51266,1.47063,1.42513,1.47869,1.45413,1.47497,1.46059,1.45001,1.47971,1.47408,1.52928,1.45627,1.51882,1.43863,1.49797
1.47572,1.47948,1.52953,1.44299,1.4584,1.4454,1.49884,1.55782,1.45415,1.48916,1.43662,1.48684,1.4618,1.47416,1.46626,1.44055,1.51621,1.52816,1.50574,1.44688,1.42536,1.53614,1.47463,1.46904,1.4513,1.45658,1.53766,1.47664,1.43367,1.52024,1.50691,1.47729,1.52067,1.48291,1.4544,1.55026,1.43737,1.45214,1.50921,1.48688,1.46355,1.46385,1.49968,1.50466,1.54001,1.51126,1.51241,1.48016,1.43787,1.51493,1.46953,1.53623,1.48062,1.47499,1.47494,1.45031,1.51137,1.49677,1.53387,1.47107
1.46451,1.56794,1.49996,1.46726,1.47659,1.49244,1.44649,1.45569,1.47571,1.49322,1.47818,1.51265,1.43785,1.5177,1.535,1.46185,1.37162,1.53503,1.51621,1.43127,1.46907,1.49562,1.51808,1.57059,1.48404,1.53911,1.44279,1.53985,1.47483,1.51489,1.50135,1.44684,1.52786,1.48761,1.44103,1.49313,1.43047,1.45373,1.50278,1.443,1.49054,1.52027,1.5107,1.48916,1.47394,1.57186,1.54165,1.48384,1.44672,1.55602,1.43213,1.53283,1.53422,1.47302,1.49443,1.43677,1.51182,1.53302,1.47181,1.55356
1.51138,1.49117,1.59683,1.42152,1.50633,1.49461,1.54808,1.49699,1.459,1.50103,1.44205,1.53155,1.44001,1.46347,1.50397,1.51892,1.52669,1.4972,1.53299,1.5612,1.51668,1.53423,1.51456,1.49538,1.53034,1.45136,1.47934,1.48884,1.46526,1.45564,1.46159,1.53242,1.52164,1.50981,1.40889,1.53582,1.45509,1.48034,1.46049,1.50784,1.49512,1.50173,1.46382,1.46229,1.50904,1.56721,1.44016,1.50436,1.4484,1.47265,1.46343,1.49019,1.47434,1.38889,1.50855,1.40912,1.50456,1.45264,1.4739,1.5034

max: 3.48304
min: 1.31957
avg: 1.48984
