2.13552,2.09018,2.20037,2.03848,2.09434,2.18578,2.16491,2.20754,2.1924,2.18601,2.11641,2.14979,2.10606,2.10235,2.11057,2.07165,2.13898,2.22621,2.11138,2.08594,2.14122,2.16103,2.18621,2.12859,2.16402,2.22139,2.14236,2.12193,2.1248,2.09661,2.16281,2.15351,2.0934,2.05531,2.09772,2.14934,2.15611,2.14369,2.08742,2.1797,2.13068,2.10703,2.04957,2.07325,2.1611,2.10996,2.11896,2.06265,2.07785,2.07448,2.15231,2.15446,2.12486,2.16133,2.16696,2.05051,2.09246,2.14923,2.17114,2.0964
2.07376,2.11179,2.11866,2.15537,2.10619,2.13089,2.15711,2.11142,2.10816,2.19827,2.09611,2.11854,2.13459,2.13517,2.13495,2.18273,2.19265,2.09029,2.13965,2.11277,2.21011,2.20091,2.17849,2.11087,2.21941,2.18198,2.12482,2.21109,2.18536,2.19872,2.13845,2.11319,2.18268,2.15396,2.15057,2.10657,2.06746,2.16343,2.16831,2.18478,2.16814,2.12312,2.12656,2.12032,2.14943,2.15467,2.10148,2.10249,2.15281,2.13923,2.11951,2.11702,2.03508,2.17075,2.09506,2.15792,2.17117,2.12636,2.09762,2.10716
2.23074,2.12374,2.08375,2.17696,2.17977,2.16435,2.10182,2.06063,2.13503,2.1633,2.11814,2.09875,2.09492,2.14664,2.19013,2.05373,2.09763,2.21653,2.11842,2.1161,2.11311,2.055,2.18706,2.15905,2.16254,2.14468,2.13865,2.1479,2.06477,2.10891,2.06097,2.1213,2.16576,2.13343,2.18958,2.11314,2.12372,2.06258,2.08142,2.08961,2.14129,2.16129,2.14255,2.18259,2.13096,2.1283,2.08141,2.04554,2.1548,2.12855,2.09585,2.14163,2.05827,2.17388,2.1506,2.09723,2.15198,2.09594,2.07125,2.10155
2.08922,2.15519,2.13431,2.11956,2.16444,2.19939,2.15436,2.19788,2.09714,2.07962,2.14873,2.13428,2.08279,2.07779,2.12805,2.0915,2.13024,2.19162,2.20104,2.09381,2.13505,2.18911,2.13303,2.17795,2.11195,2.16638,2.08354,2.06541,2.13283,2.08306,2.08926,2.15779,2.15007,2.18082,2.12066,2.15709,2.12591,2.08856,2.09533,2.06802,2.16754,2.05752,2.126,2.10286,2.13996,2.16145,2.11576,2.07225,2.09183,2.13816,2.18313,2.10175,2.18112,2.12922,2.04385,2.16169,2.18473,2.20091,2.1286,2.13418
2.11559,2.15322,2.18776,2.17649,2.15074,2.16559,2.17518,2.06908,2.15183,2.1445,2.08446,2.10567,2.1704,2.14332,2.0902,2.17696,2.10973,2.19511,2.16516,2.13991,2.11016,2.10135,2.12547,2.18088,2.11365,2.13748,2.12581,2.13395,2.17216,2.13676,2.13399,2.13441,2.11647,2.07265,2.05352,2.09797,2.1379,2.1942,2.11908,2.11149,2.15627,2.01584,2.1812,2.10769,2.15238,2.12373,2.14728,2.14359,2.03826,2.17171,2.13966,2.12042,2.059,2.13349,2.14892,2.15982,2.12819,2.20173,2.1426,2.09526
2.07181,2.13958,2.06873,2.14091,2.23128,2.14994,2.0531,2.18398,2.13447,2.17494,2.17004,2.13178,2.12705,2.10942,2.0786,2.18754,2.13253,2.11298,2.18043,2.14751,2.18454,2.11823,2.16045,2.12506,2.17093,2.15358,2.08882,2.12664,2.17738,2.15506,2.14463,2.12388,2.19507,2.08528,2.16541,2.14613,2.13725,2.15733,2.18075,2.12304,2.11251,2.18055,2.08234,2.13577,2.15704,2.23113,2.11238,2.15057,2.22441,2.20525,2.20732,2.1474,2.17425,2.11994,2.15281,2.10327,2.16054,2.2105,2.07794,2.11303
2.18162,2.18241,2.06823,2.11943,2.12985,2.08776,2.14373,2.17161,2.15429,2.08383,2.17483,2.14519,2.06309,2.04714,2.229,2.11809,2.13193,2.12373,2.11266,2.07646,2.13883,2.14351,2.13597,2.11141,2.18032,2.17406,2.20297,2.15556,2.16078,2.13372,2.17802,2.11925,2.08901,2.10696,2.17914,2.04883,2.14646,2.19928,2.08346,2.09453,2.09944,2.10962,2.11551,2.16483,2.12595,2.16387,2.127,2.15024,2.14365,2.11148,2.20564,2.08552,2.09979,2.11853,2.13689,2.05869,2.15491,2.1977,2.14994,2.15137
2.12844,2.18431,2.19163,2.18605,2.12964,2.14828,2.09524,2.09112,2.18072,2.13545,2.20186,2.13847,2.18092,2.16631,2.20002,2.13384,2.14999,2.07851,2.13965,2.04718,2.11188,2.11251,2.14332,2.09835,2.16737,2.21346,2.10131,2.15671,2.08232,2.14957,2.10226,2.20796,2.15472,2.10886,2.07767,2.13917,2.17385,2.14776,2.10961,2.12718,2.09532,2.08039,2.08591,2.08485,2.09452,2.15136,2.07074,2.14448,2.08303,2.18558,2.12775,2.06718,2.11112,2.12327,2.11737,2.0248,2.19661,2.14488,2.14276,2.13175
2.12978,2.13575,2.16345,2.2243,2.20573,2.1089,2.12655,2.17133,2.16841,2.191,2.12186,2.16981,2.11668,2.08146,2.12341,2.08216,2.11668,2.15689,2.15952,2.17703,2.19305,2.12561,2.16214,2.19703,2.0967,2.10269,2.19171,2.17318,2.11721,2.12848,2.09523,2.13595,2.20764,2.13086,2.09994,2.18837,2.07836,2.15486,2.19118,2.10543,2.12021,2.10115,2.21517,2.14455,2.16081,2.17281,2.16343,2.112,2.18293,2.11649,2.01123,2.0474,2.19198,2.11203,2.14399,2.09088,2.04711,2.09071,2.20363,2.10972
2.15703,2.17627,2.16642,2.15399,2.21562,2.12998,2.04076,2.0536,2.13082,2.16082,2.16605,2.14768,2.09368,2.12443,2.04618,2.11216,2.06861,2.14321,2.18834,2.13316,2.13486,2.14591,2.11251,2.12878,2.19977,2.17479,2.19173,2.20125,2.1534,2.09496,2.06326,2.15523,2.11974,2.05869,2.19594,2.13398,2.21669,2.08145,2.13797,2.17303,2.14757,2.10676,2.05074,2.19405,2.17061,2.15465,2.16603,2.19635,2.11269,2.10778,2.12798,2.1905,2.09233,2.14597,2.15145,2.14327,2.15681,2.15092,2.13155,2.12483
2.10194,2.23259,2.12995,2.07273,2.15062,2.12169,2.0386,2.18924,2.06795,2.07145,2.17151,2.08158,2.07648,2.09376,2.14313,2.07231,2.12669,2.14577,2.22261,2.18583,2.085,2.17838,2.15221,2.13474,2.13677,2.13541,2.20278,2.1459,2.10885,2.17776,2.10196,2.14752,2.19806,2.10116,2.20099,2.11775,2.16603,2.1352,2.07766,2.12559,2.13645,2.10511,2.13314,2.15207,2.15934,2.1537,2.1658,2.13827,2.14995,2.07491,2.12088,2.16123,2.19465,2.13083,2.14648,2.15698,2.12414,2.08679,2.19332,2.1664
2.16665,2.13885,2.11209,2.10504,2.11469,2.19201,2.11812,2.13952,2.16387,2.16482,2.19897,2.15652,2.19499,2.12948,2.14007,2.15533,2.05436,2.1529,2.09734,2.20795,2.19474,2.17527,2.09881,2.12422,2.02995,2.14488,2.11006,2.12891,2.1792,2.13516,2.07012,2.1178,2.11496,2.1663,2.09369,2.15297,2.15984,2.11815,2.11663,2.16113,2.15573,2.17021,2.13806,2.13082,2.11834,2.12117,2.14893,2.19656,2.19389,2.1112,2.15389,2.09102,2.09261,2.10019,2.03228,2.10149,2.06009,2.18489,2.11352,2.141
2.12328,2.11072,2.1184,2.15266,2.05004,2.18873,2.13239,2.12248,2.18889,2.10836,2.17576,2.16018,2.09815,2.20004,2.15337,2.19809,2.1376,2.14608,2.12773,2.14823,2.20394,2.15359,2.15947,2.22192,2.14284,2.30719,2.19029,2.13178,2.11575,2.14849,2.13014,2.02734,2.11558,2.10488,2.14794,2.13477,2.12745,2.14239,2.12383,2.08507,2.15611,2.131,2.21674,2.06388,2.10616,2.10843,2.16087,2.08979,2.05725,2.15733,2.09543,2.06106,2.09798,2.12382,2.08193,2.12259,2.12935,2.15416,2.14721,2.15335
2.17883,2.1801,2.08896,2.1952,2.12734,2.11415,2.15374,2.13549,2.13343,2.18225,2.08315,2.04508,2.07278,2.09869,2.11468,2.14002,2.08209,2.14371,2.16998,2.12237,2.14023,2.19962,2.08277,2.08805,2.06711,2.15938,2.157,2.17179,2.07108,2.13123,2.21029,2.09517,2.16278,2.16329,2.13667,2.10788,2.10763,2.06705,2.14162,2.09112,2.14086,2.10602,2.0341,2.10793,2.11126,2.39504,2.07603,2.19327,2.15436,2.14695,2.15978,2.10939,2.22844,2.11056,2.17476,2.13539,2.04578,2.18935,2.11498,2.17271
2.1932,2.16478,2.11699,2.11721,2.12873,2.147,2.1806,2.04261,2.10089,2.16052,2.13855,2.06454,2.17331,2.10567,2.0715,2.11565,2.18667,2.11818,2.13961,2.1066,2.12469,2.1938,2.10237,2.1057,2.17335,2.0763,2.09649,2.16783,2.12755,2.13007,2.21927,2.14263,2.09365,2.09569,2.17932,2.08616,2.19637,2.09036,2.13102,2.17363,2.18225,2.1686,2.13671,2.14116,2.17154,2.1585,2.17183,2.14959,2.15809,2.13005,2.07983,2.14606,2.1466,2.22899,2.09307,2.1754,2.10213,2.1328,2.08101,2.19418
2.15111,2.13517,2.10234,2.08847,2.17951,2.19844,2.09511,2.1499,2.16509,2.14487,2.0783,2.17663,2.07844,2.12139,2.10776,2.12905,2.1193,2.13402,2.25653,2.21334,2.07193,2.13403,2.18136,2.18548,2.20024,2.14996,2.11501,2.10169,2.17499,2.12746,2.19846,2.10938,2.14364,2.17015,2.19339,2.10437,2.1742,2.14565,2.18774,2.11024,2.17987,2.11553,2.17424,2.19168,2.09152,2.10886,2.07716,2.09843,2.13285,2.10789,2.09113,2.15291,2.15061,2.13722,2.07564,2.09495,2.14615,2.20622,2.09745,2.132
2.16023,2.17345,2.18167,2.17699,2.2078,2.12905,2.12171,2.098,2.11002,2.15322,2.12524,2.14058,2.12671,2.22,2.14912,2.19243,2.16135,2.14101,2.08894,2.14011,2.12377,2.12173,2.10021,2.13791,2.16701,2.136,2.16243,2.18228,2.1735,2.15449,2.13357,2.0561,2.16658,2.18384,2.14937,2.10012,2.15834,2.13276,2.10592,2.10952,2.0503,2.11095,2.16268,2.18349,2.06686,2.10928,2.15969,2.11273,2.16,2.19794,2.08578,2.08517,2.02811,2.15561,2.13313,2.08456,2.14722,2.17466,2.11499,2.1005
2.15562,2.12078,2.19068,2.11377,2.15867,2.06683,2.13227,2.14914,2.14043,2.16336,2.12478,2.16304,2.16358,2.09981,2.09624,2.09381,2.0973,2.14167,2.13,2.14238,2.13956,2.14643,2.14928,2.12563,2.08494,2.0689,2.20574,2.19152,2.03262,2.19317,2.13946,2.1443,2.08627,2.14247,2.14947,2.09081,2.10082,2.1169,2.17411,2.12811,2.14869,2.18303,2.1063,2.11898,2.14729,2.09443,2.06357,2.13703,2.16172,2.126,2.08559,2.18274,2.10422,2.15305,2.09311,2.12389,2.07586,2.12004,2.10966,2.17014
2.11673,2.13445,2.10383,2.12086,2.15147,2.2149,2.1663,2.0536,2.16599,2.19879,2.11209,2.12796,2.17897,2.2062,2.1255,2.14646,2.05697,2.10878,2.13232,2.08805,2.18656,2.07434,2.20448,2.14391,2.09943,2.13939,2.12586,2.15249,2.1383,2.18028,2.0655,2.17625,2.14756,2.14848,2.17816,2.09772,2.12335,2.12559,2.13236,2.10252,2.14049,2.18382,2.15041,2.12645,2.09695,1.99602,2.14084,2.14429,2.12776,2.16384,2.19441,2.13108,2.17328,2.19531,2.14256,2.12059,2.1362,2.16085,2.15069,2.07805
2.21671,2.11612,2.15864,2.10381,2.18347,2.09443,2.17115,2.07758,2.14257,2.13676,2.13768,2.17969,2.14324,2.11671,2.20546,2.16272,2.13615,2.09877,2.16307,2.19453,2.02112,2.09117,2.11459,2.10892,2.17185,2.10951,2.11633,2.10693,2.15565,2.15305,2.11429,2.08089,2.10609,2.22375,2.12804,2.0589,2.08942,2.08099,2.03027,2.11307,2.1628,2.16513,2.14465,2.15078,2.17667,2.17088,2.05983,2.15694,2.11454,2.10147,2.13826,2.16754,2.12204,2.21417,2.13364,2.15652,2.06596,2.12083,2.11381,2.0873
2.06949,2.16372,2.11947,2.10709,2.09824,2.21661,2.10437,2.14885,2.12921,2.15085,2.17168,2.09259,2.19558,2.12487,2.11315,2.14723,2.10667,2.15587,2.07762,2.13955,2.17736,2.16509,2.18596,2.16102,2.07906,2.16529,2.17872,2.17269,2.13737,2.11425,2.11518,2.23092,2.11298,2.02668,2.13201,2.1252,2.04514,2.07437,2.19351,2.14341,2.14907,2.14477,2.10793,2.16408,2.10384,2.14593,2.11798,2.13026,2.11067,2.11148,2.14898,2.12541,2.19742,2.11802,2.12798,2.09349,2.05441,2.12868,2.14144,2.20056
2.17399,2.12206,2.16562,2.10349,2.21256,2.06263,2.10799,2.15183,2.11063,2.10685,2.15338,2.13085,2.09494,2.06587,2.09756,2.08993,2.04341,2.17716,2.0962,2.07891,2.18468,2.17127,2.10305,2.1754,2.11593,2.11069,2.18821,2.16349,2.11294,2.11195,2.09324,2.18069,2.14662,2.13128,2.09481,2.18328,2.12719,2.13568,2.16699,2.13253,2.19749,2.17587,2.12701,2.1096,2.13366,2.16634,2.04595,2.11688,2.18264,2.10864,2.16002,2.11174,2.12578,2.17369,2.09988,2.21064,2.08791,2.12449,2.11646,2.0809
2.19562,2.17265,2.18819,2.15418,2.10933,2.17333,2.115,2.15695,2.17688,2.15325,2.09778,2.14749,2.08565,2.09023,2.11608,2.14894,2.06401,2.17253,2.03695,2.15435,2.15092,2.12835,2.09248,2.15971,2.17727,2.08279,2.1369,2.10769,2.12543,2.14646,2.12441,2.17803,2.15683,2.16502,2.10082,2.17032,2.08841,2.14445,2.14397,2.1955,2.17061,2.12305,2.06224,2.11843,2.19175,2.20901,2.11148,2.15429,2.14083,2.13903,2.09006,2.14257,2.09938,2.04877,2.0967,2.20474,2.17616,2.15626,2.17727,2.18894
2.13706,2.13565,2.18353,2.11965,2.14978,2.08455,2.17066,2.11311,2.0935,2.13582,2.09097,2.13444,2.15602,2.16497,2.19653,2.13977,2.07779,2.11334,2.10645,2.18554,2.21045,2.1593,2.15011,2.13034,2.18371,2.09453,2.15392,2.1801,2.0569,2.09247,2.15354,2.19389,2.14399,2.08639,2.13038,2.16129,2.16608,2.08778,2.10914,2.1415,2.19193,2.1114,2.10722,2.09251,2.0771,2.17236,2.1554,2.02183,2.14509,2.06567,2.13961,2.15041,2.05984,2.05738,2.09731,2.21993,2.10994,2.16499,2.17864,2.15699
2.14796,2.12778,2.14963,2.17313,2.03341,2.22001,2.07851,2.13587,2.15928,2.21277,2.17025,2.19087,2.11297,2.09242,2.11763,2.18753,2.12839,2.07584,2.09626,2.16212,2.16759,2.12133,2.14331,2.08348,2.19502,2.12496,2.10322,2.10662,2.09555,2.18698,2.11223,2.16788,2.15125,2.1395,2.11792,2.04632,2.18464,2.15361,2.16685,2.16175,2.10149,2.09418,2.07603,2.12477,2.08635,2.18393,2.11526,2.09262,2.19297,2.16631,2.12836,2.11468,2.152,2.05797,2.07147,2.07733,2.16128,2.14608,2.14468,2.11225
2.08985,2.18381,2.05689,2.19458,2.15217,2.10268,2.09697,2.13402,2.173,2.05625,2.13129,2.06779,2.06856,2.07442,2.11209,2.09528,2.13083,2.13411,2.15107,2.16526,2.15159,2.13579,2.11207,2.16693,2.11266,2.09462,2.11118,2.14116,2.14204,2.14838,2.0899,2.10988,2.05901,2.18714,2.15041,2.1521,2.13184,2.17727,2.16878,2.08262,2.15907,2.11853,2.12612,2.18936,2.13768,2.10014,2.10518,2.09145,2.12283,2.15562,2.10729,2.05422,2.20074,2.15056,2.1385,2.19933,2.11253,2.13759,2.11051,2.16262
2.13474,2.18872,2.12999,2.06506,2.15627,2.15142,2.16092,2.05443,2.10836,2.08747,2.1257,2.11882,2.0704,2.06172,2.19402,2.12819,2.08718,2.1854,2.038,2.11438,2.1479,2.0904,2.10132,2.11023,2.10378,2.19006,2.11363,2.15171,2.16004,2.13841,2.13573,2.08026,2.13685,2.18787,2.08673,2.14087,2.14706,2.03872,2.12095,2.2127,2.16916,2.06884,2.13002,2.16624,2.17246,2.1918,2.09899,2.13605,2.15214,2.13866,2.15601,2.07421,2.12248,2.16138,2.02195,2.13657,2.10183,2.12018,2.12076,2.1472
2.14283,2.0947,2.16621,2.11298,2.16909,2.17834,2.11172,2.14784,2.08514,2.11662,2.12447,2.14338,2.09087,2.16253,2.20711,2.07253,2.06141,2.11398,2.15716,2.16018,2.08792,2.2123,2.09487,2.15759,2.09727,2.14998,2.18679,2.14952,2.09316,2.15591,2.15935,2.15632,2.18926,2.14959,2.09832,2.19462,2.12682,2.14039,2.11474,2.11872,2.13232,2.0995,2.11322,2.08696,2.17622,2.12848,2.19973,1.96965,2.11813,2.18535,2.11684,2.15911,2.10286,2.12706,2.21204,2.10545,2.0882,2.11302,2.09507,2.06987
2.1668,2.15709,2.18353,2.15553,2.07003,2.16571,2.22611,2.10302,2.15594,2.11448,2.08597,2.17641,2.07752,2.15286,2.11281,2.17559,2.15437,2.09351,2.1265,2.11643,2.16006,2.14887,2.10442,2.18703,2.147,2.16215,2.17191,2.10459,2.16879,2.19172,2.16757,2.1107,2.13485,2.12482,2.20627,2.14804,2.10455,2.10939,2.16264,2.18796,2.10382,2.09912,2.1432,2.09291,2.10634,2.10629,2.11616,2.05673,2.20624,2.11147,2.1007,2.15178,2.06964,2.10673,2.17182,2.08016,2.13696,2.12974,2.14101,2.11567
2.0887,2.12076,2.10568,2.09596,2.17953,2.13707,2.09755,2.14751,2.22381,2.22245,2.11095,2.12601,2.08748,2.14844,2.11597,2.0416,2.08344,2.15222,2.09342,2.15929,2.09069,2.07764,2.18827,2.17355,2.12605,2.17295,2.15754,2.13016,2.05072,2.19351,2.16202,2.18146,2.14376,2.12141,2.11531,2.18851,2.12791,2.08177,2.17048,2.12487,2.14445,2.16657,2.05116,2.15269,2.10075,2.13713,2.12303,2.12457,2.09104,2.15619,2.19285,2.10829,2.12147,2.08725,2.13425,2.08487,2.19415,2.14206,2.13259,2.12434
2.19443,2.12942,2.07668,2.09736,2.13936,2.10416,2.12492,2.12801,2.11623,2.14898,2.07619,2.14632,2.13293,2.08348,2.19959,2.20116,2.0983,2.17129,2.09676,2.21973,2.15348,2.14026,2.15875,2.17557,2.11938,2.154,2.17196,2.09319,2.14124,2.10894,3.84479,2.18644,2.10898,2.09237,2.09055,2.17459,2.1685,2.18814,2.02722,2.12633,2.17968,2.14907,2.16353,2.12642,2.11569,2.13319,2.15895,2.15834,2.10303,2.1744,2.13981,2.16652,2.16807,2.16907,2.22279,2.13506,2.14279,2.16601,2.22721,2.14334
2.06407,2.232,2.13596,2.14055,2.14078,2.13776,2.09237,2.0489,2.12986,2.12326,2.11714,2.15278,2.08076,2.08394,2.1339,2.21808,2.07116,2.10116,2.17767,2.18114,2.06514,2.1401,2.07196,2.0634,2.16763,2.1649,2.14303,2.17308,2.13328,2.09415,2.13297,2.16019,2.13331,2.14058,2.14982,2.12275,2.18335,2.1091,2.14075,2.17044,2.00551,2.09346,2.13391,2.11843,2.08738,2.09465,2.17024,2.13281,2.05345,2.14897,2.17205,2.17378,2.11181,2.10505,2.1657,2.09042,2.04321,2.10176,2.0854,2.16834
2.13982,2.14855,2.13822,2.14047,2.13068,2.18601,2.10673,2.1633,2.1312,2.14611,2.1233,2.1157,2.10938,2.10986,2.15085,2.07744,2.15218,2.14731,2.12782,2.11312,2.125,2.08541,2.11577,2.15588,2.13218,2.1644,2.17198,2.11194,2.13853,2.08721,2.16427,2.09383,2.18591,2.14728,2.21593,2.11441,2.07147,2.17515,2.1477,2.13368,2.19445,2.12389,2.17612,2.16818,2.23267,2.12196,2.06611,2.05867,2.19848,2.16836,2.14837,2.18849,2.1267,2.15635,2.13646,2.11302,2.2076,2.20704,2.17837,2.05762
2.13665,2.08085,2.07944,2.18248,2.20065,2.19508,2.16023,2.10921,2.03522,2.17177,2.1339,2.15755,2.13795,2.16471,2.13471,2.1837,2.1045,2.11525,2.10398,2.10475,2.06172,2.1251,2.11249,2.09592,2.14001,2.16174,2.12998,2.07112,2.16148,2.14266,2.20116,2.15417,2.09357,2.11423,2.19278,2.11807,2.10977,2.13704,2.13282,2.18889,2.14598,2.15704,2.11973,2.16161,2.11856,2.22057,2.06085,2.11165,2.08367,2.0903,2.15711,2.1368,2.15295,2.12616,2.11698,2.1547,2.20583,2.18695,2.13054,2.12369
2.06497,2.14759,2.06198,2.08556,2.11299,2.20128,2.08424,2.11453,2.11768,2.17829,2.10481,2.19584,2.15585,2.11935,2.12683,2.12081,2.13514,2.12829,2.10628,2.1393,2.18898,2.1382,2.11243,2.19241,2.18047,2.14811,2.08919,2.17719,2.10233,2.11253,2.08756,2.10115,2.1294,2.14553,2.11954,2.1397,2.13197,2.15397,2.14604,2.1663,2.1179,2.10029,2.17556,2.1258,2.19406,2.02417,2.12274,2.15441,2.16034,2.12323,2.08418,2.10888,2.172,2.13925,2.0847,2.09253,2.1492,2.0883,2.14042,2.18369
2.16885,2.13496,2.12071,2.16744,2.16225,2.20174,2.21439,2.10943,2.18172,2.11634,2.17891,2.087,2.18468,2.23926,2.13954,2.13257,2.1434,2.09056,2.1405,2.17637,2.126,2.13299,2.1734,2.09989,2.1845,2.1783,2.11757,2.17339,2.12407,2.14498,2.15311,2.14636,2.16653,2.14984,2.17256,2.16292,2.16598,2.09456,2.10245,2.15758,2.07715,2.17863,2.18011,2.12651,2.186,2.15138,2.11748,2.06613,2.10265,2.10152,2.17416,2.08777,2.05714,2.09591,2.07438,2.09833,2.19875,2.12704,2.19755,2.05456
2.16929,2.15157,2.13017,2.14435,2.2244,2.14013,2.11505,2.15734,2.10232,2.14304,2.20068,2.10451,2.17331,2.17616,2.07044,2.20147,2.11909,2.1602,2.12387,2.16878,2.09981,2.10783,2.15458,2.07911,2.13629,2.08734,2.04999,2.15958,2.03881,2.1341,2.16338,2.10464,2.09862,2.13546,2.10876,2.11622,2.12917,2.17119,2.13014,2.21056,2.1593,2.11902,2.10674,2.11455,2.09519,2.15062,2.14877,2.12714,2.061,2.14212,2.10257,2.16653,2.13625,2.11607,2.1515,2.08259,2.09856,2.04288,2.11744,2.1357
2.0711,2.06137,2.0863,2.08729,2.20439,2.07937,2.21559,2.09305,2.09594,2.10861,2.14705,2.19729,2.20134,2.11843,2.11901,2.13491,2.17014,2.12335,2.12561,2.10238,2.17492,2.14359,2.17172,2.12495,2.137,2.1027,2.16271,2.13191,2.14951,2.10576,2.17828,2.15699,2.22507,2.18851,2.10682,2.05543,2.1131,2.19931,2.14254,2.05835,2.13324,2.13213,2.19914,2.05944,2.09607,2.18106,2.21476,2.17221,2.0654,2.0625,2.19513,2.1081,2.10232,2.08938,2.10056,2.17283,2.10749,2.09325,2.11553,2.1605
2.15948,2.15444,2.17905,2.11788,2.19391,2.18685,2.18914,2.08778,2.15499,2.14585,2.13256,2.16766,2.09644,2.09966,2.11025,2.09163,2.11038,2.13274,2.19944,2.15638,2.17542,2.11665,2.0968,2.08934,2.20662,2.15877,2.1334,2.14658,2.09964,2.17714,2.19664,2.12489,2.17479,2.02727,2.00262,2.09428,2.18547,2.1086,2.16328,2.06024,2.13824,2.19182,2.17553,2.19979,2.10515,2.11352,2.1819,2.16679,2.12658,2.1391,2.05776,2.14915,2.12537,2.17217,2.20411,2.16706,2.11284,2.20666,2.11801,2.10506
2.12412,2.10194,2.09614,2.1431,2.09041,2.16025,2.09618,2.15561,2.1632,2.14306,2.04584,2.14433,2.09239,2.12652,2.15743,2.19358,2.07339,2.15913,2.14702,2.09466,2.10102,2.07576,2.13655,2.1212,2.11638,2.16719,2.11029,2.08618,2.17026,2.17519,2.12088,2.11712,2.06163,2.09949,2.17239,2.14023,2.14686,2.09943,2.1752,2.0093,2.15301,2.12166,2.15562,2.20259,2.12885,2.14609,2.14602,2.17294,2.13659,2.09768,2.16425,2.09881,2.11492,2.12253,2.1423,2.12947,2.10561,2.17334,2.12918,2.08541
2.17331,2.13169,2.13814,2.18654,2.1913,2.09377,2.16681,2.13236,2.08281,2.20172,2.10885,2.09596,2.075,2.15472,2.15428,2.15507,2.20426,2.10708,2.15634,2.09732,2.16603,2.06033,2.1267,2.1721,2.21049,2.10952,2.10329,2.17095,2.11413,2.05975,2.10432,2.13767,2.16236,2.1849,2.17096,2.18127,2.19715,2.12502,2.08572,2.12067,2.1263,2.08268,2.12917,2.11421,2.21853,2.17909,2.07539,2.14777,2.04951,2.16615,2.10625,2.20811,2.12325,2.13724,2.19272,2.18563,2.15792,2.13979,2.11093,2.12439
2.19807,2.0752,2.11296,2.15227,2.11866,2.13075,2.14263,2.20215,2.14306,2.1308,2.10502,2.19108,2.16469,2.16137,2.11147,2.14908,2.11597,2.0766,2.12261,2.05595,2.1226,2.08113,2.16933,2.16318,2.0788,2.19333,2.07978,2.10362,2.1695,2.14322,2.11513,2.1361,2.1303,2.06123,2.10031,2.25541,2.1189,2.14431,2.09128,2.08115,2.11528,2.21099,2.11468,2.12344,2.12506,2.10823,2.08821,2.20805,2.08463,2.15773,2.12348,2.23534,2.13811,2.08039,2.0965,2.10623,2.14636,2.11275,2.15474,2.08937
2.13613,2.14174,2.13042,2.14048,2.1354,2.13927,2.15629,2.22669,2.09983,2.12715,2.12302,2.07313,2.12102,2.11176,2.11092,2.0388,2.07315,2.12652,2.09526,2.12814,2.17802,2.20859,1.99698,2.11245,2.11832,2.17534,2.07249,2.0739,2.11159,2.07328,2.11084,2.1942,2.14214,2.16559,2.12171,2.15283,2.24164,2.16153,2.16525,2.096,2.15494,2.16768,2.11935,2.13326,2.17385,2.13242,2.16946,2.11965,2.08373,2.12555,2.14346,2.14986,2.1979,2.15941,2.09708,2.13902,2.1355,2.13768,2.13507,2.14109
2.1615,2.11646,2.15268,2.19487,2.18401,2.14349,2.05018,2.14844,2.15092,2.19256,2.20986,2.07588,2.11695,2.15312,2.14274,2.07713,2.14028,2.09716,2.22874,2.16919,2.09877,2.04775,2.16502,2.16932,2.1735,2.10425,2.16126,2.12852,2.13601,2.10927,2.07379,2.08707,2.12345,2.13576,2.07816,2.16977,2.18371,2.06545,2.12301,2.11083,2.14861,2.1228,2.18772,2.0903,2.13221,2.05974,2.12141,2.09946,2.09406,2.14749,2.05752,2.13467,2.12987,2.25347,2.08766,2.13589,2.18339,2.11389,2.13965,2.12077
2.1392,2.13674,2.13001,2.11164,2.05419,2.11503,2.17237,2.13403,2.19594,2.17553,2.12783,2.19237,2.18914,2.14397,2.12284,2.10994,2.14122,2.10345,2.19393,2.16998,2.21945,2.07149,2.08418,2.15659,2.07652,2.17461,2.22657,2.15092,2.06579,2.10249,2.08387,2.16652,2.14514,2.12259,2.07975,2.06879,2.09542,2.09983,2.16659,2.13994,2.13442,2.06321,2.13533,2.04183,2.08774,2.10445,2.08747,2.10737,2.06273,2.16193,2.09109,2.08341,2.11255,2.15091,2.08523,2.09165,2.10447,2.12911,2.09203,2.08499
2.06881,2.18707,2.09244,2.13057,2.1526,2.1525,2.11235,2.05106,2.05524,2.09285,2.03753,2.1784,2.18528,2.12704,2.16109,2.09197,2.20322,2.16588,2.16046,2.01017,2.20392,2.16274,2.09432,2.15125,2.21598,2.16343,2.11191,2.16132,2.07958,2.11139,2.16174,2.10671,2.15443,2.1497,2.08605,2.08572,2.19113,2.10962,2.08572,2.1102,2.09162,2.18509,2.09269,2.17738,2.14446,2.11153,2.09024,2.0981,2.0599,2.16169,2.07701,2.16657,2.10467,2.10493,2.16007,2.0997,2.104,2.15811,2.12483,2.1952
2.1757,2.10068,2.12193,2.11551,2.08993,2.1898,2.06815,2.07779,2.08304,2.14287,2.1098,2.14982,2.10146,2.1286,2.05827,2.10888,2.10076,2.12602,2.151,2.23523,2.13128,2.08337,2.12173,2.08439,2.0753,2.11394,2.1162,2.13367,2.16378,2.10065,2.16891,2.05898,2.07965,2.10006,2.13024,2.19154,2.06869,2.10915,2.02515,2.1423,2.07642,2.20234,2.12826,2.10508,2.14151,2.13954,2.13716,2.20171,2.14966,2.16839,2.12982,2.13797,2.16579,2.1364,2.1583,2.16301,2.11244,2.11168,2.13984,2.2799
2.12858,2.11572,2.15376,2.16575,2.16363,2.08397,2.04227,2.14322,2.14862,2.17059,2.08084,2.06415,2.18543,2.14421,2.0549,2.11847,2.20359,2.15371,2.10116,2.14836,2.18423,2.08071,2.08275,2.1029,2.04863,2.13721,2.09161,2.18561,2.20074,2.11074,2.11008,2.09779,2.11008,2.07788,2.16924,2.1308,2.1242,2.16101,2.1496,2.17108,2.02334,2.18398,2.11974,2.1298,2.13335,2.08961,2.01308,2.11401,2.16097,2.09755,2.10656,2.11435,2.03436,2.13306,2.06705,2.15714,2.13407,2.1532,2.12937,2.09205
2.12208,2.1453,2.13277,2.14893,2.12443,2.11776,2.07644,2.10496,2.14018,2.12265,2.15075,2.12664,2.15481,2.16525,2.09653,2.13225,2.19197,2.20059,2.03241,2.14973,2.14951,2.13209,2.0608,2.14754,2.07202,2.14123,2.14119,2.06335,2.13989,2.11689,2.12087,2.08679,2.18888,2.13241,2.13367,2.05212,2.1182,2.1641,2.09709,2.09205,2.12953,2.14791,2.12164,2.06058,2.10697,2.13849,2.21647,2.18183,2.11363,2.12823,2.10772,2.1177,2.14543,2.16408,2.15694,2.13942,2.12621,2.12837,2.11833,2.10139
2.01938,2.08531,2.0975,2.21401,2.05053,2.12751,2.11787,2.08302,2.09611,2.18428,2.07276,2.1457,2.09674,2.06413,2.13191,2.15915,2.09138,2.02842,2.15393,2.1125,2.09709,2.2136,2.21434,2.16476,2.12055,2.15415,2.0652,2.15063,2.13146,2.17277,2.07154,2.11582,2.12713,2.18934,2.08209,2.09878,2.06837,2.07565,2.14248,2.17139,2.13783,2.16541,2.13864,2.10778,2.18728,2.15559,2.17386,2.08826,2.19183,2.11292,2.10493,2.12198,2.10384,2.16044,2.1063,2.19753,2.15297,2.14305,2.15629,2.1971
2.139,2.11137,2.03631,2.15674,2.20108,2.10814,2.17288,2.13839,2.08449,2.15233,2.14479,2.16754,2.1003,2.09373,2.19747,2.162,2.15825,2.14316,2.09675,2.06166,2.09687,2.17554,2.14862,2.09344,2.14073,2.07107,2.14401,2.11243,2.13796,2.14883,2.04253,2.1418,2.11253,2.11708,2.13325,2.1384,2.11842,2.07216,2.1669,2.12535,2.07295,2.14121,2.09005,2.08725,2.14462,2.17812,2.17906,2.12151,2.23111,2.17172,2.15775,2.19023,2.1467,2.16457,2.14975,2.20677,2.1868,2.14376,2.15952,2.0617
2.11961,2.1388,2.13644,2.11494,2.20349,2.15426,2.08,2.22779,2.16063,2.10779,2.15383,2.12891,2.20797,2.21228,2.14222,2.12355,2.09714,2.10398,2.09832,2.15782,2.16595,2.11944,2.21387,2.15018,2.16225,2.1269,2.16501,2.22235,2.13619,2.1642,2.1076,2.13891,2.08456,2.14068,2.13092,2.06172,2.14349,2.09929,2.12797,2.14029,2.12877,2.16296,2.13624,2.10111,2.10223,2.06997,2.11706,2.12734,2.12299,2.13334,2.18182,2.16114,2.18605,2.13453,2.09839,2.13868,2.15257,2.20187,2.11868,2.10793
2.09718,2.08385,2.20433,2.16861,2.19134,2.20608,2.10234,2.10794,2.12155,2.04375,2.10093,2.08134,2.21237,2.06605,2.12287,2.09622,2.10898,2.19567,2.12004,2.11682,2.11784,2.15607,2.11307,2.19777,2.1523,2.13678,2.07567,2.15058,2.10892,2.04312,2.17103,2.16113,2.17918,2.12758,2.03157,2.16015,2.15292,2.15646,2.05065,2.17809,2.15129,2.15979,2.09796,2.14409,2.09489,2.08635,2.12984,2.14371,2.15866,2.11235,2.16316,2.13426,2.12434,2.10756,2.05254,2.17173,2.05532,2.11846,2.19494,2.17901
2.16703,2.16141,2.06442,2.07037,2.06498,2.1805,2.14813,2.14502,2.13229,2.07367,2.12175,2.16578,2.16648,2.07863,2.08838,2.04347,2.06676,2.13542,2.10933,2.08616,2.06567,2.14793,2.1396,2.1577,2.15284,2.13203,2.10949,2.12632,2.09195,2.10042,2.18646,2.11549,2.13337,2.16834,2.13487,2.10589,2.16943,2.18784,2.09093,2.1615,2.16707,2.10709,2.04351,2.21882,2.14159,2.14654,2.05194,2.07931,2.18145,2.18604,2.2124,2.06039,2.17382,2.1343,2.09348,2.16059,2.1798,2.12325,2.1395,2.20316
2.15277,2.15967,2.11656,2.08265,2.1497,2.08905,2.19888,2.17998,2.07462,2.12164,2.0506,2.06036,2.16534,2.14447,2.1232,2.07367,2.13199,2.15146,2.15225,2.16685,2.11874,2.04687,2.11373,2.10654,2.11948,2.10688,2.10833,2.19131,2.14578,2.12548,2.12203,2.06278,2.11207,2.0994,2.05063,2.12137,2.12152,2.13284,2.08325,2.11003,2.09006,2.12569,2.1149,2.07424,2.19315,2.12029,2.13229,2.21087,2.15537,2.14202,2.14141,2.18116,2.14626,2.12153,2.13943,2.15874,2.21773,2.07095,2.21996,2.19884
2.14945,2.05919,2.1261,2.17097,2.11644,2.11994,2.16853,2.06313,2.09859,2.15743,2.11205,2.2402,2.1361,2.13003,2.10451,2.13165,2.13316,2.07932,2.11215,2.14084,2.20194,2.14098,2.10726,2.15377,2.13958,2.17972,2.13153,2.12987,2.11918,2.07487,2.0569,2.06913,2.06357,2.15507,2.13196,2.13805,2.13732,2.13212,2.09245,2.10402,2.16139,2.08697,2.15,2.06616,2.1194,2.19609,2.0911,2.10818,2.01056,2.06977,2.20446,2.08203,2.15969,2.15985,2.08124,2.1275,2.11868,2.11798,2.07714,2.09181
2.18049,2.08846,2.09348,2.09804,2.05823,2.18901,2.0756,2.12812,2.1067,2.09667,2.21067,2.10811,2.09574,2.09214,2.10605,2.16891,2.13446,2.14361,2.15623,2.16432,2.095,2.16055,2.06683,2.12065,2.15805,2.13943,2.10424,2.17009,2.24198,2.11859,2.09566,2.13661,2.14566,2.12996,2.11985,2.11526,2.05275,2.11646,2.11316,2.15049,2.17656,2.07949,2.10768,2.09943,2.03906,2.16029,2.13044,2.17063,2.09256,2.10397,2.14717,2.08347,2.09301,2.13156,2.07675,2.12742,2.13749,2.092,2.17575,2.15583
2.18249,2.16452,2.07719,2.15608,2.12011,2.12303,2.14712,2.15617,2.10131,2.11813,2.15605,2.03123,2.14451,2.08731,2.12764,2.15088,2.09517,2.05514,2.18944,2.04279,2.15836,2.10575,2.17594,2.13318,2.0854,2.14986,2.16166,2.11702,2.14267,2.09919,2.203,2.14247,2.09194,2.08133,2.16652,2.19594,2.1412,2.10404,2.11743,2.09088,2.14024,2.12235,2.1702,2.11301,2.12768,2.15589,2.10611,2.14979,2.12742,2.13182,2.1027,2.15712,2.11722,2.13559,2.13174,2.1388,2.14948,2.1099,2.09353,2.17534
2.16825,2.17956,2.12389,2.13246,2.08263,2.11807,2.1598,2.1221,2.20873,2.23163,2.10903,2.12985,2.13206,2.06177,2.17798,2.17721,2.18511,2.15749,2.08258,2.07481,2.08863,2.13649,2.05101,2.10751,2.03311,2.11352,2.12045,2.06568,2.06538,2.04249,2.21516,2.04991,2.1892,2.08867,2.14918,2.02515,2.18525,2.12133,2.21237,2.11737,2.13309,2.14642,2.14132,2.10727,2.22,2.0745,2.09054,2.14018,2.13465,2.10116,2.19339,2.12188,2.11055,2.16678,2.11364,2.1431,2.08776,2.12692,2.16355,2.15782
2.07798,2.06691,2.14879,2.18881,2.18237,2.0645,2.15833,2.09876,2.08501,2.16844,2.12383,2.13891,2.1353,2.07417,2.11693,2.08075,2.21129,2.16192,2.15644,2.11575,2.15696,2.14193,2.08263,2.14214,2.09295,2.06205,2.10025,2.1171,2.1129,2.13481,2.0858,2.23726,2.12415,2.05478,2.15994,2.07789,2.1266,2.1848,2.15592,2.06448,2.14284,2.1264,2.15727,2.14028,2.17246,2.10922,2.16667,2.15722,2.04281,2.05774,2.1687,2.17793,2.13012,2.14776,2.12086,2.09313,2.12168,2.06762,2.19714,2.05974

max: 3.84479
min: 1.96965
avg: 2.13261
