2.49548,2.5221,2.52956,2.45166,2.46904,2.54212,2.44065,2.54041,2.49664,2.43796,2.47174,2.45604,2.48501,2.46401,2.47151,2.5133,2.60056,2.52971,2.59318,2.50574,2.45851,2.51951,2.54454,2.48332,2.48023,2.47736,2.5263,2.59151,2.48297,2.47901,2.57837,2.51408,2.4944,2.46925,2.47348,2.55722,2.47634,2.49098,2.43847,2.4507,2.49896,2.44774,2.56794,2.48669,2.54648,2.50491,2.53587,2.49745,2.47618,2.56926,2.5448,2.54948,2.50883,2.44545,2.4328,2.45583,2.52047,2.44426,2.41965,2.501
2.5176,2.52685,2.52695,2.48567,2.55115,2.46887,2.47272,2.51886,2.53746,2.49942,2.47567,2.50785,2.47186,2.51431,2.50965,2.4724,2.50819,2.52021,2.45767,2.47931,2.52955,2.48474,2.51213,2.51425,2.48761,2.45785,2.54636,2.48829,2.48273,2.48308,2.50865,2.52761,2.54381,2.49989,2.43282,2.46831,2.49815,2.50503,2.48611,2.44604,2.51264,2.43624,2.4969,2.55504,2.54636,2.51024,2.47291,2.4805,2.48765,2.47489,2.53768,2.51877,2.48194,2.51705,2.54253,2.53412,2.51446,2.4559,2.5083,2.4805
2.49749,2.49736,2.51099,2.51316,2.47933,2.56926,2.46965,2.52013,2.57242,2.41813,2.4734,2.5098,2.49725,2.48274,2.47025,2.46535,2.52656,2.49326,2.50752,2.51592,2.51816,2.52743,2.4968,2.53633,2.54258,2.53375,2.48294,2.46311,2.54448,2.56617,2.4857,2.50009,2.47443,2.40998,2.52581,2.45706,2.46804,2.45903,2.46498,2.45502,2.456,2.48999,2.55198,2.46595,2.53005,2.50678,2.52173,2.40333,2.57818,2.53511,2.52702,2.47469,2.52449,2.47545,2.49731,2.57838,2.45044,2.53707,2.48208,2.53167
2.53904,2.5161,2.5235,2.54645,2.52443,2.46393,2.55829,2.51835,2.51946,2.54568,2.49854,2.56397,2.46682,2.51488,2.49458,2.50502,2.49223,2.52513,2.4341,2.49335,2.5357,2.51148,2.47122,2.5256,2.51166,2.52156,2.48679,2.55423,2.58654,2.51644,2.50612,2.55973,2.54526,2.49861,2.50495,2.50574,2.46356,2.48773,2.50288,2.49124,2.55177,2.53278,2.53398,2.46336,2.54495,2.46237,2.45253,2.54606,2.48401,2.52377,2.47496,2.55725,2.46208,2.45696,2.4569,2.51808,2.49472,2.49022,2.43591,2.50672
2.51849,2.53326,2.53579,2.49009,2.56187,2.51617,2.44322,2.42067,2.5861,2.482,2.46417,2.48737,2.51082,2.507,2.49082,2.54661,2.39223,2.54592,2.44962,2.52755,2.55808,2.51444,2.52422,2.46938,2.49903,2.41715,2.61797,2.50502,2.526,2.46153,2.50706,2.51317,2.54782,2.46909,2.57105,2.53989,2.44541,2.49402,2.5712,2.50856,2.45813,2.57725,2.50205,2.50456,2.5174,2.52009,2.44597,2.47573,2.51091,2.56676,2.50014,2.58557,2.44763,2.4833,2.54932,2.44549,2.49074,2.5257,2.42722,2.48664
2.48177,2.5294,2.53457,2.52621,2.51914,2.46273,2.46292,2.3804,2.49335,2.42906,2.45694,2.392,2.47704,2.51338,2.46327,2.55007,2.54847,2.49287,2.50187,2.46281,2.49476,2.48253,2.54257,2.53041,2.51996,2.48426,2.47245,2.52661,2.50097,2.44986,2.51004,2.48737,2.51583,2.51023,2.44376,2.56862,2.40346,2.53068,2.44555,2.57857,2.53175,2.55366,2.46577,2.53611,2.54045,2.51458,2.45815,2.4463,2.43616,2.50198,2.49011,2.53693,2.4751,2.46835,2.4584,2.48733,2.50072,2.46738,2.53278,2.56366
2.59114,2.56799,2.4905,2.50208,2.41594,2.51074,2.48425,2.45067,2.4743,2.48436,2.50632,2.5054,2.49207,2.47742,2.55671,2.55274,2.53862,2.4841,2.54213,2.56217,2.51224,2.50071,2.52176,2.54414,2.43734,2.5229,2.50302,2.50764,2.47643,2.50969,2.51875,2.53067,2.46908,2.46009,2.4888,2.5544,2.51732,2.50424,2.44424,2.52328,2.56392,2.53993,2.50944,2.48758,2.47802,2.49187,2.55697,2.47627,2.46134,2.46492,2.56273,2.46979,2.45465,2.5195,2.52853,2.53521,2.48531,2.51971,2.53477,2.49194
2.51345,2.52092,2.53885,2.49339,2.42935,2.62444,2.55927,2.53737,2.53368,2.48268,2.52276,2.5092,2.55024,2.46872,2.46813,2.51429,2.50937,2.48172,2.50928,2.51882,2.48663,2.48355,2.46492,2.51746,2.4828,2.5602,2.49513,2.50357,2.41437,2.55056,2.53295,2.45792,2.53093,2.49768,2.48269,2.50832,2.54511,2.45111,2.53633,2.41832,2.33157,2.55888,2.50191,2.54822,2.48655,2.50148,2.47309,2.49169,2.43314,2.46178,2.53451,2.47824,2.5159,2.5331,2.51208,2.47857,2.42181,2.46644,2.50188,2.53108
2.44417,2.45633,2.52055,2.4784,2.48135,2.48066,2.47288,2.43182,2.5009,2.51612,2.54702,2.47552,2.47444,2.47863,2.47884,2.47936,2.53482,2.50556,2.43593,2.48715,2.51654,2.53722,2.51677,2.54283,2.47365,2.49835,2.54504,2.45259,2.53467,2.48242,2.4794,2.52498,2.50419,2.50405,2.56319,2.47033,2.42179,2.42197,2.43435,2.50726,2.47596,2.4699,2.51741,2.55213,2.45503,2.57004,2.5137,2.47059,2.46258,2.45899,2.52452,2.53022,2.54994,2.50901,2.48214,2.51411,2.528,2.48114,2.48293,2.49504
2.52692,2.4531,2.48346,2.49182,2.53741,2.46403,2.46587,2.51404,2.47952,2.52037,2.54848,2.49496,2.51254,2.51924,2.49877,2.52123,2.47135,2.45915,2.49074,2.51418,2.51555,2.52794,2.49367,2.52742,2.51437,2.4932,2.47676,2.51738,2.53263,2.53033,2.51638,2.49279,2.48958,2.4301,2.44602,2.51185,2.47982,2.54975,2.41963,2.55713,2.55995,2.45516,2.52638,2.54627,2.56083,2.50632,2.51504,2.51971,2.49726,2.41514,2.44332,2.40581,2.52958,2.53874,2.52931,2.48323,2.52981,2.57331,2.5408,2.47941
2.48917,2.47509,2.55216,2.50299,2.44718,2.49677,2.56206,2.49106,2.46034,2.46917,2.48971,2.51618,2.56218,2.4833,2.46623,2.45562,2.42766,2.40556,2.40954,2.54581,2.53653,2.44241,2.59374,2.46792,2.48354,2.54777,2.42613,2.5204,2.46256,2.46369,2.46805,2.49041,2.49512,2.46048,2.45783,2.51385,2.51978,2.45713,2.42254,2.55914,2.49469,2.49037,2.54859,2.58438,2.56463,2.51906,2.51695,2.44979,2.5307,2.49692,2.45642,2.46189,2.52623,2.53621,2.53272,2.62382,2.56484,2.4864,2.55968,2.52795
2.55335,2.53961,2.50214,2.43051,2.49711,2.49967,2.4643,2.53102,2.58672,2.51678,2.50041,2.51913,2.56276,2.49012,2.45042,2.48134,2.46772,2.4433,2.50634,2.42525,2.52539,2.56633,2.53,2.53518,2.49815,2.50646,2.46962,2.50349,2.56919,2.55382,2.41262,2.5091,2.54783,2.46848,2.49715,2.47694,2.52319,2.55585,2.45307,2.52207,2.48195,2.51754,2.52932,2.53478,2.5122,2.47425,2.5628,2.49206,2.49233,2.4286,2.47826,2.43866,2.48733,2.56697,2.51071,2.48593,2.4735,2.49064,2.48379,2.46067
2.48596,2.51082,2.60215,2.47859,2.45585,2.54544,2.52495,2.49598,2.51681,2.48095,2.49629,2.51391,2.47179,2.54541,2.45447,2.47792,2.55937,2.48701,2.51236,2.48055,2.53403,2.59291,2.5208,2.53611,2.50482,2.59424,2.4099,2.505,2.4609,2.41743,2.46846,2.51131,2.51816,2.5525,2.48744,2.48903,2.53109,2.46394,2.48693,2.46776,2.3396,2.48804,2.50063,2.5176,2.48167,2.44178,2.50831,2.55174,2.47963,2.4499,2.50827,2.50531,2.40755,2.47907,2.47239,2.54118,2.47399,2.45351,2.4831,2.37032
2.45744,2.5044,2.56055,2.57075,2.51742,2.47344,2.47585,2.55932,2.4833,2.47507,2.39036,2.55931,2.50232,2.45707,2.50892,2.49807,2.44915,2.46314,2.42733,2.51542,2.49109,2.52762,2.55851,2.43013,2.46072,2.50689,2.46609,2.5379,2.51201,2.48694,2.59448,2.46716,2.4503,2.48954,2.49592,2.45395,2.47455,2.45078,2.48779,2.43667,2.59171,2.46641,2.48906,2.42581,2.5211,2.64248,2.46915,2.52854,2.53409,2.45969,2.48636,2.56678,2.59688,2.51159,2.48188,2.52377,2.52503,2.57289,2.51472,2.45282
2.46205,2.50623,2.51286,2.51433,2.50195,2.50629,2.50553,2.49421,2.58932,2.48289,2.50556,2.49247,2.47589,2.44035,2.47251,2.50709,2.50491,2.51204,2.48694,2.49128,2.52829,2.48524,2.46242,2.51339,2.46256,2.43237,2.49365,2.61317,2.53173,2.4315,2.45848,2.48048,2.49493,2.48637,2.5076,2.48528,2.42755,2.49072,2.48445,2.44767,2.57566,2.55336,2.46973,2.49981,2.47382,2.46473,2.5629,2.47725,2.57614,2.44948,2.47681,2.52476,2.49315,2.43648,2.45433,2.4711,2.54225,2.48698,2.49969,2.51212
2.51799,2.51514,2.49815,2.49245,2.48641,2.4803,2.49741,2.45828,2.50001,2.50598,2.50701,2.50873,2.49791,2.51848,2.53508,2.47461,2.48553,2.51648,2.45973,2.44567,2.56228,2.48724,2.54156,2.52428,2.45847,2.52425,2.52521,2.51532,2.46033,2.49554,2.55201,2.49982,2.49006,2.52728,2.49261,2.45652,2.54294,2.49917,2.47232,2.41054,2.48827,2.49393,2.42884,2.54667,2.42625,2.52943,2.42067,2.47205,2.48548,2.5321,2.55582,2.47107,2.5052,2.50968,2.563,2.48685,2.46659,2.43557,2.48751,2.50557
2.57055,2.44503,2.59969,2.46127,2.48706,2.4604,2.46687,2.51495,2.55562,2.46001,2.54774,2.46126,2.5018,2.53175,2.46647,2.5294,2.52761,2.49797,2.40484,2.42891,2.48917,2.4888,2.48145,2.56817,2.53685,2.48127,2.54079,2.60297,2.43429,2.54744,2.54933,2.51384,2.43794,2.51257,2.54998,2.53194,2.54602,2.56169,2.48856,2.52203,2.44897,2.51678,2.5347,2.47511,2.46304,2.45049,2.53083,2.57518,2.50702,2.46605,2.44284,2.49898,2.52453,2.47893,2.52088,2.55188,2.52208,2.45248,2.45929,2.49274
2.50311,2.56548,2.49047,2.49834,2.4342,2.55636,2.4425,2.48992,2.54196,2.56068,2.51155,2.46384,2.49271,2.36823,2.63823,2.48657,2.45396,2.57776,2.53341,2.47716,2.52663,2.50527,2.46274,2.49754,2.52705,2.50676,2.4732,2.49873,2.53443,2.50702,2.40205,2.5076,2.48428,2.48396,2.48728,2.57258,2.50096,2.49114,2.45576,2.51058,2.52043,2.47637,2.44554,2.49423,2.49934,2.48166,2.43626,2.47226,2.56785,2.51633,2.53858,2.45426,2.53894,2.47709,2.48368,2.50003,2.49607,2.51332,2.43679,2.54228
2.4758,2.51906,2.48864,2.51471,2.52613,2.55949,2.53697,2.50788,2.52887,2.56035,2.47961,2.42784,2.45995,2.44141,2.50362,2.49938,2.53024,2.50337,2.47749,2.48286,2.50556,2.48761,2.48617,2.45187,2.47547,2.46308,2.49568,2.53628,2.44931,2.41519,2.44071,2.54323,2.55457,2.54551,2.47257,2.48279,2.51114,2.48921,2.46118,2.44385,2.45976,2.53215,2.54657,2.57954,2.45278,2.49255,2.52467,2.44306,2.4841,2.55565,2.52999,2.47117,2.44499,2.47806,2.47828,2.51866,2.51374,2.45899,2.57334,2.52556
2.52088,2.54797,2.44214,2.49941,2.45859,2.59033,2.51019,2.55688,2.48665,2.44141,2.51305,2.49674,2.45821,2.51931,2.56084,2.56025,2.51775,2.46988,2.47514,2.47522,2.42671,2.51538,2.51858,2.51784,2.47985,2.53263,2.50853,2.48038,2.46757,2.42827,2.48776,2.48107,2.51878,2.51941,2.53639,2.53578,2.48723,2.49418,2.50182,2.45821,2.48405,2.53389,2.52131,2.59698,2.50402,2.47033,2.47605,2.41789,2.49435,2.48445,2.51053,2.43408,2.52025,2.5313,2.45986,2.45559,2.46698,2.4987,2.52281,2.45051
2.51753,2.48367,2.4954,2.53403,2.4769,2.5501,2.55012,2.49987,2.51014,2.46146,2.42776,2.54041,2.46149,2.5804,2.53751,2.56351,2.49686,2.52373,2.51455,2.51966,2.53222,2.4786,2.49595,2.47741,2.51958,2.49175,2.49382,2.54345,2.50072,2.48491,2.54819,2.46209,2.58152,2.45969,2.53864,2.57633,2.42495,2.45599,2.50928,2.42944,2.53998,2.42261,2.45606,2.5061,2.50228,2.48379,2.48745,2.49338,2.51503,2.49259,2.51172,2.46856,2.54407,2.41377,2.50828,2.50915,2.49015,2.53069,2.49286,2.45484
2.49423,2.5445,2.52207,2.47043,2.52511,2.51095,2.52414,2.49124,2.51281,2.41018,2.4565,2.48021,2.50446,2.43071,2.48349,2.4811,2.51852,2.46262,2.48531,2.51081,2.49804,2.43973,2.46386,2.49195,2.50451,2.49681,2.42331,2.44469,2.59227,2.54895,2.4866,2.50578,2.48398,2.50597,2.46938,2.55949,2.51549,2.47802,2.52912,2.49213,2.56709,2.49218,2.52534,2.44645,2.51236,2.50265,2.4993,2.51512,2.46923,2.47406,2.59616,2.47232,2.55315,2.48572,2.49149,2.49917,2.56489,2.50751,2.50923,2.505
2.45723,2.4884,2.47949,2.50768,2.4701,2.52704,2.48308,2.48084,2.4021,2.50157,2.56888,2.46363,2.49408,2.43348,2.49705,2.47149,2.49926,2.46616,2.56432,2.54616,2.52901,2.49608,2.45941,2.50847,2.48512,2.53274,2.4728,2.49305,2.56605,2.50529,2.43922,2.47798,2.45967,2.44298,2.45219,2.55553,2.47604,2.50376,2.45803,2.42062,2.53287,2.53838,2.51002,2.54354,2.52325,2.5139,2.50191,2.51955,2.50894,2.49275,2.49507,2.44739,2.49129,2.51987,2.48584,2.50863,2.41424,2.55799,2.51586,2.52448
2.5576,2.54406,2.5684,2.48871,2.51461,2.51086,2.48737,2.43891,2.54963,2.50949,2.57047,2.54399,2.50308,2.48507,2.53148,2.4468,2.46639,2.51861,2.51168,2.53624,2.52351,2.55266,2.3896,2.48542,2.42791,2.46571,2.52168,2.52221,2.46719,2.43901,2.50783,2.44371,2.59974,2.42705,2.47594,2.49663,2.41008,2.48656,2.53302,2.53051,2.47098,2.53161,2.34376,2.52255,2.56534,2.53353,2.46825,2.42892,2.51745,2.48092,2.43442,2.39572,2.454,2.55326,2.49928,2.47061,2.57283,2.43653,2.43775,2.45661
2.48375,2.57302,2.54329,2.52274,2.49493,2.52241,2.4869,2.48831,2.55105,2.48976,2.46699,2.44559,2.45556,2.51712,2.54818,2.55759,2.53948,2.54757,2.46737,2.55589,2.53724,2.44409,2.50566,2.51422,2.49427,2.47469,2.43833,2.5629,2.4753,2.52032,2.53153,2.52603,2.56202,2.49383,2.52548,2.5458,2.53648,2.57896,2.50456,2.44633,2.50738,2.48205,2.57092,2.49552,2.50325,2.55614,2.48177,2.48308,2.54217,2.47908,2.4629,2.47023,2.4678,2.49283,2.56963,2.47684,2.48212,2.48363,2.38349,2.4314
2.52513,2.61033,2.45844,2.58695,2.44225,2.4428,2.42513,2.4885,2.47301,2.50905,2.48793,2.47063,2.53102,2.50555,2.48722,2.4237,2.48273,2.52216,2.45294,2.42808,2.51319,2.51228,2.43098,2.46968,2.50827,2.52804,2.56183,2.54132,2.44426,2.48995,2.51824,2.53994,2.49937,2.59494,2.47862,2.45993,2.529,2.51696,2.50153,2.50267,2.47432,2.45585,2.44075,2.49399,2.49335,2.49901,2.51553,2.57186,2.47447,2.48331,2.56804,2.58127,2.52423,2.40909,2.49807,2.51623,2.41735,2.49911,2.51066,2.46325
2.46975,2.47779,2.49241,2.51465,2.48561,2.50758,2.51266,2.51326,2.48865,2.55031,2.45402,2.51514,2.44711,2.51079,2.59234,2.50697,2.48732,2.49375,2.47266,2.54411,2.53907,2.49137,2.44301,2.51104,2.48031,2.48951,2.46369,2.53627,2.49911,2.57289,2.46483,2.41539,2.52918,2.44454,2.51424,2.42128,2.45998,2.44368,2.47771,2.59412,2.44945,2.51602,2.52623,2.49975,2.473,2.49296,2.48018,2.51168,2.51658,2.46899,2.54305,2.52077,2.48206,2.51364,2.5181,2.51993,2.47003,2.45662,2.4254,2.49293
2.50339,2.36477,2.47587,2.52745,2.44743,2.57533,2.54284,2.50649,2.49895,2.52763,2.52015,2.48228,2.50893,2.52464,2.55995,2.54956,2.5451,2.43834,2.52182,2.46772,2.47359,2.5065,2.46524,2.5426,2.47554,2.48647,2.51413,2.43225,2.48895,2.45181,2.4902,2.55953,2.52859,2.42857,2.51875,2.50318,2.48446,2.46329,2.50013,2.48055,2.46667,2.4163,2.54164,2.50152,2.55287,2.57125,2.44136,2.42086,2.46467,2.53501,2.5166,2.48327,2.50896,2.50366,2.47858,2.43552,2.48527,2.3941,2.40401,2.46749
2.56033,2.46984,2.60274,2.44964,2.53371,2.55174,2.56886,2.4955,2.50646,2.47225,2.52303,2.44728,2.50107,2.49553,2.51467,2.50841,2.52935,2.46294,2.50938,2.51479,2.43232,2.54587,2.52274,2.47437,2.51608,2.41512,2.50154,2.50932,2.53098,2.46245,2.50207,2.48214,2.52629,2.56365,2.50508,2.46853,2.54038,2.53353,2.48984,2.50063,2.43856,2.48472,2.46594,2.51484,2.55336,2.52395,2.55047,2.53497,2.43833,2.55765,2.5624,2.48955,2.50408,2.46403,2.57194,2.4396,2.54071,2.44895,2.5138,2.43417
2.47811,2.52762,2.51066,2.45673,2.46677,2.41344,2.47846,2.49942,2.48383,2.4548,2.39875,2.5549,2.4746,2.4618,2.36599,2.55949,2.50634,2.46938,2.507,2.49399,2.54106,2.52849,2.51426,2.58874,2.54633,2.56038,2.51285,2.43813,2.47293,2.51067,2.49365,2.50527,2.47889,2.53574,2.51401,2.54873,2.4589,2.4644,2.47847,2.4872,2.51668,2.45806,2.46439,2.41057,2.4326,2.53454,2.4526,2.53552,2.52749,2.53488,2.55888,2.482,2.50602,2.47563,2.43298,2.55792,2.52802,2.56303,2.49894,2.49773
2.48444,2.48718,2.55257,2.46673,2.50968,2.46041,2.5138,2.59961,2.5629,2.46086,2.48065,2.53166,2.52006,2.4659,2.41518,2.4713,2.44667,2.41149,2.54026,2.52146,2.51109,2.44541,2.49804,2.45362,2.4881,2.50158,2.45465,2.59788,2.56985,2.49094,4.0442,2.49225,2.5037,2.40272,2.51633,2.50703,2.44262,2.47541,2.53647,2.48403,2.55162,2.45252,2.51773,2.48452,2.50668,2.48338,2.40925,2.49154,2.4787,2.55176,2.42705,2.52214,2.52635,2.5263,2.5135,2.52108,2.4703,2.61396,2.50672,2.5303
2.53734,2.44997,2.51235,2.47301,2.5063,2.49377,2.54442,2.46276,2.56956,2.52232,2.52991,2.46388,2.4736,2.52739,2.51297,2.45808,2.52975,2.44032,2.48455,2.47274,2.47168,2.54184,2.46394,2.51806,2.44445,2.45322,2.46944,2.4668,2.45144,2.48047,2.44512,2.5005,2.49476,2.49474,2.51235,2.49772,2.51878,2.48977,2.43278,2.50208,2.55131,2.49006,2.55823,2.51621,2.46942,2.50623,2.50927,2.43056,2.55831,2.43885,2.56744,2.50322,2.50965,2.49927,2.59599,2.46332,2.50895,2.4509,2.53662,2.42816
2.55325,2.50679,2.50487,2.4963,2.41362,2.42883,2.51762,2.39571,2.46455,2.55223,2.47689,2.51743,2.5065,2.50128,2.45581,2.48801,2.62154,2.51873,2.49874,2.48165,2.49454,2.4859,2.44751,2.55867,2.49905,2.53456,2.51691,2.46183,2.45531,2.48946,2.51928,2.46179,2.48358,2.54872,2.53217,2.58489,2.45787,2.47954,2.46101,2.52785,2.40732,2.48975,2.47418,2.51357,2.51024,2.53416,2.54879,2.49967,2.54293,2.47138,2.47402,2.55841,2.51482,2.49452,2.55267,2.44515,2.48307,2.50135,2.44641,2.44854
2.50922,2.5251,2.4542,2.48236,2.44803,2.45246,2.49866,2.42343,2.55,2.49875,2.52267,2.46999,2.41911,2.46137,2.50719,2.52065,2.43146,2.54819,2.42212,2.45258,2.55845,2.55706,2.5247,2.48761,2.51492,2.50953,2.58752,2.54455,2.57995,2.49638,2.41287,2.48484,2.50461,2.46708,2.46562,2.52179,2.46132,2.48109,2.45557,2.51055,2.55324,2.52077,2.50846,2.54413,2.57418,2.50209,2.43952,2.49654,2.50765,2.46163,2.46334,2.51735,2.4366,2.55281,2.42765,2.46032,2.46033,2.53516,2.52981,2.43897
2.51455,2.45096,2.46486,2.53079,2.50346,2.49267,2.5263,2.43729,2.54871,2.50231,2.43581,2.55798,2.51022,2.53702,2.57249,2.41976,2.47797,2.50345,2.51251,2.47008,2.50476,2.46937,2.46495,2.51981,2.46859,2.46904,2.50133,2.45019,2.4976,2.51022,2.47979,2.46042,2.46539,2.47927,2.48258,2.52686,2.4584,2.4476,2.50476,2.51903,2.56983,2.49021,2.41206,2.53066,2.48036,2.52895,2.51798,2.42437,2.50495,2.52794,2.5022,2.53902,2.55358,2.54587,2.53943,2.43015,2.50145,2.54793,2.49955,2.45113
2.53138,2.43936,2.52208,2.52955,2.50717,2.57414,2.53361,2.46308,2.49987,2.48372,2.49214,2.53232,2.43792,2.48713,2.48503,2.52722,2.44551,2.52338,2.50328,2.46132,2.52114,2.4892,2.47186,2.45893,2.55284,2.52954,2.457,2.44668,2.50737,2.51691,2.49471,2.48302,2.49529,2.44023,2.4469,2.45799,2.46997,2.55074,2.56757,2.44586,2.51645,2.42782,2.51701,2.50857,2.4572,2.51228,2.51774,2.46887,2.50739,2.51431,2.50902,2.52093,2.46881,2.52045,2.49543,2.50788,2.54172,2.47101,2.52664,2.49787
2.55029,2.49368,2.50198,2.52436,2.51024,2.52415,2.44157,2.56086,2.43216,2.51784,2.49501,2.52805,2.48036,2.51663,2.5298,2.43749,2.50042,2.53297,2.44061,2.48553,2.46808,2.44683,2.53289,2.56253,2.60817,2.48287,2.56771,2.45464,2.44317,2.55624,2.4972,2.47968,2.47158,2.5105,2.44558,2.48202,2.50216,2.566,2.51467,2.49181,2.39201,2.52254,2.46116,2.45113,2.45933,2.47825,2.48202,2.49626,2.47708,2.51643,2.47892,2.46495,2.51071,2.49322,2.5469,2.58695,2.53023,2.47721,2.59234,2.46041
2.45039,2.57818,2.47159,2.50853,2.45078,2.51673,2.53569,2.50776,2.49771,2.51877,2.44039,2.42837,2.41242,2.55754,2.53827,2.43295,2.5122,2.51105,2.48114,2.46575,2.52346,2.50289,2.54531,2.53679,2.45187,2.57426,2.53877,2.4364,2.46172,2.46638,2.49577,2.48955,2.48051,2.56837,2.598,2.5018,2.5067,2.48543,2.54751,2.55416,2.50985,2.57288,2.5146,2.49726,2.50037,2.55667,2.49355,2.43164,2.53345,2.48273,2.51941,2.54142,2.46711,2.55309,2.44559,2.55366,2.48374,2.49538,2.5027,2.46899
2.45515,2.46847,2.51081,2.4876,2.50736,2.46223,2.50531,2.5035,2.4859,2.4853,2.44992,2.50673,2.46976,2.51004,2.52163,2.47402,2.55582,2.39855,2.45668,2.4814,2.43116,2.49831,2.44725,2.48744,2.5343,2.44344,2.47018,2.46227,2.49093,2.52041,2.49251,2.52989,2.49624,2.49924,2.51899,2.51797,2.40929,2.44519,2.52054,2.52932,2.4732,2.51387,2.55955,2.52203,2.44907,2.45668,2.46053,2.50993,2.51549,2.47022,2.43301,2.51082,2.56916,2.54004,2.4355,2.52853,2.5336,2.46658,2.46159,2.47565
2.5071,2.53128,2.55922,2.47444,2.51719,2.52981,2.52734,2.49553,2.45042,2.49897,2.46684,2.49673,2.42268,2.4819,2.567,2.48643,2.56746,2.43197,2.5001,2.52446,2.50628,2.46345,2.42051,2.47424,2.47002,2.39579,2.52595,2.47987,2.5927,2.57221,2.54433,2.42737,2.50016,2.4421,2.52184,2.51722,2.48642,2.45055,2.5036,2.45669,2.47901,2.46466,2.48064,2.51511,2.57428,2.54425,2.52528,2.51135,2.46822,2.51393,2.5008,2.4887,2.5433,2.45557,2.46873,2.50123,2.47469,2.4657,2.54206,2.51525
2.55055,2.53764,2.57858,2.53902,2.52938,2.41256,2.46236,2.51579,2.503,2.49835,2.48648,2.45938,2.51962,2.54874,2.50842,2.48509,2.59487,2.52453,2.4079,2.42756,2.52628,2.50909,2.44816,2.53947,2.53305,2.52677,2.44957,2.50077,2.47751,2.49438,2.49307,2.49994,2.53348,2.54694,2.54061,2.4818,2.50541,2.51325,2.52316,2.50082,2.47704,2.42694,2.52678,2.57029,2.53874,2.54202,2.5346,2.5099,2.56741,2.42323,2.53041,2.47503,2.45296,2.41726,2.50961,2.46382,2.50504,2.54648,2.47286,2.49291
2.43089,2.49761,2.42445,2.51285,2.49493,2.49528,2.5022,2.49463,2.45046,2.56434,2.47287,2.52894,2.49519,2.48896,2.51451,2.48804,2.50119,2.46772,2.52894,2.5718,2.46864,2.49162,2.50275,2.61363,2.53447,2.52001,2.46272,2.53389,2.48628,2.55642,2.55234,2.51286,2.5052,2.51726,2.50496,2.46562,2.5382,2.50105,2.47564,2.52702,2.47529,2.51617,2.41092,2.46263,2.56881,2.5441,2.51232,2.47401,2.48013,2.53619,2.54,2.48278,2.47049,2.47417,2.49006,2.43849,2.4864,2.53433,2.52093,2.50486
2.49454,2.45224,2.50823,2.57739,2.46726,2.4432,2.50295,2.45617,2.44563,2.49251,2.52257,2.4378,2.53403,2.54261,2.56931,2.49481,2.43421,2.49754,2.45719,2.48975,2.42354,2.45508,2.47736,2.55022,2.4646,2.5948,2.44694,2.52292,2.4686,2.42365,2.4961,2.4835,2.45319,2.53322,2.47782,2.50026,2.46617,2.48501,2.54324,2.47988,2.45037,2.45746,2.47479,2.44857,2.53689,2.53505,2.55349,2.49175,2.48644,2.42444,2.51758,2.57565,2.49906,2.4954,2.52235,2.458,2.49256,2.48016,2.53116,2.44339
2.47676,2.55382,2.48587,2.46636,2.49512,2.42912,2.4796,2.48288,2.54059,2.40736,2.47888,2.52077,2.43384,2.43358,2.52632,2.53102,2.54843,2.48439,2.48219,2.46911,2.53897,2.5729,2.53485,2.54522,2.50201,2.51239,2.4945,2.50041,2.49534,2.48488,2.44977,2.42684,2.46839,2.47069,2.45402,2.48432,2.53043,2.49467,2.48135,2.46055,2.45602,2.51311,2.47665,2.49327,2.53187,2.53588,2.49686,2.46953,2.46583,2.57094,2.46941,2.5067,2.45495,2.47082,2.47489,2.4889,2.52376,2.49307,2.48223,2.42462
2.54759,2.46885,2.5104,2.4635,2.46355,2.51094,2.50392,2.54261,2.49098,2.50532,2.43256,2.51966,2.51873,2.52005,2.46199,2.50326,2.55431,2.50224,2.51329,2.50506,2.50797,2.45422,2.55584,2.41088,2.4278,2.49848,2.55264,2.55146,2.52211,2.46019,2.55272,2.48002,2.49906,2.4491,2.44762,2.55695,2.5375,2.53609,2.50869,2.46821,2.47159,2.47457,2.50186,2.5585,2.60434,2.51072,2.42263,2.48157,2.4372,2.45774,2.47713,2.48697,2.5034,2.53015,2.51669,2.38179,2.50775,2.51036,2.44907,2.49412
2.53192,2.47474,2.52084,2.48137,2.54402,2.46625,2.48229,2.4759,2.54796,2.55645,2.48132,2.47166,2.48507,2.5546,2.50558,2.47517,2.48718,2.45761,2.54529,2.48553,2.49525,2.5067,2.44398,2.52058,2.52936,2.46445,2.56295,2.46555,2.51941,2.4643,2.50761,2.48892,2.44454,2.5305,2.54111,2.51567,2.52609,2.4519,2.52624,2.47385,2.52435,2.4548,2.49696,2.4886,2.52685,2.51389,2.56366,2.49339,2.49777,2.46254,2.53763,2.519,2.46441,2.54003,2.49723,2.56784,2.45031,2.49679,2.61976,2.56724
2.49215,2.59693,2.43158,2.5231,2.47785,2.48891,2.46423,2.53003,2.54164,2.56274,2.51842,2.4779,2.42652,2.43177,2.48295,2.43495,2.49803,2.46001,2.4623,2.41701,2.47446,2.45075,2.45192,2.46852,2.43208,2.47602,2.60138,2.48481,2.51417,2.47631,2.51145,2.52377,2.51455,2.46875,2.53284,2.47289,2.45711,2.47995,2.46495,2.41481,2.48983,2.50917,2.43688,2.48955,2.47982,2.51488,2.45636,2.4551,2.47726,2.47662,2.4732,2.51288,2.52288,2.43828,2.55735,2.41815,2.53571,2.53297,2.48588,2.53152
2.51885,2.49675,2.46563,2.50037,2.39011,2.51824,2.44299,2.53937,2.5069,2.49159,2.5292,2.48827,2.54177,2.48993,2.51301,2.46289,2.52778,2.49965,2.5025,2.51992,2.52616,2.53445,2.48141,2.48706,2.54867,2.47678,2.49571,2.40651,2.44874,2.52651,2.43763,2.52079,2.48134,2.50892,2.46505,2.46828,2.52083,2.52196,2.44647,2.51473,2.50458,2.46679,2.48667,2.48251,2.53712,2.4679,2.49767,2.52464,2.52614,2.55383,2.46521,2.51147,2.50184,2.43683,2.48811,2.4134,2.50341,2.42202,2.41252,2.45533
2.50458,2.50017,2.51136,2.52289,2.53944,2.51254,2.42443,2.47705,2.5381,2.47512,2.54607,2.43366,2.58822,2.49904,2.46185,2.4598,2.56022,2.48363,2.4767,2.50892,2.49034,2.50846,2.52047,2.55989,2.49363,2.50074,2.49808,2.51182,2.52326,2.48451,2.51084,2.47986,2.47815,2.45715,2.46235,2.54347,2.55596,2.53318,2.47726,2.49372,2.52042,2.49787,2.48504,2.46954,2.4954,2.49602,2.4407,2.46146,2.58805,2.42216,2.50846,2.46475,2.46106,2.40457,2.51246,2.44664,2.45039,2.46641,2.44067,2.43959
2.49993,2.43273,2.53786,2.47505,2.481,2.48182,2.56823,2.4651,2.53393,2.43989,2.49452,2.53097,2.53221,2.48808,2.47863,2.56567,2.51249,2.47416,2.39789,2.50651,2.51912,2.43244,2.51484,2.5483,2.51529,2.52197,2.56273,2.48202,2.48571,2.47623,2.49026,2.49212,2.48235,2.54044,2.45862,2.4806,2.4805,2.54167,2.54326,2.5163,2.52489,2.5103,2.45466,2.53776,2.44369,2.49974,2.50967,2.49579,2.46678,2.455,2.46033,2.56429,2.55795,2.5129,2.41721,2.40275,2.54977,2.52608,2.53544,2.5096
2.54426,2.38438,2.47259,2.39801,2.44402,2.51712,2.48812,2.4819,2.41394,2.45342,2.51407,2.49489,2.51059,2.47542,2.46142,2.52151,2.50788,2.49617,2.47658,2.49054,2.48222,2.52739,2.47605,2.45972,2.52126,2.49302,2.50556,2.49759,2.49255,2.52366,2.43929,2.51961,2.51452,2.44947,2.54652,2.50134,2.38952,2.44638,2.51177,2.57301,2.51881,2.46483,2.53819,2.46504,2.52326,2.46964,2.49071,2.51302,2.52674,2.51369,2.51743,2.6315,2.46472,2.51623,2.44919,2.49327,2.51855,2.52609,2.46971,2.48584
2.52503,2.5325,2.43301,2.50021,2.51007,2.55441,2.46154,2.4809,2.42539,2.43345,2.50131,2.51419,2.58954,2.49492,2.51817,2.53625,2.5178,2.47796,2.5177,2.47519,2.52669,2.46288,2.45573,2.50527,2.37862,2.509,2.49031,2.55216,2.45792,2.45144,2.5399,2.51295,2.47835,2.48605,2.42806,2.55303,2.47956,2.51656,2.49896,2.4659,2.50768,2.52835,2.47287,2.50009,2.3837,2.48389,2.4756,2.47128,2.54096,2.50072,2.49159,2.53699,2.52402,2.48956,2.45821,2.56384,2.51541,2.45714,2.43729,2.51246
2.53317,2.55999,2.49072,2.47091,2.45289,2.48146,2.53826,2.48901,2.44512,2.49455,2.46592,2.48512,2.46952,2.45579,2.41484,2.49865,2.49933,2.4753,2.50638,2.49388,2.5237,2.54286,2.51964,2.52737,2.5109,2.52904,2.46905,2.54392,2.57468,2.53142,2.4438,2.47211,2.51103,2.45673,2.41204,2.45251,2.43104,2.49248,2.47656,2.463,2.46265,2.42212,2.41692,2.51413,2.46094,2.53212,2.53179,2.52931,2.48775,2.56145,2.51537,2.50307,2.44523,2.61314,2.53186,2.52954,2.52255,2.5071,2.45975,2.45751
2.40521,2.46676,2.48341,2.47554,2.43622,2.52395,2.45147,2.46668,2.50846,2.46735,2.47827,2.48177,2.51537,2.47292,2.50708,2.51914,2.45845,2.5001,2.49787,2.48188,2.51446,2.52325,2.55677,2.50884,2.50667,2.49689,2.57141,2.54883,2.47501,2.5213,2.49738,2.55192,2.50032,2.45757,2.51438,2.45469,2.4414,2.49866,2.55251,2.53179,2.51596,2.53566,2.50417,2.47978,2.42349,2.4941,2.48993,2.48487,2.47536,2.50884,2.47849,2.49656,2.49335,2.53631,2.5326,2.55864,2.51447,2.49442,2.50338,2.52887
2.48825,2.55645,2.52332,2.48983,2.48722,2.48462,2.53274,2.53904,2.53974,2.49348,2.51435,2.4683,2.5639,2.50655,2.49257,2.44003,2.50527,2.46621,2.5014,2.5402,2.53655,2.47605,2.49065,2.41626,2.44255,2.45847,2.52978,2.50988,2.49611,2.47667,2.43689,2.53131,2.55866,2.44,2.44826,2.44954,2.46931,2.56443,2.50504,2.56091,2.4885,2.52235,2.5143,2.515,2.49188,2.50423,2.51227,2.5327,2.48508,2.51916,2.51919,2.49008,2.51098,2.49537,2.45056,2.48831,2.48877,2.57865,2.48357,2.55633
2.57664,2.47561,2.52107,2.55279,2.48399,2.38067,2.44773,2.50835,2.46399,2.49595,2.57342,2.56109,2.56277,2.48418,2.50813,2.50257,2.50388,2.50148,2.417,2.52675,2.47995,2.44164,2.45629,2.4418,2.44582,2.39817,2.46309,2.54199,2.46222,2.49203,2.51897,2.46318,2.52633,2.5105,2.5039,2.49181,2.55666,2.44123,2.44819,2.49031,2.49681,2.51948,2.49405,2.51599,2.51146,2.48456,2.54261,2.513,2.43232,2.4092,2.48803,2.50287,2.46686,2.4551,2.46076,2.4405,2.52941,2.48568,2.54192,2.505
2.51258,2.49407,2.50929,2.44985,2.51423,2.51925,2.54521,2.45292,2.49483,2.47703,2.5103,2.52822,2.49416,2.48885,2.51197,2.48794,2.55079,2.48834,2.48166,2.55458,2.41218,2.52575,2.51104,2.52347,2.54882,2.48513,2.51342,2.46707,2.47597,2.62228,2.57951,2.55341,2.4991,2.42173,2.49266,2.52159,2.49015,2.51534,2.4702,2.50086,2.50267,2.48842,2.46922,2.50119,2.46005,2.49005,2.49879,2.50211,2.4741,2.47226,2.48283,2.43777,2.56306,2.5145,2.49957,2.54647,2.42756,2.42266,2.4393,2.49708
2.51083,2.50984,2.54676,2.50617,2.5386,2.45844,2.56095,2.48832,2.54774,2.45938,2.46417,2.44685,2.46732,2.51647,2.46579,2.51614,2.45598,2.51118,2.49869,2.4854,2.57753,2.53375,2.55894,2.53583,2.51368,2.46356,2.51683,2.52595,2.49778,2.51098,2.49473,2.5479,2.5656,2.49383,2.53241,2.52634,2.47255,2.48327,2.60366,2.48784,2.56134,2.4803,2.49657,2.5145,2.47653,2.52534,2.59052,2.46073,2.42538,2.47481,2.50421,2.52585,2.46407,2.47767,2.50756,2.43783,2.50749,2.50943,2.47775,2.55069
2.46711,2.50287,2.43591,2.43248,2.43112,2.47661,2.52744,2.42885,2.49455,2.43586,2.42873,2.50286,2.53759,2.46018,2.50784,2.48536,2.41335,2.45557,2.43674,2.56185,2.40566,2.46019,2.47594,2.44567,2.56979,2.48189,2.50307,2.49982,2.41113,2.52985,2.51974,2.48015,2.47116,2.42795,2.51732,2.48286,2.46959,2.54573,2.58468,2.47258,2.58369,2.49495,2.54662,2.53433,2.47927,2.50967,2.5033,2.54955,2.48928,2.49887,2.53409,2.57844,2.48039,2.43888,2.47247,2.54416,2.49853,2.50812,2.47281,2.42234
2.50155,2.44335,2.45076,2.42888,2.54796,2.50996,2.50582,2.48032,2.51887,2.47625,2.48295,2.45088,2.49846,2.50717,2.52607,2.50122,2.47432,2.4477,2.50521,2.49608,2.46909,2.47233,2.52028,2.44537,2.53511,2.44865,2.44977,2.53256,2.45925,2.50096,2.46918,2.51838,2.53551,2.41373,2.4847,2.50388,2.47999,2.51191,2.38673,2.55486,2.4922,2.50701,2.51942,2.50704,2.45178,2.48666,2.47177,2.47117,2.44268,2.58043,2.50095,2.44359,2.47281,2.47077,2.53719,2.50318,2.40945,2.51269,2.4807,2.52984

max: 4.0442
min: 2.33157
avg: 2.49766
