2.62049,2.6175,2.62152,2.60595,2.61461,2.56661,2.68594,2.68912,2.6748,2.6868,2.62949,2.61511,2.62453,2.69842,2.72739,2.6555,2.62761,2.64916,2.65025,2.63857,2.64623,2.62488,2.6157,2.63485,2.67095,2.7298,2.64863,2.56079,2.64978,2.71935,2.64976,2.60114,2.72788,2.61754,2.63804,2.70163,2.63118,2.66705,2.67456,2.6645,2.68106,2.62888,2.7039,2.67849,2.60389,2.65683,2.66505,2.65226,2.70546,2.60767,2.59894,2.67232,2.60054,2.58824,2.67412,2.64574,2.70794,2.69127,2.65801,2.57723
2.6224,2.72147,2.69259,2.58841,2.61599,2.64415,2.67112,2.65673,2.63652,2.66006,2.65079,2.60241,2.57362,2.6093,2.59683,2.70506,2.65099,2.578,2.65375,2.65509,2.62178,2.65398,2.64579,2.6387,2.65644,2.6476,2.58229,2.70457,2.62416,2.67257,2.67073,2.66478,2.58639,2.65763,2.65291,2.65484,2.61259,2.61145,2.70193,2.63499,2.64025,2.70231,2.59461,2.7401,2.58086,2.59112,2.61351,2.69721,2.63873,2.59966,2.68086,2.6316,2.70395,2.61859,2.68005,2.69822,2.59105,2.58101,2.6546,2.6732
2.68324,2.61288,2.61613,2.63636,2.63014,2.6417,2.63391,2.65008,2.59855,2.68935,2.60271,2.65974,2.68914,2.65348,2.59057,2.64275,2.68808,2.62785,2.57714,2.69039,2.62443,2.63073,2.73392,2.68466,2.59184,2.63373,2.62298,2.59337,2.59926,2.60112,2.68594,2.60144,2.708,2.60003,2.61954,2.65813,2.73861,2.63359,2.60548,2.63361,2.66458,2.6181,2.59326,2.66165,2.66131,2.72946,2.68554,2.62236,2.63787,2.65432,2.64242,2.69123,2.64998,2.66473,2.65426,2.6463,2.74032,2.64361,2.62538,2.59703
2.64281,2.59272,2.58992,2.6917,2.60483,2.64823,2.69139,2.66552,2.60543,2.53327,2.65292,2.6315,2.65108,2.62771,2.67684,2.65432,2.63982,2.68168,2.6686,2.60523,2.63611,2.65474,2.73722,2.71461,2.66602,2.61921,2.66537,2.67055,2.6283,2.56077,2.70357,2.627,2.73307,2.66075,2.61885,2.63531,2.62944,2.58125,2.64404,2.64549,2.61476,2.67858,2.59915,2.65524,2.63411,2.67873,2.68528,2.67052,2.65084,2.66345,2.676,2.66802,2.67798,2.64659,2.68431,2.61878,2.71714,2.65913,2.6468,2.70987
2.62124,2.57481,2.63399,2.63489,2.65529,2.59438,2.59057,2.71329,2.64407,2.71588,2.70411,2.60968,2.66313,2.59742,2.70748,2.60687,2.66565,2.65995,2.69821,2.62176,2.62607,2.62777,2.66535,2.6912,2.64586,2.66385,2.63878,2.69974,2.66136,2.62878,2.61397,2.70863,2.7274,2.63375,2.62353,2.65892,2.60413,2.6157,2.64054,2.71535,2.70064,2.62116,2.66906,2.77429,2.63,2.52616,2.68756,2.62278,2.64325,2.58376,2.63487,2.63754,2.65658,2.6388,2.67772,2.62719,2.66664,2.64564,2.62207,2.61769
2.52899,2.6555,2.64799,2.62834,2.62388,2.73217,2.62877,2.62201,2.69469,2.6014,2.67276,2.62631,2.66475,2.66787,2.69988,2.63656,2.61533,2.65778,2.62892,2.5633,2.62477,2.76108,2.58758,2.74394,2.6666,2.65625,2.67599,2.71123,2.63274,2.61587,2.66958,2.65181,2.65279,2.64203,2.59428,2.60635,2.60308,2.61957,2.6605,2.63312,2.63845,2.58906,2.67936,2.62826,2.65477,2.639,2.67081,2.70689,2.69377,2.71266,2.64889,2.59298,2.66461,2.70022,2.60338,2.64467,2.64946,2.64544,2.54613,2.60593
2.64704,2.60748,2.70664,2.64082,2.6229,2.56371,2.62199,2.72418,2.62836,2.61381,2.61184,2.67546,2.62906,2.69705,2.58915,2.619,2.62873,2.57774,2.7256,2.69821,2.6491,2.684,2.6625,2.66271,2.5724,2.61372,2.61765,2.59489,2.62399,2.5986,2.58399,2.62125,2.67894,2.61318,2.65805,2.68197,2.63223,2.68873,2.68811,2.68384,2.66357,2.70526,2.66544,2.64572,2.68027,2.58962,2.60356,2.6373,2.62863,2.62176,2.64921,2.71241,2.65371,2.63638,2.7198,2.68579,2.69446,2.65641,2.72157,2.64622
2.59822,2.66198,2.67315,2.67215,2.6637,2.61959,2.67397,2.6505,2.68918,2.69077,2.61125,2.60345,2.73715,2.64073,2.63845,2.69378,2.67588,2.64116,2.65146,2.70546,2.59935,2.63388,2.6712,2.67455,2.65721,2.64005,2.67989,2.6478,2.56706,2.74288,2.70313,2.64236,2.699,2.58389,2.70225,2.63828,2.69754,2.70751,2.64831,2.71276,2.63951,2.6065,2.66948,2.64984,2.66066,2.60092,2.5907,2.66825,2.63796,2.62248,2.62061,2.62199,2.70466,2.70168,2.669,2.61298,2.63116,2.55133,2.65538,2.67906
2.61666,2.6304,2.66113,2.58019,2.684,2.64525,2.65646,2.63826,2.65919,2.59295,2.65518,2.67323,2.66633,2.66173,2.62401,2.68068,2.62218,2.63722,2.62646,2.60595,2.62925,2.61972,2.66354,2.64402,2.66716,2.73824,2.65264,2.54254,2.57934,2.69256,2.67783,2.66939,2.7061,2.61888,2.64425,2.68626,2.73155,2.66569,2.61079,2.68775,2.68816,2.64644,2.64131,2.65789,2.62887,2.65721,2.67525,2.69934,2.66086,2.60992,2.57218,2.65329,2.59886,2.54549,2.64076,2.62649,2.61811,2.59474,2.65097,2.64124
2.64793,2.70572,2.65513,2.61087,2.6721,2.6205,2.67274,2.69901,2.62922,2.60519,2.64712,2.62741,2.65606,2.60788,2.7008,2.68435,2.64952,2.62544,2.65767,2.59357,2.64767,2.66955,2.56018,2.61337,2.64358,2.63552,2.65659,2.66065,2.66792,2.66601,2.66543,2.69676,2.58932,2.67293,2.61285,2.62586,2.67391,2.63612,2.63063,2.62523,2.73398,2.66773,2.70249,2.64649,2.60036,2.71803,2.59935,2.71799,2.6628,2.64045,2.66706,2.64265,2.69993,2.59688,2.62024,2.67098,2.62498,2.68354,2.77865,2.66063
2.64374,2.66257,2.73712,2.68168,2.63247,2.60073,2.65181,2.60308,2.66515,2.63863,2.64651,2.60207,2.65046,2.67567,2.6528,2.64378,2.59706,2.582,2.65175,2.62267,2.62009,2.67957,2.61481,2.67278,2.67466,2.62437,2.65253,2.69528,2.60598,2.66364,2.62999,2.61972,2.66206,2.57997,2.59777,2.73741,2.64052,2.56703,2.63191,2.61626,2.64987,2.57013,2.62338,2.68822,2.61528,2.65547,2.68626,2.65879,2.64275,2.57308,2.63214,2.73802,2.70108,2.67689,2.63049,2.69215,2.7131,2.6115,2.69018,2.69491
2.66732,2.59026,2.64392,2.58912,2.67167,2.6638,2.64208,2.63349,2.69637,2.72123,2.64104,2.66151,2.69203,2.62945,2.62602,2.56159,2.65477,2.59948,2.64942,2.62938,2.65678,2.66196,2.64573,2.68762,2.62642,2.65317,2.65019,2.61949,2.64919,2.68788,2.58495,2.58924,2.71055,2.60454,2.68752,2.62932,2.7205,2.58289,2.67986,2.62438,2.68428,2.61988,2.56475,2.5922,2.6447,2.67721,2.6829,2.65589,2.61445,2.60753,2.58484,2.70136,2.58276,2.58229,2.67296,2.61056,2.64187,2.61991,2.64049,2.63864
2.63499,2.6932,2.66163,2.64925,2.57405,2.57059,2.66501,2.62573,2.67167,2.63373,2.60055,2.65917,2.588,2.64447,2.68256,2.67474,2.68089,2.6672,2.66817,2.69035,2.65968,2.59877,2.67894,2.54532,2.64016,2.76527,2.68798,2.675,2.67796,2.68007,2.64688,2.69351,2.64425,2.62322,2.67522,2.62675,2.68413,2.63806,2.64838,2.71221,2.56591,2.62163,2.66939,2.65832,2.66688,2.61511,2.61545,2.66163,2.58617,2.58094,2.64951,2.6094,2.65863,2.54945,2.56042,2.7152,2.6282,2.63599,2.66703,2.67146
2.64885,2.72955,2.6539,2.66127,2.68921,2.59366,2.62807,2.62798,2.67519,2.67602,2.55936,2.66616,2.63529,2.65477,2.62723,2.6172,2.68837,2.63511,2.64371,2.59743,2.62849,2.627,2.78403,2.53133,2.62513,2.58736,2.67474,2.61421,2.64005,2.61856,2.68752,2.61018,2.66759,2.6863,2.62132,2.73808,2.62662,2.68615,2.68138,2.6477,2.66291,2.6181,2.60077,2.68252,2.67249,2.73326,2.69243,2.6508,2.6937,2.65015,2.65862,2.74496,2.60333,2.65737,2.64902,2.65902,2.69237,2.72415,2.58845,2.63933
2.66258,2.63568,2.75281,2.59297,2.6525,2.62168,2.68622,2.68047,2.65982,2.61316,2.62874,2.61285,2.64439,2.57975,2.64114,2.67838,2.63374,2.66811,2.63168,2.63858,2.6601,2.6575,2.63868,2.65326,2.61064,2.70526,2.62325,2.6518,2.6955,2.64394,2.70257,2.65621,2.65006,2.5766,2.66569,2.64234,2.62214,2.58413,2.6197,2.71695,2.61952,2.66131,2.63543,2.64738,2.65412,2.67359,2.60194,2.62571,2.59845,2.7095,2.67923,2.55411,2.67138,2.58919,2.62,2.60424,2.71064,2.62597,2.66079,2.71302
2.64053,2.6376,2.67784,2.68581,2.68022,2.63459,2.71276,2.64848,2.67702,2.66733,2.65132,2.59709,2.66236,2.5788,2.57313,2.63818,2.66862,2.70363,2.6611,2.67953,2.66095,2.66946,2.63119,2.69146,2.6423,2.59113,2.52726,2.6079,2.70458,2.6591,2.64851,2.63531,2.66304,2.71454,2.64243,2.69676,2.69586,2.69937,2.64413,2.66574,2.7098,2.71538,2.60315,2.59437,2.62143,2.63137,2.6542,2.64158,2.63778,2.64153,2.61442,2.60078,2.61301,2.62613,2.59824,2.60015,2.62322,2.58042,2.60769,2.68658
2.65307,2.61952,2.59926,2.65826,2.69463,2.67173,2.62544,2.59602,2.62697,2.65069,2.62858,2.62937,2.64893,2.6783,2.66641,2.63325,2.62263,2.62663,2.56858,2.66498,2.60879,2.60854,2.60398,2.65854,2.69159,2.62795,2.61316,2.59391,2.61848,2.67239,2.63438,2.62303,2.60894,2.63683,2.64813,2.64436,2.64619,2.61675,2.63659,2.65831,2.69618,2.63545,2.67354,2.68481,2.63121,2.58871,2.60623,2.61988,2.69241,2.63459,2.64444,2.63064,2.67795,2.55095,2.604,2.69932,2.70376,2.64781,2.6178,2.63723
2.68869,2.66524,2.66696,2.64611,2.66605,2.61268,2.67255,2.63771,2.61986,2.68304,2.60345,2.67528,2.63303,2.59552,2.59234,2.66701,2.61931,2.69718,2.66532,2.62702,2.66363,2.69114,2.65192,2.6325,2.62133,2.72837,2.65691,2.69127,2.61387,2.69952,2.62173,2.6922,2.64322,2.53595,2.63977,2.67189,2.61552,2.64302,2.67059,2.6725,2.65831,2.73887,2.60686,2.63444,2.64268,2.72275,2.60933,2.67227,2.65602,2.63938,2.65439,2.65012,2.65559,2.61131,2.6578,2.70006,2.67752,2.69718,2.6937,2.63389
2.62833,2.65827,2.55923,2.62645,2.63329,2.58872,2.62491,2.62428,2.66143,2.69559,2.65655,2.6773,2.70791,2.69661,2.57088,2.64415,2.60169,2.63073,2.6404,2.67959,2.71832,2.60407,2.60693,2.62361,2.64519,2.67324,2.68549,2.66706,2.59858,2.68044,2.57377,2.67414,2.61717,2.61818,2.64282,2.667,2.61257,2.57857,2.6196,2.66002,2.63446,2.70857,2.61903,2.65545,2.54399,2.70364,2.63763,2.65487,2.60622,2.60851,2.65471,2.65247,2.64981,2.66334,2.6366,2.6808,2.65435,2.65299,2.6349,2.68579
2.64598,2.68322,2.61674,2.64591,2.66592,2.63783,2.65242,2.56904,2.70192,2.61247,2.71218,2.61195,2.66771,2.63127,2.61282,2.63015,2.62112,2.64737,2.6407,2.54732,2.68645,2.64985,2.61428,2.58775,2.72052,2.63843,2.69152,2.6155,2.5773,2.6257,2.61504,2.63252,2.64337,2.70808,2.6289,2.71017,2.66014,2.71274,2.71162,2.61668,2.60055,2.5624,2.71919,2.67376,2.70781,2.68498,2.6723,2.62784,2.70257,2.62414,2.69425,2.59868,2.608,2.59237,2.60435,2.65268,2.56062,2.62334,2.6471,2.61446
2.72689,2.6844,2.69252,2.64183,2.57198,2.65592,2.62916,2.60767,2.71496,2.66138,2.67428,2.59663,2.63021,2.65138,2.59101,2.6794,2.60895,2.62439,2.61596,2.62301,2.71369,2.67938,2.67483,2.67091,2.68951,2.59189,2.71983,2.66308,2.62832,2.65817,2.65449,2.68853,2.60982,2.67019,2.69626,2.59862,2.64097,2.71496,2.64452,2.59293,2.62572,2.65038,2.62654,2.61891,2.6244,2.70283,2.6889,2.59224,2.65503,2.62926,2.56462,2.70988,2.61056,2.64745,2.65455,2.66332,2.63615,2.6122,2.69828,2.63864
2.61764,2.61963,2.63398,2.63454,2.67037,2.68764,2.66343,2.62759,2.60456,2.58602,2.68077,2.64741,2.65193,2.61746,2.68877,2.62849,2.64038,2.64121,2.67174,2.63494,2.65949,2.65395,2.58509,2.64795,2.61094,2.66714,2.58404,2.70883,2.68695,2.66449,2.62634,2.60012,2.60765,2.71176,2.58553,2.67715,2.65666,2.61308,2.67507,2.63891,2.60974,2.74653,2.65481,2.7329,2.63741,2.66377,2.72708,2.68437,2.60299,2.63588,2.62903,2.66309,2.63546,2.69574,2.60258,2.64348,2.64053,2.6813,2.6401,2.61656
2.6591,2.64857,2.62516,2.56507,2.62078,2.72679,2.62955,2.68173,2.62219,2.68246,2.66917,2.68661,2.68751,2.65006,2.67759,2.65419,2.69041,2.63652,2.62379,2.65518,2.60102,2.6901,2.6562,2.64383,2.65862,2.65248,2.62691,2.59251,2.57917,2.64508,2.60376,2.61487,2.65384,2.60079,2.69792,2.62511,2.66337,2.64571,2.5639,2.6449,2.69495,2.68932,2.62897,2.63513,2.71872,2.54556,2.6521,2.68878,2.73447,2.62854,2.58858,2.60289,2.61833,2.6757,2.65069,2.62718,2.66348,2.58546,2.635,2.62193
2.67821,2.59743,2.64991,2.6818,2.62392,2.67505,2.69364,2.61278,2.62301,2.60524,2.6645,2.63669,2.73825,2.73694,2.64878,2.66537,2.59667,2.67052,2.62141,2.65607,2.61211,2.69362,2.61497,2.64587,2.63981,2.71037,2.6941,2.68145,2.601,2.58807,2.54655,2.66321,2.68345,2.67996,2.74854,2.61738,2.66463,2.63032,2.60835,2.63619,2.68292,2.62513,2.63349,2.63834,2.67419,2.59645,2.63048,2.67815,2.66455,2.64063,2.66506,2.63684,2.61807,2.66159,2.6052,2.7064,2.5996,2.71167,2.58261,2.61168
2.64942,2.68113,2.61518,2.66136,2.6419,2.70063,2.62728,2.66947,2.65216,2.70117,2.63997,2.60055,2.60557,2.64221,2.70874,2.60606,2.6596,2.59721,2.61451,2.6666,2.61437,2.68409,2.70723,2.59803,2.64342,2.6317,2.61228,2.7181,2.53077,2.62307,2.69036,2.69607,2.61522,2.64409,2.64935,2.69765,2.59978,2.65357,2.63732,2.58852,2.63741,2.67231,2.65703,2.62758,2.63678,2.64812,2.62738,2.6651,2.67838,2.5893,2.6069,2.6453,2.61245,2.60331,2.65686,2.65078,2.60245,2.57255,2.66288,2.62938
2.63408,2.59745,2.60966,2.63843,2.68301,2.63311,2.60951,2.70219,2.57133,2.6555,2.62272,2.66912,2.64858,2.6548,2.64928,2.70269,2.67171,2.61345,2.63104,2.63494,2.63817,2.64438,2.61696,2.63773,2.65028,2.64571,2.66997,2.57083,2.6275,2.67735,2.6443,2.66456,2.65202,2.64156,2.65236,2.68862,2.66533,2.57646,2.66943,2.60687,2.64214,2.669,2.66607,2.63243,2.61817,2.68635,2.67991,2.68961,2.58945,2.75641,2.67773,2.68498,2.62935,2.65931,2.67992,2.6083,2.58717,2.61595,2.63775,2.63817
2.60872,2.61883,2.6728,2.62969,2.55917,2.67176,2.63211,2.67541,2.65495,2.64222,2.63338,2.6193,2.62537,2.70322,2.62746,2.7342,2.69348,2.67432,2.63161,2.65467,2.64317,2.64445,2.56859,2.73219,2.69527,2.67607,2.65731,2.66185,2.65774,2.62552,2.63524,2.67238,2.61663,2.6634,2.59726,2.62407,2.63232,2.63167,2.66468,2.6131,2.59593,2.64771,2.65841,2.70015,2.60475,2.56139,2.74914,2.5536,2.67707,2.66601,2.71669,2.61627,2.57967,2.64101,2.64864,2.6165,2.72454,2.61662,2.67776,2.73072
2.65523,2.71194,2.6645,2.66838,2.67998,2.69621,2.68066,2.63716,2.65824,2.67292,2.63432,2.68612,2.62711,2.65436,2.72849,2.68265,2.66033,2.69551,2.66955,2.599,2.65883,2.62902,2.66186,2.66786,2.63259,2.62911,2.61691,2.55958,2.68804,2.63238,2.6632,2.66661,2.57088,2.67713,2.69365,2.64318,2.68866,2.63007,2.64214,2.62176,2.69743,2.61902,2.71898,2.64741,2.67127,2.66426,2.69019,2.66551,2.65631,2.69413,2.69253,2.61728,2.6314,2.52244,2.62527,2.63704,2.65223,2.60736,2.72201,2.65529
2.64249,2.65878,2.63689,2.72787,2.66873,2.64696,2.67725,2.60196,2.68065,2.67429,2.60503,2.69216,2.6359,2.72219,2.59003,2.65633,2.64886,2.627,2.63174,2.66025,2.57418,2.74108,2.66113,2.64033,2.59252,2.63853,2.67734,2.66443,2.56981,2.64916,2.66484,2.6347,2.6742,2.71495,2.58928,2.59767,2.65411,2.55766,2.65769,2.62863,2.67151,2.65662,2.71795,2.60504,2.65242,2.67364,2.63762,2.61354,2.64295,2.60752,2.67716,2.67536,2.71392,2.58087,2.58494,2.59807,2.63351,2.63058,2.62634,2.61191
2.76625,2.65369,2.62855,2.58793,2.63346,2.72668,2.66385,2.64553,2.66297,2.59101,2.65863,2.50516,2.63759,2.60854,2.6522,2.57817,2.64198,2.67634,2.57418,2.6194,2.66314,2.64904,2.63241,2.69633,2.66995,2.65612,2.57152,2.67725,2.65034,2.59769,2.70087,2.72238,2.67976,2.68244,2.66803,2.65253,2.66504,2.71795,2.63561,2.68409,2.67611,2.60892,2.60983,2.6535,2.6026,2.6831,2.69073,2.66409,2.59253,2.68286,2.64535,2.65468,2.67114,2.62267,2.60869,2.67389,2.69045,2.64344,2.58639,2.65954
2.62017,2.58858,2.59042,2.66395,2.63032,2.66231,2.62046,2.73101,2.683,2.64594,2.6341,2.6636,2.69824,2.56999,2.5594,2.62243,2.52392,2.64248,2.6575,2.66447,2.6392,2.67523,2.62254,2.66528,2.66439,2.70207,2.5661,2.55135,2.64297,2.59235,4.15493,2.64154,2.61114,2.5518,2.63213,2.62693,2.60248,2.59476,2.61949,2.63774,2.59146,2.63379,2.68156,2.69833,2.62416,2.61421,2.61398,2.60491,2.65539,2.58835,2.65334,2.68038,2.66125,2.63428,2.69802,2.67607,2.68109,2.59222,2.61286,2.6865
2.62572,2.65325,2.64658,2.66024,2.67795,2.67213,2.64755,2.62923,2.61055,2.6047,2.68574,2.66216,2.64823,2.66176,2.65547,2.61469,2.65232,2.59582,2.68626,2.71885,2.5749,2.5965,2.60769,2.64239,2.66185,2.66382,2.61761,2.69247,2.65216,2.62566,2.59454,2.7716,2.57754,2.65613,2.63468,2.63856,2.65816,2.61684,2.64653,2.69113,2.58046,2.6583,2.71377,2.60464,2.65498,2.66099,2.60858,2.6352,2.62824,2.64738,2.66014,2.64275,2.55901,2.64688,2.57693,2.58338,2.70019,2.63252,2.62962,2.60124
2.64983,2.66454,2.67221,2.67184,2.64215,2.65474,2.67046,2.60201,2.6018,2.6632,2.67226,2.63817,2.68587,2.67309,2.66178,2.63106,2.6506,2.62198,2.69074,2.75116,2.58408,2.71127,2.59594,2.70895,2.67038,2.65494,2.61481,2.64332,2.74351,2.60591,2.60061,2.58659,2.71274,2.71693,2.66877,2.55308,2.63553,2.56842,2.65848,2.57001,2.6201,2.6451,2.63193,2.54874,2.63449,2.67012,2.57253,2.63667,2.65974,2.70478,2.62068,2.64254,2.64673,2.71872,2.62638,2.70208,2.6456,2.6249,2.6479,2.60376
2.64509,2.56471,2.6521,2.61693,2.59418,2.71103,2.65801,2.6498,2.67725,2.67709,2.60197,2.66309,2.57826,2.64395,2.62054,2.61889,2.5844,2.61095,2.67822,2.59654,2.64599,2.68769,2.52941,2.69448,2.66623,2.59043,2.70415,2.69183,2.65913,2.62896,2.65475,2.62769,2.59989,2.65371,2.61164,2.64791,2.56206,2.62614,2.65653,2.66059,2.61881,2.6543,2.62091,2.67212,2.63871,2.63661,2.67979,2.66014,2.61247,2.65627,2.6622,2.61508,2.54379,2.68537,2.64789,2.66005,2.72035,2.69519,2.63805,2.6842
2.67566,2.60641,2.72211,2.57931,2.66708,2.64762,2.62778,2.67271,2.72368,2.64361,2.65602,2.65683,2.69772,2.57909,2.62087,2.60655,2.56044,2.67262,2.63079,2.59057,2.66557,2.63734,2.6438,2.63763,2.61186,2.6908,2.67002,2.60147,2.6629,2.63228,2.64844,2.55288,2.64275,2.63229,2.64282,2.6665,2.63851,2.64507,2.62586,2.67449,2.69038,2.72629,2.60483,2.65559,2.64883,2.70273,2.60474,2.6695,2.58821,2.6124,2.69289,2.66096,2.62069,2.64874,2.62363,2.64345,2.66316,2.65422,2.65498,2.62788
2.61699,2.68072,2.65682,2.70442,2.68558,2.71471,2.66551,2.66213,2.69014,2.62934,2.66551,2.63506,2.63272,2.72972,2.60747,2.6312,2.66002,2.64839,2.6957,2.65512,2.60728,2.64364,2.67618,2.6494,2.63786,2.64302,2.62204,2.6082,2.66319,2.65833,2.65241,2.66546,2.647,2.58131,2.69537,2.64641,2.62235,2.65135,2.59783,2.6131,2.60148,2.57883,2.70441,2.59836,2.62767,2.6104,2.6305,2.64709,2.67617,2.60699,2.61371,2.61978,2.63845,2.58,2.62888,2.58648,2.62567,2.62395,2.63345,2.61792
2.64321,2.61252,2.66598,2.66646,2.64997,2.60994,2.67271,2.6859,2.58172,2.63269,2.65934,2.63676,2.61072,2.59461,2.69987,2.67762,2.70664,2.67787,2.63001,2.63397,2.61018,2.68473,2.70083,2.63056,2.67409,2.67764,2.74864,2.6717,2.67596,2.57824,2.60487,2.69785,2.63178,2.58589,2.64883,2.70467,2.71592,2.61933,2.65893,2.69317,2.65015,2.63801,2.63686,2.6588,2.65255,2.644,2.62631,2.62602,2.60883,2.62755,2.66298,2.64652,2.65837,2.6697,2.66254,2.66094,2.64232,2.62889,2.67544,2.70368
2.56597,2.64353,2.6453,2.61385,2.6126,2.63848,2.63955,2.61225,2.58337,2.63277,2.64939,2.65617,2.64852,2.62493,2.61805,2.67542,2.7102,2.6767,2.67234,2.64282,2.73392,2.61692,2.65037,2.60458,2.59825,2.70808,2.58877,2.63408,2.63916,2.63992,2.683,2.57585,2.62471,2.65285,2.63032,2.68889,2.62778,2.66437,2.65135,2.60064,2.6474,2.65364,2.62366,2.67845,2.63957,2.65317,2.72223,2.61123,2.61753,2.67952,2.68688,2.54902,2.65675,2.68027,2.63672,2.6717,2.63826,2.56368,2.61136,2.66971
2.63313,2.60899,2.61305,2.69552,2.61773,2.64756,2.63868,2.6505,2.65769,2.66688,2.61157,2.64793,2.60819,2.66271,2.65989,2.6679,2.6601,2.60717,2.67746,2.70011,2.70534,2.62707,2.65705,2.69669,2.66288,2.58002,2.61928,2.67011,2.68489,2.60934,2.61177,2.61794,2.61989,2.65184,2.57065,2.67878,2.6363,2.61369,2.64782,2.64234,2.65978,2.6493,2.64209,2.61528,2.66489,2.53649,2.66227,2.61524,2.65126,2.70205,2.6517,2.66046,2.61331,2.60902,2.67317,2.73157,2.64676,2.65796,2.62549,2.68128
2.66525,2.63306,2.62187,2.65018,2.62126,2.56302,2.67048,2.66799,2.75003,2.63759,2.64218,2.64654,2.59531,2.62836,2.61591,2.60498,2.68177,2.70554,2.57658,2.65258,2.71758,2.62285,2.6632,2.60137,2.66481,2.6206,2.59443,2.61069,2.60647,2.68543,2.58455,2.57823,2.61334,2.66121,2.63011,2.60815,2.61307,2.65702,2.56446,2.67407,2.66027,2.57506,2.56006,2.58053,2.68728,2.61567,2.62927,2.68544,2.6206,2.60786,2.66578,2.63246,2.66669,2.61044,2.61912,2.631,2.64022,2.58756,2.56872,2.6775
2.62894,2.62015,2.61537,2.6544,2.68507,2.61343,2.68015,2.67526,2.67724,2.66867,2.68823,2.67462,2.65164,2.62333,2.68303,2.66448,2.66691,2.61888,2.6927,2.65249,2.681,2.59027,2.64145,2.68248,2.62893,2.66496,2.62966,2.64114,2.6059,2.61652,2.60448,2.66016,2.6382,2.62038,2.68288,2.6726,2.60432,2.64084,2.52246,2.53939,2.64973,2.66656,2.6206,2.67532,2.68079,2.60309,2.71979,2.67249,2.64607,2.65823,2.641,2.66179,2.6219,2.61518,2.68188,2.66668,2.67462,2.69408,2.62934,2.58674
2.62671,2.66933,2.6522,2.6657,2.60558,2.65545,2.60563,2.66421,2.65632,2.6107,2.67431,2.64239,2.63266,2.62325,2.65654,2.62457,2.57668,2.67955,2.69737,2.6507,2.67864,2.67164,2.6893,2.61508,2.679,2.67308,2.59849,2.67196,2.72104,2.65542,2.64574,2.65684,2.70579,2.59026,2.61464,2.70089,2.69965,2.63223,2.60618,2.61926,2.66771,2.67,2.69982,2.66243,2.64611,2.56826,2.60228,2.63663,2.70984,2.58212,2.69565,2.63035,2.63186,2.64997,2.67024,2.69205,2.65973,2.60659,2.66633,2.71705
2.6591,2.64724,2.60088,2.76159,2.67499,2.67305,2.63246,2.64129,2.6298,2.57024,2.67575,2.65438,2.68167,2.6551,2.59908,2.67399,2.6105,2.73559,2.61024,2.7191,2.60689,2.63747,2.58026,2.58806,2.62386,2.66032,2.6554,2.66371,2.56517,2.65072,2.55476,2.61739,2.64562,2.5635,2.63008,2.59064,2.64232,2.67032,2.71402,2.58842,2.60353,2.61502,2.69872,2.60425,2.70701,2.63644,2.63935,2.72405,2.68076,2.69641,2.66919,2.63321,2.64159,2.6717,2.63532,2.63001,2.59379,2.65162,2.70565,2.67502
2.63215,2.65504,2.67496,2.64847,2.69,2.64608,2.65392,2.62022,2.67021,2.67321,2.64462,2.6203,2.63941,2.59793,2.69568,2.62513,2.63272,2.59129,2.61275,2.69437,2.62811,2.71401,2.64072,2.73256,2.72746,2.67322,2.64864,2.59712,2.57789,2.6824,2.61279,2.67924,2.66054,2.62235,2.60763,2.68507,2.68086,2.68524,2.57976,2.63145,2.62966,2.69507,2.58194,2.62931,2.63262,2.57458,2.57763,2.66397,2.65198,2.5633,2.64863,2.61502,2.6144,2.60498,2.5911,2.59962,2.63605,2.58472,2.65606,2.69344
2.68412,2.72501,2.63795,2.60915,2.66968,2.63372,2.6635,2.68528,2.74051,2.61329,2.64901,2.62545,2.63708,2.61954,2.6252,2.66924,2.64523,2.6084,2.52739,2.62025,2.60405,2.68276,2.61815,2.65407,2.65789,2.66163,2.68036,2.63176,2.65084,2.64457,2.61086,2.6447,2.60071,2.62364,2.57473,2.59703,2.65908,2.63481,2.69822,2.65387,2.63158,2.69716,2.60627,2.69051,2.63676,2.60502,2.67535,2.64055,2.60184,2.64975,2.65884,2.6215,2.55915,2.64688,2.6533,2.66985,2.71041,2.61369,2.70068,2.60923
2.57925,2.66863,2.5421,2.62983,2.58555,2.54009,2.6103,2.60644,2.6048,2.63078,2.69312,2.65207,2.65963,2.56971,2.66381,2.68122,2.59565,2.63962,2.68239,2.60795,2.6964,2.65336,2.64551,2.64258,2.61857,2.68614,2.67468,2.64721,2.6704,2.6398,2.63039,2.63695,2.70982,2.67041,2.57876,2.67062,2.62138,2.57469,2.57551,2.63613,2.67678,2.70132,2.63328,2.61343,2.67544,2.69495,2.61482,2.64651,2.67745,2.6761,2.647,2.58181,2.68352,2.71721,2.627,2.60317,2.70276,2.71263,2.59991,2.63857
2.61993,2.64884,2.59908,2.58347,2.63097,2.68163,2.66106,2.71547,2.66291,2.64449,2.69472,2.64208,2.66539,2.55109,2.62908,2.58805,2.60549,2.64257,2.61421,2.65262,2.64212,2.62681,2.63827,2.66053,2.72884,2.60965,2.61882,2.65989,2.69826,2.6004,2.61187,2.65832,2.66327,2.69111,2.53387,2.57538,2.66504,2.61894,2.63467,2.67408,2.6813,2.66438,2.71831,2.64878,2.6259,2.70516,2.73247,2.65232,2.65383,2.60246,2.64964,2.6102,2.58493,2.70634,2.66285,2.69715,2.75246,2.68367,2.62644,2.64071
2.59633,2.61282,2.72272,2.72819,2.62039,2.65289,2.62443,2.60349,2.72678,2.70181,2.61604,2.70695,2.67108,2.57532,2.70944,2.6404,2.58758,2.69164,2.67255,2.66604,2.64042,2.59748,2.67985,2.65365,2.68473,2.69114,2.70115,2.70324,2.61941,2.6318,2.59676,2.65024,2.61196,2.60226,2.62571,2.66158,2.66834,2.65591,2.64104,2.66933,2.68653,2.59871,2.62775,2.67006,2.66615,2.72299,2.68152,2.65567,2.6458,2.62963,2.6578,2.65129,2.64016,2.61791,2.60867,2.58569,2.62962,2.64626,2.66021,2.61969
2.6318,2.67382,2.63359,2.61713,2.63549,2.73282,2.7307,2.5702,2.6003,2.61615,2.61096,2.66113,2.64626,2.61283,2.56531,2.76867,2.68105,2.681,2.70078,2.63413,2.61401,2.63196,2.6602,2.57257,2.61261,2.66338,2.65346,2.64039,2.6603,2.60419,2.62461,2.68925,2.65877,2.64515,2.61277,2.61117,2.60636,2.66451,2.65253,2.68407,2.64399,2.64209,2.62647,2.6386,2.61186,2.69328,2.62493,2.66459,2.6779,2.55809,2.6363,2.63915,2.67331,2.63257,2.63204,2.74286,2.75054,2.64221,2.73711,2.64251
2.58352,2.63403,2.6423,2.64795,2.61122,2.65628,2.64598,2.63419,2.70887,2.62761,2.61895,2.63476,2.7046,2.62151,2.68148,2.66503,2.53077,2.62543,2.6297,2.69436,2.64312,2.66232,2.63828,2.53116,2.6915,2.6523,2.62032,2.68648,2.62948,2.61472,2.71726,2.68744,2.62482,2.72379,2.68316,2.67256,2.57182,2.60421,2.66256,2.63498,2.72637,2.69852,2.60863,2.70194,2.65575,2.58088,2.64779,2.63978,2.60419,2.6531,2.61764,2.65203,2.5509,2.66373,2.66612,2.62479,2.63133,2.62742,2.663,2.6254
2.59997,2.60462,2.67312,2.64559,2.58969,2.70408,2.72719,2.57801,2.67342,2.61898,2.66733,2.62552,2.69002,2.58147,2.56517,2.66302,2.70752,2.61191,2.66342,2.613,2.67393,2.60521,2.62997,2.65296,2.64854,2.59917,2.61614,2.6071,2.6998,2.71569,2.62783,2.70776,2.57953,2.64115,2.60965,2.69246,2.67642,2.56068,2.6665,2.62707,2.69715,2.62856,2.65559,2.66935,2.68014,2.72065,2.66935,2.6329,2.58223,2.6532,2.6014,2.70311,2.61063,2.62569,2.68557,2.65901,2.61301,2.70343,2.62248,2.66105
2.63988,2.61977,2.63063,2.56694,2.67602,2.67446,2.67738,2.63525,2.60587,2.62102,2.62236,2.72169,2.66305,2.67013,2.66345,2.64154,2.5039,2.70034,2.57817,2.65681,2.67893,2.6185,2.60085,2.63978,2.63579,2.65381,2.56682,2.6521,2.64624,2.63088,2.67094,2.61904,2.56698,2.57918,2.58905,2.68493,2.57845,2.59828,2.6556,2.66332,2.64807,2.62366,2.64264,2.61401,2.62519,2.67146,2.63415,2.70133,2.64895,2.62387,2.62531,2.61497,2.76221,2.70404,2.65215,2.56871,2.64785,2.69428,2.61189,2.56033
2.63093,2.6352,2.65599,2.62803,2.66525,2.671,2.64687,2.64243,2.65369,2.67683,2.61794,2.66966,2.6086,2.65438,2.57234,2.62243,2.62676,2.69168,2.64561,2.58859,2.60606,2.61237,2.65891,2.67618,2.6558,2.70824,2.67035,2.66743,2.63601,2.62574,2.67931,2.58459,2.59789,2.63389,2.59311,2.57985,2.58578,2.67832,2.61051,2.60093,2.64549,2.62336,2.70711,2.71401,2.63389,2.63071,2.66565,2.61215,2.69315,2.65464,2.63467,2.75366,2.6363,2.65093,2.60873,2.6243,2.65482,2.64423,2.60938,2.63925
2.65305,2.65953,2.62378,2.61333,2.61578,2.62362,2.62906,2.67513,2.59465,2.62753,2.60118,2.60626,2.62532,2.57005,2.66916,2.71457,2.653,2.64976,2.61788,2.60853,2.65209,2.67528,2.61621,2.60007,2.66378,2.68241,2.60259,2.6358,2.63314,2.61057,2.63075,2.67579,2.60509,2.62614,2.6196,2.62381,2.61543,2.6931,2.64136,2.67605,2.69739,2.71599,2.63744,2.71905,2.60845,2.62578,2.6631,2.65561,2.60635,2.62283,2.60869,2.70387,2.64693,2.66869,2.67564,2.73112,2.57317,2.68945,2.61427,2.64258
2.68777,2.66204,2.6769,2.62159,2.64814,2.62406,2.61207,2.694,2.67203,2.67378,2.6515,2.57852,2.66179,2.62596,2.62492,2.64671,2.53952,2.61303,2.67533,2.57428,2.60747,2.57675,2.61963,2.59545,2.56249,2.69515,2.63807,2.68859,2.58948,2.69387,2.64869,2.60125,2.6552,2.62909,2.64743,2.63308,2.71267,2.68711,2.65403,2.68012,2.60156,2.66004,2.61157,2.63797,2.62773,2.63284,2.5696,2.65074,2.67866,2.60429,2.57404,2.61089,2.68742,2.67582,2.66565,2.58644,2.62882,2.6617,2.61852,2.59693
2.62217,2.60277,2.64872,2.65414,2.66469,2.61861,2.66192,2.65542,2.6624,2.68392,2.71084,2.65112,2.64748,2.61573,2.61089,2.61876,2.60468,2.62783,2.61238,2.57864,2.69943,2.64562,2.63906,2.61786,2.6793,2.60241,2.54272,2.63096,2.70621,2.65866,2.63129,2.68076,2.64614,2.60021,2.62484,2.64083,2.64397,2.61324,2.59669,2.66928,2.69906,2.63059,2.64465,2.67754,2.60875,2.6389,2.68392,2.65153,2.60811,2.57659,2.56783,2.59818,2.6564,2.6467,2.64061,2.57017,2.71041,2.62454,2.6496,2.57378
2.61453,2.68723,2.64898,2.68514,2.65944,2.62126,2.71031,2.67541,2.60556,2.67886,2.68844,2.67653,2.62216,2.65682,2.57227,2.66775,2.59172,2.62716,2.59945,2.68143,2.52797,2.65105,2.67871,2.64351,2.59605,2.67259,2.66898,2.66265,2.59639,2.64315,2.62694,2.69778,2.6124,2.70027,2.65086,2.71176,2.58479,2.70632,2.61719,2.63935,2.7268,2.67956,2.67848,2.63913,2.6292,2.59344,2.66383,2.64939,2.5979,2.62572,2.64068,2.67202,2.64387,2.67296,2.60231,2.66039,2.62126,2.67531,2.66403,2.7131
2.62088,2.57832,2.64867,2.6372,2.57765,2.60472,2.63478,2.63352,2.63109,2.63695,2.56782,2.56093,2.63017,2.6141,2.59924,2.6468,2.62572,2.61472,2.69986,2.67097,2.62911,2.6047,2.66654,2.64112,2.70721,2.65785,2.59671,2.6298,2.68452,2.65793,2.70397,2.70387,2.6035,2.56829,2.67621,2.68353,2.67196,2.69712,2.67402,2.6085,2.63238,2.63404,2.62604,2.72012,2.61631,2.63015,2.6387,2.67951,2.65302,2.66444,2.67742,2.69381,2.64471,2.64208,2.62262,2.66623,2.56696,2.62628,2.61706,2.62443
2.57552,2.62495,2.5809,2.6112,2.59747,2.70151,2.64965,2.59392,2.67964,2.66665,2.56379,2.66901,2.63734,2.59286,2.60804,2.60687,2.63446,2.70259,2.60775,2.61182,2.66715,2.67478,2.59495,2.65317,2.56391,2.57272,2.61989,2.6764,2.63786,2.67601,2.61457,2.62415,2.51005,2.60496,2.69432,2.61582,2.62916,2.62429,2.59018,2.62875,2.63885,2.70048,2.67177,2.66213,2.60279,2.62552,2.61612,2.65973,2.61834,2.68223,2.62992,2.70924,2.67178,2.60628,2.62328,2.66029,2.66969,2.63839,2.6314,2.60191
2.59653,2.61981,2.66941,2.66187,2.80047,2.63625,2.62291,2.6776,2.62421,2.64832,2.58371,2.58008,2.62496,2.73762,2.63632,2.67795,2.66209,2.61048,2.62492,2.68015,2.59272,2.69084,2.68471,2.65845,2.66737,2.59146,2.60974,2.6567,2.69003,2.64999,2.67928,2.67724,2.6491,2.63642,2.65388,2.67257,2.65244,2.59923,2.61632,2.63003,2.67379,2.6488,2.64499,2.622,2.67977,2.61111,2.62838,2.63469,2.69697,2.60572,2.63626,2.684,2.64892,2.66029,2.66511,2.62648,2.64844,2.65532,2.65887,2.66685

max: 4.15493
min: 2.5039
avg: 2.64513
