File Name,exposure, SOCF
,,Min,Max,Avg
QRNG_Data/Experiment_7/CP41P/60x60/,0,1.03735,1.13106,1.05217
QRNG_Data/Experiment_7/CP41P/60x60/,10,0.991814,1.0153,1.00487
QRNG_Data/Experiment_7/CP41P/60x60/,20,0.993811,1.01451,1.00458
QRNG_Data/Experiment_7/CP41P/60x60/,30,0.996528,1.01593,1.00507
QRNG_Data/Experiment_7/CP41P/60x60/,40,0.993234,1.01471,1.0051
QRNG_Data/Experiment_7/CP41P/60x60/,50,0.995209,1.01512,1.00495
QRNG_Data/Experiment_7/CP41P/60x60/,60,0.997537,1.01393,1.00503
QRNG_Data/Experiment_7/CP41P/60x60/,70,0.996109,1.01503,1.00499
QRNG_Data/Experiment_7/CP41P/60x60/,80,0.99855,1.01324,1.00531
QRNG_Data/Experiment_7/CP41P/60x60/,90,0.997745,1.0129,1.0052
QRNG_Data/Experiment_7/CP41P/60x60/,100,0.997629,1.01185,1.00518
QRNG_Data/Experiment_7/CP41P/60x60/,110,0.997847,1.01363,1.00521
QRNG_Data/Experiment_7/CP41P/60x60/,120,0.997428,1.01143,1.00482
QRNG_Data/Experiment_7/CP41P/60x60/,130,0.999084,1.01103,1.005
QRNG_Data/Experiment_7/CP41P/60x60/,140,0.998579,1.01193,1.00514
QRNG_Data/Experiment_7/CP41P/60x60/,150,0.99847,1.00983,1.00476
QRNG_Data/Experiment_7/CP41P/60x60/,160,1.0006,1.01216,1.00517
QRNG_Data/Experiment_7/CP41P/60x60/,170,1.00027,1.00997,1.00495
QRNG_Data/Experiment_7/CP41P/60x60/,180,0.997482,1.01041,1.00487
QRNG_Data/Experiment_7/CP41P/60x60/,190,0.99845,1.01228,1.005
QRNG_Data/Experiment_7/CP41P/60x60/,200,0.999818,1.01053,1.00513
QRNG_Data/Experiment_7/CP41P/60x60/,210,0.997801,1.00968,1.00491
QRNG_Data/Experiment_7/CP41P/60x60/,220,1.00004,1.01234,1.00508
QRNG_Data/Experiment_7/CP41P/60x60/,230,0.999293,1.0099,1.00507
QRNG_Data/Experiment_7/CP41P/60x60/,240,1.00042,1.00937,1.00485
QRNG_Data/Experiment_7/CP41P/60x60/,250,1.0003,1.011,1.00497
QRNG_Data/Experiment_7/CP41P/60x60/,260,0.999845,1.00927,1.00486
QRNG_Data/Experiment_7/CP41P/60x60/,270,0.999841,1.00994,1.00499
QRNG_Data/Experiment_7/CP41P/60x60/,280,1.00078,1.00992,1.0051
QRNG_Data/Experiment_7/CP41P/60x60/,290,1.00029,1.00873,1.00499
QRNG_Data/Experiment_7/CP41P/60x60/,300,1.00056,1.00963,1.00518
QRNG_Data/Experiment_7/CP41P/60x60/,310,1.00023,1.00998,1.0051
QRNG_Data/Experiment_7/CP41P/60x60/,320,1.00147,1.00969,1.00506
QRNG_Data/Experiment_7/CP41P/60x60/,330,1.00018,1.00972,1.00497
QRNG_Data/Experiment_7/CP41P/60x60/,340,1.00024,1.00962,1.00493
QRNG_Data/Experiment_7/CP41P/60x60/,350,1.00087,1.00924,1.00494
QRNG_Data/Experiment_7/CP41P/60x60/,360,1.0008,1.00891,1.00488
QRNG_Data/Experiment_7/CP41P/60x60/,370,1.00116,1.00914,1.00499
QRNG_Data/Experiment_7/CP41P/60x60/,380,1.00037,1.00895,1.00493
QRNG_Data/Experiment_7/CP41P/60x60/,390,1.00086,1.00887,1.00498
QRNG_Data/Experiment_7/CP41P/60x60/,400,1.0012,1.00932,1.00506
QRNG_Data/Experiment_7/CP41P/60x60/,410,1.00083,1.00928,1.00491
QRNG_Data/Experiment_7/CP41P/60x60/,420,1.00054,1.00829,1.0049
QRNG_Data/Experiment_7/CP41P/60x60/,430,1.00143,1.01014,1.00499
QRNG_Data/Experiment_7/CP41P/60x60/,440,1.00129,1.0091,1.00514
QRNG_Data/Experiment_7/CP41P/60x60/,450,1.00013,1.0088,1.00499
QRNG_Data/Experiment_7/CP41P/60x60/,460,0.999855,1.00936,1.00506
QRNG_Data/Experiment_7/CP41P/60x60/,470,1.00208,1.00927,1.0051
QRNG_Data/Experiment_7/CP41P/60x60/,480,1.00096,1.00843,1.00489
QRNG_Data/Experiment_7/CP41P/60x60/,490,1.00098,1.0081,1.00491
QRNG_Data/Experiment_7/CP41P/60x60/,500,1.00143,1.00828,1.00501
QRNG_Data/Experiment_7/CP41P/60x60/,510,1.0018,1.00954,1.00495
QRNG_Data/Experiment_7/CP41P/60x60/,520,1.00172,1.00818,1.00498
QRNG_Data/Experiment_7/CP41P/60x60/,530,1.00205,1.00897,1.00505
QRNG_Data/Experiment_7/CP41P/60x60/,540,1.00177,1.00808,1.00491
QRNG_Data/Experiment_7/CP41P/60x60/,550,1.00153,1.00795,1.00493
QRNG_Data/Experiment_7/CP41P/60x60/,560,1.00073,1.00781,1.00494
QRNG_Data/Experiment_7/CP41P/60x60/,570,1.00128,1.00895,1.00504
QRNG_Data/Experiment_7/CP41P/60x60/,580,1.0018,1.00799,1.0051
QRNG_Data/Experiment_7/CP41P/60x60/,590,1.00168,1.00811,1.0049
QRNG_Data/Experiment_7/CP41P/60x60/,600,1.00176,1.00762,1.00493
QRNG_Data/Experiment_7/CP41P/60x60/,610,1.00215,1.00818,1.00502
QRNG_Data/Experiment_7/CP41P/60x60/,620,1.00189,1.00862,1.00499
QRNG_Data/Experiment_7/CP41P/60x60/,630,1.00133,1.00805,1.0051
QRNG_Data/Experiment_7/CP41P/60x60/,640,1.00144,1.00805,1.00515
QRNG_Data/Experiment_7/CP41P/60x60/,650,1.00208,1.00774,1.00492
QRNG_Data/Experiment_7/CP41P/60x60/,660,1.00247,1.00827,1.0051
QRNG_Data/Experiment_7/CP41P/60x60/,670,1.00247,1.00777,1.00512
QRNG_Data/Experiment_7/CP41P/60x60/,680,1.00055,1.00945,1.00505
QRNG_Data/Experiment_7/CP41P/60x60/,690,1.00207,1.00759,1.005
QRNG_Data/Experiment_7/CP41P/60x60/,700,1.00204,1.00783,1.00504
QRNG_Data/Experiment_7/CP41P/60x60/,710,1.00114,1.00913,1.00512
QRNG_Data/Experiment_7/CP41P/60x60/,720,1.00168,1.00767,1.00507
QRNG_Data/Experiment_7/CP41P/60x60/,730,1.00188,1.0074,1.00497
QRNG_Data/Experiment_7/CP41P/60x60/,740,1.00185,1.00767,1.00511
QRNG_Data/Experiment_7/CP41P/60x60/,750,1.0022,1.00782,1.00504
QRNG_Data/Experiment_7/CP41P/60x60/,760,1.00184,1.00806,1.00508
QRNG_Data/Experiment_7/CP41P/60x60/,770,1.00215,1.00775,1.00503
QRNG_Data/Experiment_7/CP41P/60x60/,780,1.00175,1.00812,1.00498
QRNG_Data/Experiment_7/CP41P/60x60/,790,1.00254,1.00756,1.00498
QRNG_Data/Experiment_7/CP41P/60x60/,800,1.00146,1.00747,1.00503
QRNG_Data/Experiment_7/CP41P/60x60/,810,1.00267,1.00769,1.00504
QRNG_Data/Experiment_7/CP41P/60x60/,820,1.00263,1.00767,1.00505
QRNG_Data/Experiment_7/CP41P/60x60/,830,1.00272,1.00731,1.00504
QRNG_Data/Experiment_7/CP41P/60x60/,840,1.00255,1.00871,1.00505
QRNG_Data/Experiment_7/CP41P/60x60/,850,1.00225,1.00783,1.00501
QRNG_Data/Experiment_7/CP41P/60x60/,860,1.00247,1.00734,1.00512
QRNG_Data/Experiment_7/CP41P/60x60/,870,1.00229,1.00729,1.00501
QRNG_Data/Experiment_7/CP41P/60x60/,880,1.0023,1.00792,1.00507
QRNG_Data/Experiment_7/CP41P/60x60/,890,1.00216,1.00777,1.00504
QRNG_Data/Experiment_7/CP41P/60x60/,900,1.00247,1.00734,1.00506
QRNG_Data/Experiment_7/CP41P/60x60/,910,1.00263,1.00788,1.00511
QRNG_Data/Experiment_7/CP41P/60x60/,920,1.00216,1.00754,1.00498
QRNG_Data/Experiment_7/CP41P/60x60/,930,1.0022,1.00735,1.005
QRNG_Data/Experiment_7/CP41P/60x60/,940,1.00196,1.00752,1.00499
QRNG_Data/Experiment_7/CP41P/60x60/,950,1.0017,1.00784,1.00507
QRNG_Data/Experiment_7/CP41P/60x60/,960,1.00277,1.00766,1.00502
QRNG_Data/Experiment_7/CP41P/60x60/,970,1.00213,1.00754,1.00498
QRNG_Data/Experiment_7/CP41P/60x60/,980,1.00269,1.00762,1.00499
QRNG_Data/Experiment_7/CP41P/60x60/,990,1.00169,1.00716,1.00502
QRNG_Data/Experiment_7/CP41P/60x60/,1000,1.00177,1.00715,1.0051
