-0.0596928,0.0539286,0.0303583,-0.0928609,0.214964,0.0549424,-0.133148,-0.050991,0.0434599,0.0520972,0.116963,0.0127737,-0.0503723,-0.053223,0.0116766,-0.0127361,0.0801512,-0.0396864,-0.0495744,0.0669304,0.0280656,0.0144136,0.044683,0.004886,-0.0176342,-0.0808021,-0.0146409,-0.0425417,-0.0163739,0.0412063,0.00269707,-0.00906136,0.0261891,-0.0512246,-0.00208191,0.160486,-0.0432862,0.0795487,-0.0140247,-0.0179794,0.014005,0.0453887,-0.0648714,-0.00530177,-0.0511233,-0.00858341,0.136039,0.0170342,-0.0320544,-0.0149277,0.0244072,-0.0924456,0.0850802,-0.011833,-0.0987248,0.0877823,0.0789957,0.0454547,-0.0198002,0.0290432
-0.0442464,0.0527686,-0.00989005,-0.0487914,-0.0782139,0.00996492,0.0193561,-0.0549734,-0.0457536,0.00965291,0.11703,0.0117217,0.0390025,-0.0668746,0.0503242,-0.0141193,-0.0646476,-0.0647272,-0.0526042,0.00233529,-0.00122336,0.139598,-0.0418116,-0.00857764,-0.0745699,0.0441154,0.0214369,-0.0609848,0.0137223,0.0098831,-0.00997962,-0.0903308,0.136653,-0.00222794,-0.0299145,-0.0121103,0.014674,-0.0369015,-0.00536864,0.160052,0.0994771,-0.00983535,-0.0667608,-0.0317281,-0.0724662,0.046643,-0.00275896,-0.00799017,0.0352205,0.0999028,0.0815669,0.0533832,0.0512466,-0.0156451,0.0283329,0.030311,-0.0968141,0.00254392,0.0856696,0.0427241
-0.0825309,-0.0255677,-0.00571595,-0.0258546,-0.0680486,0.00994704,-0.00476814,0.0151763,0.0159124,0.074318,0.0766294,-0.0183428,0.017243,0.0464838,0.0287368,0.0343087,0.0359708,-0.00988934,0.0735617,0.0609947,0.0779359,-0.0957973,0.0692054,-0.0808521,0.0366828,-0.0886527,-0.0991741,0.000651175,0.0235254,0.0571825,-0.0437806,0.0710064,0.019605,-0.0184291,0.000132359,0.121373,0.0680872,-0.0456029,0.036151,0.115718,0.0220765,-0.0259535,-0.0346025,0.0943681,-0.0278941,0.00109793,0.0266381,-0.0726941,-0.0250087,-0.0330063,0.0811208,-0.0150689,-0.129087,-0.0909743,-0.0212486,-0.0338544,-0.0254492,-0.0238685,-0.0474258,-0.00171891
0.0445613,0.033504,0.0685139,-0.0174931,-0.0192107,-0.0210889,0.0562976,-0.0533079,-0.0199684,-0.051744,-0.0827406,0.0166526,-0.110609,-0.00231822,0.0127047,-0.0455982,-0.0361468,-0.031976,-0.0320497,-0.0196355,2.82339e-05,0.0118559,0.0223023,-0.0141996,-0.0722201,-0.118474,-0.0515802,-0.0700145,0.065024,-0.0791698,0.0311658,0.0504266,-0.0107289,0.00592076,-0.0325948,0.0643767,0.0344578,-0.0322682,-0.00652935,0.0135825,0.0026768,0.0510289,-0.0406429,-0.0115493,0.0108683,0.0449813,0.0306071,0.0509542,0.0073836,0.0456001,-0.0175281,0.0458637,-0.0216372,0.0870362,0.00873537,0.000386649,-0.0685524,0.0150657,0.0324426,-0.0403778
-0.000388172,-0.00126114,-0.0337604,-0.0567892,0.0512856,-0.032022,0.0127504,-0.0503063,0.0540072,0.0537435,0.124496,0.000172045,0.0729195,-0.0331771,0.108616,0.0517841,0.0243905,0.0340373,0.0217937,0.0664143,-0.0638051,-0.0426277,0.0670015,0.00276752,-0.045441,-0.0639579,-0.0107676,0.0259506,0.0067869,-0.0579753,-0.00943912,0.00933641,-0.00492768,0.0638744,0.0479582,0.00497061,-0.00606003,-0.109936,-0.0338398,0.069762,-0.010203,0.177767,0.0112502,0.0258503,-0.0316844,-0.0227855,0.107072,-0.00254246,0.0347197,0.160916,0.0585077,0.0968218,0.0464708,-0.00180947,-0.0557264,0.0557098,-0.0531927,0.00257433,-0.041768,-0.0383369
-0.105073,0.00452209,0.0220554,-0.0838846,-0.0500265,0.0649864,0.0475293,0.0715906,-0.0689563,-0.0282148,-0.0452463,0.045084,-0.0698198,0.00276348,-0.00248002,0.0157515,0.0188583,-0.088301,0.0574806,-0.0367261,0.0256051,0.00643161,-0.0224624,0.0960447,0.0365291,0.0780701,-0.0606825,0.015592,0.0990295,-0.0612284,-0.0205368,-0.0423748,-0.0601071,-0.0154433,-0.0211607,0.0260645,0.0460332,0.0649724,0.0961646,0.0694124,0.0268155,0.00891362,0.0593441,0.0575171,-0.0614437,-0.00909029,0.0764723,0.0238743,-0.0999978,0.025524,-0.0116267,-0.0395499,0.0186554,0.00922051,-0.0646064,0.084209,0.0360407,0.119679,0.0958987,-0.0291516
0.0310984,0.0204252,0.0436618,-0.0248086,0.0776356,0.0796613,0.0543117,-0.0696758,0.0242936,-0.0920282,0.0624437,0.0677677,0.0896599,-0.039912,-0.0115298,0.0440759,-0.0644092,0.0274395,-0.0829029,0.0199716,0.0283675,0.0167585,0.0252211,0.0497999,0.0239763,-0.0623473,0.00216291,-0.024274,0.0339694,-0.0889343,0.0241943,-0.106328,0.0317006,0.00342876,-0.0609284,-0.0342879,0.0403357,-0.0606888,-0.0146052,0.0185097,-0.0927634,0.021129,0.0166554,0.0241696,0.0418488,-0.0382688,0.00658197,0.0438423,0.0933498,0.00882558,-0.0225354,0.0122348,-0.113297,-0.0454749,0.117127,0.0638833,0.0258175,0.0666193,-0.0596322,-0.0800454
-0.0043468,-0.0441684,-0.0814774,-0.0521092,0.0163867,0.0555922,-0.0548413,0.0129113,0.0515137,-0.0786766,0.00107241,0.0478714,-0.0436093,0.0252013,-0.0808514,-0.0124075,-0.0272503,0.00434892,-0.0465013,-0.0918559,-0.0329861,0.0172912,-0.00108565,0.0371379,0.0695083,-0.0224727,-0.0339888,-0.0109661,-0.0733014,-0.0294573,0.0722994,-0.0362081,-0.108465,0.134941,-0.106272,0.11366,-0.0533387,-0.00695227,-0.00261464,0.0116666,-0.0931776,0.072368,0.00808095,0.0769967,-0.0425666,0.0528736,-0.0211571,0.00933967,-0.0139329,-0.0460659,0.119871,0.0527015,0.0571844,-0.0131918,0.0835299,-0.0234072,0.0502001,-0.0326028,-0.00392954,0.101798
-0.0807381,-0.0657865,0.0851025,0.102016,-0.0538807,-0.108233,-0.0313368,-0.0263125,-0.102745,0.0288249,-0.039729,-0.0802591,-0.019476,-0.00330987,0.062872,0.0693936,0.0709932,0.0372423,0.0254874,0.0330415,-0.0262687,0.0251551,0.0285888,0.115006,0.0389537,-0.122429,0.00173844,-0.00213968,0.000314933,0.00677212,0.006643,-0.012602,0.0261202,0.0434312,0.0515307,-0.0533622,0.0338757,-0.0475714,-0.0298767,-0.0561706,0.0174177,0.0237621,-0.0249694,-0.0238639,0.0125009,-0.104067,-0.0754284,-0.0382209,-0.018031,0.0465229,-0.100517,-0.0223757,0.0235614,0.00233586,0.04132,0.0325739,-0.0243914,-0.0175244,-0.0303834,-0.0499996
0.0296449,0.0345844,0.0124561,-0.0402092,0.131938,-0.00819114,-0.0163603,-0.0378006,0.0631663,-0.0133649,0.0398748,0.000772173,-0.0324361,0.0490398,0.0760654,0.0780493,-0.0239239,0.071799,0.0595124,0.142305,0.0150936,0.0376597,-0.118652,0.0361832,0.0821302,0.0471397,0.0138044,-0.00309745,-0.106288,0.04612,-0.0243983,0.0361261,-0.00959764,0.113096,0.0513421,0.0227345,-0.0254772,-0.0254926,-0.0577077,-0.193485,0.0874683,0.0107475,0.0335318,0.0147136,-0.00145837,-0.0818129,-0.0368217,-0.0342271,-0.0331654,0.0576779,0.149567,0.0221425,-0.0964787,-0.0468925,0.0565213,-0.0839627,0.0829253,0.00679077,-0.0180398,-0.0143021
-0.0141581,-0.0633405,-0.0864811,0.0449441,-0.0346736,0.047816,-0.0119665,-0.00604538,0.0822165,0.087556,0.0490119,-0.0542624,-0.0508251,0.0647869,0.0570352,0.0377625,0.0182173,0.058625,0.0459764,0.0149608,-0.00308351,0.0168782,-0.0370341,-0.0559794,-0.114875,0.0887343,-0.0114174,-0.0590291,0.0734701,-0.0466074,-0.00773429,0.0240956,0.147563,-0.0308627,-0.0615942,-0.0313008,-0.00466341,0.0525412,-0.0775522,-0.0889315,-0.0413527,-0.0167072,-0.00302261,0.0139391,-0.0139696,0.00933456,0.0282503,-0.0513282,0.02602,-0.131981,-0.0473957,-0.0455268,0.0906736,0.0199117,-0.0337521,0.00961074,0.0751682,-0.0214808,0.0667052,-0.00797699
-0.0202804,0.00623379,-0.0196087,-0.0779826,0.0940051,0.00123217,-0.0452073,0.0959783,-0.0103417,0.00959851,0.0564633,0.0604149,-0.0269676,0.0112395,-0.00488845,0.0141799,-0.000380713,-0.0146125,0.112566,-0.0205556,-0.106656,-0.051595,-0.00576573,-0.0278931,0.0239703,-0.0677203,0.0308962,-0.00605257,-0.00258639,-0.00137382,-0.00715118,-0.0228844,0.0299705,0.0323819,0.00724938,0.0147067,-0.0936535,-0.034226,-0.0197644,0.0632897,0.0353791,-0.0602254,0.00611462,0.0457329,0.0176546,-0.00411728,-0.00957244,-0.0132419,-0.0483046,0.081498,0.0576293,-0.0257621,-0.0554634,0.0467481,-0.0305281,-0.0457025,-0.0111696,-0.0714533,0.0203401,0.0551818
-0.0844802,0.0643332,-0.0363599,-0.0198246,-0.0288018,-0.0557155,0.0652263,-0.093834,-0.00648469,0.0812423,0.0343139,0.0854941,0.0345554,0.0291812,-0.0960231,-0.116392,0.0790459,-0.0126973,-0.0188684,-0.0357395,0.171008,-0.00838479,0.0463715,-0.0546287,-0.0566147,0.0748943,-0.0210341,-0.105382,0.0444675,-0.065625,0.0274064,0.0839215,-0.000218446,0.0237913,0.0129511,0.0317873,-0.0553291,-0.0256407,0.0613002,0.0667714,-0.0288542,-0.111825,0.124776,0.0054139,-0.046274,0.0524916,-0.0505063,-0.0278053,0.00716909,-0.050623,0.0665055,-0.0302902,-0.0625302,-0.0957067,0.0610907,0.0278138,-0.154288,-0.0909084,0.00342894,-0.0339594
-0.0504989,-0.0968801,-0.0562996,0.0026813,-0.0157383,-0.0757676,0.0366612,0.0593995,-0.161871,0.0310411,0.0275461,0.0286779,0.0151255,0.0943214,-0.0330405,-0.0627052,0.0189054,-0.00304166,0.053644,-0.0673323,-0.032658,0.00882689,0.0642286,-0.0046808,0.00887689,0.00159754,-0.075691,0.0633185,-0.0632169,-0.0275749,0.113078,0.068684,0.0288398,0.0729895,-0.00838892,0.0231909,-0.0403464,0.0787428,-0.114683,0.0405275,0.0364477,0.0735909,0.0558022,0.00188615,-0.00592878,-0.00207438,0.0760611,-0.00652645,0.0601963,0.00951606,0.0599717,-0.00899655,0.0203086,0.108941,0.0475203,0.0145756,-0.0565676,0.026993,0.0179952,-0.0446282
0.0397444,-0.0554048,-0.0285855,-0.00029466,0.113954,0.063222,0.0876353,-0.0911026,-0.019582,0.0552655,0.00271268,0.0520944,-0.0691068,-0.0616582,0.0764593,-0.0200896,-0.0147978,0.0624973,-0.122348,0.11376,0.0807876,0.0381422,0.068197,0.0836715,0.0501985,0.0411217,-0.0650585,-0.00545054,-0.0142396,0.00944031,-0.00703548,-0.0435138,0.0727208,0.0368223,-0.0684795,0.00658875,0.0864333,0.00361671,-0.0274022,0.129478,0.0230934,-0.00547991,0.0248111,0.0900368,0.0660831,0.0625519,-0.013624,-0.0174168,0.0413112,0.00156977,0.0309558,-0.00521098,0.0139869,0.0325072,-0.0601633,0.0189612,-0.0296274,0.0723915,-0.0511738,0.0413928
0.078049,-0.0320924,-0.0107176,-0.0215656,0.0364036,0.0662004,0.000463773,-0.0789393,0.0953897,-0.0417947,0.0209476,-0.0459184,0.0751471,0.028425,0.047506,0.0176288,0.0881727,0.0975439,-0.100181,-0.119436,-0.0356272,-0.0277342,-0.0393823,-0.0958581,0.0940002,0.0137128,-0.0425759,-0.0816391,-0.0103778,-0.0638891,0.0351823,-0.0701755,0.0572923,0.0127006,0.0842088,0.034794,-0.0117071,0.00587548,0.063234,0.0498331,0.0317236,-0.0262417,0.113434,0.0401031,0.00171048,0.152505,-0.0417326,0.102439,-0.0420176,-0.0123415,0.00458115,-0.0645159,0.0196485,-0.00295989,-0.0667454,0.0141768,-0.0279996,0.0349488,-0.0354004,-0.0282895
-0.0607702,0.0144731,-0.0571129,-0.0934891,-0.0751655,0.0266981,0.0243547,0.0376212,0.101501,0.0590147,-0.0315716,0.0263212,0.0404849,-0.014517,0.102475,-0.0390208,-0.0114638,-0.0121599,-0.0322126,0.0773535,0.0304929,0.0385228,-0.0567255,0.00977294,-0.119963,0.0298559,0.059456,0.000715268,-0.0956374,0.00992206,0.0346574,-0.0586262,0.0299605,0.0371347,-0.0300921,0.0782952,-0.0269996,-0.166994,0.0407844,0.0526253,0.0512569,0.0991503,-0.014604,0.0489536,0.0298295,0.0123806,0.0417076,-0.0479196,0.032316,-0.0813666,-0.0114104,0.0824324,0.0224259,-0.0145195,-0.0820253,-0.0945729,-0.0447169,0.0515135,0.0540086,-0.0203861
-0.0137403,-0.0585104,-0.0567199,0.0369207,-0.0460978,-0.0564831,-0.110519,0.0209491,0.0084975,-0.0259547,-0.0355854,-0.00641963,0.0075168,0.0162164,0.0744113,0.106721,-0.0621675,0.0682387,-0.0912797,-0.0669242,0.0891982,0.139559,0.00635352,-0.0040107,0.0219118,0.0323195,-0.00635596,-0.0698092,0.0179646,-0.0476699,0.0112216,-0.0842274,-0.100567,-0.0517015,0.0112779,-0.0100927,-0.102441,-0.0313003,0.0124232,0.0374805,0.00923238,-0.0272229,0.0362382,0.0877996,-0.00891501,-0.0766186,-0.0613888,-0.0611903,-0.0942843,0.0432709,-0.0388773,0.0785302,0.0393545,-0.0483768,0.0882744,0.0392463,0.016857,0.00502717,-0.0490375,-0.0844477
0.00733748,-0.0143494,0.00376073,-0.0385251,0.0564877,-0.0154334,0.00900575,-0.00704098,0.0899439,-0.0786246,-0.0273755,-0.0934162,-0.0240418,0.0270951,0.0188878,0.0120526,-0.0621029,0.074438,-0.0239395,0.121435,0.035935,0.0605106,-0.0554723,-0.0445044,0.0940755,-0.113613,0.0348984,-0.0247978,-0.000942251,-0.134731,0.0244861,0.0228377,0.0618727,-0.0447536,0.00714338,0.107996,-0.0935495,0.0300218,0.0223759,0.0895307,-0.0188219,0.0524497,0.123258,-0.0162575,0.0862692,0.0450757,0.0585544,0.0260552,-0.0705155,0.00293339,-0.0875789,0.019393,-0.00134921,-0.0881783,-0.0292395,-0.0202071,-0.00499904,-0.0465374,0.0689246,-0.0257342
-0.054892,0.0697876,-0.09233,-0.0176161,-0.0621621,0.0752028,-0.0745861,-0.0236296,0.0299226,0.0119848,0.00661947,-0.0733128,-0.0617307,-0.0466594,0.00538533,0.097692,0.0670671,0.0364187,-0.0408057,-0.0368614,-0.0610746,0.0860132,-0.0777783,0.030853,0.152814,-0.00877062,-0.0995998,0.0191885,0.120193,-0.0727364,-0.0822364,-0.058816,0.088087,-0.0224106,0.017276,-0.0647521,-0.0649695,-0.0505753,-0.0614339,0.00308178,0.0457889,-0.0834304,-0.0497094,-0.0347026,0.00277248,-0.0197083,-0.0246893,0.00650882,-0.0492044,0.00383789,-0.0530842,-0.0414603,-0.0152188,-0.111817,0.0051441,-0.0907801,-0.0158688,0.0786805,-0.127881,0.0704176
-0.0636723,-0.0177606,-0.162012,-0.0759043,-0.0617112,-0.0456947,0.0154162,0.039307,-0.0425656,-0.00742659,0.0533707,-0.0390291,-0.0784439,0.0451547,-0.0523839,-0.0589657,0.0184521,-0.0944918,0.0194168,0.0189688,-0.0241146,0.0342855,0.0230785,-0.0476066,-0.010956,0.0204187,-0.0227972,-0.0121209,-0.00441073,-0.0575733,-0.165665,-0.0406916,0.0172339,0.0699772,-0.00436152,0.0219938,0.0687246,-0.023279,-0.111154,0.00819419,-0.0251099,0.055299,-0.0106884,0.0216106,0.0777877,-0.0199842,0.0401202,-0.000183093,0.0111068,-0.0527227,0.0404161,0.0770826,-0.025804,0.115103,0.05372,-0.0664234,0.0127248,0.0319381,-0.0840903,-0.0222534
0.12346,-0.0237943,0.0702937,0.00817235,0.0278665,0.0217965,-0.0627561,0.00682099,-0.0850005,-0.0713446,-0.0942645,0.0285756,-0.0772999,0.000310615,-0.0713502,-0.00751942,0.042752,0.0300036,0.0765678,0.0272369,-0.0580003,0.119578,-0.0927765,0.0304201,0.00208564,-0.00585709,0.0248095,0.0832847,-0.0326225,0.0387537,-0.0678289,-0.0360924,-0.0425215,0.0181792,-0.0707815,-0.0755419,0.0233499,-0.0635351,-0.0504245,0.0404359,-0.0429083,-0.00149787,-0.00956794,0.0579162,-0.0380612,-0.00532097,0.0424735,0.0514691,0.024366,-0.028838,-0.0632494,-0.0122411,-0.0375035,0.027904,0.083506,0.0972896,0.0362082,-0.0581715,-0.00574834,0.0427312
0.152807,0.112508,0.0812897,-0.0387793,0.00419739,0.0533646,0.0542993,-0.0341418,0.00643876,0.0170531,-0.0269964,-0.0287389,0.0234566,-0.0304952,0.00530992,0.0189616,0.0885242,0.00563799,-0.0850377,0.0446723,-0.00929098,-0.0322982,-0.0534842,-0.0740128,0.0147964,-0.0459324,-0.0270882,-0.0192396,-0.0671057,-0.0602311,-0.0561885,-0.0553404,-0.0751884,0.0709486,-0.0373523,0.132618,0.00219926,0.11846,-0.0346785,0.061397,-0.0599127,0.0419846,0.0510931,0.064246,-0.0217685,0.0317378,0.0287655,-0.05421,-0.0433035,-0.0230201,-0.0741622,0.0244297,0.0548638,-0.0686672,-0.00317889,0.0840248,0.0949578,-0.0195509,0.0510984,-0.0227367
-0.0644366,0.0461873,-0.0517901,0.0503864,0.00509109,0.0378832,0.0131102,-0.0217897,0.0432468,-0.0674944,-0.0733535,0.0274514,-0.0278852,-0.0537747,0.130917,-0.018557,-0.0596474,0.00817479,-0.0530055,-0.0336951,0.00459082,0.0551409,-0.036484,0.0366635,-0.0242773,0.0320478,0.0472109,0.0783886,0.0859191,0.0399964,-0.0751167,-0.096849,0.0394348,-0.0281969,0.0487255,0.0207595,0.0129357,-0.00305586,-0.0106773,0.0146891,-0.0269617,0.103435,0.0996221,-0.0270952,0.0815123,-0.0651526,-0.0220539,0.0290654,-0.081029,-0.0191022,-0.0371693,0.0217297,-0.00859993,0.00912206,0.157429,0.0272692,0.0367031,0.0634789,0.0542697,0.0408925
-0.0311433,0.0419793,0.00112781,-0.102121,-0.0473646,-0.0600812,0.00210307,0.107928,0.0712398,-0.0294926,-0.0301019,-0.0658532,0.00383103,0.00603388,0.106828,-0.0461362,-0.0139893,-0.0239726,0.05392,0.0250983,-0.0156714,0.0150762,0.0510036,-0.0577072,0.0145495,0.0307609,-0.0997435,-0.020804,0.00390098,0.0377317,0.0707797,-0.0580548,0.0946,0.0436872,-0.124807,0.0127039,-0.0214974,0.0385577,-0.0856901,-0.184837,-0.0271153,-0.111038,0.0395948,-0.0171339,0.0927207,0.0221171,-0.127881,0.0680952,-0.00294729,-0.126351,0.00776442,-0.0223427,-0.0591996,-0.0217395,0.0441904,0.0128492,-0.0325918,-0.0950985,0.0220373,0.0614138
0.071041,-0.00745181,-0.0271234,0.0996198,0.0504422,0.0334146,-0.0245561,-0.0286188,0.0455503,0.0782848,0.178443,0.0866822,-0.00868743,-0.0953701,0.00370431,-0.0218639,0.150834,-0.0280985,-0.0324023,0.0612486,-0.0409411,-0.0229905,-0.0642967,0.0476687,0.119126,0.0252016,0.125771,0.0641469,0.0475462,0.0743524,-0.00942888,-0.00616934,0.00225877,0.036513,0.0384026,0.0663897,0.0353117,0.0381803,0.0268765,0.106209,0.0266228,0.0116218,0.101009,-0.0329191,0.0804055,-0.0548846,0.0339504,-0.0154978,-0.0369257,-0.0344081,0.0675419,-0.0353287,-0.000149057,0.0232649,-0.0119821,0.00978679,-0.0440071,0.04887,-0.0756818,0.0130962
0.00690277,0.0194314,-0.00294756,0.0492537,0.00562759,-0.0242445,-0.0434779,-0.0892819,-0.0390703,-0.000460272,-0.0512249,-0.0339433,0.0971754,-0.0416286,-0.0381778,-0.0240272,-0.0201533,0.0679384,-0.0684728,0.0105124,0.0148112,-0.0158435,0.0164899,-0.0209073,-0.0474558,-0.00698434,-0.038231,0.000298407,0.0215255,0.0849002,-0.0161049,-0.035514,0.0398338,0.00990908,-0.0305272,0.0245193,0.106886,0.0120147,0.0570734,0.0308418,0.00925469,-0.0515146,0.12946,0.0222489,-0.140674,-0.00923981,-0.00756862,-0.0357626,-0.0691003,-0.0619545,-0.048568,-0.0844747,0.0148883,0.00227715,0.0165105,0.123213,-0.0672017,0.0172554,0.0786793,-0.0288784
-0.119539,0.00864793,-0.0572643,0.0726376,-0.00479051,0.0052611,0.0139582,0.123783,-0.0241622,-0.0380135,0.0226998,-0.0822367,0.0234871,0.0558665,0.0429465,-0.11589,-0.0587838,0.0440133,0.0496009,-0.0970049,0.156635,0.0939966,-0.0144572,0.0558494,0.0336765,0.0340881,0.0374423,0.0158517,0.0125076,0.028086,-0.0203321,0.0335494,0.118748,0.103075,0.137183,-0.0383751,-0.0204807,-0.0705858,0.0264919,0.0180416,0.0587141,-0.0437228,0.0248943,0.0186488,-0.0348264,-0.00995403,-0.00675963,-0.00201921,-0.000363644,-0.0133685,0.00610554,0.0258057,-0.117948,-0.030138,0.00877537,-0.0796716,0.118035,-0.0271149,0.0173079,0.0692577
0.0278035,-0.0854752,-0.0590244,0.0329448,0.0148187,-0.0454266,0.0869043,0.0325356,-0.00320072,0.042357,0.0124342,0.007994,-0.0557134,-0.0485305,0.00965501,0.0555314,-0.0460291,0.00788433,-0.00602967,-0.00248078,0.0170122,0.0529213,0.0474663,0.0972218,0.00543762,0.0645475,0.100373,0.0663868,0.0589388,0.0639005,-0.0897871,-0.040158,0.0426239,0.0500777,0.124954,0.0540406,-0.0016381,-0.0291312,0.0674262,-0.00753904,-0.0127087,0.0424276,0.053397,0.00277724,0.106117,-0.00195867,0.0208797,-0.0211102,-0.033466,0.0759104,-0.00497265,0.101545,-0.114136,0.0823802,-0.00402279,-0.0473935,0.019504,0.0677479,-0.0143162,-0.0470483
-0.0671091,-0.0296773,0.022862,-0.0905785,-0.039593,0.0344072,0.0159172,-0.00812656,0.0599413,-0.0229092,0.0624095,0.0134163,-0.00721421,-0.00877703,-0.116682,0.0297004,-0.0271871,0.0217631,0.0478386,0.0889704,0.0735091,-0.0332382,-0.0341126,0.0829901,0.0898585,0.0404036,-0.0753338,0.0245877,-0.0806274,0.0189604,-0.0042434,-0.0753188,-0.0167362,-0.00471922,-0.0166804,-0.0513348,0.00382945,-0.0141635,-0.0768358,-0.0153631,0.190696,0.0780144,-0.032684,-0.0281977,0.0362109,0.0719965,0.00322789,-0.0433438,-0.108781,0.0176782,-0.037984,-0.0478807,-0.0474934,-0.0798437,0.0490204,0.0355136,0.0393432,0.0460427,-0.00101925,0.0168341
0.145422,-0.0864722,-0.057055,0.0271272,0.12859,-0.00467071,-0.0661219,-0.021957,0.0204874,-0.109585,0.0632988,-0.0318004,-0.0693835,-0.0639211,-0.00514847,0.0386374,-0.0212372,0.0595239,-0.0599604,-0.0851141,0.0808391,0.124456,-0.0434407,0.0741683,0.0438402,0.0578751,-0.0882895,0.0434324,0.0382712,-0.0288846,1,-0.0644689,0.0187565,-0.0130465,-0.0130255,-0.0670437,0.019248,-0.0377206,-0.0578348,0.0690166,-0.0642106,-0.0362215,0.0426795,-0.0376557,0.0786636,-0.0664672,0.0556945,0.029922,0.0475688,-0.00598407,-0.00907496,-0.052585,0.0270337,-0.0156913,-0.0840948,-0.0265184,-0.05209,-0.0041755,-0.0717649,-0.0794962
-0.0678206,-0.03329,-0.021581,0.101774,-0.0405842,0.0402725,-0.00359664,-0.0205707,-0.00728712,-0.0525888,0.0185135,0.0416828,-0.00632157,-0.0249538,0.0158454,0.0494531,0.0484755,-0.105125,-0.0452538,-0.0224073,0.0406856,-0.022401,0.00408192,-0.0752661,0.0642361,-0.0443114,-0.00391005,-0.0879497,0.01829,0.0511869,-0.0317374,-0.130543,0.0243439,0.0930024,0.121562,0.025406,-0.00940447,0.0655577,-0.135747,0.0493588,0.0946613,0.056838,-0.0144828,0.0397184,0.102427,-0.024965,-0.033169,0.0266448,0.0175721,-0.0623365,0.0571323,-0.0856755,0.103551,-0.0578063,-0.0527486,0.0635332,0.0048011,-0.0163387,-0.0668239,0.0835723
-0.0117463,-0.0456182,-0.0989603,0.0209137,-0.0111172,-0.0108515,0.076326,0.0326125,-0.00336026,0.00810118,-0.0706118,0.0521723,0.0232141,-0.0514269,-0.0944907,-0.0191401,0.135416,0.075687,0.0420872,0.0510071,0.0197669,0.00294955,0.0498515,-0.0915653,-0.0102503,-0.0135403,-0.0161375,0.0142207,0.00285178,-0.00366222,0.0637764,-0.0374746,-0.0187822,0.0352464,0.00314048,0.00118836,-0.0398139,0.0288738,-0.021941,0.0729349,0.0947314,0.00873406,0.0198723,0.0231358,0.000396803,0.0899463,0.0228826,0.071284,0.00104192,-0.0490743,0.168109,0.0394073,-0.0712691,0.0699531,-0.105569,-0.0346366,-0.0387628,-0.0245923,0.0461114,-0.0337422
0.0432957,-0.0521382,-0.0356118,0.024003,0.109756,-0.0724296,0.0369725,0.000494351,0.0172975,-0.00348715,0.0276876,0.00603924,-0.0987264,0.0255664,-0.0191307,-0.0148406,-0.0709554,0.0441763,-0.125406,0.0430593,0.0368343,-0.0173948,-0.0334414,0.0145439,0.036967,0.0168605,-0.0218273,0.0316741,-0.0380773,-0.075729,0.0582178,-0.0114737,0.00241002,-0.0535788,-0.037974,0.0176067,-0.036144,0.0627943,-0.021754,-0.0335659,-0.0569924,0.0404825,-0.0572334,0.0459757,-0.0570399,-0.0343468,0.0183094,0.00721674,0.0434274,0.00532491,-0.0302193,-0.0186037,0.00848233,0.0204543,-0.014058,-0.0263294,-0.0995787,-0.0663477,0.0494506,-0.00705081
0.00185172,-0.0122357,0.0448821,0.0220153,-0.0105259,-0.0244695,-0.0336535,0.0104493,-0.139039,-0.10327,0.0440878,-0.0554271,0.0677923,0.070529,0.0655718,0.0308954,-0.0690403,-0.0759799,0.0358926,0.0260351,0.0188924,0.0564819,0.0611394,-0.00137444,-0.0252316,-0.0406263,0.0349465,0.00171865,0.0482578,-0.0881206,-0.0982976,0.0462125,0.0630966,0.0440878,0.0306296,0.0865245,0.0415932,0.0383611,0.0178817,-0.0681769,-0.0762838,-0.0209651,-0.023857,0.0560811,0.00537965,-0.00991049,0.0968943,0.0304767,-0.0162901,0.0115831,0.0107679,0.166555,0.0166747,-0.0103849,-0.0205736,0.0365366,-0.0405281,-0.0442878,0.0251412,0.0738766
0.0690645,-0.0410637,-0.0678258,-0.083314,0.0321327,0.0245278,0.0133837,-0.0821724,0.128317,-0.0111503,0.0335483,0.0633067,-0.0332497,0.0907245,-0.0319643,0.0893321,-0.109819,0.0198491,0.00171778,-0.0552747,0.0300749,0.0653951,0.0463402,0.00816466,0.0260434,-0.0273026,0.0216172,0.0955782,0.00206948,-0.0646377,0.12143,-0.0196014,-0.0227027,-0.0943894,-0.0411051,0.133266,-0.010112,-0.0166322,0.00533784,0.00734442,-0.00260756,-0.043996,-0.0456493,-0.012892,0.097576,-0.100526,0.0290845,0.0113169,-0.0490453,-0.00895166,0.0592708,-0.0260582,0.0406148,0.00542611,0.0543027,-0.0143508,-0.0241465,-0.0259283,-0.0558033,-0.018526
-0.0134914,-0.064267,-0.0139446,0.0407822,0.0193233,0.0715491,-0.0946799,0.0291482,0.0859827,0.133436,0.0535895,-0.026474,0.0100951,-0.0660808,0.0996464,-0.0568726,-0.0330334,-0.0201398,-0.0690282,0.00048875,0.0163595,0.0390019,0.014091,-0.0667315,0.0375467,-0.0341278,-0.021775,-0.0490372,0.172918,-0.0472652,0.0458965,-0.0379841,0.0325011,0.0525285,0.0566338,0.0465376,0.0262121,0.0482596,0.00829942,-0.000848125,0.12163,0.0748086,-0.165587,-0.122521,0.047974,-0.089929,-0.0163035,0.0245022,0.0685259,0.0919664,0.0304311,-0.00243424,0.0754183,-0.054421,-0.087346,-0.000375962,-0.0353377,0.119693,-0.0655051,-0.0656188
0.0311216,-0.0233015,0.0159196,0.0103515,-0.000281039,-0.0242042,-0.0127097,0.114042,0.000683185,0.0349411,0.042904,-0.147514,-0.00338293,0.0428905,-0.0334847,-0.0401539,-0.0241764,0.0626294,-0.0293042,0.0669485,-0.10474,-0.0580769,-0.0187412,-0.0271329,-0.033744,-0.0182293,0.037706,0.0242899,0.0139378,0.0315163,0.0369047,-0.0503925,0.136215,-0.0276309,0.0477807,0.0212454,0.0510027,-0.0429079,-0.0606234,0.0433938,0.0484394,0.0383971,0.0680831,-0.0175982,-0.00481653,0.0450824,-0.0197151,0.0811118,0.0654392,-0.0278674,0.108474,-0.0268758,-0.0496064,0.0752812,0.106915,-0.0476849,0.0526478,-0.136596,-0.0432024,0.0111353
-0.0654562,0.0458829,-0.0436324,0.0422759,0.00564642,0.00288499,0.00381922,-0.0313657,-0.0854052,0.00203873,-0.0644336,-0.0165639,-0.0564873,0.0681323,0.0924901,0.0472169,0.0833588,-0.0536549,0.0116544,0.0371115,-0.0326399,0.0717946,0.0403409,-0.0345942,0.0320201,0.0859606,0.00370355,0.0656363,0.138415,-0.0419318,-0.0937964,0.148915,-0.00141303,0.0832954,0.0683456,0.052028,0.0450845,0.0469711,-0.00790414,0.0364066,-0.128413,-0.0651731,0.071641,0.0608722,0.0320375,-0.0373306,-0.0227521,-0.0533099,0.0581548,-0.0170209,-0.0336024,0.0279711,0.0483727,-0.0248771,-0.0236349,0.0805569,-0.0290691,0.0341502,0.171322,-0.00863669
0.0322038,0.0548838,-0.0218366,-0.0279597,0.0154691,-0.12613,0.0274334,-0.111624,0.0789647,-0.0309605,0.135548,0.00987479,0.0181442,0.0374872,0.00965024,0.0107734,0.0349907,-0.0238992,-0.0461716,0.046023,-0.0286715,-0.108702,-0.0239099,0.0847524,0.0696204,0.0658754,0.019477,0.0144978,-0.0384917,-0.0938313,0.0533422,-0.100031,0.0536171,0.0596848,-0.0253508,0.0273405,-0.000441965,0.140667,0.0166243,0.0547717,-0.122713,-0.00816341,-0.0546523,-0.069203,0.06314,-0.0407756,-0.101524,-0.0364374,0.0281353,0.031861,-0.0363411,-0.0620618,-0.00781201,-0.0194125,-0.0141578,-0.000654496,0.0294261,0.0730475,0.0717352,0.0315201
0.0440124,0.0707644,0.0356329,0.0478013,0.0526463,0.0019583,0.0787635,-0.0170049,0.00640482,-0.0282876,0.105102,-0.0289789,-0.0144626,0.102303,0.0912478,-0.0499279,0.132496,0.00775473,-0.0149883,0.0747477,0.088946,-0.13123,-0.0141434,0.0672728,-0.0477363,-0.0241826,0.120061,0.015172,0.0168229,0.0319221,-0.0830918,0.000494736,0.0107626,0.0551338,-0.00454368,-0.0232174,-0.0130535,-0.0169647,0.00384378,-0.00799098,0.018971,-0.00782621,-0.0918912,0.0268601,-0.0195558,-0.14274,0.0134993,-0.0782862,0.110239,0.0791313,-0.00995529,-0.0592209,0.0879966,-0.0141419,0.130738,0.0194354,0.0025111,-0.0105485,-0.0816209,0.0531202
0.0295667,0.00836437,0.097977,0.00115566,0.0399389,0.0325865,0.0227481,-0.103242,0.0892839,0.0553719,-0.0349894,0.00858014,0.00280109,0.114686,0.02586,0.0302856,-0.0249962,-0.00265577,-0.00406115,0.0643076,0.0366131,0.0853382,0.00251975,-0.0530448,0.000666577,-7.7756e-05,0.0343845,-0.0315282,0.0189654,0.0566646,-0.0779949,-0.0698087,0.0244269,0.0207243,-0.00766108,0.0655676,-0.0485211,0.0451991,-0.0684602,-0.0874934,0.0516504,-0.00353648,0.0749038,0.119101,0.00659926,0.0403612,0.0717161,-0.0201812,0.0759418,0.0165026,-0.0992534,-0.122478,-0.0698761,0.0354158,0.0853864,-0.0366547,-0.0812926,0.016906,-0.100353,0.114856
-0.0895741,-0.0107282,0.0331204,-0.0188437,0.0109566,0.00677146,-0.0543532,0.0708419,-0.0950188,0.0404646,0.000317312,0.039348,0.060916,-0.0309608,0.0937393,-0.0365372,0.0699827,0.000811155,-0.000285981,-0.0404365,-0.000174791,-0.0618578,-0.0368009,0.0242484,0.0190547,0.0562473,0.00717373,0.058654,0.00252691,0.00343877,-0.0654795,0.0183729,-0.0459907,0.00152389,0.0241181,-0.0548913,0.032726,0.00740225,-0.0421449,-0.0119448,0.0317254,-0.0497163,-0.058529,0.0318098,-0.0115796,-0.0290862,-0.0178523,0.0474036,-0.00136307,-0.00800388,-0.0184663,-0.0097638,0.0295963,-0.0324201,0.016443,0.0425517,0.0680144,-0.0158741,-0.0237657,0.0215784
0.00488027,-0.00809254,0.000927718,-0.0869957,-0.0729878,-0.0119795,0.0124518,0.0107262,0.0485519,-0.0474643,0.0491279,-0.0561918,0.00994598,-0.0520424,0.0251438,0.0215596,0.134237,0.0119974,0.134483,-0.0642713,-0.0416625,0.0163133,0.00878426,0.107642,-0.087451,-0.0656061,0.122168,0.0531877,-0.0949119,-0.0251838,0.018391,0.00204799,-0.0603277,0.0633121,-0.0640424,0.0481735,-0.0322797,0.0663377,-0.0566386,-0.0300374,0.00489643,-0.0864134,-0.0035003,-0.0505518,-0.0983863,0.0874736,-0.0389366,0.0389217,-0.0432416,0.0492096,-0.077952,-0.0619359,0.165129,0.1057,0.0035714,0.108826,0.0511405,-0.0130603,0.0275895,0.0338677
-0.044177,-0.026708,-0.0337772,-0.00300456,-0.0487872,0.0897934,0.0277954,-0.00070655,0.0294173,0.0207949,-0.0975366,0.0443659,0.0437699,0.049727,0.0833991,-0.0302135,-0.0017754,-0.0186376,0.0231324,0.0662867,0.034078,-0.0450622,-0.0360124,0.00692497,-0.0407692,0.138695,0.000549239,-0.0306378,-0.0069321,-0.102713,-0.0855872,0.0903443,0.00178253,0.0016883,-0.0110944,-0.0694399,-0.0270954,0.0855116,0.0910439,-0.00633689,0.0182775,-0.0359739,0.0431893,-0.0861625,0.0324604,-0.151281,0.0795241,0.0553314,0.0111744,0.0513249,-0.0364302,0.0442247,0.135855,0.0419655,-0.0281155,0.102568,0.000385592,0.0015465,-0.0691192,-0.0871625
-0.136598,0.0457986,0.014517,-0.0505882,0.0270003,0.0424958,0.0296045,0.0942682,0.0154624,-0.0412507,-0.0677844,0.0477679,-0.0382247,-0.0622489,-0.0157141,0.0555846,0.063817,-0.0297493,0.0828064,-0.0568354,0.0309278,0.0159544,0.0717357,0.0344183,0.0706595,0.0212646,-0.144945,0.00509393,-0.0321264,0.0186756,0.0508075,0.0147949,0.00744654,0.0505859,0.0590696,-0.0281743,0.0103667,0.0185497,0.059974,0.102962,0.00775244,-0.0495813,-0.0948607,-0.0463578,-0.0142744,0.0237622,0.00105465,0.0118547,-0.0753689,-0.0813821,-0.0717176,0.0217876,-0.042353,-0.0523892,0.0956156,0.0909362,-0.0218351,-0.0274046,0.0499747,-0.00618594
0.0213,-0.028005,0.0492481,0.0389042,0.00196443,-0.0268799,0.024753,0.104616,-0.00061278,0.107392,-0.0595984,-0.00579865,0.0662769,-0.0571697,-0.0780589,0.0496689,0.0104307,0.0920527,0.0418097,-0.0502133,-0.0358581,-0.0512194,-0.101574,-0.0574788,0.0785956,-0.0219573,-0.0188374,0.0740431,0.0309607,0.010482,0.0169885,-0.0569867,-0.0615696,-0.0308127,-0.0190443,-0.0179481,0.0020363,0.12219,-0.0315455,0.00616491,-0.0189692,-0.0245307,0.0211626,-0.0367062,-0.0312855,0.0152071,0.0550982,0.0205002,0.00656661,-0.0495788,0.0130371,0.0650354,-0.0726253,0.0920179,-0.176872,-0.0157546,-0.0494152,0.0732064,0.0261199,0.00102278
0.0686359,0.0688927,0.0650264,-0.0482233,0.0336042,0.00866735,0.00980269,0.103792,-0.0117994,0.102869,0.11851,0.0441496,-0.0986301,-0.0275754,-0.0172226,0.0546587,-0.112815,0.0227701,0.115121,-0.00926242,0.0262398,-0.0973441,-0.0214111,0.0780211,-0.016935,-0.00870864,-0.0196432,0.0243481,-0.0417517,-0.0124668,0.0413863,-0.0215408,-0.0678025,-0.0452457,-0.00390858,-0.0583024,0.0765924,0.0217078,0.0280871,-0.00900844,0.00228051,0.0412918,0.0149827,-0.0440057,0.0681293,0.0872447,-0.0179805,-0.0708004,0.0285913,-0.0581262,0.0721216,0.0535915,0.0781281,-0.0990834,-0.0205318,-0.06525,0.00503293,0.0321321,-0.0179079,0.0115381
0.0663675,-0.0797188,-0.0639379,0.0650135,0.0603506,0.0778801,0.0286052,-0.0199694,0.00727995,-0.0473228,0.0992561,0.00693071,-0.0420549,0.00430536,0.00458377,-0.00851994,-0.00562588,0.0305139,-0.018072,-0.00715449,0.000361888,-0.0644983,-0.000908318,-0.0139415,-0.0156907,0.0475242,-0.0596655,-0.0130925,-0.0367177,0.0898435,-0.0247917,0.0357617,0.0720175,-0.0222972,-0.0218206,0.0408118,-0.0683339,0.0164105,-0.0100609,0.0780885,0.0102445,0.0970302,-0.00700307,-0.0380059,-0.0404934,-0.0831038,-0.0656472,0.121398,0.0104989,0.000913807,0.0188231,-0.00168853,0.0180857,0.00870449,0.0971145,0.0238319,-0.015803,-0.00286047,-0.0688212,0.0151838
0.0419689,-0.054138,-0.0369159,-0.0755263,0.0524976,-0.0223709,0.0106679,0.0360633,-0.0146789,-0.0451166,0.125457,0.0105816,-0.0778108,-0.00625662,-0.0604864,0.0129774,0.0125436,-0.0474605,-0.103781,-0.0550344,0.0264494,-0.00135571,-0.179469,-0.058583,-0.0562403,-0.011616,0.0427638,-0.0240569,0.0135271,-0.0109682,0.0192755,-0.013094,0.00836404,-0.0534596,0.0122162,-0.0874153,-0.138711,0.00560227,0.0748149,-0.0504885,0.0547791,-0.016787,0.0547313,0.119749,0.0518879,-0.0782454,0.0377257,-0.0316506,0.0187305,-0.0585765,0.114217,0.00193302,-0.000235196,-0.0299656,-0.0181578,-0.0028096,-0.0277699,0.0832321,0.0228402,-0.00958758
-0.0060522,0.0291952,-0.0456407,-0.0204525,0.0360865,-0.0482771,0.0372285,0.0534624,-0.0204582,-0.0386422,0.0763971,0.0276907,0.0191214,0.0946975,-0.0463524,-0.0611036,0.0800863,-0.0489615,0.100946,-0.00196267,0.0625972,0.0490756,-0.0457879,-0.0240694,-0.0657299,0.0222997,0.0151999,-0.0507694,-0.0681718,0.0636009,-0.0457678,-0.0519242,0.0618462,-0.00265298,0.016593,0.0286796,0.0121338,0.0635065,-0.0815024,0.00386896,0.0399744,0.0765645,-0.107195,0.0321771,0.00625812,0.0477917,-0.0362965,0.0550326,-0.0589127,0.0203511,-0.0450107,0.037648,0.0250537,0.000150037,0.0263702,0.0280602,-0.0216726,0.0459046,0.0250688,-0.00468399
-0.0121234,-0.0016417,-0.0325688,0.0376879,0.0939231,0.0752786,-0.0256819,-0.000936682,-0.0474419,0.0710534,0.017535,0.0282434,-0.0295963,0.091819,0.00693999,-0.0478285,0.0450879,-0.0284373,0.02593,-0.110543,-0.0753156,-0.000558338,-0.0746569,-0.103241,0.0866661,0.00379039,0.0697969,0.0039917,-0.048487,0.0312376,0.00529028,0.0204542,-0.0899175,-0.0187642,0.00893132,-0.106513,-0.0237389,0.0539792,0.07752,-0.0418959,0.0215479,-0.0198201,-0.0469771,0.0897747,0.0466389,0.00302057,0.0731584,0.00306942,-0.00694701,0.0400541,-0.0128451,-0.0714934,0.0123792,0.0452544,-0.0350595,-0.00551142,-0.00109935,0.0274559,0.0408199,-0.00600345
0.00771962,-0.0484636,0.0104486,-0.0178167,-0.143149,-0.00458959,0.0504391,-0.0508053,-0.0769044,0.00225083,0.0405185,-0.0231089,-0.0826789,-0.140525,-0.0597535,0.09062,-0.020432,-0.0296446,-0.00638993,-0.0643774,0.0405718,-0.0466773,0.0803139,-0.0281607,0.0121815,0.0334684,0.00730087,-0.0240649,0.107867,0.0794881,0.0146169,-0.0241397,0.000563256,-0.0911556,0.0577937,0.0605267,-0.0138201,0.0297757,-0.00428657,0.00843179,0.0411318,0.0227645,-0.00342379,-0.0571446,-0.0333356,-0.0364246,0.0909671,0.0964357,0.0827454,-0.0359179,0.0639285,-0.0105386,0.00119709,-0.0101967,-0.0254876,-0.0319829,0.0387638,0.0365259,-0.0123735,0.00727897
0.105574,0.0696167,-0.086251,-0.102548,0.0346435,-0.0282967,0.0811096,0.025856,-0.016361,-0.073403,-0.0913402,0.0633116,-0.0487466,-0.0103587,0.00556717,-0.00488541,0.0484254,-0.0405584,-0.0986227,0.0558566,-0.04163,-0.0828785,0.0498645,0.0075965,-0.097866,-0.00923055,0.14822,0.0306825,0.065341,0.0606443,0.10485,-0.0626164,0.114621,-0.00498938,0.0327256,0.0643047,-0.0574694,-0.0482022,0.00594206,0.0631363,0.0128876,0.0174541,0.0178568,0.0171837,0.0395061,0.0437268,-0.0413095,-0.0320384,0.0828564,-0.00487333,0.0858169,-0.0424917,0.0374078,-0.0491425,-0.0113878,-0.0191179,0.00261064,-0.0384471,0.0664967,0.0123518
0.00280825,-0.103356,0.043635,0.0988783,-0.119321,-0.0471371,0.0352353,-0.0265197,0.0651361,0.0139842,-0.00400743,0.0147012,0.00769321,0.0119155,-0.0969403,0.0175889,-0.0540943,0.0541558,-0.0519555,0.062701,0.00843909,0.0104388,-0.00717199,0.0031989,0.00156488,0.0147881,-0.0288177,-0.0243734,0.139624,0.0228401,-0.204043,0.0391121,0.0595174,-0.109603,-0.0175653,0.120295,0.0542705,0.00337029,0.0340276,0.0273861,0.127514,0.0519217,-0.0584713,0.0476172,-0.0132818,-0.0751755,-0.0911358,0.0792251,-0.0577794,0.0355181,-0.10549,-0.00712377,-0.0879346,0.0222713,0.0158635,-0.0512683,-0.040408,0.0899743,0.0334121,-0.0349408
-0.0181046,-0.0384998,-0.0310441,0.0248304,-0.00250361,-0.0378261,-0.124906,0.00958942,0.12998,0.0623797,0.0258711,-0.139002,-0.0139171,-0.0230935,-0.0459896,0.0030104,0.027795,-0.140323,0.0419677,-0.0311842,-8.79172e-05,-0.0225983,-0.0466395,-0.0432445,-0.113651,-0.027434,0.0576803,0.0202263,0.0750376,-0.0973276,0.0460559,0.0322097,0.0250864,-0.047327,0.0246026,-0.00525882,-0.0316643,0.0169215,0.0134551,-0.0606489,0.112575,0.0584376,-0.0123235,0.0736684,-0.0847819,-0.00881797,-0.049246,0.0803858,0.0711125,0.08187,-0.0357215,-0.130954,-0.0707928,-0.00549018,-0.103831,-0.0651732,0.109397,-0.00908308,-0.0947305,0.0338153
0.00286285,0.0661029,0.0566215,0.00441656,-0.0284484,0.0450179,-0.0619362,0.0292999,-0.0288778,0.0579962,0.0632238,0.053052,-0.0350354,-0.023403,0.0011321,-0.0412382,0.0162248,0.0140994,0.0941294,-0.019671,-0.0695342,-0.0724309,0.0402694,0.0114688,0.0491907,-0.0528448,-0.0371214,0.0723386,0.106198,0.00106373,0.0463017,0.00139447,-0.15916,-0.00253747,-0.0428281,0.124019,-0.0665292,0.0462433,0.0079129,0.0666865,0.110795,0.0809709,-0.00886638,0.0802977,-0.0723564,0.0331617,0.0639327,-0.0673791,-0.0852146,0.0712821,0.047495,0.00924483,-0.0835654,0.0563369,0.0642119,0.0544812,-0.0121415,0.108146,-0.0823374,0.0412977
0.0362159,0.0658166,-0.179294,0.0307349,0.0316545,-0.15506,0.0145725,0.0133128,-0.0472326,-0.0255134,-0.0028703,0.131802,0.0239644,-0.0950416,0.00319172,0.0605638,0.0188573,0.0727481,-0.0754559,0.0367509,-0.0981965,-0.00470996,-0.0592345,-0.00735749,0.068636,-0.00641086,0.0084459,0.0652208,-0.0526335,0.00561356,-0.0211892,-0.0373754,-0.118001,-0.00788699,0.10791,0.0263365,-0.0231607,0.00354905,0.0192045,-0.0313875,0.0373102,-0.0689004,0.0903354,0.0374817,0.0511017,-0.0122338,-0.013542,0.0914364,0.0483783,-0.0475567,-0.094504,0.00257011,0.011487,0.0578957,0.0605542,0.0635602,0.0291171,-0.0206091,0.0126823,-0.0874413
0.0749853,-0.107063,-0.00473502,0.0111798,-0.0530686,-0.135047,-0.028215,-0.0788489,-0.0812966,-0.0709642,-0.119288,0.0317089,-0.0641946,0.00730026,0.0585476,-0.0565982,-0.00465021,-0.0400159,0.0163719,0.0167121,0.0249555,-0.00302833,-0.0333334,0.0989024,0.0159753,-0.0196776,-0.0529643,0.0275291,-0.00218282,0.0410396,0.0621192,0.0262322,0.0552585,-0.0651697,0.032234,0.118674,0.14415,-0.0617141,0.0321731,-0.00231858,-0.0706125,0.0139227,0.0194804,0.0875258,0.0784721,0.0483241,0.0974477,0.0378999,-0.127942,-0.00784005,-0.0737829,0.103961,-0.0811894,-0.00820185,0.078622,-0.0252741,0.0527277,0.030713,0.131019,-0.009823
0.0266065,0.0292457,0.0586888,0.0466339,-0.0801318,0.132072,-0.0976934,-0.0235678,-0.0877333,-0.0471956,0.0214915,-0.0593862,0.0697412,-0.0440276,-0.0508699,0.077188,0.0354668,0.0390151,-0.069462,-0.0332995,-0.0359773,0.0685677,0.0323514,-0.0281479,-0.0457461,0.0114493,0.0456314,0.0656103,-0.0673569,-0.0728394,0.0406859,0.0805163,0.100691,0.0847778,-0.0164848,-0.0338232,0.0103121,0.0773054,0.00146049,0.0540992,-0.0490685,-0.0127003,-0.0305483,0.121535,0.00329718,0.0191177,-0.00830042,0.00958054,-0.00543177,0.0676412,-0.0711747,-0.17668,-0.00398667,0.012397,-0.0076947,-0.0219995,0.0329011,-0.0120775,0.0821724,0.0521

max: 1
min: -0.204043
avg: 0.00328447
