0.0656945,-0.00918978,0.0626554,0.104178,0.0904732,0.0201859,0.0863659,-0.0462499,0.0759658,0.0290068,-0.0373619,-0.0733316,-0.00594965,0.00442157,0.0979355,0.0229815,0.109119,0.00569882,-0.048685,0.0182656,0.0933622,-0.0543714,0.0958477,0.123814,0.0295209,0.0189928,0.0104252,-0.042104,0.0424008,0.00639422,-0.0646733,0.0303096,-0.0320185,-0.0124389,0.0503475,0.0250796,0.0588135,-0.0518732,0.00411772,-0.046506,0.0256771,0.063907,0.0731103,-0.0408152,-0.108786,-0.0517151,0.00849843,0.0257239,0.0705609,0.0284203,-0.0150294,0.0193925,0.0411213,0.123614,-0.00181412,-0.113714,-0.0199156,0.0706015,0.0391085,0.0145548
-0.00328835,-0.0169119,0.0178168,-0.0545397,-0.0130854,0.00719145,0.0378069,0.00872382,-0.0508682,0.0385677,-0.095037,0.027513,-0.0218664,-0.05627,0.0699315,-0.0838309,-0.00900673,0.0561257,0.0567882,0.0716363,0.0115914,0.00920123,0.0010608,0.0703334,0.162137,-0.12028,-0.028471,-0.0772422,0.000574026,0.0866419,0.128315,0.0440543,0.102415,-0.0442649,0.0496087,-0.0074505,-0.0661198,0.00929028,-0.0332593,0.023751,-0.0444507,-0.0395711,0.0156408,-0.0366991,-0.111175,0.00737593,-0.0711411,0.028944,-0.0523554,0.0315435,-0.0533215,0.0448671,-0.0846562,0.0334615,-0.0771697,-0.0945325,-0.0119535,-0.0337119,-0.0137567,-0.0178618
0.0652955,0.0205468,-0.0194826,0.0505986,0.0795972,-0.0662105,0.00296634,-0.0137793,-0.121978,-0.0932936,-0.0272648,-0.0834843,0.00735482,-0.00968016,0.0242602,0.0499385,-0.0224255,0.0354015,-0.0256335,0.0237894,-0.0506533,0.0353142,-0.0442419,-0.0672179,0.0325382,0.0135413,0.0344277,0.0427849,-0.0109631,-0.0431075,0.0153925,-0.0676129,0.00844227,0.104053,-0.0770092,0.028935,-0.0202773,0.052499,0.00184964,-0.0498303,0.0286589,-0.0690519,-0.0418081,-0.0380715,0.0659362,-0.0542783,-0.0885236,-0.0158697,0.0112771,-0.021009,0.036588,0.111546,0.0558188,0.0507199,-0.0837715,0.167614,-0.0188146,0.0170696,0.0164117,0.0590829
0.0205672,0.00771046,-0.136954,0.0773485,-0.00878522,0.0386049,0.0484162,0.0295177,-0.024924,-0.0260201,0.0656976,-0.110114,-0.0355706,0.0502771,-0.00490329,-0.0335343,0.0076675,0.00907894,0.0802449,0.0463244,0.0151378,0.0230897,0.063159,0.0921063,-0.06942,0.00831101,0.0364495,0.0125495,0.00426315,0.0105762,0.00832554,-0.0130637,0.0450795,0.057237,-0.0269433,-0.0557917,0.0401862,0.0333413,0.0147532,-0.0372474,0.0681239,0.0392417,-0.0117989,-0.013791,-0.11046,0.0233132,-0.0200222,-0.0511437,0.0351482,-0.015101,-0.0205949,0.000688309,0.0597693,0.0146556,-0.0483067,0.0459293,-0.0618987,-0.0209671,-0.0134741,-0.0678314
0.00548691,0.144047,0.0381765,-0.00422323,-0.00668328,0.0391309,0.077172,0.166791,-0.0927045,0.129449,0.0187756,-0.0384641,0.109975,0.0266968,-0.0364642,-0.00440489,0.0676229,0.0195344,0.0351101,-0.0131478,-0.232976,0.102871,0.0118612,-0.021727,0.00741714,-0.071307,0.0894286,0.0407997,0.0387255,-0.014794,0.0779822,0.0064119,0.0354806,0.0436023,-0.0177849,0.0925457,-0.00426383,0.0767344,0.11766,-0.0509889,-0.113784,-0.0437884,0.0508098,-0.0258067,-0.0203112,-0.0218894,0.0210073,-0.0232053,-0.128346,0.00631594,-0.0100183,0.00644495,0.014553,0.0107736,0.0577156,0.0298499,0.0822867,0.0949603,0.0650171,0.112317
0.0811674,0.0392376,0.0804514,0.0393371,-0.0605673,0.0315951,-0.00596263,-0.0199777,0.0665199,-0.0547416,0.0253704,0.0606195,0.123812,0.0949999,-0.0129006,0.0195697,-0.0124025,0.0577887,-0.0406456,0.0134631,-0.0235695,0.0766663,0.00223067,-0.000142202,0.0922655,0.0075356,-0.0129272,0.041244,-0.0841183,0.0398267,-0.0280791,-0.0598413,0.0148451,-0.00852384,-0.080332,0.0586311,-0.0762019,0.0211378,-0.0844238,0.0241538,-0.0858544,-0.024337,0.0342499,-0.0493681,0.0472615,0.0109176,0.0125012,-0.136163,0.0217999,0.0798843,0.0501756,0.0536258,-0.0527893,-0.0715595,-0.0502096,-0.00435747,-0.0467209,-0.0218945,0.0282779,0.0901165
-0.0140559,-0.0326266,-0.102024,0.0498354,0.0230178,0.0382575,-0.0326748,-0.125109,0.0953259,-0.0687479,0.128392,-0.0750583,-0.112291,-0.0545453,-0.000644128,0.111645,-0.00503534,-0.0662546,0.0028402,-0.062349,-0.00087743,-0.0529844,-0.0321021,-0.0840979,0.0801927,0.0511009,0.0352012,0.00685365,0.0463484,0.108637,-0.026123,0.0308141,0.0123655,-0.0127561,0.0752522,-0.0169733,-0.0577941,-0.040859,0.0283321,0.0516917,-0.0595256,0.0482754,0.0368968,-0.100005,0.0330092,0.0366803,-0.0376896,0.0775334,-0.0363432,0.0142692,-0.0374228,-0.0308034,0.0891997,0.0362119,-0.0654951,0.0555909,0.0262559,-0.0421374,0.0755119,-0.011165
0.00808126,-0.0533295,-0.0155089,-0.00308727,0.0303644,-0.0399888,0.042357,-0.126266,0.0758557,0.0306934,0.00930192,0.0431819,0.0203498,0.0712193,-0.00085251,0.0718435,0.0319541,0.00228156,-0.0891319,-0.0396031,-0.0710361,-0.0357755,0.0918446,0.0667569,-0.0421173,-0.00160069,-0.0229325,0.0956402,-0.0316683,0.0150178,-0.042604,0.0177659,0.0436586,0.0353741,-0.0447796,-0.159219,0.00183734,0.0893504,0.0541414,-0.0336468,0.153717,0.0973196,0.0208041,0.0431774,0.0217877,0.0387055,-0.0463791,0.0612686,0.152985,-0.0076859,-0.0626501,0.0331748,0.0146442,0.0118271,0.0313479,0.0143027,0.140174,0.0441995,0.0352919,0.0258604
-0.0128338,-0.0902651,-0.027361,0.0554491,0.0795386,0.0136564,0.0477804,-0.0251961,0.00314011,-0.0385669,0.0187181,-0.09888,-0.0400745,-0.0570712,0.0214261,0.0197972,0.0190147,-0.0956772,0.0357133,0.0227051,-0.0896737,-0.0675949,0.0339771,0.111681,0.036347,-0.0461718,-0.00442821,0.0254413,-0.0724458,0.0103289,-0.00903782,-0.0458055,0.0110399,-0.0831415,-0.0219031,-0.00547375,0.0457472,0.0913404,-0.132112,-0.0530515,0.0374838,-0.00722821,-0.0204727,-0.00365806,-0.00860305,0.0803228,0.0711769,0.0733096,-0.0218889,0.0152024,0.00885783,-0.0281952,-0.0518394,-0.0101859,0.00993684,-0.0926907,0.190392,-0.0113603,0.0741174,0.0754755
0.0169522,-0.0172629,0.103939,0.0476786,-0.0974054,0.00353457,0.00368201,-0.0100137,0.00127308,-0.0243873,-0.0695571,0.0695686,-0.0167365,0.0535343,-0.0107161,0.0396021,0.0166015,0.00497251,0.00441905,-0.0655355,-0.00519966,-0.0169522,0.0509452,0.0967077,-0.0425631,0.0621636,-0.0319264,0.0229353,0.13883,-0.00186048,-0.0414251,0.00621339,0.00173818,-0.092798,0.0144931,0.0382,0.0549856,0.0277078,-0.14156,0.0579889,-0.0368625,0.0435564,0.121438,0.0156496,-0.0559264,0.0199818,-0.0195151,-0.0545657,-0.0160973,-0.044966,0.127727,0.0585433,0.00881652,-0.0115504,-0.0544486,0.0452631,-0.00930839,-0.0407572,-0.0255769,0.0638231
0.105931,-0.0664757,0.0173321,0.0831776,-0.0805308,0.00395048,-0.0643589,-0.0825637,-0.0309567,0.0246238,-0.0550356,0.0824646,-0.0532128,0.00251981,-0.0189862,0.0122782,0.0361487,0.0249507,0.028342,0.101111,-0.0452707,0.00766272,0.0453551,-0.0445649,0.0951362,0.064047,0.0242556,0.0372923,0.0882044,0.0119667,0.0632578,-0.0398195,-0.0138022,-0.00856999,-0.0393942,0.0566096,-0.00315911,-0.0394285,0.037252,-0.0215245,0.0361476,0.00138363,0.0388905,0.0246349,-0.0158663,-0.0773451,-0.0462807,0.0247433,-0.0256834,-0.138683,-0.0771364,0.0908543,-0.087868,-0.0252785,0.0512789,-0.0420026,-0.00225083,0.0493957,-0.0549355,0.0705724
-0.0222137,-0.0529277,0.0571397,0.0258876,0.0245317,0.0375885,-0.0372488,0.000559406,0.0759224,-0.00139006,0.0780163,0.0367437,0.0725845,-0.0112084,0.0647048,0.00855653,-0.0307794,0.0738544,-0.00933598,-0.0969972,-0.0738042,0.0745782,-0.0832873,0.00972007,0.00504474,0.0645167,-0.0706442,-0.0953636,0.0136091,-0.0432134,-0.0501772,0.00397207,0.0537478,-0.0699492,-0.0576363,0.00648269,0.0394941,-0.124362,-0.113901,0.00633706,-0.00132074,0.0253419,-0.019488,0.017794,-0.0399935,0.107723,0.0682605,-0.00295011,0.00780428,-0.035684,0.0169651,-0.0137434,-0.10211,0.0762376,-0.0893263,0.0142706,-0.154037,-0.0391581,0.0590301,-0.100406
-0.0611025,0.0648504,0.0704384,0.058362,0.0030755,0.0123359,-0.0158669,0.0111686,0.0285134,-0.0506167,-0.0449484,0.00312964,0.0128331,0.00106482,-0.0551023,0.0875779,-0.0813773,0.0678666,-0.0717881,0.093301,-0.0351054,-0.0439812,-0.0582771,0.132227,0.0223139,-0.0519093,-0.0667927,0.062221,-0.00188467,-0.0815474,-0.0130243,0.0306352,-0.0447454,0.0513599,0.0183368,-0.0177801,0.0698186,0.075828,0.0570426,-0.00952757,-0.0561456,0.00354715,-0.0785018,-0.0472394,0.091899,0.0422841,-0.0272389,-0.0372935,-0.0290574,0.018763,0.0225872,0.00823487,0.0463322,0.000529068,-0.0884685,-0.0997172,-0.0300999,-0.0426551,0.0826662,0.0175526
0.0314081,-0.0149313,0.0532612,0.0283651,0.024492,-0.0494324,-0.0332407,0.0623516,-0.0438381,0.0134488,-0.0151172,-0.00436182,0.0142692,-0.0556708,-0.0535605,0.0095931,-0.0842455,0.0725351,0.0201393,0.0514631,0.00615969,0.00581053,-0.0186939,0.0342514,0.0165521,0.00326891,-0.0540324,0.0148956,0.072582,0.02913,-0.0344339,0.0163633,0.0178795,-0.152319,-0.0277503,-0.00331121,0.0247894,0.0167277,-0.0405325,0.131016,0.0305716,-0.0434067,0.0278296,0.00847308,-0.00242947,0.0278619,-0.0254839,-0.0061933,0.00368989,0.064061,0.0572243,-0.0546246,-0.0203559,-0.0797223,0.0948333,0.0336744,0.054828,0.0417326,-0.0805706,0.10355
0.0335547,0.00932034,-0.0415903,0.104846,0.0147293,-0.122404,-0.0745579,-0.00878115,0.0258641,-0.168357,0.0250923,0.00782109,0.066516,-0.0681644,-0.0163355,-0.0404791,-0.0914895,-0.0311615,-0.00125021,0.0817415,-0.0277471,0.0702603,0.030171,0.0143188,-0.0801842,-0.104755,0.00543994,0.068171,-0.013563,0.0305691,0.0293621,0.101651,0.0155118,-0.0562218,0.0372931,-0.0672849,-0.025461,0.00477236,-0.0501201,0.1135,-0.0390591,0.0160076,-0.00956465,0.0448218,-0.0724224,-0.05607,0.0214387,-0.02855,0.020299,-0.0122989,-0.0301247,0.0170273,-0.0498005,0.0343299,0.0312296,-0.0303701,0.0601719,0.0160336,-0.00709136,0.0472632
-0.0581898,0.00244951,-0.0255736,0.0387198,0.0228509,-0.027449,-0.0416249,-0.012895,-0.0222149,-0.00756097,-0.0158122,0.0365598,0.0581096,-0.00290368,0.119689,0.0065032,0.110791,-0.0118217,-0.0916901,-0.106892,0.00548554,0.0104803,0.0273078,-0.0798448,-0.0362905,0.0495326,-0.0758502,0.00266067,-0.0219759,-0.0451302,-0.121276,0.0182238,0.0407655,0.0335076,-0.0023548,0.0865531,0.0915455,0.0174483,-0.0552807,0.0469853,0.017627,0.011422,-0.0795179,0.101505,0.0712182,-0.105427,-0.0576944,-0.00988167,0.0343359,-0.0151301,0.0305348,0.0669292,-0.00396337,0.0313898,-0.0509715,-0.061084,-0.0631712,0.0467371,-0.0327544,0.062398
0.0211238,0.0451059,0.0370183,-0.114995,-0.0465068,0.0376744,-0.0612863,-0.0945517,0.0180526,-0.00887802,-0.0370782,-0.0441434,-0.0161192,-0.1422,0.0176449,0.0477363,0.068273,0.0788681,0.104487,-0.032011,-0.0468737,0.0707135,-0.0668849,0.0298356,-0.04878,0.00686531,-0.00251897,0.0598908,-0.00715189,0.0333629,0.0106402,0.0814072,-0.00690075,-0.0233067,0.0146642,-0.148659,0.0560749,0.0350769,-0.103405,-0.0290714,-0.0278456,-0.0187796,0.018351,0.02574,0.0812382,0.0649549,0.0232463,0.0647179,0.0296577,0.0701212,-0.0461665,0.0601263,0.00781701,0.0365413,0.00835923,0.0741593,-0.0210723,0.0549101,-0.0314582,-0.0170553
-0.0597738,-0.101871,0.0802444,0.0656265,-0.0238259,-0.0973347,-0.081384,0.0309897,0.00226105,-0.0152153,-0.0684158,0.0139166,0.0190071,-0.00435803,-0.0459129,0.00296602,0.0623346,-0.0608717,-0.0145765,-0.0857073,0.0215049,-0.0240725,0.0808154,0.0933192,-0.0904673,-0.0123031,-0.106585,0.107816,0.0426714,0.00660877,0.0215323,-0.10998,0.091392,0.0459572,0.0322537,-0.0474003,0.0343347,-0.126317,0.0817472,-0.0241466,0.131951,0.0759566,-0.00429362,0.0510801,0.00989579,-0.0328803,-0.0468772,-0.0414692,0.0959231,-0.0181218,0.0521849,-0.0254148,-0.123528,-0.0753549,-0.0402527,0.0649049,-0.0454079,0.0528696,0.060125,0.140844
0.0248791,-0.0386719,-0.132008,-0.0443567,-0.0522198,-0.0251623,0.0661405,0.00991332,0.00111038,-0.0478417,-0.0475362,0.0495705,0.0255662,0.0447747,-0.114911,-0.0345405,0.000941389,-0.0401116,-0.0547964,0.014416,0.108595,0.0605963,-0.0023234,-0.0268535,0.0062645,-0.068872,0.0509973,0.129238,0.0416452,-0.0816999,0.0283109,0.0758405,-0.0957954,-0.0548598,-0.00370407,0.0577671,-0.0663169,-0.0865574,0.0801849,0.0011811,0.0337707,0.0191046,0.0295595,0.0142977,0.0511584,-0.0206978,0.00200043,-0.0196918,-0.0349661,0.0178398,0.0520241,0.110542,-0.0309406,0.0338347,0.0764199,0.0634022,-0.0087002,0.0134409,0.0630298,-0.0104494
-0.0366316,-0.00527109,-0.0188773,0.0534259,0.0831225,-0.0548838,-0.107718,-0.0775451,0.0528204,0.0468117,-0.0380963,0.0954722,0.0264333,-0.0163583,-0.0161181,-0.0348924,0.0835098,-0.0766111,0.0767203,0.0379413,-0.076472,0.0657365,-0.0537065,0.00111155,-0.0738207,0.00235967,-0.022014,0.0877816,-0.0476581,0.0420606,-0.0389702,0.0961054,0.0436219,-0.0684524,-0.027492,0.0320535,-0.0201911,-0.074658,0.0767601,0.0689071,0.0468364,-0.0599347,0.028465,0.0588923,-0.00422886,-0.0261194,-0.0643767,-0.034213,0.103268,-0.00850626,0.0896436,0.00459519,0.184117,-0.0131657,0.1064,0.0671539,0.0700962,-0.0256779,-0.0309477,-0.144047
0.0114979,0.00858004,0.0183734,0.0595368,0.0236348,0.0317832,0.043421,0.0169228,0.00521403,0.00522896,0.0483959,-0.0282338,0.0110571,-0.00660647,0.0462575,0.0383083,0.0395869,0.0645588,0.00639039,0.0197311,0.0738895,0.019096,0.111399,0.078004,-0.0562955,-0.116227,0.117202,-0.00128728,-0.029796,-0.0641914,-0.0615056,-0.00933366,0.0669461,0.0866761,-0.0281756,0.00487654,-0.0387826,0.0373456,0.0192129,-0.083868,0.0228213,-0.0190443,0.0221436,-0.0369938,-0.0822933,0.039165,0.0687714,-0.106193,0.0198269,0.0931902,0.177572,-0.0292445,0.112292,-0.00510812,-0.00416282,-0.00690478,0.00705485,-0.0248393,-0.00101185,0.104347
0.00557422,0.0520677,-0.0467463,-0.0096911,-0.0337429,-0.120373,0.0874497,-0.0652872,0.0160171,-0.0528813,0.116035,-0.0573303,0.112999,0.0178386,-0.0243471,0.0174888,0.0572221,-0.0478829,0.00969019,-0.0241092,-0.02046,0.0144239,-0.0567951,-0.0135683,0.04575,0.111924,0.124985,0.019722,-0.0023258,-0.118331,-0.00246816,0.0417274,0.0184668,-0.0265461,-0.0086575,0.0317516,0.0664372,-0.0624136,-0.0278912,0.0079918,-0.0574514,0.0837747,0.0801106,-0.018259,-0.0452839,-0.044635,0.053563,-0.00466817,-0.035262,-0.0443865,-0.0340359,0.0413591,0.0185895,0.0669313,0.123421,0.0152407,-0.0988433,0.0182903,0.00599935,0.0549792
0.0478069,-0.165085,0.0470023,-0.0785969,0.0192445,0.056988,-0.027559,-0.125725,-0.0420965,-0.0437013,0.0187124,0.0458773,0.0308948,0.0808595,-0.0264269,-0.0587043,-0.0969433,0.0310844,0.0103792,0.0393619,-0.0107947,-0.036928,0.0479522,0.0148623,0.0272977,0.0717038,0.0227134,0.0540265,0.077363,0.00720335,0.00337992,0.0556848,0.0855953,-0.0241193,-0.0258184,0.0749326,-0.0134918,0.0433267,0.084541,0.137521,0.0303888,-0.0928043,0.0777512,-0.0417221,0.0382049,-0.022547,-0.019993,0.0194473,0.0796492,0.0345794,0.019998,0.0168142,-0.0630639,-0.0210813,-0.0583511,-0.0522088,-0.0183562,-0.0255702,0.0408774,-0.0670169
0.0214587,-0.0554322,-0.0326865,0.00488191,0.0489826,0.0201809,0.0846777,0.00746637,0.069857,-0.047948,-0.000492651,-0.00320587,0.0571848,-0.100728,-0.0280052,-0.0197958,-0.0488946,-0.114213,-0.0146526,-0.00128859,0.0506789,0.0242565,-0.0591461,0.0664064,0.0369363,-0.0834786,0.00760482,0.138703,0.00189397,0.065376,-0.0365644,0.0264354,0.0324499,-0.0741441,-0.0277644,0.0145408,-0.00896561,0.046929,0.0318583,-0.0506723,0.0263059,-0.0173244,0.0106661,-0.0218443,-0.0330208,-0.0129336,-0.0100206,0.0156487,-0.138441,0.0627794,-0.0383275,0.108942,-0.0229284,0.0138278,-0.0221503,0.0237228,-0.0454219,0.0254991,-0.00209083,-0.0380008
0.137846,-0.0283115,0.0230324,0.0239977,0.0565429,-0.0440533,-0.0464729,-0.0259377,0.063547,0.0127881,0.0441113,0.0891361,0.0708807,0.00146984,-0.0400766,0.0178287,0.120038,0.0318452,0.056562,-0.0805194,-0.115075,-0.108761,0.0161367,-0.0708097,-0.0756154,0.0565058,-0.0836946,0.0187283,-0.0262427,0.0603498,-0.0337357,-0.0451497,0.027632,0.0286142,0.0431965,0.0632358,0.0325701,0.0272377,-0.0349456,-0.0105159,0.0748899,0.0198184,0.0716097,-0.162142,0.0996003,0.0123213,0.113236,0.0412662,-0.103772,-0.043346,0.0659688,-0.00020012,-0.0315615,-0.00495768,-0.110633,-0.130618,0.00314926,-0.0658411,0.0689621,0.0780444
0.0284701,0.107213,0.0331679,0.053744,0.00359368,-0.109217,0.0319612,-0.0137952,0.0143277,0.0124879,-0.0728443,-0.104652,-0.139696,0.0119108,0.0553785,-0.0342314,0.0106121,0.0157711,0.0587507,-0.0707903,-0.0960242,0.0883013,0.0474154,-0.0340985,-0.000534421,0.0526695,-0.0210294,-0.0377942,-0.0451094,-0.00765657,-0.125634,0.00414378,-0.0284607,0.0183301,0.0341378,-0.00409974,0.0879292,-0.0933766,0.0403704,-0.0160965,0.0417679,-0.00901553,0.0940374,0.00894713,-0.0350028,-0.0650261,0.0296639,0.0053443,-0.0403118,0.0321543,-0.0432031,0.0426088,-0.0454581,-0.0257651,0.0586695,-0.0254147,0.100585,-0.0404134,0.00745237,-0.0718573
0.0976882,0.0278275,0.0184655,-0.0336301,0.0647098,-0.085869,-0.0213773,0.0447083,-0.14757,-0.0721613,-0.0342316,0.0587634,-0.0639309,0.00570641,0.0465946,0.0506822,0.040377,-0.0249802,-0.00179121,0.040863,-0.00673454,0.00424699,0.0183929,0.0841078,-0.0656191,0.0320975,-0.0461876,-0.0730884,-0.0572633,-0.0183454,-0.0110071,0.139553,0.0180547,-0.0159519,-0.0456972,-0.0640873,0.0585518,0.00264911,0.0715175,0.0809427,-0.10023,0.0506923,0.0734061,0.0564133,-0.0140223,0.0162939,-0.019575,-0.087054,0.00258596,0.0355346,-0.0189744,0.00573135,0.0958224,0.0325045,-0.032817,-0.0136086,-0.097137,0.0414949,-0.0425043,0.0167168
-0.0232968,0.0778512,-0.0903305,-0.019737,0.0615539,0.039098,0.023802,0.0165893,-0.015948,0.0603209,-0.0524414,-0.00850308,-0.0389323,-0.000674693,0.0127699,0.0146845,0.00817953,0.0315639,0.0528079,-0.00303643,-0.0736048,0.011521,-0.0780311,0.0892557,-0.00967941,-0.101072,0.0733865,-0.106624,-0.043156,-0.0954068,0.071116,-0.0325975,-0.0412171,0.0834659,-0.0232018,-0.0475597,-0.0144769,0.0549361,-0.0476275,-0.0698981,0.0621461,0.0566431,-0.0666594,0.0807901,0.0682784,0.0726659,0.030557,-0.0307522,-0.0101494,-0.0830728,0.00561456,0.0117169,0.0124813,0.0355297,0.060406,-0.0171096,0.0310486,-0.123742,0.0501995,0.0557023
0.00866221,0.109911,-0.00368176,-0.00113142,-0.0465561,-0.00288667,-0.0730871,-0.0447045,0.0347019,0.0379824,0.0666071,-0.0254322,-0.0244381,0.189149,0.0623105,0.0763921,-0.0923855,0.00578427,0.00550543,-0.0528432,0.0131331,-0.0259488,0.0889718,0.0648826,-0.037508,-0.0235568,-0.00529547,-0.0499438,0.083794,-0.0841979,-0.0394424,-0.0305927,0.117533,0.0222802,-0.0792747,0.0348399,-0.0454666,-0.0729194,-0.0270886,0.0262586,0.0492971,0.0219565,-0.0635522,-0.039875,-0.0159557,0.0718808,-0.0629532,-0.0421166,0.0103621,0.0496234,0.0794431,-0.0999152,0.0176197,0.0444956,0.0326213,-0.0261581,-0.02814,-0.0358331,0.0253492,0.0206002
-0.0367851,0.0473441,0.029871,-0.00725968,0.0350812,-0.0229712,0.0556707,-0.0626629,-0.0808606,-0.0367472,0.124516,-0.00431331,-0.0514283,-0.0223311,0.0461969,-0.0214177,-0.0226594,0.0614564,0.0142715,0.113603,0.0914285,0.0168372,-0.0836435,-0.0316601,0.0463358,-0.0295216,0.0192665,6.14347e-05,-0.0222428,-0.138759,0.00934424,0.0369398,0.0715324,-0.0469792,-0.0219372,0.0597195,-0.0342533,0.0427004,-0.0605709,-0.0237452,0.0337757,-0.109171,0.115312,-0.00825351,0.00508341,0.0649878,-0.0336862,0.00870381,-0.0546346,-0.0403291,-0.0238523,-0.0565242,-0.104686,-0.0187579,0.127668,0.0709813,-0.0502828,-0.0381324,0.0567302,-0.0922159
0.0657644,-0.0370042,-0.065148,-0.0495989,0.0161787,-0.00921506,-0.0412218,-0.00140619,-0.0932613,-0.0216145,0.0492856,-0.0565929,-0.00745922,0.00692239,-0.0380493,-0.048632,0.0275219,0.0319032,-0.0215468,-0.0428361,0.12768,0.069673,-0.00359821,-0.0322891,0.0459324,-0.0411943,-0.0266331,-0.0730327,-0.0172272,-0.0961783,1,-0.0379797,-0.0197052,-0.0206113,0.0660386,-0.00297076,-0.00227771,0.0207614,-0.069799,-0.0704686,-0.142826,0.0248791,0.0475637,-0.0412533,0.064007,0.025553,-0.0382954,0.00581728,0.0697467,0.0628794,0.133805,-0.0215617,-0.0214676,0.0586831,-0.00430998,0.0135728,0.144849,0.0131149,0.05265,-0.0615139
-0.00893817,-0.0425094,0.0477301,-0.0683651,-0.0192207,-0.0248826,0.0354195,0.0385975,0.0101619,-0.10443,-0.040399,-0.00850699,0.0577339,-0.0225374,-0.0531794,-0.0124408,0.0658809,0.0218798,0.00961856,-0.0616128,-0.0381965,-0.117146,0.0044693,0.0539242,0.0622401,0.0436548,-0.0997455,-0.0287412,-0.0617388,-0.0647945,0.0150504,0.145276,0.00426591,-0.00650067,0.0396566,0.0871188,0.0627761,-0.0065278,0.148531,-0.00403914,-0.0089549,-0.00758178,-0.0168652,-0.019945,-0.0050934,0.0808612,-0.00100826,-0.00739512,-0.0951621,0.0314662,-0.0237425,-0.00587035,0.0673144,0.0547229,-0.0798176,0.000926977,-0.00948502,-0.102711,0.0169677,0.0537659
-0.0330471,0.079127,-0.12292,0.0816944,0.0627078,-0.086161,0.0682036,0.00944902,0.029061,0.0652289,-0.0505842,-0.00439746,-0.0214528,-0.039764,0.00814067,0.0847478,0.0737776,-0.0620866,0.0529072,0.0291752,0.0252081,0.0589085,-0.0597679,-0.0276384,-0.0985149,-0.0251619,0.029951,-0.051462,-0.0509566,-0.0163576,-0.0610522,0.0416976,-0.0239052,-0.00272297,-0.0072129,0.129015,-0.00691611,-0.00433384,-0.0386404,-0.0571939,-0.0102224,0.0297094,0.0462121,0.0573061,-0.00528492,0.162324,-0.0338251,0.0419652,0.0337315,-0.00245069,0.146521,0.00825356,0.0244038,0.0321955,-0.144297,0.0188604,0.0509856,-0.0725009,0.0435379,-0.0725496
0.0371207,0.0214393,-0.0379852,-0.00585614,0.00677485,0.0119986,-0.0669909,0.0513972,-0.000281536,-0.0554192,0.00538995,0.00416933,0.0228226,0.0564813,-0.00316993,-0.00114076,-0.0573316,-0.0163232,0.0151401,0.0350687,0.0351045,0.0674845,-0.0198976,-0.0452588,-0.0306826,-0.0299173,-0.010106,0.0519666,-0.0402875,0.0294313,0.107386,0.0606593,0.00784496,-0.00307335,0.0130429,-0.0436232,0.00109392,0.0820674,-0.0133986,-0.00166152,-0.0156012,0.0378958,0.0290594,-0.0157182,0.0844072,-0.0122696,0.0253403,0.0661832,-0.0644438,-0.0408066,0.0866272,0.0622027,-0.0445161,0.000690376,-0.0237622,0.0823284,0.00265502,0.0306384,0.0852761,-0.029808
-0.00793827,-0.021088,0.0176281,0.0178322,-0.107011,-0.0116274,0.139001,-0.0570853,-0.0198132,0.0336674,0.00264135,-0.0183235,-0.0960626,0.0140923,-0.136586,0.0515025,-0.0990747,0.0366471,-0.0392377,-0.0476865,0.0720664,0.0593713,0.0763917,0.017229,0.0317862,-0.0515279,0.0186844,-0.0467591,0.0725704,0.00798293,0.00352029,0.0532792,0.0448578,-0.00112449,0.0463149,0.0794049,-0.0404627,-0.025217,-0.0238702,0.0198565,0.0647762,0.0738293,-0.126411,-0.0858779,-0.0280443,0.0191235,-0.0517801,0.105816,-0.0570928,-0.0438955,0.010063,-0.0453687,0.0244209,-0.0279597,-0.0293706,0.0344039,0.0840541,-0.0282823,0.00752974,0.0399938
-0.063829,0.0416911,-0.0295832,0.0689099,-0.0662103,0.0775425,0.0485968,-0.0916773,0.0291545,-0.100514,-0.0482822,-0.0911414,0.000101109,-0.0991387,-0.0177702,0.0504221,-0.0138132,-0.0323885,-0.0914429,-0.00772633,-0.00555632,-0.111122,-0.0437438,0.0413748,-0.0335969,-0.0420772,0.011364,-0.00760705,-0.0701771,0.0221952,0.0417578,0.011105,0.0449292,-0.0383931,-0.0321722,-0.0628329,-0.0292825,-0.0318792,0.043044,0.0522617,0.046317,0.0296984,0.0977598,-0.00372857,-0.0335002,-0.0329373,0.0771423,-0.0583916,-0.0320724,0.0210258,-0.0545719,0.0726092,0.0298398,-0.0375067,-0.0806353,0.0151727,0.00252112,-0.00874474,0.0440151,0.00801098
-0.0584625,-0.00517612,0.0348787,0.123028,0.057983,-0.0237297,0.0426567,0.0912797,-0.109942,0.0660271,-0.129153,-0.0418839,0.106886,0.00915119,0.0381754,-0.032259,0.024149,0.0785017,0.0337177,0.0271231,-0.0841976,-0.0852419,0.0463428,-0.0658058,-0.0321387,0.0542268,-0.000306635,0.043828,-0.00261296,-0.0923387,-0.0226221,-0.0134964,0.0148078,0.0456003,-0.0180315,-0.0894198,0.00729421,-0.0263716,0.00708986,-0.131408,0.0215699,-0.0596141,0.0900191,-0.0261291,0.0825616,-0.0842034,0.0921323,-0.0633232,0.0808163,-0.0658775,-0.0656124,-0.0627011,-0.0252899,0.0486303,0.0381588,-0.0366055,0.104766,0.0763608,0.0430997,-0.0271969
0.0514384,0.132259,-0.0669377,-0.0568968,-0.0367415,-0.000226797,-0.0755334,0.0664806,0.029724,0.0501699,0.0262742,-0.0176796,0.00480482,-0.0193925,-0.01796,-0.00924404,0.0947376,0.023473,-0.000703483,-0.0417271,-0.0373904,-0.137415,-0.0657703,0.0588085,-0.0133268,0.0274967,0.0865464,0.0774664,-0.10874,0.00919474,0.0959576,-0.0379995,-0.110998,0.0819468,0.00570673,0.0131854,-0.0213381,0.0358387,-0.000399451,0.00341028,-0.00764868,-0.0659479,0.0439239,0.0204026,-0.0309987,-0.00441529,0.0840509,0.0273294,-0.0486675,0.0106882,-0.158112,-0.01112,0.0376337,-0.0178518,-0.00172315,0.0383824,0.0755591,-0.0100271,0.0230464,0.0276009
-0.0180065,-0.0302193,0.0462032,-0.0907143,0.0506077,-0.0679354,-0.0410733,0.0394888,-0.0562495,0.0169103,0.00813358,0.0505904,-0.0357943,-0.0362975,0.0697404,0.0204704,-0.0572332,0.116268,0.0782187,-0.0574859,0.099316,-0.0886179,0.0454637,0.00591628,0.0273833,0.00822838,-0.0786309,-0.0872784,-0.0475547,-0.0622466,-0.0323667,-0.0322893,-0.0285661,-0.0524828,0.067909,0.0270247,0.00377034,-0.0204964,-0.0605069,-0.00636831,0.0557477,-0.00422532,-0.0105749,0.0244603,0.121696,0.0811011,0.0727469,0.00998724,-0.0693264,0.0484968,-0.000571536,-0.0291166,0.102618,-0.0175838,-0.00506028,0.0939614,-0.102127,0.0649499,-0.0102285,-0.0150497
-0.0931599,-0.04218,-0.0912298,0.0462229,0.0217128,-0.0036253,-0.101613,-0.0254786,-0.0143806,-0.0243169,-0.051804,0.0395018,0.00836139,-0.118392,-0.0939324,0.0669096,-0.0171118,0.027392,-0.0262878,0.00310741,0.14247,-0.0468998,0.0206436,0.0136039,-0.0743126,-0.0152903,0.0782973,0.145636,-0.0575628,-0.0566467,-0.099404,-0.00137585,0.00225564,-0.040889,0.0660281,0.000504916,0.0616827,-0.209135,-0.0235115,0.0410944,0.0418105,0.0729894,0.0172574,-0.0410279,-0.00896749,-0.118497,-0.102066,0.0846692,-0.0324572,-0.0331985,-0.0462596,0.0201997,0.0528352,0.11198,0.00527566,-0.0764618,-0.0403323,-0.0761034,-0.0123165,0.0215489
-0.14131,-0.0623717,-0.159897,0.0386006,0.00405812,-0.0821137,0.092638,-0.0208163,-0.0489433,-0.142132,-0.0100534,0.0155271,-0.0824973,0.0588138,-0.00290857,0.0561546,-0.0257812,-0.0575588,-0.0424728,-0.185088,0.0305229,0.0487205,0.000680419,0.0283893,-0.0227206,-0.0235771,0.0553342,0.0812717,0.0447472,0.0299994,-0.0573905,0.0329652,-0.0409811,0.0106381,-0.0495709,0.0103975,-0.0240623,0.0204357,0.0108641,-0.0609471,0.0100959,-0.0483963,0.052603,0.0682554,0.00398017,0.0471598,0.0401198,0.0296927,-0.0155838,0.0415021,0.0902516,0.015106,-0.0765909,0.0430896,0.0314437,-0.0479848,-0.0148416,-0.133364,0.0519419,0.0102243
0.0606826,-0.00119988,0.0297662,-0.0687406,0.0539437,-0.0451204,-0.102176,0.00526148,0.0140488,-0.0768595,-0.0311879,-0.0287892,-0.0519478,-0.00630194,0.0418425,-0.0786501,-0.0801638,0.0414802,-0.084977,-0.0333596,-0.0378413,0.0145634,0.0543032,0.0783626,0.00306047,-0.000775186,0.0381024,0.0581057,-0.0168544,-0.0668694,-0.022917,-0.00633368,0.0539207,-0.0971617,-0.0288912,0.0264208,0.0629259,0.037058,-0.0254814,0.047962,0.0390134,0.047754,-0.0159819,0.0464795,0.0233979,-0.00971368,-0.0546738,0.10226,-0.0379916,-0.0490262,0.0641465,-0.0262675,-0.0165549,0.0475736,0.110602,0.0171166,0.00645578,-0.0286884,-0.0853473,-0.0864318
0.0778478,0.0541617,-0.0388761,-0.00796431,0.0443169,-0.020514,0.0189782,-0.0498016,-0.0022725,0.0480167,0.0256459,-0.0719453,-0.144877,-0.0106403,-0.0281904,-0.0168204,0.03294,0.0161058,-0.0456147,-0.00048328,-0.111528,-0.0408573,-0.0164074,0.106514,-0.0234425,0.0374861,0.0486269,0.0497765,-0.0877269,0.0337393,0.0418872,-0.0279373,-0.00127478,0.049732,-0.0885444,0.0652629,-0.0282316,-0.0199114,0.0350229,-0.027457,-0.0226636,0.0885102,-0.0561775,-0.00623993,0.0900722,0.0322595,0.0972136,-0.0506689,-0.0412214,-0.0709063,-0.0436348,0.00477811,-0.0197306,0.0882708,0.00597982,-0.0133988,0.0472744,-0.0492103,0.0412673,-0.0289094
0.0014781,0.0783677,0.0982568,0.00983634,0.104483,-0.0398677,0.0283391,-0.10144,0.0352817,-0.0168319,-0.0197939,-0.123146,-0.052391,-0.0642375,-0.111753,-0.0366158,-0.00248651,0.0389821,-0.125875,0.131041,-0.086093,-0.145211,-0.0763031,0.0079316,-0.0261905,0.0327661,0.130469,0.0399515,0.00360882,0.0287211,-0.0577157,-0.0211547,0.0426807,0.075067,0.0606341,-0.053933,-0.106714,-0.0827405,-0.0511854,-0.0496715,-0.0938075,-0.0205087,0.0495803,-0.0570626,-0.0428284,0.0399264,0.0443918,0.0269931,0.00227137,-0.0370775,-0.00934275,0.0889197,0.0144112,-0.093498,0.0837553,0.0286242,0.00351817,0.0162119,0.0782142,0.0506469
0.0332216,-0.0820741,-0.0583692,-0.00375021,0.0539479,0.0341415,-0.089293,0.0394507,-0.00989273,-0.152,-0.00962906,-0.025567,0.103811,-0.0722592,0.106617,-0.00518445,-0.00410358,-0.00814901,-0.0771823,0.0113416,-0.0105393,-0.000751046,-0.0180783,0.0555208,0.0547313,-0.0673939,-0.0405907,0.034256,-0.0387573,0.0107813,0.0452526,0.00376715,-0.0720664,0.0689635,0.0603884,0.100092,-0.0396228,-0.109697,0.0234054,0.0868603,-0.0150706,-0.0102214,0.0453647,-0.0231548,0.109622,0.000849383,0.120735,0.0580401,-0.0328376,-0.00434812,0.021066,0.0855635,0.0745303,0.0510424,0.0690115,-0.0679495,-0.0200035,0.0444502,-0.0176826,-0.0736947
-0.0148231,-0.160875,-0.0311152,-0.0376702,-0.00800672,-0.0197505,0.0685548,0.00173747,-0.0425406,-0.00709786,0.0418652,-0.0105088,0.126173,0.0249232,0.00562287,0.00604676,-0.0613089,0.00928295,0.043205,-0.0357554,0.0131302,0.00873467,0.0317714,-0.0218929,0.100275,-0.0487979,0.0538104,0.0319589,0.0342387,-0.00353808,-0.0975879,0.0232098,-0.0194088,-0.0200385,0.0218454,-0.0444005,-0.024593,-0.0525349,0.0213462,-0.00174152,0.00435046,0.0810905,0.0261502,0.0312109,0.0273383,0.0581766,0.0148858,-0.161687,0.0110563,0.00198451,0.0119166,0.0289144,0.00263292,0.0449454,0.0632104,-0.0827228,0.00269989,0.0398707,0.109455,-0.0473994
0.00333457,-0.0255602,0.0195038,-0.0354183,0.0642867,-0.055523,-0.0422868,0.073866,0.0252637,0.0252864,-0.0261817,0.0762004,-0.0184894,-0.137866,0.0380666,-0.0899864,-0.0138907,-0.0517883,-0.0508986,0.0539373,0.0123568,0.0145389,0.0692857,0.0150002,-0.00170913,-0.0604281,0.0273489,-0.000273178,0.0319495,0.109495,0.126775,0.0832039,0.0501,-0.0455146,-0.0229467,0.00602743,-0.0531049,-0.0769907,-0.0150868,0.125863,0.0758722,0.0265198,-0.127717,0.0569753,-0.0449449,-0.0125357,0.12774,0.0176948,-0.0796404,-0.0883004,0.0516602,-0.0267524,0.0525531,-0.0659223,-0.0465821,-0.0613486,0.0678853,-0.0100945,0.0878219,0.0073001
-0.0791815,0.0516326,0.0318936,0.070552,0.133588,0.063296,-0.126123,-0.00388162,-0.065742,-0.0495905,-0.00242333,-0.0237928,0.00578377,0.114403,-0.0856839,0.043392,-0.0807555,-0.0667712,-0.00399275,0.0977611,0.017789,-0.0484787,0.0789556,-0.00289725,0.012578,-0.0466272,0.0153896,-0.039723,0.00226995,0.00852775,-0.0565615,0.0242457,0.0190631,0.113071,-0.0987191,-0.0483935,-0.00602435,-0.0250866,0.0599813,0.041688,0.0811781,0.129523,0.0596616,0.0811247,-0.0373192,-0.0427099,-0.0362457,-0.0086933,-0.06348,-0.0205625,0.0452832,-0.0150919,-0.00500389,-0.0843063,0.165101,0.015264,-0.0485921,-0.0475121,-0.0185416,-0.00885906
0.115499,0.113036,-0.111406,0.0524268,0.0329893,0.0546047,0.069378,0.0410604,0.0980217,0.120618,0.105752,-0.0224056,0.0544759,0.00714172,0.0544141,-0.095094,-0.00171077,-0.0200296,0.019024,-0.0963273,-0.0917403,-0.067115,0.005403,0.0301005,0.0653842,0.0604831,-0.00957005,-0.0390023,-0.077059,0.00841456,-0.0147788,-0.00729636,-0.0397567,0.0214338,-0.145311,-0.0445311,0.16216,0.116634,0.00511414,-0.00135234,-0.0325697,0.0879771,-0.00821869,-0.0223183,-0.0577339,-0.00282847,-0.0408867,0.0235946,0.034582,-0.052261,-0.0369855,0.142842,-0.0797078,-0.112831,-0.0256531,0.0337775,0.00461112,0.0837233,0.084793,-0.0496532
0.0388073,-0.0358542,-0.0356994,-0.0378007,-0.0662863,-0.0940969,0.103535,0.0819158,0.0825308,-0.0840743,0.0891334,-0.0624556,0.0496959,-0.0206835,0.105845,-0.0209331,0.0793771,0.066538,0.0132629,0.0507513,0.023845,-0.0380256,0.124908,-0.0115128,0.00962908,0.0223592,-0.0314342,-0.046511,-0.0181957,-0.0681236,-0.00260773,0.0469157,-0.031313,-0.077889,-0.160954,0.076413,0.0680478,-0.0117905,0.0519914,-0.0434135,0.0648427,-0.0504854,-0.0344755,0.126855,-0.0077308,0.0119892,0.0241508,-0.0289178,0.091698,-0.0379185,-0.0544423,-0.0294121,-0.00832125,0.0210368,0.0153522,-0.0247372,0.0327266,-0.00562588,-0.0681194,-0.00262148
0.0104374,0.0345086,-0.00156329,-0.0546377,-0.0104816,0.041719,-0.0742435,-0.0312632,-0.10504,0.0233405,-0.0309719,0.103238,0.0542245,-0.0647576,0.0341539,-0.115769,0.100203,-0.0760856,-0.00749886,-0.0647099,0.0280305,0.109563,0.0838672,-0.0144881,-0.0202167,-0.0614487,0.0165283,0.0279242,0.0268005,0.00480392,0.0834062,-0.0717138,0.0178875,-0.019402,0.0906299,-0.0224019,0.0378796,0.104376,0.0236648,0.0936073,0.000402601,-0.0683555,0.00970168,-0.0112347,-0.131268,-0.0188575,0.0719284,-0.00540472,0.0451309,0.00852329,-0.0104537,0.0168192,-0.0376178,0.0121886,0.00366377,0.0860831,0.0715362,0.0282952,0.018162,0.0753213
-0.0445793,0.0242342,0.00914737,0.0200767,0.134491,-0.0812723,-0.0428526,0.121258,0.00880016,0.0263356,0.00221817,0.00868173,-0.0263828,0.034813,-0.130944,0.0159278,-0.0100544,-0.01448,-0.0392509,-0.00566462,0.0587712,-0.0319762,0.0671535,0.0152158,-0.0265705,0.0389811,-0.0845587,-0.08641,-0.0262434,-0.10601,0.042025,-0.042461,0.0202944,-0.000578114,-0.117596,-0.0386148,-0.0621963,-0.0980072,0.0494458,-0.0573856,-0.00747187,-0.0222885,-0.0484435,-0.0199304,-0.0115362,-0.05501,-0.00913875,0.0417829,-0.0497573,0.0440496,0.0701259,0.0981482,0.0375962,0.0843211,-0.0589418,0.0387044,-0.00990446,-0.109916,-0.057804,-0.0766665
-0.0292323,0.0268287,-0.0408777,-0.0136568,0.0226214,-0.0151799,-0.1113,0.0386359,0.0194532,-0.0758234,0.0363218,-0.0144438,-0.0127393,0.00419976,0.0490126,-0.00400563,-0.0224998,0.0484172,-0.0802057,0.0595474,0.168694,0.0348236,0.109401,-0.0562742,0.00925992,-0.022461,-0.0400098,0.0538977,-0.0749433,-0.000456438,-0.012034,-0.0156754,-0.04953,0.0110219,0.00108942,0.0158821,0.0981488,0.0409055,0.00185854,-0.0616256,0.0144526,-0.0841466,-0.0345005,-0.0872712,0.0956421,0.0278173,0.0441325,0.0228077,0.000878817,0.0128538,-0.0801316,-0.0215563,-0.0678033,0.00288308,0.00058579,-0.0331123,0.03034,-0.0230557,0.0452425,0.00710133
0.100969,0.0587953,-0.115688,-0.123174,-0.118782,-0.0193375,0.0837135,0.0315616,-0.119123,0.0512365,0.0454779,-0.0678579,-0.0117296,-0.0300075,0.127635,-0.0693682,-0.0693052,0.126088,0.114489,0.0250077,0.0369117,0.0352659,0.0230841,0.0935271,0.110392,-0.00100471,0.102911,-0.02084,0.0774885,-0.0326341,0.0213268,-0.113142,0.0646719,0.13129,-0.0212925,-0.00143611,-0.0483557,0.0400697,0.0341768,0.00683749,-0.0895173,-0.0404588,0.05808,-0.0284104,-0.0476488,-0.0702589,0.0450602,0.0384953,0.0421818,-0.03704,0.0583359,0.0294438,0.0489616,0.0613461,0.105253,0.0363412,0.00197308,-0.0101271,-0.0907727,-0.109553
-0.0939002,0.0900616,0.054704,0.0486707,0.0596607,0.0586252,0.00958634,-0.103619,0.00399944,0.00509261,0.0817529,0.0852213,0.0622802,0.128007,-0.041285,0.0185474,0.0125397,-0.0736799,0.0979766,-0.0795005,-0.156969,0.0203812,0.0416479,-0.0115934,0.0281612,-0.0963799,0.0504053,-0.00846063,-0.048809,0.00126286,0.184698,-0.0230969,0.0526879,0.00473298,-0.0325906,-0.0240899,-0.0635739,-0.0475099,-0.0389464,0.116089,0.109602,0.0881783,-0.0433249,0.0600438,-0.0710815,-0.0675125,0.0259997,0.0689386,-0.0527814,-0.0506018,-0.0724605,-0.114923,0.139079,0.0254718,-0.0115979,-0.0454086,0.00868188,0.0740731,-0.0368651,-0.0889356
0.0449756,-0.0681539,-0.0434191,-0.0395504,-0.0168676,-0.0013398,-0.0530606,-0.016523,-0.0220634,0.0332646,0.0408722,-0.0685027,-0.14563,-0.0262833,0.0193878,0.0136127,-0.00615531,0.0139102,-0.0403415,0.0589922,0.0580992,-0.0756545,-0.03491,-0.00413036,-0.049077,0.11376,-0.169052,0.0430653,0.0157536,0.00946077,0.0908291,-0.0453265,0.0624912,-0.173195,-0.0230558,-0.000714774,0.131068,-0.0517375,0.00434833,0.0185362,-0.0344399,-0.0463433,0.0304883,-0.0594288,-0.00571733,-0.0165011,-0.0377056,-0.0446315,0.0375041,-0.0966098,-0.0219241,0.00865887,0.104972,0.000845699,-0.0291921,-0.00293915,-0.0153917,-0.0465849,-0.0391804,0.0251753
0.0341084,0.0886723,-0.0312256,0.033994,0.0410199,0.0536337,0.0535446,-0.106708,0.102279,0.00686234,0.0308204,0.0599793,-0.0742546,-0.0317412,-0.0254932,-0.00097938,-0.0190003,-0.053423,-0.0890695,0.0486591,-0.040231,0.0121675,0.0662558,0.0314021,0.006991,-0.0326554,-0.0193064,0.00196809,0.0632698,0.0461646,0.0651556,0.000490328,-0.00948632,0.0641216,0.0324777,0.0260148,0.00773108,0.117414,0.0909753,0.0103252,0.0677725,-0.0502877,-0.0292616,-0.0636702,0.0396637,0.0005274,0.0341465,-0.136455,0.0667963,-0.00137083,-0.0548375,-0.0417128,0.103808,-0.044441,0.0362897,-0.131566,-0.00788353,0.0613234,-0.0359815,-0.0435372
0.0595121,-0.00391053,-0.0815142,0.0590912,0.0042696,0.0191274,-0.0711328,-0.00969585,0.0424918,-0.0124287,-0.048601,0.0460406,0.0405842,-0.0624104,-0.00174755,-0.101719,0.0137101,0.0843285,0.030183,0.0634885,0.0893902,0.088594,0.00143648,0.0559149,0.0398958,-0.0946118,-0.0115816,-0.069998,-0.0874531,0.00777156,-0.00562513,0.0097088,-0.0322455,-0.0529254,0.00215429,0.0319339,-0.00561021,0.0833633,0.0195036,-0.0292447,-0.0410936,-0.0851635,0.000190312,0.0234542,0.0324436,-0.0437459,0.020647,0.104274,0.0728896,0.0447041,-0.109347,-0.0269906,0.0979388,-0.0748358,0.0755464,0.0797482,-0.0350119,-0.0395107,0.0128709,-0.00241958
0.020197,-0.000365671,0.044962,0.122319,-0.00308751,0.0494388,0.0469599,-0.0112587,-0.00219007,0.0240003,0.0601467,-0.000413114,-0.0137164,0.0883682,0.04891,-0.0450982,0.070361,-0.0253237,-0.010806,0.0413796,0.0319616,0.0134399,0.0237011,-0.0679137,-0.0769467,0.0770524,0.0495938,0.03769,0.0104603,0.03414,0.0897308,-0.0277458,0.0284804,-0.0253002,-0.0990495,0.0501974,-0.0275321,-0.0107884,-0.0853358,0.0476861,0.0867547,-0.0930055,0.0116638,-0.0702209,0.0137858,-0.0372094,0.0249026,-0.110647,-0.0759476,0.0716976,0.0922453,0.0408628,0.107824,-0.0214893,-0.0409352,-0.0328898,-0.0453808,0.0082858,-0.00580047,-0.107109
-0.00552099,0.00438667,0.149893,-0.0753684,-0.0339638,0.108116,-0.0100404,0.0484517,-0.0678701,0.0181081,0.0871001,-0.0989244,0.0362489,-0.120161,-0.0170049,0.0383399,-0.0606906,-0.0681152,0.0769304,0.0737684,-0.0151836,0.0149055,0.0381752,0.0320596,-0.00068524,-0.0354233,0.0908529,0.0196412,-0.0221744,0.051175,0.0516508,0.0441182,-0.0917652,-0.0488531,-0.0319069,0.00259478,0.0758258,-0.0193492,-0.0136073,0.0251961,-0.00771593,-0.0720543,0.0623314,0.0379934,-0.0652594,0.00233539,0.0147795,-0.0572602,0.00150906,0.045013,-0.0117055,-0.0172002,-0.0198219,0.0692591,-0.0424817,0.0133789,0.0576852,-0.0114131,0.0534653,0.0168444

max: 1
min: -0.232976
avg: 0.00255397
