1.2431,1.25809,1.27381,1.36299,1.24306,1.27956,1.29843,1.22689,1.27833,1.21975,1.26039,1.22662,1.19512,1.26847,1.28727,1.2872,1.28183,1.24329,1.34106,1.28716,1.23769,1.28098,1.27668,1.29579,1.23157,1.28054,1.27264,1.25837,1.26974,1.24254,1.25009,1.25895,1.25323,1.26397,1.2433,1.33152,1.29726,1.22014,1.28103,1.23277,1.30384,1.19372,1.27291,1.23929,1.22934,1.30381,1.23454,1.29096,1.26814,1.18597,1.26264,1.25684,1.27973,1.25459,1.3054,1.2765,1.34069,1.2873,1.31807,1.23504
1.26612,1.22409,1.25055,1.22579,1.30413,1.25343,1.24594,1.33406,1.30034,1.2487,1.32397,1.28924,1.29178,1.2788,1.29656,1.32342,1.21975,1.27838,1.23321,1.33554,1.26979,1.27475,1.30212,1.21152,1.15557,1.28301,1.28885,1.31305,1.2573,1.24532,1.2654,1.28161,1.21544,1.22789,1.27348,1.24458,1.28016,1.2915,1.2141,1.27979,1.20411,1.25194,1.24842,1.29728,1.31628,1.26898,1.29884,1.29365,1.23799,1.23125,1.26835,1.24971,1.35333,1.27192,1.25629,1.18501,1.26391,1.27484,1.29392,1.28088
1.36077,1.28869,1.21084,1.24019,1.21434,1.29125,1.19308,1.24534,1.28271,1.2142,1.27941,1.27051,1.21964,1.24961,1.21714,1.26224,1.26332,1.26439,1.29349,1.25513,1.32753,1.3069,1.25187,1.28722,1.26365,1.27681,1.28324,1.29217,1.31019,1.30558,1.2495,1.30481,1.23372,1.3195,1.29502,1.31436,1.28667,1.34934,1.26552,1.30443,1.29648,1.19505,1.21982,1.25899,1.23017,1.2931,1.30381,1.29107,1.2998,1.31884,1.25707,1.29615,1.26802,1.24171,1.1993,1.20685,1.25917,1.30382,1.20978,1.24488
1.32126,1.27666,1.26952,1.25507,1.21128,1.26725,1.24477,1.25103,1.21771,1.19461,1.2785,1.30665,1.24084,1.22586,1.22073,1.24218,1.28267,1.23555,1.28936,1.27394,1.33791,1.24513,1.30243,1.27814,1.26787,1.32228,1.36508,1.28673,1.25906,1.274,1.25125,1.26848,1.32028,1.31887,1.32795,1.30402,1.33573,1.25504,1.23733,1.24565,1.29966,1.28777,1.30931,1.35048,1.27656,1.28249,1.30735,1.19595,1.22759,1.24154,1.27936,1.28283,1.26418,1.24969,1.31271,1.29142,1.27394,1.22616,1.26639,1.25394
1.25439,1.28554,1.26726,1.25657,1.27416,1.31454,1.24954,1.28005,1.27716,1.2635,1.31532,1.21324,1.22067,1.30783,1.29778,1.38463,1.28317,1.29303,1.25343,1.21226,1.27047,1.26826,1.32893,1.36146,1.2943,1.29097,1.27207,1.2555,1.32497,1.30321,1.24711,1.26242,1.35041,1.24302,1.3403,1.27082,1.17869,1.27457,1.23537,1.27967,1.29996,1.2202,1.23687,1.29223,1.28371,1.30448,1.27673,1.2161,1.27698,1.37588,1.35284,1.24749,1.26614,1.29721,1.33891,1.27817,1.3151,1.22273,1.29047,1.25732
1.33089,1.25713,1.29716,1.26469,1.38261,1.32269,1.25187,1.25881,1.34222,1.1893,1.26944,1.31319,1.23486,1.25167,1.28538,1.25271,1.27882,1.25264,1.2796,1.31982,1.19974,1.24667,1.30452,1.19351,1.23871,1.29647,1.2258,1.22421,1.27072,1.27991,1.2779,1.27974,1.24651,1.22546,1.22345,1.25939,1.24018,1.26204,1.25167,1.23857,1.28324,1.30885,1.27207,1.35201,1.2714,1.28135,1.2821,1.30465,1.21248,1.27321,1.22658,1.18045,1.30051,1.2537,1.23864,1.31928,1.19933,1.3107,1.28658,1.19802
1.2916,1.32335,1.25645,1.30557,1.34667,1.23936,1.2987,1.24454,1.31209,1.28428,1.47754,1.35951,1.22405,1.25819,1.26487,1.28459,1.18313,1.31513,1.25973,1.20559,1.25614,1.30311,1.2907,1.28349,1.31757,1.1887,1.27801,1.33308,1.39835,1.27613,1.28711,1.27176,1.29024,1.22782,1.25419,1.23937,1.26254,1.3563,1.27772,1.31014,1.27054,1.25961,1.23011,1.30193,1.21583,1.17655,1.18929,1.28485,1.24263,1.27964,1.23514,1.27516,1.26077,1.26294,1.21416,1.24177,1.30714,1.24775,1.20852,1.3116
1.20274,1.23704,1.22993,1.21811,1.28364,1.29477,1.23776,1.31407,1.30597,1.2964,1.21261,1.2554,1.22022,1.22946,1.37468,1.31034,1.31854,1.2865,1.24412,1.32351,1.28598,1.25137,1.23216,1.22826,1.33761,1.3297,1.26308,1.2549,1.27548,1.27743,1.20834,1.3162,1.25212,1.24669,1.26596,1.20053,1.33635,1.24218,1.35855,1.30934,1.26988,1.30337,1.29735,1.27356,1.20775,1.21824,1.28531,1.33201,1.27163,1.21879,1.26255,1.28226,1.29311,1.32393,1.26955,1.25537,1.31597,1.25048,1.31397,1.29537
1.23,1.24813,1.26716,1.23975,1.27417,1.25974,1.27015,1.26733,1.24927,1.30456,1.26711,1.19471,1.27638,1.31266,1.27272,1.20692,1.20546,1.35601,1.22647,1.20899,1.28957,1.27963,1.31958,1.27089,1.27175,1.26288,1.26415,1.2139,1.24461,1.28908,1.24815,1.32087,1.24387,1.21435,1.33705,1.26765,1.31313,1.27154,1.2222,1.3876,1.33554,1.28677,1.26762,1.25205,1.26924,1.38122,1.26474,1.28293,1.24777,1.25048,1.28677,1.30669,1.33197,1.29114,1.31896,1.28557,1.25569,1.34495,1.28647,1.2774
1.31365,1.26232,1.27209,1.29092,1.29784,1.24117,1.27319,1.29409,1.24788,1.31444,1.3528,1.23011,1.26183,1.3462,1.26364,1.28869,1.25185,1.26721,1.35841,1.30589,1.21993,1.26421,1.23459,1.29738,1.24067,1.26018,1.24583,1.23552,1.23478,1.26765,1.17525,1.24613,1.22835,1.21889,1.23638,1.40047,1.20708,1.23602,1.21601,1.32459,1.22585,1.30517,1.2932,1.29358,1.31134,1.29337,1.33622,1.25643,1.34331,1.229,1.27212,1.25995,1.16004,1.25568,1.33676,1.22669,1.32247,1.30406,1.39104,1.24589
1.25565,1.3241,1.21052,1.29842,1.26868,1.28673,1.27067,1.2293,1.24924,1.27247,1.23832,1.23242,1.21787,1.31037,1.36119,1.35107,1.27113,1.28087,1.26779,1.27064,1.25978,1.30619,1.22653,1.28093,1.24235,1.31747,1.34877,1.24356,1.28078,1.27184,1.31252,1.23819,1.32046,1.27531,1.26671,1.36977,1.28692,1.26073,1.23874,1.24151,1.28167,1.31322,1.29271,1.28267,1.30448,1.28014,1.26689,1.23819,1.28256,1.23906,1.25048,1.23261,1.28122,1.25295,1.20129,1.38863,1.29487,1.33431,1.23915,1.32488
1.28287,1.23603,1.35756,1.30052,1.25361,1.34681,1.30371,1.25451,1.27139,1.29963,1.30618,1.19415,1.23806,1.32543,1.31882,1.30403,1.24046,1.32066,1.34912,1.25097,1.2211,1.31158,1.31612,1.33075,1.29116,1.24078,1.29141,1.28171,1.25381,1.25063,1.3229,1.25082,1.29899,1.27053,1.24309,1.33405,1.21991,1.33642,1.32601,1.16703,1.27706,1.24732,1.26192,1.22361,1.3093,1.31335,1.28414,1.24426,1.26991,1.23094,1.35281,1.28137,1.33687,1.3424,1.33315,1.27265,1.27022,1.30095,1.20445,1.28432
1.27268,1.2545,1.21831,1.37671,1.26841,1.2479,1.28803,1.22819,1.24821,1.22377,1.27105,1.32217,1.19311,1.22804,1.27132,1.19502,1.16787,1.28964,1.28924,1.30962,1.26193,1.28609,1.27555,1.26563,1.23909,1.6081,1.40063,1.30248,1.3134,1.21924,1.23482,1.25002,1.21876,1.26951,1.25,1.23013,1.22307,1.21046,1.2695,1.26613,1.28029,1.30126,1.2345,1.28693,1.25433,1.26146,1.29909,1.31643,1.24912,1.24624,1.28621,1.26799,1.23914,1.29702,1.24205,1.21358,1.28597,1.23823,1.24821,1.23662
1.2933,1.28121,1.34066,1.25879,1.38135,1.21606,1.32313,1.2996,1.24926,1.36555,1.34564,1.40241,1.28023,1.31234,1.30523,1.27357,1.31819,1.26588,1.27482,1.28118,1.24101,1.23693,1.25372,1.2884,1.30855,1.29858,1.21269,1.24048,1.15301,1.23562,1.24773,1.20157,1.23398,1.32406,1.24869,1.29677,1.23534,1.28218,1.22331,1.27791,1.28831,1.31783,1.32456,1.26405,1.28823,1.67428,1.23876,1.24547,1.23177,1.32214,1.2155,1.26296,1.31838,1.22196,1.26669,1.27971,1.22443,1.27174,1.31759,1.2982
1.30385,1.28282,1.24418,1.28182,1.25903,1.32295,1.22981,1.27318,1.26191,1.25513,1.23611,1.30099,1.2565,1.28035,1.22907,1.3388,1.31228,1.29773,1.36424,1.25636,1.22048,1.23946,1.30619,1.31297,1.32527,1.2049,1.26585,1.3276,1.3161,1.33637,1.2679,1.30867,1.29196,1.31144,1.2652,1.29156,1.31113,1.3007,1.29052,1.26387,1.29631,1.27371,1.24769,1.26723,1.25797,1.30102,1.20475,1.19551,1.2513,1.31933,1.2839,1.3051,1.27673,1.28879,1.28488,1.17912,1.21402,1.27428,1.23769,1.28974
1.19582,1.24112,1.23257,1.27029,1.23092,1.198,1.36271,1.24248,1.31256,1.28395,1.29672,1.21597,1.27399,1.2658,1.23615,1.19601,1.31849,1.17819,1.27794,1.349,1.24248,1.27569,1.29649,1.26611,1.30085,1.21925,1.2628,1.19758,1.23658,1.28664,1.315,1.30923,1.23511,1.31983,1.25618,1.29034,1.37087,1.27654,1.27386,1.25951,1.28527,1.20877,1.26411,1.321,1.23131,1.23751,1.27918,1.31323,1.35081,1.25294,1.28094,1.26798,1.31176,1.23892,1.28474,1.25954,1.2745,1.27735,1.34026,1.29159
1.22761,1.29756,1.28841,1.24779,1.2762,1.32583,1.28561,1.25463,1.30141,1.35683,1.26062,1.30538,1.2642,1.27715,1.24586,1.28318,1.25065,1.22114,1.23858,1.3249,1.27641,1.27633,1.28056,1.25602,1.2752,1.269,1.29905,1.30195,1.29725,1.25556,1.28662,1.2811,1.31926,1.26325,1.30779,1.27926,1.30782,1.22799,1.29088,1.25541,1.26531,1.28238,1.29327,1.27679,1.29905,1.2822,1.30351,1.34107,1.33525,1.32591,1.30718,1.30019,1.23388,1.33931,1.24747,1.22723,1.29759,1.2731,1.22425,1.20174
1.27447,1.2142,1.23536,1.28671,1.25814,1.29425,1.27046,1.28371,1.27816,1.26508,1.32028,1.27908,1.28366,1.33746,1.30078,1.29533,1.29562,1.34525,1.28042,1.33143,1.22748,1.22935,1.28141,1.28006,1.26937,1.26491,1.22592,1.1911,1.35572,1.27665,1.22907,1.31808,1.27908,1.26964,1.25485,1.25054,1.31844,1.23602,1.25858,1.26296,1.26741,1.2304,1.31078,1.38441,1.15299,1.30665,1.26993,1.29547,1.285,1.29342,1.23584,1.28112,1.27533,1.27201,1.26157,1.27586,1.23299,1.34756,1.1976,1.33311
1.33729,1.32283,1.32984,1.27802,1.31333,1.31139,1.2996,1.28105,1.30033,1.34753,1.33545,1.22878,1.3478,1.30762,1.27501,1.29636,1.30779,1.24896,1.25759,1.29686,1.34015,1.2198,1.30324,1.3042,1.328,1.32627,1.32526,1.26146,1.20598,1.30294,1.26996,1.24588,1.36636,1.24891,1.19456,1.25107,1.29472,1.33998,1.30588,1.27184,1.26839,1.34411,1.35431,1.28578,1.27987,1.23492,1.28568,1.223,1.20643,1.19636,1.14705,1.2812,1.20616,1.23868,1.29146,1.24829,1.24882,1.24931,1.32108,1.17161
1.22139,1.21947,1.32356,1.26929,1.3034,1.27822,1.24114,1.27244,1.22896,1.19296,1.25175,1.24684,1.33318,1.2643,1.22271,1.25179,1.32058,1.24648,1.31159,1.22574,1.32181,1.2744,1.23891,1.37126,1.2796,1.2475,1.31409,1.24136,1.22003,1.22568,1.3142,1.32342,1.2621,1.30781,1.30447,1.35175,1.25933,1.22188,1.34371,1.30249,1.23185,1.2878,1.21955,1.23781,1.21271,1.32957,1.19995,1.21449,1.2613,1.31262,1.25261,1.2551,1.27333,1.3006,1.26642,1.31493,1.3448,1.30905,1.36316,1.28494
1.29533,1.2116,1.19831,1.32404,1.28893,1.2509,1.25344,1.30288,1.25178,1.2504,1.28844,1.19295,1.3403,1.2539,1.33196,1.2555,1.24589,1.23032,1.20837,1.23145,1.24735,1.24817,1.30459,1.24969,1.34181,1.24864,1.29887,1.24688,1.25245,1.28758,1.20701,1.31102,1.31188,1.31804,1.32376,1.22297,1.21802,1.28589,1.28848,1.26852,1.23995,1.28735,1.31251,1.27455,1.30566,1.2182,1.28036,1.29102,1.21511,1.29691,1.33346,1.31203,1.2471,1.27316,1.27876,1.222,1.22849,1.28922,1.20164,1.19618
1.29943,1.24496,1.25873,1.27356,1.34338,1.27308,1.33582,1.29094,1.30279,1.2928,1.27579,1.271,1.27731,1.27948,1.29106,1.28881,1.32977,1.3103,1.34363,1.20775,1.28136,1.29652,1.3279,1.24982,1.24373,1.34161,1.24895,1.27568,1.2688,1.25755,1.26148,1.19891,1.24248,1.30855,1.29056,1.24088,1.25202,1.19812,1.30632,1.24059,1.23077,1.2136,1.25955,1.26467,1.26307,1.21887,1.33891,1.29105,1.33962,1.27346,1.24762,1.24996,1.32756,1.23928,1.2727,1.26617,1.29918,1.27477,1.32959,1.25202
1.26459,1.29721,1.29564,1.20992,1.34811,1.24192,1.28824,1.22105,1.2804,1.28722,1.24081,1.22807,1.26315,1.30038,1.20885,1.2478,1.28646,1.27128,1.31359,1.30645,1.29247,1.23159,1.28873,1.34176,1.28464,1.27334,1.28176,1.26065,1.24596,1.31341,1.2802,1.26201,1.30095,1.31835,1.29918,1.31738,1.2763,1.30204,1.28803,1.2377,1.25549,1.30081,1.31479,1.25513,1.28412,1.24741,1.2821,1.33334,1.28542,1.31313,1.29765,1.22424,1.27752,1.27722,1.30522,1.2256,1.31412,1.29959,1.30022,1.24638
1.26995,1.23064,1.26467,1.29261,1.19175,1.22554,1.33836,1.27945,1.27929,1.27749,1.22174,1.23937,1.32539,1.25935,1.29694,1.26211,1.22916,1.32147,1.29146,1.23858,1.27012,1.30765,1.25538,1.22708,1.23689,1.23545,1.19921,1.22527,1.29871,1.2833,1.21741,1.2828,1.25745,1.33021,1.37343,1.26872,1.34716,1.34312,1.29936,1.29015,1.25316,1.28685,1.32307,1.30353,1.29063,1.36415,1.23765,1.24045,1.21837,1.25643,1.29217,1.28494,1.29224,1.28516,1.32024,1.23202,1.22893,1.31827,1.27143,1.29332
1.26094,1.30097,1.29545,1.33771,1.27804,1.24041,1.18935,1.21842,1.22222,1.26418,1.24834,1.19384,1.27664,1.21422,1.30322,1.26467,1.25871,1.25865,1.27435,1.28207,1.29972,1.3206,1.20808,1.29901,1.26939,1.29519,1.29325,1.29145,1.25921,1.26132,1.24002,1.24212,1.27198,1.21626,1.21703,1.32031,1.30965,1.29654,1.2853,1.19948,1.24138,1.27096,1.32496,1.2692,1.19494,1.33324,1.29426,1.3416,1.29397,1.31,1.17573,1.26518,1.27854,1.27561,1.26619,1.2611,1.28902,1.24594,1.24094,1.29658
1.36274,1.33225,1.31697,1.36619,1.29279,1.21182,1.26267,1.33757,1.34737,1.18957,1.32248,1.32109,1.28245,1.29234,1.29893,1.29374,1.27625,1.27456,1.3887,1.21472,1.23613,1.26593,1.24533,1.1892,1.32578,1.19364,1.2695,1.19568,1.26702,1.21782,1.28336,1.27249,1.30253,1.31188,1.2665,1.27371,1.23995,1.28082,1.21436,1.29404,1.2179,1.19828,1.20121,1.28207,1.29049,1.19883,1.30067,1.2853,1.22796,1.25297,1.30903,1.24792,1.21348,1.27903,1.22346,1.30641,1.26307,1.27465,1.28774,1.18366
1.25713,1.2662,1.24807,1.37275,1.32478,1.31166,1.21769,1.22199,1.24533,1.27237,1.2633,1.32722,1.30778,1.17638,1.32065,1.30687,1.17995,1.37587,1.29714,1.29879,1.24125,1.24271,1.33311,1.30565,1.27747,1.26491,1.35149,1.30422,1.32608,1.32811,1.32662,1.28308,1.33271,1.25111,1.25059,1.22037,1.3072,1.30479,1.30359,1.27673,1.25488,1.24128,1.32784,1.25508,1.25812,1.24565,1.23104,1.19211,1.21937,1.27924,1.27034,1.25641,1.26846,1.25284,1.24905,1.27475,1.28841,1.24015,1.22335,1.26895
1.24997,1.25319,1.24233,1.28824,1.25879,1.29422,1.29897,1.27032,1.24735,1.26052,1.26667,1.30958,1.21016,1.21603,1.28983,1.19348,1.24679,1.34233,1.22626,1.25351,1.2869,1.30487,1.34238,1.19533,1.23692,1.27069,1.32599,1.22033,1.17985,1.30532,1.23885,1.25415,1.30609,1.25246,1.22779,1.24083,1.35594,1.21462,1.30079,1.18434,1.31561,1.37218,1.21683,1.26727,1.36375,1.28,1.25584,1.28071,1.27458,1.32531,1.30809,1.25485,1.31929,1.29521,1.34224,1.34998,1.29696,1.28841,1.34149,1.39491
1.28389,1.29172,1.20703,1.31364,1.26018,1.30673,1.23158,1.32632,1.28005,1.22863,1.25439,1.23703,1.25283,1.22167,1.30318,1.24684,1.29828,1.29334,1.27132,1.30332,1.33929,1.27847,1.22907,1.27618,1.20901,1.23932,1.26931,1.31797,1.19345,1.34341,1.32393,1.29057,1.38273,1.31999,1.23133,1.34844,1.30405,1.21812,1.22192,1.30658,1.21344,1.33583,1.33779,1.24551,1.2167,1.28198,1.2783,1.28369,1.28252,1.30684,1.28601,1.22193,1.27396,1.31609,1.26432,1.26694,1.24881,1.28511,1.26345,1.21787
1.2796,1.27152,1.26711,1.30532,1.24465,1.29125,1.25507,1.24817,1.30376,1.30329,1.27781,1.24418,1.1945,1.19706,1.23559,1.36016,1.29636,1.27816,1.26846,1.34333,1.14845,1.25618,1.233,1.30602,1.33598,1.23741,1.2826,1.33433,1.24116,1.25181,1.28455,1.32434,1.28139,1.1779,1.25787,1.2469,1.19063,1.297,1.30777,1.20056,1.26878,1.1984,1.24339,1.24234,1.21931,1.28267,1.32111,1.33087,1.28727,1.27409,1.32258,1.23336,1.23025,1.25354,1.25751,1.28299,1.19053,1.21693,1.31353,1.25167
1.31811,1.25156,1.24486,1.33161,1.32199,1.36677,1.32031,1.26659,1.27713,1.24859,1.27224,1.27034,1.29396,1.29239,1.1983,1.40781,1.30532,1.25657,1.25103,1.26503,1.22512,1.2464,1.23353,1.26913,1.28686,1.25089,1.2418,1.34983,1.36269,1.29111,3.36599,1.28723,1.32096,1.26611,1.27541,1.19069,1.30327,1.29248,1.28832,1.262,1.27428,1.192,1.28751,1.25454,1.24184,1.20999,1.28127,1.23117,1.27979,1.24005,1.18612,1.24704,1.18911,1.24421,1.25651,1.22051,1.2405,1.29385,1.3241,1.29217
1.13047,1.22395,1.3116,1.24807,1.31804,1.27424,1.26934,1.25371,1.26418,1.26539,1.2996,1.24523,1.22464,1.30755,1.27272,1.28314,1.21665,1.20903,1.19143,1.28291,1.28782,1.25142,1.29179,1.26768,1.26659,1.31927,1.28548,1.2348,1.25494,1.24225,1.26946,1.32194,1.34062,1.31373,1.22464,1.29472,1.30051,1.27007,1.24009,1.26526,1.21761,1.27007,1.2852,1.23142,1.29456,1.1817,1.31057,1.25164,1.28956,1.24102,1.28063,1.27979,1.30804,1.29706,1.30034,1.25307,1.24674,1.2662,1.28165,1.23947
1.19206,1.25491,1.29729,1.23725,1.25739,1.20064,1.3427,1.27177,1.24358,1.26966,1.26734,1.34021,1.30798,1.28743,1.33296,1.26295,1.29328,1.31365,1.28996,1.25544,1.21387,1.28348,1.31752,1.26578,1.27788,1.26741,1.23045,1.30441,1.32685,1.27131,1.2764,1.29448,1.25654,1.24943,1.2383,1.25211,1.18771,1.30665,1.27993,1.28944,1.23705,1.26896,1.22691,1.27406,1.29175,1.21815,1.29679,1.23982,1.28775,1.27991,1.29145,1.28079,1.29172,1.2122,1.28088,1.36897,1.1946,1.29681,1.34266,1.34619
1.32881,1.28103,1.24105,1.25315,1.26632,1.28869,1.35349,1.30755,1.19167,1.29194,1.24233,1.30483,1.36249,1.26339,1.31923,1.25683,1.2455,1.32265,1.31988,1.26403,1.25919,1.33795,1.20619,1.24933,1.30193,1.2722,1.24245,1.21621,1.26046,1.33037,1.2571,1.31387,1.25882,1.25716,1.21098,1.26115,1.21039,1.22127,1.28253,1.30002,1.21901,1.31939,1.22477,1.29916,1.33216,1.28444,1.20756,1.22908,1.26976,1.24299,1.28346,1.25438,1.28859,1.38673,1.19819,1.25994,1.24901,1.31765,1.3044,1.27249
1.27852,1.25635,1.32017,1.17931,1.22066,1.28562,1.29452,1.18509,1.20897,1.24239,1.19809,1.27484,1.28062,1.34902,1.23808,1.31768,1.20787,1.25918,1.25464,1.33622,1.34451,1.31874,1.33065,1.29571,1.25716,1.30428,1.34082,1.26783,1.33935,1.27406,1.29449,1.29676,1.30998,1.28749,1.33819,1.35275,1.2985,1.297,1.33212,1.21589,1.23174,1.28433,1.19808,1.30943,1.27256,1.25902,1.21322,1.33336,1.20688,1.20329,1.31701,1.33451,1.2175,1.23091,1.29179,1.25291,1.24441,1.25631,1.25533,1.22236
1.21974,1.29545,1.22499,1.29268,1.22062,1.24971,1.27313,1.27717,1.26801,1.2608,1.23633,1.25755,1.24584,1.39461,1.28687,1.22973,1.2418,1.20415,1.3012,1.21965,1.24024,1.17807,1.31881,1.25384,1.23001,1.35158,1.30473,1.26328,1.22983,1.32852,1.22131,1.29911,1.23146,1.27747,1.31201,1.28692,1.23953,1.30811,1.30648,1.24738,1.2578,1.32017,1.2789,1.26135,1.23826,1.24872,1.38019,1.21809,1.2632,1.3295,1.2572,1.26804,1.26834,1.30124,1.33472,1.25109,1.24204,1.31554,1.28406,1.26839
1.19636,1.30094,1.22184,1.24258,1.26239,1.22008,1.22835,1.34398,1.29576,1.25919,1.31168,1.28559,1.22774,1.30521,1.16997,1.27693,1.26693,1.27507,1.28222,1.25491,1.25508,1.26693,1.22472,1.24166,1.30057,1.25741,1.24798,1.24174,1.29348,1.34473,1.226,1.25531,1.31232,1.27413,1.36202,1.30665,1.30686,1.20064,1.26024,1.3247,1.24918,1.25268,1.36828,1.27098,1.28571,1.36403,1.32101,1.35524,1.32029,1.27056,1.27064,1.32877,1.23776,1.30423,1.27752,1.32141,1.33718,1.25014,1.24692,1.249
1.25118,1.32588,1.26609,1.2315,1.34061,1.35341,1.26287,1.26516,1.28925,1.34039,1.33831,1.36882,1.26022,1.17593,1.35427,1.36806,1.33021,1.30161,1.29646,1.28842,1.22726,1.27513,1.25587,1.29048,1.22964,1.35783,1.30547,1.23389,1.16462,1.16012,1.30626,1.25831,1.22849,1.32771,1.21152,1.23966,1.25097,1.30381,1.31572,1.28837,1.32878,1.2926,1.31689,1.29469,1.21923,1.28112,1.22807,1.21998,1.24103,1.18633,1.26073,1.20606,1.3149,1.33215,1.25422,1.28529,1.33231,1.26806,1.31365,1.30942
1.29939,1.31184,1.3373,1.19931,1.28824,1.31077,1.30688,1.32157,1.34194,1.23879,1.30852,1.27558,1.27706,1.32097,1.29063,1.19924,1.25536,1.27144,1.29247,1.32078,1.34555,1.31646,1.32476,1.3266,1.24744,1.2604,1.31897,1.28034,1.31165,1.35051,1.29225,1.30516,1.30601,1.23022,1.27244,1.31987,1.22528,1.25085,1.31234,1.30972,1.30004,1.21552,1.32279,1.28184,1.30048,1.22639,1.19938,1.24468,1.28223,1.27389,1.27707,1.26406,1.25625,1.29536,1.32786,1.21466,1.26231,1.29099,1.29089,1.21707
1.2553,1.29278,1.2227,1.306,1.31171,1.20452,1.31086,1.28828,1.33917,1.32306,1.23223,1.2363,1.26604,1.2729,1.21227,1.24706,1.18555,1.24884,1.30526,1.27369,1.18263,1.3518,1.2738,1.24757,1.24063,1.2568,1.2622,1.33643,1.25905,1.31282,1.28537,1.27225,1.32296,1.32986,1.22799,1.27549,1.3386,1.32431,1.3208,1.29227,1.23827,1.16736,1.29379,1.31673,1.19871,1.30372,1.31784,1.30906,1.39057,1.25895,1.31794,1.29178,1.34659,1.23137,1.32809,1.2813,1.2334,1.32096,1.28615,1.33147
1.32264,1.26105,1.3075,1.19224,1.26693,1.21735,1.20134,1.22288,1.24244,1.24813,1.31699,1.26627,1.28843,1.28811,1.28704,1.27199,1.27136,1.32872,1.22089,1.20925,1.22552,1.24528,1.29428,1.29331,1.30482,1.26187,1.2561,1.32133,1.29885,1.25283,1.20099,1.2853,1.25736,1.2633,1.24173,1.2368,1.2515,1.27059,1.27625,1.24261,1.26751,1.24703,1.29328,1.27243,1.32994,1.17291,1.26013,1.24224,1.1399,1.21583,1.27674,1.33526,1.22369,1.2115,1.24958,1.21926,1.32121,1.25205,1.24588,1.30439
1.28825,1.30676,1.2962,1.2759,1.21961,1.26688,1.2405,1.33645,1.33491,1.25914,1.31352,1.23523,1.30766,1.29811,1.303,1.18314,1.2894,1.28521,1.34622,1.26463,1.27884,1.22987,1.2915,1.26651,1.27672,1.25824,1.28806,1.16741,1.24847,1.19997,1.25131,1.24362,1.28855,1.31849,1.23496,1.22371,1.22899,1.27057,1.2637,1.2504,1.23594,1.24485,1.30686,1.26212,1.30585,1.21364,1.26064,1.29534,1.34226,1.33774,1.25032,1.26345,1.27555,1.26847,1.29757,1.26326,1.32018,1.29277,1.21075,1.27214
1.28692,1.32001,1.22724,1.29024,1.28106,1.33879,1.21633,1.26341,1.21585,1.28762,1.27062,1.27728,1.2534,1.24589,1.29684,1.31367,1.27768,1.26612,1.34494,1.2749,1.35071,1.18931,1.2658,1.27301,1.31361,1.2913,1.24368,1.24382,1.30121,1.23444,1.30137,1.26439,1.29662,1.17806,1.37775,1.26977,1.28708,1.31468,1.26888,1.26931,1.25816,1.28705,1.21962,1.3064,1.24775,1.2456,1.33743,1.23379,1.22371,1.28875,1.24761,1.24157,1.23966,1.23908,1.23847,1.29194,1.34392,1.27702,1.26761,1.30795
1.34005,1.30926,1.3096,1.22137,1.28861,1.28069,1.27632,1.23756,1.23609,1.24789,1.32641,1.29996,1.35163,1.25679,1.24824,1.16225,1.17933,1.24775,1.38782,1.27363,1.17887,1.33176,1.27898,1.25464,1.29934,1.28301,1.20457,1.29616,1.2186,1.24766,1.26551,1.30808,1.29269,1.30524,1.30297,1.28028,1.33636,1.28184,1.34516,1.29918,1.18384,1.26994,1.26684,1.25571,1.31569,1.28944,1.27616,1.30108,1.23731,1.2862,1.31072,1.2215,1.28773,1.27313,1.27732,1.33644,1.25216,1.22828,1.30512,1.26909
1.27452,1.28514,1.25257,1.32036,1.17738,1.19892,1.24152,1.2815,1.205,1.31974,1.26549,1.33953,1.28507,1.27267,1.23306,1.24464,1.28997,1.31552,1.24007,1.23244,1.2083,1.29989,1.33253,1.23289,1.2475,1.31954,1.24852,1.26455,1.2999,1.31224,1.2634,1.36164,1.31169,1.20233,1.27065,1.33841,1.26366,1.36335,1.2679,1.27959,1.23419,1.23497,1.35306,1.28446,1.20916,1.26621,1.2499,1.2826,1.23311,1.27974,1.28842,1.30439,1.30509,1.28937,1.25568,1.29162,1.33883,1.25787,1.31381,1.34514
1.29041,1.26251,1.26234,1.25565,1.27892,1.31186,1.24653,1.30273,1.2976,1.34246,1.27494,1.21243,1.22909,1.33222,1.33317,1.24361,1.23702,1.28323,1.26809,1.29823,1.24641,1.26628,1.28613,1.2457,1.21614,1.22826,1.22627,1.27819,1.24066,1.2719,1.2905,1.25392,1.23711,1.22372,1.27538,1.19435,1.25568,1.25146,1.24037,1.27363,1.28768,1.26561,1.21024,1.25025,1.242,1.31241,1.34406,1.23323,1.22255,1.23126,1.19875,1.24516,1.29023,1.27668,1.3411,1.25877,1.24365,1.27045,1.28207,1.21644
1.27009,1.30149,1.28636,1.26466,1.27836,1.16564,1.28277,1.27042,1.27702,1.25908,1.24684,1.20848,1.3089,1.28046,1.28602,1.291,1.25702,1.27031,1.30038,1.30998,1.33605,1.22779,1.32995,1.21596,1.2888,1.32796,1.26645,1.27855,1.31861,1.22742,1.28003,1.35435,1.31842,1.3011,1.27805,1.30886,1.23143,1.26703,1.26087,1.39817,1.22188,1.21966,1.27515,1.29025,1.19087,1.25469,1.31439,1.3011,1.24425,1.2698,1.22141,1.18207,1.27668,1.26315,1.30053,1.30557,1.33058,1.3049,1.23534,1.26921
1.30946,1.28271,1.2902,1.32511,1.30593,1.24266,1.19054,1.28507,1.32781,1.28017,1.28105,1.24484,1.24728,1.31959,1.35037,1.29216,1.28022,1.22295,1.30448,1.21231,1.24142,1.31982,1.26784,1.24951,1.29434,1.24279,1.22809,1.27318,1.21046,1.25171,1.35167,1.33475,1.20992,1.2573,1.29827,1.25269,1.23855,1.2809,1.3479,1.26228,1.25699,1.19496,1.31338,1.2938,1.28048,1.27984,1.25961,1.29434,1.32472,1.34208,1.29619,1.24567,1.26185,1.24153,1.26413,1.29285,1.31765,1.39113,1.2431,1.31619
1.27009,1.24914,1.27913,1.23922,1.23119,1.22885,1.23311,1.3536,1.17222,1.2254,1.28659,1.2749,1.23094,1.19282,1.23168,1.2824,1.25724,1.29446,1.20555,1.3194,1.26547,1.23508,1.27341,1.30994,1.19744,1.24871,1.33311,1.29873,1.31203,1.23671,1.23436,1.19307,1.32635,1.28835,1.23492,1.28889,1.23895,1.31495,1.21207,1.23272,1.29087,1.22237,1.32528,1.27598,1.27157,1.24903,1.26946,1.27298,1.37515,1.33742,1.33721,1.24195,1.24768,1.23771,1.26991,1.29461,1.28137,1.26888,1.30931,1.22867
1.26914,1.32371,1.21621,1.28344,1.29807,1.30699,1.36895,1.3869,1.29384,1.28421,1.26716,1.30315,1.22566,1.23893,1.30825,1.19589,1.2743,1.26637,1.30704,1.30517,1.29118,1.27325,1.33352,1.29153,1.22977,1.24,1.2544,1.25861,1.24135,1.34428,1.31047,1.27454,1.22177,1.27362,1.28278,1.22557,1.2929,1.2736,1.31457,1.31924,1.19338,1.25116,1.30404,1.252,1.35976,1.32506,1.26247,1.28956,1.24508,1.30349,1.27144,1.26657,1.25231,1.26176,1.35614,1.27129,1.23765,1.35562,1.35451,1.34355
1.27423,1.25627,1.27696,1.25484,1.27258,1.34538,1.28475,1.28987,1.24998,1.28166,1.25234,1.21486,1.30399,1.32284,1.25143,1.2179,1.32308,1.25171,1.27009,1.29222,1.30546,1.29691,1.3284,1.28276,1.29568,1.25293,1.26812,1.1992,1.26767,1.25419,1.33847,1.28163,1.25885,1.24227,1.30637,1.33152,1.32297,1.28445,1.26121,1.34779,1.26409,1.26418,1.24092,1.16939,1.25643,1.24471,1.24613,1.26094,1.29749,1.23496,1.30426,1.29816,1.22645,1.27512,1.23933,1.2323,1.29937,1.25504,1.26934,1.29091
1.2587,1.28725,1.25121,1.23308,1.32053,1.26381,1.35216,1.2059,1.2277,1.26861,1.2675,1.28171,1.30004,1.227,1.2344,1.22523,1.30536,1.26302,1.2636,1.28742,1.25074,1.30777,1.30608,1.28652,1.31085,1.3018,1.20242,1.28008,1.2418,1.26154,1.26317,1.28817,1.19645,1.26354,1.27744,1.23313,1.20945,1.2137,1.3004,1.35146,1.22524,1.34367,1.29509,1.29403,1.30411,1.36729,1.26924,1.28501,1.31861,1.27773,1.27174,1.42799,1.26031,1.23861,1.24842,1.32919,1.23823,1.25215,1.35774,1.23164
1.27478,1.24813,1.269,1.34646,1.26116,1.28092,1.31307,1.28906,1.22716,1.29727,1.26658,1.26528,1.29217,1.32641,1.31779,1.28366,1.26381,1.28125,1.30359,1.37201,1.29753,1.35472,1.33632,1.26136,1.24491,1.28847,1.32961,1.25238,1.26949,1.26267,1.21755,1.23682,1.34656,1.26242,1.3041,1.2516,1.29674,1.30425,1.36619,1.29348,1.32734,1.29247,1.3469,1.25819,1.24328,1.30558,1.30477,1.30604,1.2561,1.18989,1.30284,1.2279,1.3307,1.2711,1.31359,1.29225,1.27536,1.22135,1.30647,1.25763
1.30263,1.24001,1.25838,1.33545,1.31189,1.26702,1.23423,1.29643,1.29585,1.3467,1.29265,1.27551,1.31573,1.26367,1.22248,1.22631,1.30867,1.20099,1.2562,1.22789,1.23507,1.27453,1.25743,1.33269,1.22929,1.27205,1.26325,1.26719,1.24864,1.28468,1.21088,1.29668,1.20561,1.14531,1.26823,1.27986,1.272,1.23053,1.20919,1.3205,1.29418,1.24171,1.24033,1.30236,1.27058,1.30753,1.20151,1.35949,1.24119,1.305,1.33284,1.30365,1.29247,1.23517,1.31577,1.23641,1.29565,1.35069,1.2912,1.28449
1.27924,1.31051,1.24689,1.25779,1.27023,1.25709,1.31724,1.23041,1.31228,1.25845,1.26819,1.29484,1.26449,1.29436,1.24533,1.26224,1.27789,1.30391,1.23451,1.29651,1.25318,1.35049,1.29927,1.29727,1.29257,1.25073,1.31532,1.25444,1.27506,1.31502,1.23853,1.23849,1.31979,1.2604,1.23382,1.25151,1.31284,1.3237,1.26944,1.29962,1.26266,1.30331,1.25735,1.26837,1.26123,1.22125,1.33018,1.22731,1.24487,1.25791,1.26764,1.22095,1.19797,1.29764,1.28176,1.27201,1.27326,1.25595,1.32087,1.21804
1.36822,1.24191,1.26082,1.32811,1.27709,1.25099,1.21312,1.22642,1.23687,1.26662,1.22751,1.30147,1.29542,1.27344,1.25565,1.21201,1.25657,1.30528,1.22666,1.26117,1.26117,1.25768,1.32459,1.30269,1.28324,1.31479,1.26382,1.32391,1.30496,1.20311,1.25604,1.18945,1.27177,1.20616,1.26739,1.3136,1.3454,1.27075,1.22636,1.34079,1.27128,1.2005,1.37001,1.27722,1.30341,1.32961,1.26005,1.23162,1.20942,1.21013,1.24785,1.28807,1.38379,1.28524,1.26657,1.27657,1.36823,1.24965,1.38037,1.26621
1.27872,1.22736,1.30687,1.26892,1.20805,1.25773,1.28666,1.32081,1.30253,1.30367,1.34461,1.28928,1.16292,1.18607,1.29352,1.35924,1.36734,1.34137,1.30924,1.28887,1.23784,1.28116,1.24462,1.28189,1.25526,1.36152,1.27896,1.32692,1.25112,1.27967,1.26552,1.23417,1.36501,1.30086,1.26605,1.27343,1.33621,1.24856,1.27084,1.21048,1.29165,1.33386,1.28858,1.30553,1.23394,1.29931,1.32961,1.21379,1.28513,1.24438,1.22704,1.27983,1.24803,1.27141,1.30204,1.33884,1.24884,1.3296,1.25857,1.24493
1.24176,1.27516,1.32771,1.27022,1.23973,1.22749,1.27371,1.26758,1.27005,1.34398,1.31037,1.24733,1.20344,1.26517,1.24369,1.31148,1.20858,1.22782,1.36555,1.29374,1.28165,1.23482,1.29439,1.23206,1.26345,1.17288,1.25245,1.21675,1.24779,1.27936,1.29518,1.24296,1.3065,1.31208,1.24761,1.28926,1.30439,1.30561,1.20275,1.313,1.37012,1.25387,1.26699,1.30016,1.32803,1.21006,1.25454,1.22921,1.24458,1.25301,1.31827,1.22297,1.23322,1.32232,1.22213,1.246,1.29111,1.26577,1.22837,1.2705
1.26333,1.22509,1.23067,1.26156,1.31845,1.2875,1.30264,1.22494,1.26743,1.24409,1.28352,1.14573,1.30263,1.30184,1.21535,1.39097,1.2621,1.2769,1.23942,1.20227,1.3021,1.26523,1.37635,1.35681,1.30528,1.32698,1.24444,1.32931,1.26026,1.27525,1.33185,1.24682,1.29986,1.23643,1.33227,1.31774,1.34532,1.24705,1.31653,1.24087,1.23552,1.2644,1.24905,1.26454,1.25757,1.22493,1.25211,1.31369,1.26058,1.27016,1.28089,1.25004,1.28163,1.26896,1.25021,1.22316,1.24636,1.21348,1.26269,1.29861
1.26843,1.28022,1.23964,1.23215,1.27605,1.18699,1.33416,1.21098,1.24761,1.24835,1.30481,1.24371,1.25528,1.27189,1.22966,1.29363,1.21802,1.19236,1.27033,1.34228,1.27843,1.20776,1.2228,1.24821,1.31561,1.25141,1.27667,1.30126,1.31246,1.18455,1.25172,1.32129,1.29157,1.2963,1.2456,1.19068,1.28048,1.26046,1.25493,1.24004,1.22205,1.3153,1.33464,1.27967,1.34971,1.28512,1.23657,1.35933,1.28457,1.30513,1.33338,1.21356,1.34508,1.37989,1.34684,1.28924,1.29611,1.29348,1.24235,1.29252

max: 3.36599
min: 1.13047
avg: 1.27438
