1.42481,1.42518,1.46099,1.51714,1.52113,1.42623,1.49622,1.45726,1.44298,1.49999,1.53108,1.49589,1.4637,1.46845,1.46358,1.49606,1.43091,1.46563,1.49357,1.46194,1.48492,1.49013,1.47734,1.46198,1.51407,1.50636,1.47566,1.47439,1.51359,1.43263,1.52469,1.48918,1.5465,1.48303,1.55067,1.55715,1.43072,1.56616,1.44109,1.47758,1.54641,1.42427,1.45443,1.53276,1.48116,1.51962,1.46174,1.50845,1.49456,1.51464,1.52619,1.56955,1.52819,1.49036,1.46133,1.57694,1.53197,1.52589,1.49709,1.45639
1.50588,1.48397,1.5295,1.51692,1.52293,1.51619,1.4784,1.55831,1.48766,1.51366,1.49042,1.4696,1.53132,1.50628,1.52415,1.4774,1.57297,1.52887,1.49633,1.44822,1.42876,1.54684,1.43195,1.45584,1.49222,1.44865,1.52454,1.43581,1.4462,1.53188,1.49155,1.40996,1.55917,1.43784,1.4787,1.48063,1.44611,1.5678,1.54107,1.48423,1.53797,1.52223,1.48706,1.47655,1.45005,1.53959,1.41562,1.4306,1.5319,1.51615,1.49151,1.46003,1.44746,1.54462,1.44151,1.52865,1.51505,1.59368,1.50268,1.49692
1.46249,1.47433,1.56714,1.45714,1.5029,1.50771,1.48169,1.5208,1.51413,1.51988,1.5145,1.51397,1.51002,1.50341,1.43823,1.54082,1.54365,1.48921,1.48896,1.48164,1.52357,1.49496,1.42149,1.57238,1.52754,1.43754,1.55466,1.48972,1.49379,1.48027,1.535,1.55143,1.5479,1.53531,1.48558,1.5442,1.56313,1.51313,1.48544,1.48211,1.49248,1.43359,1.50789,1.53633,1.51889,1.51257,1.47403,1.46277,1.45013,1.50538,1.50511,1.42906,1.4624,1.48214,1.46493,1.47647,1.53472,1.501,1.47334,1.56054
1.45666,1.4266,1.47147,1.56501,1.49557,1.478,1.50755,1.47024,1.52357,1.48065,1.50722,1.47084,1.39389,1.51712,1.43145,1.54266,1.51146,1.49101,1.45026,1.54101,1.43675,1.48367,1.47776,1.52013,1.50996,1.52334,1.47657,1.46991,1.50866,1.57998,1.50343,1.50365,1.53825,1.47986,1.5979,1.52385,1.46565,1.5271,1.44707,1.42312,1.44539,1.54507,1.4632,1.49737,1.54094,1.53173,1.55604,1.52341,1.51714,1.51323,1.48603,1.47835,1.54308,1.50101,1.49581,1.48685,1.5439,1.51598,1.49979,1.54596
1.50715,1.42307,1.47213,1.48522,1.41617,1.48959,1.40499,1.49997,1.47137,1.47181,1.51466,1.512,1.50152,1.4366,1.49893,1.51102,1.40304,1.48548,1.4563,1.51129,1.53539,1.48592,1.45814,1.49518,1.57561,1.48352,1.44082,1.41539,1.47132,1.5077,1.51279,1.44332,1.5703,1.57121,1.49069,1.54568,1.43328,1.60392,1.56878,1.52673,1.47254,1.48531,1.43071,1.51678,1.51903,1.47685,1.51421,1.49046,1.43749,1.47625,1.59622,1.52779,1.43779,1.53248,1.45851,1.46322,1.48397,1.53817,1.47624,1.47559
1.46048,1.58961,1.51231,1.52633,1.55873,1.54506,1.50368,1.46593,1.46195,1.57127,1.54493,1.44809,1.46761,1.52531,1.55599,1.51703,1.5478,1.49869,1.56643,1.54879,1.50331,1.44876,1.48038,1.51144,1.47517,1.57137,1.48525,1.49572,1.54316,1.50071,1.45233,1.46759,1.43012,1.4899,1.51933,1.45326,1.46769,1.54369,1.42737,1.51378,1.466,1.52872,1.50221,1.54297,1.50605,1.41873,1.49324,1.54568,1.45536,1.44693,1.45486,1.48734,1.44707,1.43921,1.45287,1.51865,1.4554,1.48426,1.46012,1.42096
1.53902,1.48954,1.48479,1.54148,1.53137,1.46182,1.51643,1.50855,1.51611,1.56632,1.58116,1.52523,1.48776,1.60921,1.4972,1.49415,1.51478,1.49844,1.53933,1.4937,1.4825,1.51532,1.53503,1.51417,1.51818,1.4997,1.49601,1.42217,1.58645,1.50135,1.5787,1.5402,1.54123,1.56548,1.48373,1.51431,1.47605,1.48677,1.51722,1.45811,1.50112,1.43269,1.52989,1.48681,1.40857,1.46603,1.52699,1.46311,1.50288,1.47512,1.48013,1.52418,1.47232,1.5442,1.5018,1.49905,1.47232,1.42569,1.51067,1.42994
1.43336,1.50503,1.47447,1.53504,1.52143,1.4895,1.5038,1.52426,1.46904,1.44469,1.42843,1.47129,1.5092,1.42961,1.58144,1.39024,1.52788,1.43753,1.44506,1.52577,1.55835,1.49065,1.50268,1.50903,1.51671,1.4988,1.46194,1.52844,1.51313,1.51462,1.46468,1.49618,1.50907,1.4627,1.48909,1.49734,1.58471,1.4563,1.55109,1.51959,1.48596,1.53854,1.44189,1.52261,1.53442,1.57565,1.43846,1.50271,1.52965,1.51928,1.47378,1.56641,1.49526,1.53836,1.54978,1.56275,1.55209,1.4664,1.54052,1.42901
1.44366,1.54242,1.52897,1.51695,1.48625,1.48757,1.45554,1.45895,1.51908,1.47253,1.49161,1.53944,1.5238,1.47301,1.53085,1.46363,1.52717,1.50419,1.48187,1.51159,1.53344,1.45817,1.4935,1.4631,1.49393,1.58188,1.54963,1.47557,1.50191,1.54724,1.47059,1.48821,1.51185,1.51891,1.63417,1.54915,1.45488,1.50451,1.39744,1.53565,1.48374,1.42048,1.44449,1.49331,1.49461,1.55404,1.46284,1.49546,1.43741,1.50392,1.54412,1.47997,1.50235,1.54814,1.50671,1.51658,1.52425,1.55985,1.55572,1.51254
1.53896,1.48104,1.59005,1.54246,1.41936,1.50335,1.54504,1.56478,1.49731,1.58707,1.52803,1.50698,1.54864,1.47691,1.57471,1.55155,1.57545,1.47358,1.43194,1.45987,1.49702,1.46869,1.43449,1.51389,1.49289,1.54834,1.40363,1.44408,1.48323,1.38859,1.46836,1.50343,1.49849,1.64102,1.46311,1.55523,1.59601,1.47966,1.49815,1.52682,1.53529,1.48825,1.46312,1.42828,1.42846,1.49579,1.4315,1.51289,1.4687,1.46163,1.47727,1.44893,1.48934,1.4838,1.49707,1.4965,1.51146,1.49985,1.55947,1.51595
1.53455,1.48229,1.50101,1.51148,1.43816,1.48947,1.48182,1.59314,1.4824,1.53701,1.45646,1.49052,1.46424,1.52831,1.49628,1.43488,1.50813,1.44831,1.50532,1.48115,1.47758,1.492,1.54827,1.4691,1.47492,1.47699,1.47139,1.4958,1.44903,1.54076,1.50466,1.48969,1.53227,1.57665,1.50076,1.55615,1.59105,1.55608,1.5676,1.50079,1.43103,1.53817,1.47717,1.41248,1.51348,1.45027,1.46293,1.43803,1.5364,1.53833,1.49772,1.50271,1.42743,1.34687,1.44168,1.56275,1.46655,1.44022,1.51024,1.47178
1.48118,1.52892,1.50001,1.50556,1.52272,1.52282,1.4581,1.42331,1.55241,1.47605,1.40026,1.47839,1.4524,1.51686,1.39013,1.48437,1.41141,1.41675,1.52052,1.46834,1.50243,1.53635,1.53451,1.50543,1.5422,1.45378,1.49043,1.48558,1.48914,1.53032,1.51403,1.4726,1.51465,1.5378,1.51886,1.43581,1.53295,1.5138,1.53744,1.5248,1.49425,1.49779,1.53963,1.46731,1.52809,1.45472,1.54508,1.51511,1.52765,1.53918,1.47928,1.50374,1.4917,1.48161,1.51996,1.50996,1.54348,1.43514,1.54271,1.45918
1.50877,1.51004,1.47157,1.46454,1.45716,1.51242,1.45952,1.47212,1.46824,1.55879,1.51661,1.50437,1.4797,1.44199,1.52573,1.46515,1.57963,1.38931,1.43864,1.45852,1.5745,1.49769,1.43665,1.5055,1.49408,1.86103,1.50135,1.50172,1.56901,1.4795,1.40377,1.47644,1.44349,1.49811,1.49284,1.48906,1.43485,1.52834,1.5354,1.47545,1.47371,1.49002,1.48558,1.5053,1.48142,1.45531,1.4727,1.44478,1.44036,1.53376,1.50274,1.52045,1.50859,1.56885,1.48576,1.52986,1.53242,1.44878,1.55323,1.56008
1.53151,1.56249,1.57043,1.5201,1.48399,1.58806,1.51245,1.51191,1.47904,1.50801,1.52761,1.48655,1.44183,1.46319,1.46908,1.43296,1.52925,1.51259,1.57434,1.57651,1.52009,1.48005,1.45217,1.45895,1.51533,1.48818,1.38743,1.48638,1.49362,1.50119,1.46035,1.50594,1.5445,1.56695,1.53154,1.51515,1.46484,1.48039,1.38511,1.50807,1.52471,1.54724,1.49364,1.52578,1.52533,1.81068,1.51028,1.59703,1.48441,1.48989,1.56862,1.50939,1.43943,1.49703,1.5686,1.45617,1.47389,1.57484,1.44089,1.51657
1.51412,1.43228,1.58578,1.54523,1.53554,1.48092,1.5249,1.46195,1.54489,1.48522,1.48919,1.50789,1.46415,1.50367,1.52595,1.5087,1.47664,1.47544,1.54274,1.40269,1.4744,1.56847,1.48849,1.52888,1.47839,1.51369,1.48804,1.43962,1.51152,1.4677,1.53384,1.5445,1.49498,1.49264,1.55168,1.47117,1.57778,1.60568,1.49707,1.52261,1.52906,1.53769,1.47074,1.47291,1.47179,1.44749,1.50357,1.48724,1.4611,1.52842,1.43234,1.47704,1.53985,1.51917,1.51613,1.47755,1.46698,1.61687,1.46314,1.46565
1.49336,1.52993,1.39936,1.53641,1.56958,1.48221,1.49111,1.49913,1.50655,1.46733,1.47018,1.5697,1.4853,1.55121,1.58072,1.44009,1.5158,1.4857,1.50635,1.41326,1.53004,1.5081,1.50115,1.40974,1.48594,1.5195,1.47402,1.54986,1.54913,1.44799,1.42968,1.43159,1.45542,1.50216,1.45623,1.41835,1.58758,1.45441,1.4858,1.4851,1.53127,1.46011,1.51455,1.58353,1.43664,1.46371,1.51425,1.5153,1.49872,1.50353,1.42911,1.55514,1.56464,1.50694,1.57628,1.50828,1.49182,1.50801,1.49983,1.55174
1.49056,1.51997,1.43741,1.40797,1.54784,1.46639,1.50521,1.45811,1.45431,1.52853,1.46456,1.48222,1.46963,1.50167,1.46354,1.53034,1.44631,1.43007,1.46678,1.43629,1.47914,1.46434,1.45636,1.55584,1.49003,1.54253,1.49616,1.49751,1.50878,1.54931,1.57336,1.55564,1.51616,1.47538,1.53741,1.53186,1.53601,1.49168,1.46683,1.52496,1.51353,1.54447,1.51953,1.43495,1.50037,1.45829,1.46997,1.49065,1.57215,1.51021,1.49379,1.50874,1.40083,1.54814,1.47503,1.51965,1.57804,1.55254,1.54283,1.49763
1.48066,1.4514,1.49574,1.46293,1.52686,1.50664,1.59073,1.51061,1.54691,1.54741,1.52747,1.4701,1.45924,1.56517,1.559,1.48617,1.513,1.55588,1.51821,1.47452,1.4674,1.46312,1.50549,1.48553,1.53599,1.44284,1.47921,1.47909,1.4403,1.46243,1.52159,1.51673,1.43724,1.47018,1.49787,1.46058,1.51348,1.51058,1.57686,1.48619,1.45134,1.58193,1.50599,1.50952,1.44538,1.49142,1.42793,1.5344,1.49545,1.51214,1.43972,1.50715,1.51168,1.50485,1.53597,1.47658,1.45621,1.49939,1.54688,1.46724
1.51127,1.45913,1.49941,1.54117,1.52001,1.54629,1.5333,1.51235,1.51938,1.53699,1.46518,1.43406,1.38359,1.47365,1.50329,1.48827,1.45917,1.57508,1.53624,1.53962,1.49785,1.50236,1.44684,1.48941,1.4824,1.48929,1.51014,1.48823,1.53824,1.57779,1.51094,1.5116,1.5006,1.55202,1.55353,1.54195,1.51402,1.5603,1.60217,1.49314,1.50069,1.52654,1.54557,1.43241,1.54324,1.53783,1.46507,1.48094,1.49837,1.54836,1.47909,1.5068,1.49354,1.49931,1.50076,1.48621,1.46199,1.45946,1.45812,1.45167
1.48846,1.47438,1.51326,1.51129,1.49532,1.54413,1.52653,1.5075,1.41546,1.54321,1.49495,1.49472,1.51252,1.51874,1.57373,1.5366,1.52945,1.44102,1.42959,1.50862,1.55251,1.50914,1.50635,1.59555,1.52604,1.46346,1.5402,1.43911,1.52032,1.40705,1.44846,1.52164,1.4734,1.4473,1.51706,1.52441,1.55539,1.45105,1.4767,1.46714,1.52944,1.52228,1.53324,1.45788,1.53699,1.50662,1.60451,1.47329,1.4811,1.47618,1.46429,1.57095,1.52746,1.45677,1.54299,1.48326,1.51337,1.50233,1.45818,1.51892
1.49505,1.49558,1.45843,1.47564,1.51751,1.45359,1.44732,1.47474,1.4651,1.51172,1.45675,1.46345,1.46967,1.57186,1.43359,1.45906,1.49241,1.54116,1.39548,1.55013,1.47549,1.4379,1.4681,1.50958,1.48825,1.47779,1.4343,1.34788,1.51848,1.57831,1.49682,1.48525,1.50249,1.5051,1.44967,1.42359,1.43586,1.52395,1.55448,1.48522,1.55703,1.43784,1.59844,1.48175,1.47827,1.44323,1.49315,1.47616,1.56647,1.55596,1.46813,1.46466,1.49185,1.50142,1.54961,1.52105,1.58222,1.51781,1.56895,1.55285
1.51536,1.52788,1.45346,1.53861,1.52576,1.47223,1.4665,1.58923,1.50234,1.4311,1.46988,1.56076,1.55036,1.51503,1.56257,1.50259,1.53234,1.5386,1.5637,1.48855,1.46966,1.51557,1.45944,1.45665,1.50527,1.49404,1.49905,1.47359,1.4705,1.49895,1.56427,1.48192,1.48238,1.46948,1.4966,1.44604,1.5169,1.52962,1.53396,1.5041,1.41951,1.50693,1.50743,1.5246,1.4107,1.49245,1.50435,1.4744,1.43031,1.43476,1.44913,1.58189,1.46291,1.45847,1.51664,1.48711,1.47543,1.51449,1.5221,1.40962
1.53935,1.53339,1.51616,1.54416,1.46594,1.55502,1.52069,1.53992,1.4616,1.48316,1.45826,1.53846,1.58196,1.50667,1.49117,1.46863,1.51783,1.49784,1.49826,1.45492,1.51728,1.54428,1.51473,1.46595,1.60683,1.49295,1.52155,1.4677,1.55436,1.55135,1.48836,1.48607,1.47506,1.55148,1.55933,1.56835,1.41262,1.56562,1.51175,1.53819,1.48411,1.48171,1.37942,1.4353,1.45609,1.46564,1.46414,1.49688,1.48029,1.52022,1.48591,1.39256,1.47887,1.49631,1.48495,1.38121,1.53798,1.48053,1.50293,1.50635
1.57836,1.45469,1.49964,1.51168,1.59131,1.47975,1.4534,1.47283,1.50792,1.52446,1.4728,1.47864,1.53226,1.46895,1.48775,1.49105,1.49663,1.41626,1.54984,1.5577,1.50524,1.5529,1.47221,1.51815,1.50621,1.52357,1.56195,1.48644,1.42784,1.52244,1.46177,1.56229,1.53673,1.52459,1.5341,1.46457,1.48457,1.56007,1.49393,1.50605,1.50627,1.53421,1.58927,1.49926,1.52577,1.48292,1.51922,1.58105,1.51656,1.4784,1.48092,1.55172,1.55853,1.52843,1.52243,1.51215,1.5331,1.49117,1.58248,1.54748
1.48467,1.45957,1.53349,1.44745,1.47547,1.51639,1.4477,1.45609,1.46938,1.49968,1.47462,1.50808,1.50487,1.42148,1.50161,1.47305,1.5118,1.48536,1.54875,1.50386,1.5067,1.51277,1.46903,1.46577,1.52713,1.45405,1.57859,1.4628,1.50102,1.46667,1.53256,1.39171,1.47616,1.45793,1.45825,1.48977,1.49049,1.5212,1.46661,1.48037,1.52135,1.42853,1.53237,1.49451,1.48349,1.5619,1.48542,1.5246,1.57385,1.48482,1.44802,1.5196,1.58327,1.51359,1.38305,1.50131,1.48996,1.5343,1.47386,1.54414
1.43992,1.4862,1.48509,1.54846,1.46195,1.47887,1.50808,1.54602,1.51192,1.58698,1.4998,1.47148,1.44845,1.47058,1.51527,1.48605,1.48629,1.55576,1.55244,1.47981,1.45268,1.5227,1.5076,1.42819,1.44177,1.48048,1.4537,1.51248,1.45474,1.52173,1.44574,1.49263,1.47664,1.56429,1.4828,1.41229,1.47099,1.47327,1.45055,1.4899,1.47431,1.44942,1.5526,1.46687,1.51421,1.49267,1.46642,1.52782,1.52315,1.42872,1.44056,1.50006,1.56076,1.55621,1.56005,1.49405,1.47429,1.54941,1.48759,1.47995
1.47501,1.48003,1.49547,1.5392,1.5448,1.43653,1.4101,1.47896,1.47835,1.48702,1.53166,1.48055,1.49973,1.52087,1.49148,1.47878,1.45891,1.44256,1.53078,1.56859,1.50127,1.53974,1.41092,1.50347,1.52259,1.58248,1.48353,1.53321,1.45038,1.55363,1.54197,1.44748,1.5353,1.43701,1.50467,1.51118,1.51835,1.53905,1.47628,1.53231,1.51483,1.44722,1.4337,1.4436,1.4863,1.43705,1.53185,1.50813,1.52115,1.49542,1.44936,1.4882,1.45736,1.52244,1.54613,1.43189,1.49315,1.55735,1.46454,1.45525
1.51452,1.51627,1.54171,1.43859,1.46407,1.45601,1.47571,1.48906,1.50936,1.38689,1.4691,1.50818,1.51119,1.59156,1.43627,1.51699,1.49536,1.48801,1.47106,1.54383,1.49067,1.46578,1.55291,1.50159,1.47447,1.51973,1.42903,1.50016,1.48116,1.52515,1.58071,1.45441,1.53768,1.44744,1.53625,1.49822,1.52097,1.47017,1.47188,1.5098,1.46471,1.46915,1.52339,1.45551,1.48978,1.52034,1.52605,1.47139,1.57525,1.47507,1.51017,1.46133,1.52576,1.48213,1.47611,1.45648,1.51506,1.56059,1.4867,1.53867
1.49035,1.55361,1.50958,1.50897,1.48395,1.49526,1.47308,1.5035,1.4673,1.48804,1.57614,1.48375,1.42104,1.4262,1.50431,1.4876,1.42449,1.5114,1.512,1.44848,1.47458,1.54381,1.4828,1.53652,1.45203,1.58475,1.53749,1.51166,1.50071,1.46248,1.48459,1.44904,1.51847,1.49219,1.3807,1.46746,1.44319,1.52088,1.49615,1.57185,1.47217,1.44333,1.53079,1.4323,1.44125,1.53034,1.45546,1.53521,1.53629,1.47426,1.59312,1.48332,1.44172,1.41587,1.44689,1.44515,1.4892,1.52533,1.49728,1.4701
1.48011,1.49053,1.44358,1.515,1.5056,1.53592,1.52302,1.55882,1.51365,1.47231,1.50363,1.57223,1.52136,1.49216,1.50206,1.5568,1.52098,1.47039,1.48858,1.37201,1.47428,1.42756,1.50974,1.46798,1.3963,1.50185,1.44229,1.47782,1.54726,1.49672,1.52593,1.39664,1.43089,1.47868,1.44761,1.45338,1.51075,1.47581,1.46356,1.52089,1.53286,1.47215,1.5291,1.443,1.5261,1.48505,1.49257,1.47993,1.50742,1.50151,1.52234,1.63065,1.46317,1.5166,1.47145,1.50497,1.52508,1.51336,1.48985,1.57945
1.49678,1.47515,1.5711,1.55491,1.46649,1.51262,1.54564,1.48971,1.53994,1.48088,1.4832,1.45765,1.54473,1.50673,1.53165,1.50768,1.53686,1.51348,1.56269,1.52126,1.5576,1.46706,1.43491,1.48674,1.5809,1.53199,1.49785,1.43893,1.51775,1.5231,3.4997,1.43276,1.49917,1.52552,1.50056,1.52984,1.45877,1.53164,1.57309,1.5561,1.47128,1.52826,1.4247,1.45623,1.49575,1.52509,1.45814,1.46746,1.47032,1.51045,1.51212,1.43771,1.52648,1.53311,1.51845,1.52018,1.39296,1.4673,1.43768,1.38363
1.46935,1.46818,1.4733,1.47113,1.55407,1.56472,1.51832,1.51332,1.49448,1.41904,1.50554,1.51294,1.46444,1.44445,1.46599,1.50073,1.45359,1.4558,1.53028,1.49369,1.46334,1.473,1.48442,1.51112,1.48896,1.52319,1.48918,1.50381,1.54371,1.47933,1.54549,1.44659,1.56706,1.51102,1.56801,1.48662,1.50048,1.52968,1.57848,1.49434,1.46341,1.50433,1.48566,1.50478,1.48566,1.46616,1.52654,1.51915,1.48814,1.40521,1.51868,1.49888,1.48676,1.53594,1.5407,1.47533,1.47717,1.5437,1.46078,1.53034
1.45386,1.47082,1.5445,1.46295,1.44894,1.51232,1.50341,1.50235,1.52111,1.44745,1.58762,1.45654,1.55715,1.5064,1.43479,1.46413,1.51102,1.46655,1.41482,1.53165,1.51728,1.48481,1.50559,1.54789,1.487,1.46041,1.53925,1.58893,1.47962,1.44571,1.48052,1.53718,1.50077,1.46813,1.5003,1.48315,1.47537,1.49952,1.49682,1.4585,1.49128,1.46145,1.51239,1.57244,1.54803,1.37962,1.49676,1.54161,1.44805,1.47004,1.4687,1.5136,1.50614,1.47738,1.50305,1.54309,1.43389,1.54607,1.48776,1.56684
1.56256,1.56233,1.49494,1.50632,1.44399,1.51606,1.44863,1.51636,1.53319,1.34237,1.51341,1.55087,1.46898,1.52741,1.46469,1.54254,1.51731,1.4898,1.45578,1.50286,1.49277,1.46466,1.48948,1.42351,1.42754,1.48272,1.50815,1.56132,1.46279,1.44443,1.53823,1.51963,1.45508,1.51404,1.48308,1.50675,1.53772,1.48249,1.46782,1.50208,1.53902,1.46344,1.45713,1.54782,1.46169,1.51166,1.40753,1.47331,1.47366,1.43324,1.47241,1.41068,1.51729,1.58532,1.44864,1.56257,1.49654,1.50804,1.45995,1.48713
1.52072,1.44737,1.50966,1.53932,1.50388,1.55608,1.53612,1.54018,1.47488,1.56978,1.4721,1.47883,1.48773,1.5002,1.54983,1.5611,1.50705,1.47902,1.55301,1.43897,1.54662,1.49578,1.55211,1.45352,1.48508,1.47381,1.55348,1.46122,1.53293,1.53576,1.53566,1.54857,1.41272,1.51478,1.55194,1.52848,1.52064,1.51465,1.49337,1.45879,1.46129,1.49311,1.51465,1.47298,1.52546,1.53638,1.52825,1.50664,1.4883,1.46417,1.51499,1.5782,1.46751,1.43649,1.53589,1.50009,1.49062,1.53285,1.51438,1.45559
1.54607,1.48014,1.51005,1.49709,1.56268,1.44833,1.49698,1.49766,1.43218,1.46469,1.40143,1.44087,1.49685,1.62189,1.45851,1.51645,1.54922,1.47513,1.42576,1.45541,1.55619,1.45565,1.52547,1.50294,1.49432,1.54893,1.47943,1.53157,1.48157,1.49728,1.50757,1.58984,1.50921,1.4967,1.54544,1.54227,1.47289,1.53366,1.49006,1.49303,1.51579,1.48017,1.4754,1.55135,1.50479,1.4719,1.50179,1.51113,1.53018,1.56922,1.53454,1.45882,1.4789,1.50576,1.57457,1.54215,1.57076,1.4824,1.59508,1.53403
1.46576,1.45606,1.47118,1.48042,1.52128,1.52232,1.51843,1.54363,1.4457,1.51132,1.52971,1.52844,1.43909,1.43606,1.51427,1.57079,1.49133,1.43394,1.37852,1.47857,1.49463,1.54745,1.44551,1.52878,1.49713,1.54859,1.41363,1.4748,1.49906,1.4742,1.47824,1.46328,1.5365,1.45603,1.46297,1.51232,1.43318,1.4925,1.46427,1.47322,1.54362,1.51277,1.55109,1.42794,1.49473,1.58667,1.53185,1.51612,1.49737,1.53004,1.50672,1.45883,1.46283,1.48039,1.49209,1.50054,1.47041,1.55986,1.57172,1.45089
1.53569,1.46129,1.47431,1.49185,1.49931,1.5118,1.50942,1.60554,1.48211,1.53717,1.43769,1.53233,1.53009,1.51208,1.5364,1.40355,1.49363,1.56739,1.49109,1.53078,1.52712,1.49138,1.47314,1.49007,1.51229,1.53332,1.3865,1.53063,1.42876,1.49635,1.51871,1.45665,1.53073,1.53763,1.44265,1.5049,1.45116,1.58533,1.47244,1.54439,1.52246,1.49368,1.51872,1.48461,1.46358,1.4732,1.45246,1.5342,1.51811,1.46691,1.5536,1.54783,1.4817,1.51487,1.57176,1.42249,1.55375,1.50802,1.52157,1.49669
1.50654,1.55287,1.51853,1.45896,1.52847,1.51015,1.57891,1.53013,1.49722,1.57847,1.49458,1.49107,1.56441,1.48722,1.5302,1.57043,1.42986,1.54269,1.51374,1.47532,1.54247,1.555,1.50549,1.5076,1.41174,1.49372,1.49523,1.49121,1.53907,1.47261,1.45968,1.44425,1.55987,1.53657,1.50606,1.5216,1.51458,1.5185,1.56705,1.50396,1.42756,1.45535,1.44704,1.5214,1.52606,1.47213,1.54078,1.46819,1.57426,1.4279,1.49899,1.47073,1.53119,1.52706,1.57554,1.50017,1.49604,1.45831,1.47397,1.49971
1.49866,1.54241,1.54566,1.44864,1.49588,1.53714,1.52298,1.52563,1.50174,1.46822,1.45388,1.47296,1.42566,1.50121,1.49001,1.51404,1.50527,1.49211,1.45269,1.44149,1.54633,1.51426,1.46141,1.52245,1.49104,1.51759,1.4883,1.42782,1.48759,1.5094,1.48968,1.58578,1.54224,1.49616,1.56426,1.49943,1.45394,1.41798,1.53842,1.48121,1.57552,1.43724,1.49618,1.4733,1.45829,1.42578,1.49374,1.48994,1.45742,1.52473,1.43527,1.5193,1.57349,1.52698,1.47353,1.48248,1.52011,1.51734,1.50729,1.53151
1.44198,1.4603,1.42595,1.44982,1.41565,1.5045,1.44611,1.51921,1.50927,1.45922,1.44411,1.52799,1.55897,1.53391,1.48611,1.55267,1.44319,1.42529,1.49678,1.53865,1.51485,1.43118,1.50119,1.49747,1.5027,1.51932,1.5032,1.55559,1.4407,1.45903,1.47462,1.49316,1.46501,1.56825,1.59398,1.49384,1.50788,1.45848,1.49251,1.48164,1.40588,1.50043,1.53509,1.53604,1.46223,1.48949,1.49336,1.52346,1.5963,1.51701,1.55184,1.53977,1.59137,1.52018,1.56976,1.56813,1.45803,1.53557,1.51141,1.53122
1.53203,1.52581,1.51308,1.49749,1.54684,1.42975,1.50254,1.53072,1.51576,1.53102,1.5499,1.46185,1.47482,1.45327,1.57021,1.53532,1.50698,1.55759,1.49817,1.54131,1.4885,1.44937,1.41827,1.47767,1.48256,1.46363,1.47509,1.51443,1.44073,1.47127,1.46724,1.45459,1.49632,1.42633,1.46239,1.48283,1.5814,1.48739,1.42435,1.50245,1.42676,1.45251,1.46981,1.42005,1.51333,1.42263,1.47209,1.50509,1.45981,1.43106,1.47036,1.52767,1.44997,1.52959,1.49966,1.52421,1.48023,1.51677,1.47865,1.48539
1.46503,1.46048,1.44737,1.51038,1.49421,1.48981,1.4148,1.43275,1.48744,1.47402,1.41378,1.5331,1.45537,1.50175,1.54755,1.47844,1.53888,1.56579,1.50058,1.45289,1.43789,1.46112,1.48688,1.53836,1.53811,1.51598,1.4773,1.5943,1.49124,1.44969,1.55081,1.46363,1.532,1.50417,1.57463,1.49503,1.43823,1.46827,1.57309,1.53535,1.51055,1.46633,1.56806,1.534,1.48066,1.50371,1.51497,1.51372,1.52806,1.57207,1.54662,1.45311,1.48534,1.57434,1.50348,1.53618,1.47318,1.50874,1.50402,1.48407
1.46528,1.51333,1.50143,1.51187,1.42089,1.5311,1.42217,1.46295,1.53394,1.46131,1.52376,1.4866,1.49665,1.48992,1.48938,1.52713,1.47969,1.45337,1.47354,1.48713,1.4033,1.57089,1.44107,1.46767,1.56667,1.49729,1.49295,1.55075,1.45773,1.53386,1.56633,1.56507,1.4942,1.53469,1.45071,1.55143,1.50458,1.52002,1.49,1.53278,1.48151,1.49903,1.48168,1.50264,1.44884,1.45643,1.55307,1.50809,1.46534,1.47367,1.49081,1.46941,1.5054,1.48884,1.49742,1.54467,1.47065,1.50715,1.58201,1.45571
1.46334,1.49131,1.5187,1.49178,1.49221,1.41016,1.47013,1.50015,1.43707,1.50324,1.46032,1.45292,1.43981,1.4745,1.4559,1.51306,1.49822,1.57234,1.46532,1.45083,1.51734,1.53684,1.46863,1.50162,1.48162,1.50926,1.52788,1.52071,1.57822,1.52768,1.39188,1.50335,1.48702,1.46131,1.46286,1.41196,1.4972,1.46164,1.53525,1.49394,1.51228,1.49865,1.50068,1.54416,1.50855,1.48809,1.45305,1.47825,1.51962,1.4866,1.48975,1.52902,1.50431,1.50655,1.57577,1.47099,1.51174,1.54254,1.58975,1.52664
1.46889,1.46679,1.61267,1.50134,1.49533,1.56118,1.54082,1.43503,1.53644,1.5434,1.54114,1.51467,1.52259,1.508,1.45366,1.50897,1.4864,1.4568,1.45037,1.45452,1.44449,1.4867,1.46527,1.499,1.37847,1.43265,1.39767,1.49669,1.46747,1.47727,1.45179,1.45795,1.51514,1.39471,1.38573,1.45574,1.47925,1.47613,1.60506,1.44597,1.45514,1.47241,1.47657,1.51484,1.47266,1.48211,1.52928,1.44704,1.46042,1.51765,1.4955,1.53396,1.49166,1.47776,1.50627,1.46209,1.51945,1.5122,1.507,1.52685
1.45952,1.5381,1.5131,1.47443,1.48874,1.51408,1.54231,1.47455,1.57722,1.50859,1.57867,1.45324,1.4992,1.51728,1.48156,1.48272,1.54396,1.4611,1.46747,1.54096,1.47464,1.50402,1.55531,1.4476,1.52331,1.52625,1.53398,1.57776,1.51074,1.51639,1.5177,1.45768,1.51735,1.48462,1.5488,1.52383,1.56279,1.54756,1.47963,1.55842,1.50035,1.42006,1.56014,1.53448,1.54091,1.48392,1.51367,1.4642,1.47877,1.43358,1.47397,1.46052,1.44642,1.49445,1.54375,1.45833,1.50773,1.51222,1.4832,1.43521
1.46101,1.41818,1.46981,1.45753,1.53394,1.54954,1.47469,1.45065,1.53329,1.4342,1.46138,1.46772,1.49756,1.50973,1.48351,1.5375,1.511,1.50142,1.50641,1.51201,1.49762,1.53083,1.53718,1.52721,1.52442,1.50433,1.46972,1.54092,1.47545,1.53307,1.51326,1.51626,1.4186,1.51815,1.50384,1.50194,1.51588,1.46947,1.54693,1.46932,1.56505,1.53695,1.51926,1.42115,1.43852,1.48986,1.55105,1.48551,1.4931,1.47575,1.46329,1.50057,1.54384,1.44694,1.50994,1.45122,1.51074,1.4686,1.50209,1.53812
1.52682,1.45825,1.47128,1.48274,1.4995,1.45922,1.56695,1.42109,1.46728,1.46197,1.45652,1.43245,1.47212,1.40955,1.47639,1.47935,1.49093,1.51853,1.48237,1.43438,1.49345,1.4336,1.54107,1.51576,1.46118,1.50835,1.51179,1.47974,1.4821,1.50542,1.49965,1.47697,1.51977,1.50139,1.43116,1.47075,1.51649,1.55801,1.45108,1.45101,1.59241,1.52677,1.56605,1.46563,1.59083,1.55666,1.55467,1.52055,1.48641,1.54057,1.51432,1.5154,1.45428,1.47037,1.4919,1.54629,1.48603,1.53388,1.50124,1.57778
1.51937,1.45645,1.53129,1.48184,1.50326,1.5006,1.55699,1.47926,1.52273,1.46967,1.53551,1.44936,1.48074,1.50489,1.51831,1.48069,1.52002,1.55813,1.48798,1.48902,1.46022,1.49415,1.44709,1.4511,1.47517,1.54532,1.46492,1.52161,1.49223,1.46316,1.47086,1.47219,1.3997,1.55156,1.45732,1.53775,1.51267,1.51728,1.52218,1.46524,1.50277,1.48068,1.58227,1.43249,1.54714,1.52075,1.52251,1.43201,1.48702,1.52873,1.4766,1.48778,1.49086,1.51789,1.508,1.48572,1.47912,1.4418,1.54243,1.48125
1.45849,1.53836,1.53182,1.49377,1.5062,1.49265,1.55905,1.55325,1.46745,1.51594,1.57037,1.537,1.51867,1.45547,1.46091,1.5335,1.48298,1.50846,1.49471,1.41264,1.46617,1.51452,1.55794,1.48922,1.51457,1.55847,1.51588,1.52364,1.50784,1.5616,1.51218,1.61031,1.47993,1.5478,1.46539,1.5268,1.52227,1.51457,1.55063,1.49571,1.48436,1.51165,1.53653,1.49162,1.48812,1.49125,1.44292,1.5529,1.49942,1.45987,1.47188,1.48899,1.48666,1.47738,1.47922,1.57737,1.44717,1.54039,1.50578,1.45385
1.41845,1.40831,1.52945,1.43013,1.54461,1.51392,1.53023,1.49813,1.47323,1.46863,1.54192,1.53263,1.4873,1.53181,1.44092,1.48666,1.5186,1.47528,1.47672,1.44218,1.53156,1.51184,1.48196,1.52909,1.5173,1.50194,1.46827,1.55476,1.51143,1.49543,1.48829,1.55383,1.43546,1.5372,1.45395,1.57521,1.47508,1.56635,1.57609,1.47797,1.51828,1.5129,1.42272,1.5138,1.47993,1.55417,1.48713,1.54438,1.48854,1.55112,1.51886,1.53989,1.50519,1.50513,1.41144,1.55363,1.48614,1.48403,1.52123,1.50517
1.46822,1.42958,1.52921,1.50632,1.45868,1.5144,1.48696,1.52341,1.48133,1.53558,1.50846,1.52446,1.49111,1.42077,1.45443,1.55785,1.5232,1.50443,1.45195,1.46256,1.46548,1.5567,1.49721,1.55571,1.43233,1.46563,1.52921,1.53325,1.40823,1.52144,1.54014,1.53503,1.47537,1.49793,1.5335,1.43753,1.54062,1.51122,1.5402,1.48438,1.53178,1.51253,1.52026,1.52287,1.50876,1.48538,1.53532,1.4972,1.44553,1.5036,1.44623,1.44011,1.55506,1.54156,1.51898,1.57921,1.4878,1.50798,1.53809,1.48902
1.47922,1.49001,1.56096,1.51466,1.54344,1.45273,1.44624,1.46388,1.47864,1.49493,1.56515,1.4663,1.47854,1.46325,1.49123,1.43378,1.54177,1.58955,1.5641,1.45981,1.46274,1.4592,1.48078,1.42114,1.45524,1.41741,1.47471,1.47721,1.51914,1.41393,1.49808,1.51625,1.54318,1.50667,1.52906,1.50459,1.52013,1.48031,1.46852,1.51734,1.49252,1.46815,1.49693,1.46586,1.47879,1.49149,1.57737,1.44957,1.43487,1.45541,1.51852,1.48704,1.54787,1.48156,1.57429,1.44802,1.48024,1.51986,1.55417,1.42491
1.51458,1.4874,1.50466,1.5499,1.46217,1.4948,1.52,1.46104,1.5428,1.49074,1.49503,1.56382,1.48566,1.45679,1.43607,1.50841,1.48305,1.43365,1.51588,1.46704,1.54285,1.53776,1.50785,1.44957,1.51465,1.46902,1.4651,1.48789,1.48893,1.50117,1.47091,1.51551,1.55083,1.53975,1.52667,1.50732,1.50286,1.53094,1.62486,1.47221,1.42435,1.47938,1.53729,1.49144,1.42884,1.48494,1.50143,1.42197,1.44175,1.53863,1.43706,1.47034,1.49143,1.45726,1.53791,1.53115,1.45378,1.52852,1.52756,1.4894
1.44576,1.56379,1.47493,1.50186,1.50924,1.55811,1.4122,1.4498,1.44402,1.48992,1.48415,1.56085,1.49196,1.47202,1.37466,1.45504,1.48689,1.43412,1.50972,1.48497,1.49543,1.47174,1.50199,1.44998,1.55567,1.5045,1.49174,1.54678,1.5005,1.5243,1.39954,1.50882,1.51983,1.47004,1.4838,1.5238,1.44496,1.48158,1.47353,1.5249,1.5552,1.50554,1.48823,1.45293,1.55897,1.48484,1.45592,1.3971,1.49441,1.48753,1.48035,1.49401,1.48931,1.44557,1.51447,1.50736,1.46969,1.50424,1.56148,1.55918
1.44971,1.48672,1.4269,1.49378,1.46979,1.52489,1.49643,1.47919,1.49737,1.51574,1.45189,1.53593,1.43808,1.50777,1.42157,1.44958,1.50718,1.4849,1.49625,1.51405,1.48571,1.42153,1.46964,1.49926,1.49348,1.49835,1.44945,1.51836,1.45374,1.48792,1.50112,1.48925,1.49033,1.46726,1.44863,1.47173,1.43561,1.52002,1.46354,1.52087,1.52351,1.52846,1.48322,1.42105,1.47504,1.53182,1.40076,1.52185,1.41785,1.42455,1.51066,1.56782,1.47408,1.48172,1.49767,1.54595,1.5078,1.43256,1.57914,1.46805
1.50031,1.53188,1.45413,1.45746,1.43285,1.49147,1.43024,1.54212,1.48705,1.52138,1.47331,1.50587,1.43016,1.53452,1.41286,1.42524,1.56911,1.55448,1.57027,1.4683,1.46734,1.48362,1.45493,1.51963,1.52398,1.54007,1.50451,1.38925,1.48923,1.51324,1.46126,1.5147,1.45395,1.49545,1.46598,1.4502,1.39426,1.47816,1.47449,1.47095,1.51645,1.45264,1.50315,1.50401,1.49043,1.48376,1.51956,1.54082,1.53537,1.54776,1.45586,1.5017,1.53884,1.41093,1.46817,1.4977,1.55542,1.51821,1.47176,1.4994
1.48234,1.55469,1.42425,1.51593,1.50804,1.44826,1.52342,1.49881,1.49806,1.43655,1.50217,1.48864,1.51666,1.54083,1.49734,1.43024,1.50188,1.49564,1.55903,1.47266,1.46348,1.5,1.50282,1.54974,1.58787,1.52761,1.57478,1.5426,1.47038,1.51171,1.55652,1.49397,1.43573,1.52532,1.61762,1.51187,1.52118,1.59519,1.49849,1.48039,1.54222,1.55646,1.53983,1.4607,1.48084,1.42765,1.47634,1.51341,1.42858,1.47385,1.47892,1.47432,1.45058,1.53199,1.5216,1.51562,1.49508,1.47018,1.49796,1.44404
1.46339,1.48714,1.48388,1.50385,1.51712,1.44267,1.35694,1.49838,1.5238,1.51394,1.44747,1.47333,1.43316,1.52495,1.48502,1.49112,1.50677,1.5032,1.54025,1.48995,1.53584,1.49782,1.55151,1.54213,1.54599,1.47263,1.47837,1.50791,1.5173,1.5115,1.54361,1.4749,1.45874,1.47543,1.5243,1.48633,1.43956,1.437,1.51279,1.46712,1.5147,1.46699,1.51451,1.53252,1.50703,1.45425,1.48528,1.53435,1.49442,1.49244,1.47533,1.51591,1.51689,1.48546,1.49414,1.43295,1.50315,1.53599,1.40218,1.54583

max: 3.4997
min: 1.34237
avg: 1.49805
