0.487129,0.396076,0.373458,0.417022,0.449266,0.495116,0.442606,0.404612,0.365499,0.433653,0.429024,0.428876,0.466151,0.435358,0.358999,0.407363,0.437612,0.43281,0.426953,0.386039,0.431285,0.349429,0.415346,0.410486,0.403271,0.433225,0.431087,0.45332,0.420575,0.388881,0.431502,0.368803,0.478766,0.377639,0.422397,0.434343,0.410604,0.423419,0.48814,0.478188,0.441093,0.416585,0.457188,0.425604,0.449223,0.46027,0.443626,0.438569,0.461591,0.434037,0.456286,0.449334,0.406889,0.421069,0.406961,0.463095,0.435294,0.464735,0.429814,0.475063
0.516026,0.43621,0.477959,0.528737,0.454181,0.472756,0.425318,0.48508,0.409702,0.395817,0.437272,0.366705,0.438272,0.407558,0.433959,0.513552,0.388798,0.448169,0.425726,0.432611,0.472525,0.393761,0.402035,0.436856,0.443729,0.397382,0.355715,0.375771,0.490921,0.47546,0.420468,0.473899,0.508772,0.389889,0.450736,0.463008,0.445046,0.461633,0.458977,0.420161,0.407283,0.420409,0.454472,0.40084,0.4527,0.408913,0.432515,0.414355,0.434894,0.462434,0.389691,0.424919,0.431248,0.428235,0.458642,0.491731,0.452984,0.437363,0.350781,0.436544
0.406602,0.425669,0.409011,0.449206,0.472745,0.43106,0.445324,0.400512,0.430628,0.381931,0.428028,0.385722,0.411026,0.45743,0.432512,0.427183,0.412849,0.467873,0.42215,0.400307,0.412764,0.365317,0.382724,0.391194,0.404816,0.440891,0.442512,0.429767,0.462196,0.432539,0.44307,0.45465,0.439962,0.394409,0.467091,0.454986,0.49264,0.38388,0.442193,0.44643,0.398518,0.373513,0.462507,0.485172,0.450594,0.47549,0.443074,0.452922,0.380551,0.500281,0.424655,0.492859,0.53452,0.412756,0.393059,0.379636,0.386823,0.455408,0.435651,0.4398
0.419138,0.451351,0.409985,0.43021,0.409265,0.464607,0.432906,0.417303,0.3754,0.390815,0.413553,0.44391,0.470883,0.363529,0.398178,0.399491,0.43257,0.443494,0.448645,0.43501,0.455942,0.441314,0.44181,0.406709,0.43092,0.418253,0.422415,0.400861,0.380307,0.448052,0.442557,0.414948,0.479096,0.455886,0.47468,0.473457,0.397905,0.427868,0.415697,0.396848,0.403172,0.396709,0.429508,0.399757,0.406112,0.429751,0.433977,0.431388,0.504784,0.443734,0.419666,0.431278,0.404634,0.421509,0.427577,0.472684,0.431863,0.401002,0.425626,0.446349
0.424643,0.433949,0.427301,0.475336,0.448352,0.397282,0.407941,0.434978,0.406232,0.475016,0.437096,0.396396,0.378951,0.437641,0.428463,0.3559,0.425381,0.418923,0.35077,0.441905,0.496888,0.401177,0.459369,0.399386,0.389366,0.404598,0.443365,0.423207,0.433025,0.470883,0.413594,0.437622,0.468561,0.435572,0.428803,0.39902,0.39895,0.432222,0.440128,0.451237,0.487377,0.429236,0.429669,0.373068,0.362507,0.446686,0.443096,0.422867,0.444464,0.419479,0.593283,0.412952,0.427335,0.409912,0.447111,0.427773,0.415089,0.431714,0.428351,0.439923
0.452119,0.465546,0.420392,0.436417,0.457465,0.409586,0.46798,0.490784,0.40913,0.426399,0.375245,0.413103,0.495505,0.467672,0.400697,0.438162,0.417272,0.377246,0.419347,0.423332,0.417821,0.354112,0.425677,0.425758,0.430621,0.414177,0.409466,0.425013,0.410893,0.41522,0.45091,0.406917,0.442133,0.426253,0.441088,0.437227,0.444208,0.387424,0.409435,0.3855,0.425843,0.40875,0.451695,0.472865,0.39829,0.447792,0.435985,0.40734,0.379276,0.446156,0.433389,0.438075,0.409648,0.458629,0.388025,0.436617,0.416491,0.408431,0.464845,0.412576
0.417808,0.404778,0.396731,0.414578,0.396769,0.432114,0.473931,0.439026,0.383395,0.42596,0.569714,0.445648,0.355212,0.4797,0.438283,0.456463,0.372908,0.405712,0.441761,0.383034,0.472491,0.445469,0.431425,0.389117,0.410938,0.441033,0.41852,0.428178,0.537201,0.417704,0.477715,0.410748,0.459031,0.419428,0.419918,0.453511,0.420258,0.431004,0.440579,0.431404,0.379339,0.435244,0.398464,0.429708,0.404279,0.420533,0.478558,0.41859,0.451702,0.433169,0.471534,0.387514,0.399386,0.446449,0.466835,0.393683,0.388951,0.485964,0.438792,0.462802
0.442997,0.42202,0.414288,0.400688,0.435613,0.398185,0.413001,0.416284,0.419269,0.455342,0.473549,0.451296,0.411417,0.457424,0.617432,0.457146,0.380856,0.382746,0.416361,0.565039,0.434449,0.392267,0.473842,0.448254,0.389324,0.444803,0.445757,0.387878,0.450147,0.437436,0.457175,0.460176,0.472835,0.439316,0.481726,0.470713,0.473667,0.479549,0.400537,0.462044,0.484332,0.434145,0.443068,0.44697,0.428018,0.425496,0.369119,0.489055,0.437211,0.429776,0.412184,0.480785,0.419941,0.468473,0.412821,0.360889,0.472613,0.416935,0.410027,0.471717
0.447583,0.437398,0.440459,0.36984,0.38928,0.432967,0.44199,0.454886,0.489983,0.413496,0.404644,0.403043,0.412934,0.372071,0.429229,0.413244,0.453761,0.449944,0.400714,0.459615,0.427598,0.437085,0.390598,0.479522,0.423884,0.381756,0.413761,0.428749,0.37034,0.477531,0.46757,0.395834,0.456507,0.437269,0.618117,0.410764,0.397598,0.511606,0.430308,0.597438,0.425921,0.407582,0.434242,0.410336,0.417182,0.446163,0.430533,0.412916,0.426072,0.41584,0.455674,0.412695,0.436939,0.39979,0.404502,0.416338,0.435821,0.383299,0.478904,0.418873
0.405977,0.409696,0.407383,0.394168,0.422005,0.470948,0.430154,0.461,0.436168,0.45198,0.433284,0.426218,0.416416,0.406799,0.437429,0.445129,0.394906,0.417544,0.47623,0.417249,0.409018,0.389992,0.40628,0.428312,0.41934,0.465139,0.465709,0.41558,0.408837,0.392142,0.441721,0.390454,0.455688,0.468657,0.412488,0.671903,0.379749,0.47361,0.382868,0.404463,0.397887,0.404343,0.42034,0.534045,0.403051,0.38807,0.453046,0.470332,0.460648,0.420208,0.46277,0.46004,0.475165,0.438549,0.449203,0.489887,0.523998,0.437089,0.438677,0.446902
0.435595,0.535265,0.349914,0.388172,0.42745,0.425931,0.452898,0.411743,0.399818,0.46295,0.431591,0.438931,0.378267,0.429281,0.453237,0.406403,0.431285,0.430201,0.47648,0.448594,0.42768,0.423439,0.397835,0.406925,0.451447,0.45464,0.411312,0.412303,0.368299,0.43872,0.459017,0.475542,0.488414,0.459244,0.444884,0.45657,0.3926,0.401987,0.436389,0.420561,0.448614,0.427459,0.405872,0.422903,0.400001,0.406886,0.400624,0.409838,0.429323,0.370082,0.485598,0.390662,0.366979,0.383918,0.422983,0.592517,0.423232,0.409392,0.387247,0.385356
0.402959,0.40333,0.458691,0.544078,0.410308,0.409876,0.438846,0.402146,0.374668,0.418629,0.432665,0.37345,0.418007,0.43725,0.433469,0.476895,0.430494,0.397815,0.432357,0.429652,0.387463,0.502906,0.401057,0.42317,0.414641,0.384597,0.426217,0.372618,0.421411,0.387099,0.400016,0.437612,0.40003,0.394874,0.42068,0.388686,0.424597,0.44039,0.435531,0.435538,0.440148,0.365937,0.472491,0.427197,0.446321,0.466435,0.408795,0.441951,0.456719,0.444518,0.451828,0.382892,0.519424,0.439605,0.365268,0.41377,0.398907,0.432392,0.440083,0.428144
0.395556,0.358656,0.463506,0.388922,0.392759,0.490848,0.371283,0.366818,0.41053,0.426119,0.425793,0.436211,0.386919,0.448611,0.438392,0.447015,0.477821,0.432207,0.402911,0.43154,0.376924,0.397274,0.405754,0.455118,0.491418,0.721761,0.417774,0.430692,0.420117,0.43129,0.445246,0.38388,0.446244,0.450169,0.41162,0.408858,0.478633,0.398238,0.431674,0.384442,0.466669,0.440785,0.372512,0.452863,0.455396,0.436732,0.455391,0.392771,0.417782,0.416789,0.424244,0.445711,0.442069,0.456833,0.444339,0.422802,0.405807,0.385244,0.402415,0.447522
0.398002,0.431347,0.414899,0.383252,0.405813,0.44147,0.389568,0.456547,0.405496,0.464802,0.462682,0.408587,0.400374,0.400373,0.417018,0.483306,0.397995,0.478174,0.48645,0.444325,0.425321,0.437448,0.485281,0.422033,0.430134,0.382004,0.399977,0.422139,0.382749,0.421356,0.433777,0.415636,0.373775,0.454094,0.401389,0.431945,0.372887,0.389799,0.367562,0.396399,0.463233,0.424373,0.390746,0.473142,0.396412,0.80747,0.39597,0.434835,0.413056,0.401531,0.453293,0.433141,0.401094,0.419967,0.467344,0.431663,0.361383,0.450459,0.500817,0.420902
0.370979,0.465438,0.374997,0.441272,0.461924,0.459175,0.417358,0.430629,0.495427,0.462839,0.44334,0.438505,0.457446,0.41838,0.41117,0.424461,0.465126,0.465529,0.426075,0.416936,0.390643,0.377342,0.378425,0.441405,0.421138,0.442485,0.451318,0.39017,0.401337,0.51169,0.429793,0.453306,0.43509,0.485503,0.415488,0.409761,0.428809,0.428374,0.425755,0.476591,0.445947,0.475664,0.400664,0.407025,0.538525,0.461551,0.457605,0.456456,0.383175,0.465318,0.430924,0.458457,0.476968,0.451876,0.425832,0.386787,0.448554,0.426196,0.469214,0.411011
0.379836,0.440095,0.446326,0.421882,0.473826,0.411728,0.411222,0.423172,0.410853,0.466845,0.407492,0.434919,0.443643,0.415031,0.432633,0.442082,0.482141,0.407863,0.348452,0.471606,0.418025,0.381359,0.416633,0.367277,0.395825,0.42969,0.423034,0.458007,0.350274,0.391682,0.380283,0.430165,0.404322,0.404206,0.441489,0.458432,0.562573,0.448101,0.42547,0.409324,0.408793,0.436928,0.415427,0.421598,0.443641,0.463135,0.443101,0.425229,0.421313,0.427382,0.496996,0.428489,0.425427,0.490579,0.481677,0.418205,0.469578,0.40923,0.429071,0.483271
0.423026,0.421349,0.435873,0.441353,0.518402,0.479436,0.474814,0.421575,0.387458,0.353681,0.435187,0.411116,0.436141,0.415735,0.434339,0.372417,0.425707,0.398473,0.462151,0.427444,0.470747,0.413344,0.472851,0.370355,0.411218,0.372375,0.389561,0.463604,0.454265,0.414258,0.378903,0.430693,0.445095,0.426694,0.466756,0.369663,0.562178,0.403507,0.435967,0.452464,0.456984,0.373924,0.412685,0.42809,0.489035,0.403198,0.421241,0.457785,0.464352,0.438979,0.386692,0.438591,0.4306,0.433022,0.429855,0.365226,0.566366,0.421344,0.418474,0.417488
0.414204,0.48066,0.457525,0.458592,0.477672,0.435039,0.414209,0.473674,0.44253,0.40029,0.430948,0.432933,0.452433,0.432148,0.374503,0.427623,0.467058,0.46851,0.451482,0.395573,0.470195,0.374469,0.414114,0.434076,0.465152,0.406686,0.425131,0.422625,0.445167,0.398822,0.398227,0.366793,0.414411,0.440652,0.433747,0.336005,0.404295,0.498806,0.42249,0.463134,0.456003,0.395941,0.38577,0.441475,0.373535,0.49653,0.405222,0.440463,0.426521,0.421149,0.404132,0.438557,0.457349,0.388694,0.455313,0.453549,0.426968,0.450742,0.499775,0.444018
0.457815,0.365633,0.433184,0.49237,0.394392,0.449733,0.405337,0.434794,0.398064,0.442443,0.458702,0.456979,0.496591,0.392145,0.421288,0.431694,0.465441,0.439205,0.409627,0.415629,0.461836,0.40492,0.429853,0.406807,0.408553,0.490154,0.444217,0.426388,0.475337,0.501341,0.446036,0.391777,0.429911,0.402506,0.457471,0.423175,0.374529,0.425452,0.502089,0.418152,0.402885,0.396951,0.402814,0.397909,0.473517,0.432254,0.418763,0.438842,0.443937,0.438873,0.472363,0.382051,0.450547,0.421308,0.415878,0.401416,0.392472,0.439933,0.410473,0.447554
0.466263,0.494272,0.479293,0.381796,0.424978,0.459346,0.423648,0.393958,0.465855,0.387236,0.431607,0.443099,0.424144,0.421884,0.452464,0.49051,0.437733,0.430117,0.427169,0.43198,0.390447,0.38019,0.470047,0.464769,0.454194,0.420374,0.430503,0.424662,0.434171,0.426048,0.4008,0.434914,0.396834,0.406882,0.412298,0.457125,0.452115,0.407252,0.468969,0.416537,0.489452,0.438038,0.384033,0.418409,0.448997,0.395051,0.384617,0.448149,0.481455,0.441704,0.376972,0.436453,0.387951,0.386919,0.474789,0.423243,0.399463,0.43216,0.461181,0.428805
0.414028,0.482965,0.426486,0.457664,0.381965,0.386307,0.396107,0.428596,0.432445,0.411122,0.392769,0.444915,0.396862,0.343198,0.456912,0.468138,0.43629,0.447411,0.460103,0.462213,0.380368,0.465919,0.439311,0.462118,0.406975,0.507402,0.438019,0.445213,0.500605,0.368218,0.447568,0.469445,0.441112,0.405433,0.39751,0.422703,0.446671,0.404577,0.453308,0.37583,0.425374,0.482625,0.416244,0.419503,0.459019,0.429024,0.43602,0.474951,0.421109,0.447312,0.464126,0.423884,0.464711,0.410842,0.371701,0.374392,0.435529,0.401546,0.444121,0.41202
0.465608,0.3759,0.449,0.454113,0.471279,0.398,0.422677,0.426542,0.391771,0.501477,0.361966,0.463602,0.417056,0.43295,0.533741,0.479759,0.425828,0.451598,0.398067,0.38218,0.453884,0.442969,0.392833,0.41553,0.424963,0.383953,0.366276,0.449017,0.415288,0.433164,0.449988,0.396487,0.422496,0.477195,0.472166,0.402883,0.448103,0.423877,0.479656,0.42577,0.403667,0.44491,0.413652,0.397486,0.464996,0.429324,0.425949,0.461958,0.448588,0.403478,0.445646,0.419947,0.442727,0.453764,0.493162,0.446305,0.387407,0.443689,0.427793,0.472711
0.399375,0.457622,0.408335,0.42667,0.466305,0.439802,0.418057,0.440325,0.401611,0.430999,0.404256,0.367749,0.438591,0.460933,0.486892,0.360939,0.474921,0.418106,0.451366,0.393261,0.437319,0.441426,0.385465,0.449648,0.393857,0.475703,0.409854,0.50468,0.43307,0.412081,0.408892,0.438651,0.438551,0.402921,0.46699,0.436595,0.472237,0.434411,0.447127,0.439287,0.441843,0.379203,0.410067,0.364793,0.438032,0.451879,0.465846,0.412128,0.368466,0.435671,0.44701,0.358496,0.436765,0.467054,0.453415,0.475101,0.387804,0.429599,0.500854,0.357737
0.36902,0.383417,0.443574,0.39053,0.413516,0.425744,0.381977,0.406906,0.387966,0.429884,0.353344,0.421745,0.43328,0.382879,0.458094,0.317816,0.382565,0.396834,0.433589,0.405266,0.50248,0.464013,0.390834,0.408227,0.46463,0.405973,0.439394,0.396135,0.415497,0.369028,0.422029,0.40093,0.367898,0.458003,0.444254,0.413029,0.424281,0.433212,0.38234,0.433737,0.409791,0.43581,0.43302,0.454532,0.366859,0.445343,0.483903,0.402147,0.394296,0.368838,0.400077,0.408267,0.450874,0.460534,0.406282,0.412698,0.409049,0.44839,0.433657,0.460643
0.430255,0.424384,0.42028,0.471684,0.45819,0.430029,0.414516,0.39033,0.417516,0.434591,0.460099,0.473829,0.424492,0.52943,0.439046,0.428315,0.423771,0.432201,0.442363,0.391553,0.349978,0.412839,0.422442,0.434107,0.447749,0.410492,0.390359,0.435879,0.40807,0.444709,0.436512,0.406256,0.407509,0.409892,0.46291,0.479863,0.422663,0.431859,0.426169,0.392935,0.416835,0.423777,0.423592,0.423616,0.403632,0.533,0.44878,0.39503,0.401155,0.499004,0.419362,0.424931,0.415555,0.40601,0.397046,0.43792,0.45547,0.488238,0.411118,0.429927
0.467034,0.413401,0.406732,0.412928,0.484956,0.398287,0.42136,0.43994,0.539663,0.406166,0.471944,0.464793,0.516251,0.401311,0.419566,0.401623,0.469996,0.469061,0.468283,0.443101,0.406596,0.486378,0.377776,0.462566,0.386499,0.401067,0.434744,0.420884,0.460466,0.45426,0.384534,0.445684,0.382204,0.454543,0.411739,0.442919,0.402547,0.40179,0.412151,0.467204,0.458855,0.449901,0.442649,0.428314,0.436181,0.4515,0.451581,0.453076,0.415965,0.375047,0.41409,0.445945,0.391523,0.385142,0.493009,0.461889,0.410418,0.42905,0.430106,0.419508
0.437329,0.382609,0.39916,0.421864,0.438563,0.461067,0.415379,0.441047,0.458151,0.381108,0.383839,0.453684,0.407282,0.413227,0.445781,0.358598,0.3831,0.418407,0.412021,0.426441,0.438048,0.426192,0.507818,0.412791,0.410117,0.389817,0.466247,0.463712,0.418485,0.409475,0.402231,0.44903,0.439704,0.352739,0.383474,0.449235,0.440777,0.466713,0.452689,0.421845,0.440501,0.38729,0.415938,0.447554,0.457776,0.427597,0.448764,0.410714,0.471583,0.493399,0.436882,0.430206,0.467327,0.479686,0.438336,0.415291,0.424674,0.443154,0.418605,0.372047
0.421394,0.402372,0.42166,0.428516,0.425675,0.462053,0.458682,0.378858,0.421277,0.42975,0.392807,0.443233,0.401883,0.419746,0.439749,0.468189,0.448629,0.505369,0.388742,0.430075,0.421732,0.390728,0.411375,0.394076,0.442826,0.359426,0.423894,0.406344,0.445714,0.440653,0.425134,0.459339,0.381811,0.453131,0.418958,0.433077,0.360771,0.463719,0.464077,0.44114,0.425642,0.457125,0.431003,0.45932,0.469312,0.44506,0.394664,0.460086,0.436284,0.456181,0.424518,0.479752,0.456181,0.432502,0.396384,0.45188,0.443722,0.455042,0.395949,0.384076
0.489675,0.432638,0.431015,0.412811,0.407777,0.451311,0.340257,0.439323,0.394259,0.446841,0.429345,0.445116,0.447317,0.475163,0.40486,0.381304,0.43269,0.425394,0.483241,0.414312,0.442487,0.450014,0.42121,0.446206,0.348012,0.446164,0.390508,0.403868,0.412035,0.596738,0.401253,0.405436,0.444998,0.463185,0.452138,0.430247,0.40683,0.37566,0.430871,0.384657,0.416274,0.404313,0.40032,0.390316,0.485587,0.443259,0.441575,0.434914,0.39943,0.405805,0.46723,0.448351,0.439301,0.459468,0.424567,0.422326,0.46267,0.412974,0.397903,0.426369
0.450614,0.388494,0.430866,0.458988,0.439664,0.422382,0.384968,0.406697,0.41172,0.455565,0.431974,0.46841,0.454393,0.384504,0.403,0.41437,0.412067,0.43209,0.385791,0.446769,0.38377,0.456548,0.408894,0.376583,0.400668,0.412865,0.416571,0.401932,0.453702,0.414428,0.413091,0.37536,0.438771,0.426024,0.443381,0.478051,0.475977,0.336589,0.393444,0.405666,0.452556,0.468887,0.416555,0.452058,0.38317,0.424698,0.427736,0.445604,0.441045,0.488125,0.424528,0.422434,0.462623,0.484834,0.422571,0.453421,0.465154,0.365204,0.453857,0.393472
0.436661,0.469027,0.375592,0.455956,0.472507,0.473676,0.45415,0.402593,0.431415,0.442225,0.435194,0.458989,0.469646,0.452833,0.437346,0.358982,0.445694,0.374306,0.48574,0.44587,0.473723,0.451,0.396462,0.414742,0.437054,0.411558,0.406287,0.456138,0.390562,0.404066,2.5858,0.412404,0.480479,0.472929,0.412766,0.427897,0.343635,0.426187,0.464926,0.424161,0.429157,0.444948,0.464284,0.477812,0.420132,0.438846,0.414233,0.455481,0.444343,0.408871,0.408697,0.409957,0.424754,0.433538,0.368209,0.417931,0.347638,0.37849,0.411136,0.46275
0.36662,0.398007,0.421851,0.478174,0.414108,0.43674,0.440583,0.442655,0.428359,0.47962,0.440089,0.44896,0.409979,0.415869,0.461712,0.413368,0.36458,0.392977,0.357294,0.39859,0.459338,0.463106,0.452874,0.414515,0.427816,0.400025,0.445563,0.480467,0.474707,0.456532,0.4275,0.413487,0.432968,0.460698,0.440685,0.400517,0.437659,0.457117,0.457566,0.436873,0.437863,0.4686,0.419372,0.421211,0.417682,0.428268,0.408899,0.375433,0.428909,0.448576,0.434449,0.502698,0.427564,0.433426,0.591305,0.442708,0.421041,0.381366,0.382309,0.422435
0.405513,0.455684,0.460474,0.413587,0.455034,0.34853,0.389299,0.439669,0.4388,0.441013,0.447733,0.416453,0.422395,0.433249,0.426619,0.400238,0.408774,0.434215,0.421732,0.407864,0.413552,0.39706,0.400418,0.363951,0.435493,0.413543,0.416942,0.413324,0.419308,0.394755,0.434114,0.387927,0.449534,0.429923,0.430491,0.409784,0.427605,0.400286,0.450387,0.402388,0.433354,0.468184,0.456459,0.383095,0.442703,0.480482,0.421373,0.464769,0.402331,0.435283,0.466878,0.423089,0.485495,0.430589,0.433244,0.477868,0.468928,0.465731,0.435447,0.419081
0.476719,0.476295,0.464855,0.443884,0.399145,0.480032,0.382214,0.43917,0.455988,0.44671,0.461893,0.437196,0.438411,0.447098,0.544188,0.380309,0.433873,0.419103,0.423518,0.403679,0.439679,0.412655,0.475457,0.373305,0.403774,0.390635,0.414066,0.42171,0.426389,0.416362,0.388421,0.488102,0.420777,0.453692,0.433652,0.407925,0.427448,0.406928,0.386841,0.422755,0.402534,0.383064,0.462665,0.418968,0.408453,0.390073,0.470352,0.398456,0.473532,0.423866,0.424076,0.372886,0.389629,0.652816,0.351117,0.382259,0.4765,0.426747,0.414796,0.45872
0.48684,0.390828,0.394412,0.455435,0.383287,0.602937,0.419497,0.405052,0.467625,0.401868,0.420714,0.423927,0.426716,0.457243,0.461639,0.457588,0.425633,0.477168,0.413578,0.414724,0.414264,0.443241,0.435043,0.43019,0.418649,0.475743,0.451822,0.437866,0.444448,0.461168,0.402542,0.463434,0.443679,0.44058,0.403243,0.433124,0.423706,0.432218,0.488451,0.438416,0.420366,0.419752,0.442377,0.389408,0.457614,0.442892,0.423559,0.415412,0.462408,0.382336,0.430232,0.437558,0.390529,0.395479,0.364859,0.497627,0.446466,0.417685,0.374928,0.3959
0.40702,0.449495,0.411332,0.416405,0.422932,0.403419,0.418355,0.469955,0.424516,0.418383,0.403118,0.425848,0.471164,0.583441,0.44233,0.433673,0.383435,0.486178,0.469319,0.439033,0.401915,0.42185,0.467197,0.445617,0.424181,0.567576,0.476678,0.455223,0.406099,0.447654,0.432452,0.400655,0.453821,0.442553,0.459648,0.400736,0.435872,0.405131,0.412529,0.443865,0.403555,0.399313,0.405135,0.382536,0.407449,0.404737,0.451765,0.412865,0.385943,0.457156,0.392308,0.44421,0.440389,0.431907,0.407256,0.424678,0.359993,0.42891,0.527047,0.445424
0.397165,0.421411,0.410495,0.387385,0.464288,0.425652,0.394016,0.456411,0.501775,0.422141,0.477325,0.45626,0.458801,0.445774,0.451411,0.42424,0.383843,0.430181,0.391406,0.429671,0.408516,0.447645,0.420987,0.442942,0.426079,0.416063,0.436526,0.428528,0.429556,0.400591,0.409073,0.414112,0.428422,0.44525,0.403891,0.451753,0.434772,0.403724,0.501757,0.420219,0.388864,0.480658,0.413307,0.454149,0.464286,0.463551,0.450127,0.405239,0.381243,0.460959,0.456195,0.369401,0.405386,0.458162,0.405578,0.482659,0.428069,0.410001,0.474694,0.431391
0.428671,0.52859,0.392,0.363677,0.409591,0.449687,0.504737,0.436263,0.404351,0.41788,0.396665,0.406793,0.423774,0.38532,0.417168,0.498326,0.460872,0.433359,0.412373,0.509537,0.478436,0.407438,0.450691,0.382066,0.461525,0.409347,0.449319,0.438627,0.398519,0.471935,0.432505,0.424756,0.370227,0.399392,0.433257,0.489997,0.403399,0.432001,0.422302,0.469931,0.400387,0.470242,0.386765,0.430046,0.40459,0.483179,0.479993,0.391136,0.413459,0.432558,0.454049,0.433128,0.415602,0.41226,0.501598,0.45723,0.457828,0.49913,0.414256,0.423985
0.440318,0.512389,0.466565,0.42824,0.483194,0.391764,0.406605,0.368733,0.4588,0.440524,0.415435,0.421946,0.489647,0.397456,0.424583,0.444004,0.500809,0.418942,0.41384,0.472149,0.436185,0.503811,0.434578,0.449476,0.414619,0.410712,0.384546,0.433009,0.471592,0.412174,0.43059,0.384777,0.380252,0.403795,0.409048,0.362874,0.480478,0.456551,0.396933,0.449553,0.474453,0.417013,0.432492,0.334405,0.375703,0.421955,0.395867,0.405689,0.405775,0.395348,0.409016,0.467376,0.419598,0.450551,0.429064,0.398667,0.477888,0.364939,0.430518,0.425748
0.45519,0.392413,0.407332,0.411714,0.474902,0.461409,0.397697,0.476685,0.466166,0.439786,0.40706,0.404236,0.454324,0.408377,0.493836,0.45317,0.467617,0.379437,0.474638,0.451707,0.417325,0.42501,0.411758,0.433659,0.435446,0.413986,0.411422,0.45571,0.443714,0.444824,0.406165,0.421921,0.433556,0.45457,0.399254,0.461756,0.42742,0.428324,0.431188,0.463992,0.420036,0.471925,0.36917,0.443708,0.457211,0.380326,0.446821,0.424527,0.380773,0.394851,0.405849,0.469401,0.379492,0.411844,0.418287,0.374814,0.405372,0.447095,0.425514,0.372577
0.38804,0.460098,0.390055,0.409311,0.384897,0.370045,0.448096,0.396769,0.42561,0.41374,0.488923,0.419025,0.416588,0.476389,0.422494,0.391591,0.47325,0.463835,0.431299,0.406956,0.478964,0.430607,0.387441,0.469741,0.451081,0.447412,0.427744,0.395736,0.419638,0.430253,0.393326,0.446881,0.446569,0.417736,0.394789,0.446631,0.463907,0.458261,0.414763,0.459939,0.420955,0.426783,0.427166,0.47788,0.386022,0.471718,0.421453,0.382035,0.456879,0.478747,0.389698,0.432349,0.46564,0.428233,0.462259,0.488736,0.386305,0.395396,0.344468,0.495257
0.435445,0.448901,0.441757,0.439806,0.403528,0.436525,0.511893,0.462242,0.429778,0.388764,0.407071,0.424965,0.381725,0.421029,0.440924,0.458846,0.396326,0.475217,0.442812,0.483937,0.457919,0.435325,0.440955,0.438741,0.393485,0.469013,0.421697,0.412714,0.442437,0.365663,0.440496,0.383199,0.411124,0.432187,0.421153,0.448754,0.462088,0.407519,0.434255,0.419265,0.407651,0.419843,0.425415,0.457761,0.438019,0.376084,0.396101,0.403538,0.441983,0.431031,0.421463,0.460566,0.506402,0.454752,0.40533,0.449359,0.424381,0.417796,0.44752,0.432373
0.341121,0.454554,0.440161,0.403016,0.377703,0.42848,0.429744,0.403965,0.468555,0.422377,0.464568,0.440613,0.400205,0.446258,0.461734,0.396102,0.409464,0.435635,0.414021,0.477231,0.432973,0.447445,0.448759,0.393504,0.449845,0.440981,0.436201,0.44316,0.391295,0.407502,0.412416,0.408231,0.391605,0.417427,0.442457,0.436685,0.480754,0.420527,0.454066,0.461783,0.4096,0.469473,0.448811,0.446492,0.454817,0.451006,0.392895,0.412711,0.458296,0.408537,0.424834,0.492052,0.460929,0.390936,0.444109,0.380801,0.448109,0.473385,0.444079,0.426115
0.450959,0.44236,0.428437,0.449913,0.425153,0.408435,0.423263,0.39796,0.423264,0.450554,0.430814,0.417404,0.446205,0.443387,0.369723,0.421347,0.414756,0.454431,0.42484,0.439967,0.426091,0.460937,0.408619,0.427553,0.459867,0.402235,0.443437,0.439093,0.406107,0.403629,0.440886,0.400221,0.426871,0.406472,0.370543,0.388835,0.435353,0.444377,0.413414,0.373594,0.431896,0.447012,0.420901,0.452982,0.414581,0.361253,0.399395,0.470875,0.465947,0.390037,0.428824,0.448404,0.428699,0.40529,0.375734,0.432971,0.458678,0.410145,0.410163,0.479474
0.420649,0.45652,0.454561,0.400245,0.411755,0.495291,0.440043,0.444296,0.374827,0.40948,0.420472,0.51766,0.412936,0.416393,0.409115,0.431916,0.402452,0.463569,0.414743,0.406149,0.435443,0.412403,0.420854,0.398909,0.390227,0.516553,0.429271,0.443911,0.472917,0.41553,0.419138,0.369043,0.458983,0.434931,0.401861,0.444599,0.401521,0.485885,0.411368,0.397809,0.446711,0.449606,0.46063,0.496994,0.383894,0.449582,0.426275,0.364538,0.408816,0.405123,0.388174,0.40611,0.498132,0.408568,0.413672,0.473504,0.480634,0.422447,0.456091,0.537807
0.38848,0.405054,0.381739,0.460665,0.49164,0.41152,0.397711,0.399376,0.520363,0.4606,0.464146,0.411335,0.41437,0.448531,0.443309,0.484043,0.447098,0.423055,0.45465,0.508423,0.42389,0.421571,0.367858,0.377447,0.442016,0.416176,0.418615,0.416187,0.432313,0.489634,0.426632,0.397387,0.435184,0.478165,0.481373,0.406719,0.431621,0.446919,0.41305,0.394494,0.412491,0.445623,0.400169,0.428904,0.400928,0.477589,0.431885,0.49809,0.459541,0.42739,0.474279,0.504246,0.488606,0.396761,0.45668,0.394076,0.408354,0.467674,0.427866,0.405907
0.433453,0.397839,0.453992,0.486737,0.437742,0.432976,0.475978,0.450758,0.44442,0.409899,0.473397,0.439732,0.493754,0.420924,0.475966,0.45661,0.436825,0.48407,0.361177,0.416376,0.446593,0.454733,0.459859,0.387655,0.441253,0.400654,0.457203,0.370333,0.487083,0.413624,0.413312,0.403077,0.485185,0.434508,0.438044,0.447006,0.432894,0.433726,0.449634,0.573855,0.436521,0.375408,0.432286,0.426803,0.399752,0.446977,0.414652,0.401803,0.446317,0.328308,0.396484,0.376464,0.436817,0.448794,0.382072,0.419534,0.432021,0.443888,0.471765,0.420636
0.47165,0.476666,0.493523,0.460388,0.43939,0.382781,0.420959,0.362446,0.471332,0.42438,0.40058,0.456348,0.439097,0.444526,0.441158,0.421502,0.436827,0.435346,0.41539,0.374918,0.465706,0.449058,0.385619,0.438737,0.483852,0.409252,0.378911,0.441773,0.405304,0.460988,0.421324,0.427571,0.487459,0.429933,0.446246,0.420035,0.44184,0.493949,0.424926,0.444896,0.392237,0.453074,0.407673,0.422315,0.362705,0.48868,0.40489,0.473846,0.489668,0.41366,0.42422,0.424457,0.424394,0.371138,0.441499,0.435821,0.389276,0.435673,0.431344,0.382635
0.390834,0.391287,0.386143,0.410882,0.408933,0.37429,0.431658,0.423565,0.417548,0.408259,0.422239,0.474528,0.39909,0.459803,0.412389,0.431114,0.394738,0.442124,0.426173,0.483553,0.466993,0.454187,0.434462,0.484358,0.38891,0.389339,0.34325,0.394652,0.414462,0.45136,0.399729,0.408839,0.519949,0.381071,0.419876,0.452283,0.381024,0.425116,0.473238,0.448081,0.465035,0.427836,0.463378,0.373735,0.415814,0.474021,0.461291,0.387467,0.393317,0.425826,0.468843,0.465069,0.406127,0.423028,0.450216,0.420698,0.435402,0.384994,0.481938,0.397014
0.411504,0.438174,0.433248,0.44457,0.402028,0.451678,0.413492,0.373878,0.430964,0.402285,0.440255,0.417416,0.447437,0.389671,0.430929,0.427074,0.430158,0.412368,0.46892,0.422312,0.418386,0.370429,0.424646,0.377954,0.45609,0.415797,0.45077,0.40024,0.404133,0.416914,0.440331,0.397448,0.439251,0.377425,0.372277,0.400205,0.408073,0.375128,0.43487,0.44427,0.399601,0.429172,0.405595,0.450964,0.585614,0.476465,0.453187,0.471884,0.476514,0.500933,0.37788,0.467226,0.454307,0.403233,0.389013,0.420177,0.449576,0.410969,0.395199,0.44537
0.396936,0.379541,0.396533,0.393141,0.402787,0.418015,0.433798,0.396114,0.391285,0.402896,0.438551,0.403163,0.37678,0.523158,0.435234,0.469704,0.456952,0.479698,0.418787,0.441485,0.438246,0.47648,0.468273,0.427346,0.400421,0.431411,0.40797,0.425072,0.431593,0.407848,0.422594,0.59705,0.441552,0.487524,0.45005,0.443027,0.411939,0.46363,0.399254,0.495227,0.440711,0.405096,0.411573,0.442233,0.438854,0.425818,0.448466,0.404271,0.427106,0.446992,0.456161,0.429211,0.417911,0.438552,0.387519,0.40101,0.420074,0.439696,0.411571,0.427877
0.43082,0.454363,0.457262,0.400556,0.552335,0.4298,0.437103,0.412835,0.402869,0.416464,0.425996,0.433506,0.462738,0.393743,0.395978,0.430148,0.449796,0.416523,0.450559,0.361166,0.393695,0.353514,0.378225,0.485555,0.465346,0.404292,0.423977,0.431866,0.462791,0.43765,0.513674,0.457265,0.400746,0.44886,0.454846,0.471706,0.463024,0.37385,0.433726,0.375721,0.398705,0.42562,0.397344,0.472035,0.451614,0.455633,0.458899,0.398444,0.386578,0.403546,0.409453,0.642633,0.389504,0.502698,0.436752,0.450858,0.410221,0.409115,0.472999,0.41199
0.434639,0.472359,0.427947,0.430788,0.405297,0.447343,0.47979,0.435655,0.466565,0.399457,0.330989,0.428532,0.43546,0.500938,0.43724,0.409525,0.387249,0.436757,0.423578,0.396665,0.412496,0.381284,0.358366,0.429214,0.477087,0.44057,0.482948,0.465751,0.430834,0.426606,0.462021,0.458842,0.44612,0.428392,0.448463,0.458426,0.38411,0.417661,0.443625,0.455604,0.405201,0.423819,0.40458,0.483536,0.328582,0.437373,0.450756,0.46187,0.450981,0.410144,0.413,0.402407,0.50302,0.412893,0.399319,0.487619,0.462178,0.392367,0.394836,0.422833
0.565664,0.449524,0.471083,0.399701,0.422446,0.402014,0.458134,0.420997,0.360097,0.413062,0.456057,0.404725,0.457794,0.440449,0.480232,0.441352,0.442896,0.481008,0.452551,0.465221,0.40173,0.410253,0.427997,0.432313,0.444826,0.368138,0.408429,0.473254,0.45366,0.44792,0.367362,0.421055,0.435976,0.465242,0.418423,0.473557,0.46004,0.397302,0.402363,0.455838,0.390725,0.416605,0.412602,0.42099,0.395721,0.432243,0.433799,0.449016,0.423198,0.406144,0.390132,0.39527,0.408397,0.4588,0.415164,0.419193,0.43365,0.410686,0.384978,0.391315
0.442954,0.433862,0.438953,0.413882,0.341128,0.376517,0.452473,0.426928,0.42648,0.410158,0.415696,0.3136,0.438567,0.421173,0.453334,0.442573,0.422653,0.432157,0.388016,0.431919,0.483434,0.446086,0.459613,0.441186,0.470551,0.434479,0.450112,0.440721,0.461078,0.423531,0.456698,0.437432,0.402103,0.417811,0.428844,0.431659,0.48008,0.431858,0.44211,0.450293,0.397172,0.404151,0.430562,0.385119,0.424831,0.434025,0.50083,0.440399,0.434729,0.417416,0.425454,0.413042,0.405518,0.360002,0.399013,0.394653,0.454205,0.427613,0.459809,0.390649
0.427037,0.432066,0.455561,0.387008,0.428077,0.439374,0.42686,0.47022,0.454437,0.396892,0.473009,0.376164,0.401548,0.434582,0.47183,0.438418,0.453237,0.420747,0.462629,0.417066,0.463743,0.432331,0.381675,0.441728,0.423424,0.384824,0.487306,0.435979,0.421051,0.398012,0.416511,0.435169,0.413168,0.415632,0.438849,0.439396,0.37295,0.431516,0.480781,0.442938,0.44881,0.44943,0.449668,0.459939,0.370124,0.43354,0.443082,0.455389,0.405679,0.411346,0.480193,0.420897,0.418814,0.454688,0.518563,0.431144,0.461116,0.42354,0.631843,0.432781
0.402203,0.462473,0.36254,0.417858,0.446829,0.374762,0.485718,0.491695,0.401944,0.459268,0.381756,0.425175,0.447369,0.431268,0.426912,0.43526,0.405063,0.390708,0.437921,0.415303,0.426574,0.42726,0.427693,0.465514,0.417349,0.439042,0.426377,0.499163,0.47177,0.450105,0.395219,0.461675,0.387722,0.39756,0.446105,0.432463,0.408967,0.461393,0.433615,0.366833,0.491579,0.395307,0.458683,0.365864,0.363333,0.423407,0.387689,0.472598,0.455492,0.427697,0.416678,0.446023,0.493019,0.411828,0.451941,0.403125,0.453171,0.458766,0.461224,0.489313
0.415946,0.443526,0.43007,0.440259,0.453144,0.393682,0.439051,0.443042,0.406687,0.405541,0.49412,0.411224,0.413838,0.433739,0.452026,0.438385,0.419522,0.45746,0.582654,0.434494,0.370215,0.43587,0.45426,0.416785,0.437143,0.416173,0.39705,0.42758,0.400472,0.477469,0.409152,0.465895,0.441902,0.412842,0.376123,0.434133,0.411562,0.441608,0.410183,0.394023,0.41875,0.357832,0.397759,0.43736,0.563378,0.432239,0.444261,0.39181,0.461387,0.434411,0.472512,0.41185,0.431356,0.453386,0.371405,0.447266,0.42201,0.444612,0.399039,0.436798
0.37712,0.428815,0.406801,0.403886,0.456219,0.412928,0.451278,0.453262,0.423148,0.477321,0.45074,0.436385,0.42602,0.447087,0.44765,0.429492,0.404558,0.476842,0.422574,0.39601,0.472338,0.455267,0.412938,0.444922,0.469415,0.418358,0.419328,0.478921,0.447372,0.432857,0.448816,0.403328,0.42076,0.453505,0.368662,0.402398,0.511903,0.454661,0.43847,0.428552,0.432366,0.452279,0.417931,0.433491,0.432624,0.33079,0.451347,0.420273,0.415001,0.430848,0.388843,0.431736,0.389284,0.456468,0.373458,0.476558,0.463163,0.406918,0.454574,0.422757
0.450697,0.449103,0.426791,0.38875,0.627834,0.383958,0.48919,0.435597,0.417603,0.446173,0.474346,0.428804,0.397414,0.442937,0.521632,0.474092,0.411183,0.42373,0.426488,0.430919,0.417027,0.447324,0.430547,0.416818,0.381147,0.424316,0.363433,0.417392,0.404909,0.421698,0.402591,0.449873,0.4176,0.441997,0.447483,0.531852,0.37271,0.404154,0.45239,0.395389,0.435038,0.407319,0.458679,0.415415,0.412537,0.402871,0.434773,0.392832,0.375533,0.409378,0.436477,0.428139,0.413338,0.399889,0.473026,0.437074,0.441334,0.473241,0.467731,0.378003

max: 2.5858
min: 0.3136
avg: 0.431135
