1.68328,1.84294,1.7968,1.75806,1.81579,1.7609,1.66005,1.7028,1.69029,1.73785,1.7714,1.70606,1.74476,1.88921,1.79424,1.7689,1.75969,1.73236,1.74059,1.82571,1.7489,1.68676,1.70358,1.77297,1.77936,1.6996,1.79849,1.77085,1.83817,1.77679,1.83975,1.85241,1.81231,1.69943,1.78985,1.71472,1.76257,1.79956,1.75548,1.73142,1.76731,1.81429,1.71438,1.79188,1.72937,1.83572,1.88639,1.81169,1.82446,1.76637,1.77515,1.75975,1.72569,1.82766,1.76724,1.76005,1.8252,1.79934,1.80116,1.75049
1.84278,1.82299,1.82378,1.76958,1.7814,1.78351,1.76192,1.75536,1.81275,1.80454,1.81726,1.79366,1.89189,1.81493,1.84736,1.81592,1.8041,1.82269,1.72062,1.83636,1.73113,1.70484,1.77693,1.81914,1.78416,1.78032,1.76783,1.74891,1.80889,1.81955,1.73453,1.694,1.78689,1.78294,1.77642,1.7289,1.80879,1.79637,1.70118,1.83287,1.82788,1.75281,1.77557,1.78907,1.79108,1.78059,1.82937,1.8012,1.75381,1.74954,1.81651,1.77526,1.78535,1.83213,1.79911,1.67581,1.80495,1.7937,1.74239,1.85391
1.81494,1.79847,1.78858,1.81626,1.77414,1.84609,1.80762,1.7675,1.78926,1.69301,1.75214,1.81874,1.84146,1.80456,1.78345,1.79355,1.81233,1.75661,1.7965,1.84884,1.77446,1.81868,1.69447,1.71439,1.74751,1.80878,1.75665,1.7552,1.77825,1.76601,1.92417,1.81839,1.90973,1.78202,1.78193,1.78684,1.87514,1.8004,1.73134,1.86576,1.74671,1.81053,1.8358,1.70672,1.74795,1.69044,1.75413,1.81196,1.79354,1.86877,1.66847,1.79509,1.84735,1.70988,1.80734,1.80338,1.79199,1.75717,1.79679,1.74082
1.83189,1.79856,1.77524,1.76953,1.77514,1.77091,1.86148,1.77172,1.6557,1.79966,1.72517,1.77379,1.78126,1.78717,1.74469,1.78887,1.75871,1.79419,1.73549,1.79612,1.82231,1.77772,1.77408,1.81498,1.78592,1.82707,1.79938,1.77872,1.79292,1.74007,1.8527,1.80739,1.75027,1.76584,1.76995,1.78107,1.75235,1.78013,1.77088,1.79305,1.80563,1.88498,1.78499,1.79294,1.8142,1.79752,1.82375,1.83412,1.809,1.83385,1.82327,1.72818,1.83084,1.82805,1.83231,1.76397,1.87943,1.81251,1.78436,1.77594
1.74642,1.74162,1.73837,1.68983,1.82268,1.75646,1.82319,1.69349,1.77793,1.79755,1.78577,1.83534,1.73557,1.81367,1.77409,1.7689,1.8374,1.74845,1.73999,1.78632,1.73981,1.75703,1.8055,1.75578,1.78023,1.77746,1.72567,1.69892,1.75625,1.71083,1.76795,1.84624,1.78868,1.80392,1.76537,1.81232,1.75293,1.86858,1.771,1.82459,1.77794,1.72013,1.75349,1.72193,1.74051,1.79108,1.76563,1.85103,1.84938,1.63916,1.82473,1.75718,1.81592,1.78526,1.74915,1.72469,1.76843,1.81161,1.74866,1.81062
1.79816,1.82342,1.8244,1.70864,1.88086,1.79229,1.74859,1.74775,1.82396,1.7943,1.80885,1.74872,1.70827,1.88038,1.87343,1.8056,1.82771,1.8349,1.71323,1.81859,1.81797,1.80518,1.80847,1.76516,1.75778,1.67626,1.73906,1.78631,1.79759,1.71477,1.73013,1.82048,1.77055,1.813,1.6948,1.80808,1.70264,1.72085,1.77762,1.78827,1.80644,1.76539,1.75929,1.69587,1.68094,1.7536,1.77869,1.85225,1.75063,1.81544,1.74039,1.83106,1.78403,1.7446,1.78337,1.84326,1.70878,1.73017,1.78087,1.71595
1.76463,1.78667,1.78335,1.78459,1.86323,1.7661,1.74724,1.8151,1.81219,1.72835,1.83255,1.85111,1.82591,1.83445,1.81273,1.77576,1.76804,1.84562,1.84295,1.75196,1.82093,1.75149,1.71748,1.76099,1.78638,1.73932,1.79099,1.73056,1.76457,1.8537,1.80815,1.76855,1.79046,1.77376,1.71571,1.81205,1.80724,1.74313,1.79823,1.8246,1.75025,1.67854,1.74187,1.76529,1.85015,1.76706,1.68324,1.80296,1.78877,1.75943,1.83118,1.7457,1.78913,1.76757,1.77647,1.71009,1.7556,1.80786,1.77976,1.75276
1.83161,1.77585,1.73465,1.72016,1.70736,1.82077,1.76881,1.71171,1.79229,1.75563,1.79203,1.78142,1.7187,1.7632,1.82839,1.81657,1.71927,1.77289,1.80215,1.81751,1.75412,1.70201,1.7144,1.75649,1.86624,1.72756,1.67245,1.64608,1.75379,1.78156,1.84253,1.87852,1.80054,1.83126,1.75619,1.87567,1.78421,1.78234,1.76207,1.77481,1.79418,1.74048,1.79729,1.83491,1.78396,1.83187,1.78719,1.73446,1.81439,1.70817,1.83297,1.77861,1.83721,1.81106,1.82566,1.82373,1.84461,1.74071,1.77234,1.78476
1.7728,1.81488,1.7686,1.7733,1.72191,1.71171,1.78971,1.72129,1.74472,1.83602,1.72796,1.83883,1.72878,1.82951,1.79809,1.84577,1.78919,1.70797,1.77773,1.70509,1.75728,1.78681,1.81929,1.76244,1.76593,1.82841,1.77034,1.7026,1.72313,1.78232,1.83781,1.78718,1.77042,1.80255,1.88832,1.81278,1.7661,1.809,1.82353,1.82696,1.74283,1.83537,1.84558,1.78972,1.8282,1.7539,1.79257,1.81337,1.73288,1.75683,1.75202,1.76722,1.76009,1.84689,1.76799,1.70955,1.82834,1.76771,1.74173,1.72798
1.68821,1.741,1.76566,1.71481,1.78925,1.78319,1.69758,1.79014,1.81729,1.79154,1.7609,1.82982,1.80848,1.75326,1.74392,1.74833,1.72113,1.80588,1.81897,1.75991,1.86499,1.75571,1.74877,1.80311,1.81022,1.80483,1.70022,1.80682,1.76967,1.71858,1.73802,1.74104,1.75198,1.82532,1.68372,1.734,1.74743,1.73545,1.81586,1.84136,1.83051,1.76282,1.75326,1.76147,1.71848,1.72118,1.77613,1.79197,1.89021,1.736,1.75602,1.81797,1.75332,1.74626,1.70318,1.76876,1.8117,1.73757,1.73567,1.77101
1.79503,1.83056,1.74315,1.74603,1.71359,1.78615,1.80489,1.72125,1.78919,1.81404,1.73853,1.73533,1.80155,1.76163,1.84598,1.80936,1.85127,1.79052,1.80779,1.79344,1.82135,1.76498,1.82183,1.74003,1.77301,1.80068,1.80453,1.77898,1.77526,1.83036,1.70194,1.80251,1.78422,1.76047,1.82066,1.77175,1.76909,1.79152,1.72125,1.74307,1.79673,1.71151,1.71657,1.7577,1.80167,1.75953,1.7908,1.76665,1.81635,1.78993,1.72458,1.81348,1.74718,1.71804,1.75626,1.84657,1.80756,1.78164,1.82184,1.72619
1.76363,1.78826,1.77588,1.87182,1.7794,1.76121,1.77282,1.83809,1.88467,1.82319,1.74056,1.7682,1.77513,1.78393,1.77696,1.7823,1.78885,1.74912,1.7589,1.7969,1.7514,1.86932,1.72164,1.80537,1.77595,1.77033,1.79595,1.68936,1.78949,1.70654,1.78712,1.73017,1.75446,1.78009,1.82892,1.77007,1.75578,1.77012,1.85023,1.8165,1.77549,1.76348,1.84654,1.83936,1.86319,1.8371,1.77403,1.73329,1.85513,1.761,1.81184,1.83817,1.74246,1.75797,1.74824,1.80588,1.81398,1.82441,1.75292,1.81227
1.77809,1.8245,1.8251,1.75355,1.72465,1.74604,1.77146,1.67916,1.77768,1.76361,1.73253,1.84158,1.79024,1.78697,1.70506,1.78441,1.72158,1.79552,1.75548,1.74538,1.74216,1.71074,1.7581,1.72193,1.79498,2.04201,1.76938,1.76404,1.76949,1.77353,1.80566,1.75913,1.79696,1.76008,1.83765,1.75917,1.70432,1.75208,1.85498,1.80342,1.75002,1.77214,1.7059,1.7367,1.77288,1.78055,1.76718,1.80138,1.8245,1.81101,1.82408,1.72408,1.70645,1.83023,1.77192,1.82012,1.759,1.86049,1.75391,1.84447
1.7585,1.80337,1.80446,1.77165,1.76299,1.73691,1.80861,1.86616,1.75776,1.77943,1.83586,1.76125,1.79271,1.75435,1.82574,1.7674,1.7718,1.88871,1.71239,1.82728,1.79927,1.83301,1.82706,1.79081,1.79064,1.82994,1.73273,1.71182,1.77477,1.77423,1.75928,1.82907,1.79907,1.7722,1.78935,1.72304,1.78775,1.79759,1.76402,1.74916,1.78108,1.83401,1.84123,1.7366,1.74469,2.08029,1.78004,1.74814,1.74851,1.73759,1.71336,1.75383,1.79444,1.79782,1.8395,1.80145,1.73402,1.76455,1.85322,1.84431
1.80707,1.77897,1.79112,1.79003,1.80023,1.74696,1.77778,1.7521,1.80605,1.69904,1.76555,1.76349,1.75542,1.69553,1.79812,1.84393,1.72973,1.77316,1.78429,1.72839,1.73548,1.8307,1.88173,1.73652,1.74986,1.70861,1.73732,1.76961,1.72606,1.72704,1.7912,1.7742,1.77867,1.77567,1.80709,1.75459,1.764,1.80858,1.80871,1.6966,1.72703,1.85561,1.73401,1.82728,1.79523,1.77271,1.76343,1.73782,1.86583,1.74459,1.75718,1.81471,1.78626,1.80784,1.72542,1.7905,1.80564,1.7238,1.72665,1.75491
1.69976,1.727,1.71707,1.72574,1.74075,1.80643,1.78816,1.61985,1.85169,1.79691,1.77441,1.77946,1.78335,1.72389,1.75324,1.83404,1.74296,1.83962,1.76173,1.74431,1.69163,1.82271,1.7781,1.76321,1.79395,1.81809,1.78216,1.73307,1.71069,1.73599,1.77474,1.74104,1.81421,1.80824,1.75513,1.76132,1.85157,1.83659,1.75823,1.76831,1.79577,1.73204,1.72783,1.7363,1.79215,1.82845,1.74481,1.83157,1.80875,1.84319,1.72929,1.80241,1.83148,1.82283,1.78417,1.75239,1.85931,1.78118,1.74931,1.75183
1.81052,1.75096,1.70551,1.7964,1.77887,1.79893,1.77551,1.75981,1.79111,1.78304,1.70079,1.74994,1.73847,1.78717,1.74806,1.78802,1.76737,1.80496,1.69731,1.73753,1.7635,1.80516,1.82597,1.82777,1.75586,1.73194,1.78156,1.78846,1.73546,1.78007,1.78841,1.79213,1.79697,1.75692,1.82517,1.84071,1.82365,1.78342,1.77869,1.79075,1.74976,1.79494,1.76715,1.73499,1.76692,1.76517,1.80211,1.80362,1.71474,1.75769,1.74666,1.83445,1.7583,1.86866,1.77651,1.80796,1.91697,1.74722,1.73838,1.80215
1.72598,1.6917,1.8016,1.90783,1.80153,1.81455,1.754,1.75507,1.83394,1.77364,1.76188,1.70879,1.78014,1.76373,1.80366,1.82656,1.76952,1.76802,1.82347,1.84137,1.71367,1.7887,1.77859,1.75377,1.74479,1.77641,1.76219,1.75599,1.72645,1.78358,1.67882,1.77974,1.66651,1.72611,1.80215,1.7749,1.70405,1.74983,1.82251,1.72036,1.8274,1.70818,1.7881,1.73578,1.80469,1.69174,1.77701,1.76949,1.74368,1.83688,1.81584,1.79604,1.78361,1.78973,1.80709,1.8128,1.78162,1.79454,1.77158,1.77426
1.68899,1.79534,1.72925,1.73444,1.81601,1.82694,1.75894,1.71994,1.76095,1.7092,1.77297,1.82948,1.80869,1.83413,1.7851,1.75343,1.86816,1.71466,1.7398,1.79508,1.77129,1.78447,1.68192,1.72663,1.74724,1.73011,1.81385,1.78713,1.83371,1.7646,1.87494,1.82466,1.84463,1.80334,1.80339,1.79808,1.80262,1.76165,1.80908,1.7547,1.85001,1.81617,1.73748,1.76981,1.73178,1.79343,1.8158,1.71178,1.72864,1.79988,1.91962,1.71756,1.66532,1.7633,1.73419,1.76856,1.77246,1.81098,1.70472,1.86346
1.73671,1.80596,1.7901,1.79602,1.77958,1.76898,1.70059,1.76835,1.82954,1.77659,1.82051,1.8136,1.87417,1.7879,1.78224,1.69543,1.69503,1.77198,1.76994,1.80015,1.81667,1.71769,1.70871,1.85918,1.79904,1.72253,1.75532,1.7604,1.75916,1.78365,1.87752,1.77695,1.80496,1.73196,1.84284,1.78659,1.84985,1.74449,1.82419,1.69692,1.71931,1.79717,1.73807,1.83439,1.79084,1.79631,1.79063,1.71759,1.75366,1.77641,1.76921,1.7306,1.8207,1.76038,1.81645,1.80639,1.82791,1.75759,1.83104,1.75126
1.72546,1.83247,1.75292,1.82442,1.76416,1.72861,1.75313,1.76749,1.72644,1.85181,1.80868,1.82333,1.74656,1.74127,1.80887,1.737,1.73485,1.74094,1.76665,1.75691,1.73545,1.81144,1.75271,1.79376,1.78544,1.81151,1.75756,1.77217,1.77644,1.83057,1.74771,1.81664,1.79752,1.83405,1.78226,1.78715,1.77109,1.81734,1.87139,1.7783,1.67474,1.84245,1.84494,1.76371,1.75421,1.76534,1.79489,1.73296,1.81265,1.77856,1.83131,1.78193,1.79058,1.83664,1.78368,1.82243,1.7869,1.81847,1.8151,1.76962
1.81569,1.78603,1.76942,1.76971,1.84938,1.81886,1.79192,1.74398,1.74294,1.7853,1.7409,1.80081,1.76516,1.76452,1.85858,1.73695,1.77197,1.80618,1.83532,1.75234,1.76842,1.78802,1.76247,1.69352,1.82278,1.77238,1.79286,1.68689,1.74606,1.75597,1.67988,1.75637,1.80888,1.78327,1.74661,1.68332,1.78987,1.77466,1.83636,1.74403,1.75389,1.78291,1.79837,1.75152,1.82386,1.70751,1.72904,1.79102,1.77491,1.71537,1.79288,1.77812,1.82237,1.82086,1.67025,1.74953,1.72448,1.82031,1.77489,1.84199
1.75831,1.84215,1.80914,1.73802,1.80237,1.74915,1.80992,1.71529,1.8238,1.77879,1.7741,1.77124,1.81061,1.77487,1.80952,1.80002,1.81042,1.73347,1.73828,1.80344,1.83037,1.76341,1.73512,1.75084,1.73257,1.73814,1.86375,1.86781,1.85012,1.81951,1.77507,1.79818,1.81695,1.83151,1.74914,1.84996,1.77722,1.83232,1.8653,1.81364,1.78131,1.77167,1.74465,1.78788,1.80028,1.7502,1.75183,1.74976,1.67674,1.78452,1.75541,1.75881,1.72611,1.77303,1.83325,1.73756,1.7309,1.6887,1.75607,1.73261
1.75225,1.7833,1.81789,1.79387,1.80228,1.77526,1.76824,1.74743,1.74271,1.75363,1.80662,1.74669,1.85669,1.74449,1.85319,1.751,1.8038,1.71664,1.78095,1.88751,1.80631,1.8239,1.736,1.7925,1.74325,1.82697,1.75577,1.75055,1.76051,1.78671,1.74225,1.74293,1.7916,1.74743,1.79984,1.77653,1.82568,1.76911,1.75863,1.77019,1.86783,1.81016,1.81746,1.81547,1.76133,1.80026,1.76519,1.77251,1.72253,1.78597,1.75708,1.82582,1.83822,1.84182,1.81721,1.79336,1.83014,1.72762,1.75373,1.80087
1.78976,1.76999,1.87471,1.75639,1.74427,1.74917,1.743,1.73768,1.76394,1.74501,1.73724,1.79071,1.73249,1.79133,1.76096,1.70507,1.84693,1.73684,1.70541,1.79185,1.79175,1.78695,1.76944,1.7818,1.73642,1.81339,1.75818,1.73828,1.83906,1.75891,1.75071,1.80639,1.79999,1.77972,1.80187,1.71816,1.7152,1.78048,1.76198,1.7872,1.80721,1.80449,1.80458,1.77649,1.8567,1.83301,1.8099,1.78629,1.8016,1.75412,1.8214,1.70479,1.79344,1.79132,1.74292,1.72877,1.7669,1.80634,1.79943,1.78457
1.79562,1.75048,1.73759,1.70964,1.80208,1.76991,1.81807,1.76617,1.8309,1.82081,1.765,1.8526,1.78645,1.86279,1.79855,1.82353,1.76834,1.77177,1.83512,1.86901,1.79458,1.70848,1.72307,1.74921,1.76092,1.74468,1.73652,1.74768,1.77429,1.79413,1.69535,1.73068,1.79618,1.74823,1.81896,1.78033,1.81276,1.70646,1.73916,1.7798,1.77141,1.75781,1.77737,1.7627,1.76005,1.74359,1.82796,1.7901,1.7821,1.75855,1.76874,1.7574,1.82783,1.77191,1.78165,1.73284,1.70292,1.78658,1.77594,1.75431
1.64976,1.74471,1.78449,1.77439,1.85333,1.70411,1.78798,1.81332,1.83812,1.75158,1.84823,1.79756,1.76535,1.73932,1.81587,1.74752,1.75783,1.73864,1.78749,1.82061,1.79377,1.86073,1.80765,1.85935,1.73871,1.80073,1.75961,1.76133,1.83037,1.80635,1.79625,1.87659,1.73162,1.79213,1.78053,1.82019,1.72481,1.86539,1.81712,1.8296,1.77461,1.71259,1.67423,1.80151,1.81333,1.80742,1.83178,1.76743,1.77369,1.75959,1.72566,1.75445,1.77844,1.74019,1.72983,1.70962,1.79445,1.80031,1.79298,1.79728
1.76588,1.79656,1.73924,1.75786,1.79427,1.77157,1.74377,1.73247,1.85729,1.76144,1.716,1.80623,1.79023,1.80657,1.76474,1.77801,1.70286,1.76035,1.83391,1.70144,1.80769,1.78112,1.83604,1.81022,1.79268,1.72793,1.75635,1.80559,1.78717,1.81112,1.80786,1.78218,1.86906,1.84082,1.77312,1.71194,1.75311,1.7976,1.73766,1.77395,1.75904,1.69414,1.79577,1.69861,1.78871,1.75007,1.76445,1.77885,1.77679,1.67433,1.77279,1.83853,1.78316,1.73355,1.82534,1.78973,1.80491,1.81418,1.76285,1.81614
1.77938,1.77631,1.72972,1.7319,1.7211,1.74429,1.73021,1.79467,1.72299,1.79432,1.75371,1.75289,1.7781,1.77884,1.8546,1.75143,1.72152,1.77855,1.79214,1.73235,1.70783,1.74088,1.80001,1.77273,1.77189,1.84065,1.77297,1.85073,1.78835,1.76747,1.77743,1.77929,1.71235,1.75257,1.88273,1.72225,1.83094,1.72628,1.81617,1.78359,1.71716,1.75615,1.8424,1.81181,1.82489,1.80555,1.76588,1.73937,1.78222,1.83378,1.76334,1.80822,1.79018,1.7944,1.77356,1.88179,1.76057,1.75904,1.75579,1.80261
1.78953,1.88226,1.72658,1.74297,1.79356,1.84267,1.87486,1.76505,1.72392,1.7568,1.77353,1.79457,1.8323,1.735,1.80106,1.74756,1.77445,1.77475,1.8133,1.79463,1.74341,1.68924,1.76759,1.78868,1.74179,1.80435,1.73707,1.73662,1.77262,1.80815,1.83866,1.77192,1.71561,1.8297,1.79156,1.78671,1.77584,1.78105,1.79624,1.70232,1.6983,1.81528,1.69467,1.746,1.83875,1.76604,1.77589,1.78741,1.66993,1.85994,1.69764,1.73469,1.78583,1.849,1.77517,1.68425,1.82435,1.82426,1.76442,1.716
1.78722,1.83829,1.76733,1.86314,1.79576,1.78288,1.76102,1.70559,1.77862,1.82492,1.75352,1.83603,1.80126,1.74175,1.779,1.76842,1.76127,1.84273,1.78828,1.77062,1.75658,1.76934,1.76151,1.80348,1.77349,1.8263,1.7582,1.81606,1.84194,1.83365,3.65123,1.81884,1.81465,1.78659,1.8493,1.79212,1.822,1.80964,1.79752,1.78565,1.72245,1.75921,1.78104,1.76902,1.74491,1.83574,1.77174,1.80681,1.81874,1.73251,1.71962,1.77449,1.78077,1.81897,1.74875,1.80702,1.72448,1.76018,1.72372,1.77016
1.83323,1.79124,1.78801,1.70195,1.7635,1.75844,1.7633,1.79885,1.74825,1.80623,1.77727,1.75057,1.76968,1.82254,1.7331,1.71614,1.77245,1.82706,1.70896,1.7282,1.81181,1.73103,1.7245,1.7863,1.82927,1.69793,1.83395,1.74582,1.81932,1.65895,1.81659,1.81479,1.71394,1.80063,1.75846,1.73117,1.79306,1.71637,1.76415,1.80945,1.75611,1.76397,1.814,1.80585,1.79575,1.87066,1.7934,1.82242,1.80656,1.75921,1.84514,1.88287,1.79943,1.83465,1.8393,1.78105,1.7622,1.83525,1.78686,1.81837
1.72019,1.72194,1.74553,1.75966,1.77144,1.73741,1.73881,1.72955,1.69333,1.78189,1.7338,1.74988,1.7589,1.75287,1.72101,1.75947,1.75219,1.75764,1.8308,1.78679,1.72383,1.7366,1.76168,1.84158,1.7106,1.76803,1.77726,1.82333,1.77876,1.77487,1.79256,1.76049,1.77886,1.77717,1.78492,1.78046,1.72629,1.77997,1.7699,1.77747,1.72801,1.74728,1.80561,1.82299,1.74247,1.72599,1.72638,1.83267,1.7321,1.792,1.84018,1.68728,1.77235,1.826,1.716,1.7984,1.85126,1.76789,1.84683,1.80644
1.84969,1.78575,1.82597,1.80291,1.8001,1.81203,1.77339,1.77016,1.74266,1.74711,1.78321,1.8448,1.74639,1.87537,1.8636,1.77559,1.79736,1.79137,1.72775,1.79325,1.76476,1.83527,1.74669,1.79236,1.79417,1.82501,1.75207,1.80127,1.78775,1.77847,1.81605,1.72562,1.80113,1.71702,1.77913,1.73361,1.75538,1.67428,1.79987,1.78594,1.65708,1.72692,1.78825,1.72664,1.77379,1.74503,1.77658,1.6839,1.76366,1.76788,1.73669,1.80654,1.81512,1.84177,1.80998,1.82769,1.75751,1.7495,1.78143,1.74293
1.77056,1.78435,1.71182,1.74237,1.76105,1.87138,1.87228,1.7243,1.78917,1.81861,1.81484,1.82408,1.73998,1.80986,1.75251,1.79908,1.81822,1.7099,1.78403,1.78636,1.847,1.82485,1.8166,1.75815,1.74883,1.81434,1.81152,1.8688,1.72473,1.76843,1.84019,1.77978,1.81492,1.77416,1.80094,1.79839,1.84852,1.79713,1.80014,1.79394,1.74973,1.75628,1.81917,1.8306,1.73395,1.68901,1.80833,1.72089,1.8143,1.71886,1.8217,1.7974,1.73261,1.80217,1.80348,1.79393,1.71646,1.75675,1.84238,1.79606
1.76821,1.80218,1.77837,1.81618,1.72714,1.77333,1.75543,1.76572,1.65072,1.76449,1.78471,1.7429,1.7633,1.81886,1.74064,1.81159,1.78467,1.7346,1.81259,1.78281,1.72713,1.74897,1.76022,1.84039,1.77308,1.80827,1.7734,1.78726,1.74028,1.78983,1.77509,1.76692,1.75659,1.72648,1.85491,1.75538,1.79188,1.79119,1.8506,1.77252,1.70402,1.81338,1.75259,1.82493,1.70377,1.75852,1.82133,1.81148,1.74395,1.74029,1.74029,1.74076,1.76316,1.78382,1.82129,1.89124,1.88567,1.7892,1.77049,1.82293
1.81829,1.78148,1.77133,1.77514,1.81436,1.82831,1.74294,1.83302,1.74484,1.76286,1.78391,1.71043,1.76522,1.75756,1.79792,1.77453,1.76231,1.75025,1.7544,1.83615,1.74383,1.83067,1.69807,1.72157,1.76034,1.82158,1.74265,1.7461,1.70796,1.68119,1.74724,1.72224,1.79808,1.78956,1.84207,1.843,1.80866,1.81425,1.78608,1.80106,1.86115,1.78781,1.86582,1.7899,1.79015,1.7347,1.76289,1.76582,1.78816,1.79298,1.80112,1.78259,1.83112,1.81759,1.84507,1.88554,1.74273,1.86736,1.75495,1.73206
1.85457,1.805,1.72677,1.7339,1.75431,1.7963,1.79944,1.85694,1.78007,1.78487,1.76873,1.84098,1.80689,1.75091,1.76941,1.81539,1.71336,1.71026,1.79943,1.84812,1.84896,1.78921,1.68729,1.7011,1.8003,1.76877,1.71084,1.77582,1.80308,1.65475,1.739,1.79115,1.6992,1.75057,1.76701,1.72708,1.84206,1.79548,1.743,1.70127,1.78676,1.79003,1.73614,1.83272,1.68265,1.78379,1.72754,1.75284,1.74364,1.77788,1.82994,1.74701,1.77475,1.79416,1.78776,1.85013,1.72573,1.74403,1.75274,1.82442
1.7229,1.76634,1.75415,1.87052,1.80352,1.74475,1.77546,1.76987,1.79653,1.77059,1.79869,1.81456,1.79098,1.71552,1.80385,1.82623,1.83972,1.7528,1.75524,1.75845,1.79377,1.77025,1.8229,1.77578,1.76379,1.79853,1.80479,1.72686,1.82532,1.78693,1.83903,1.77082,1.79601,1.80121,1.73067,1.7755,1.8641,1.82245,1.74736,1.77359,1.78599,1.72481,1.77447,1.75052,1.72125,1.77974,1.68251,1.76469,1.75773,1.77484,1.75048,1.78224,1.75651,1.74139,1.78483,1.78317,1.7638,1.753,1.71463,1.71796
1.71279,1.7303,1.81481,1.76109,1.80869,1.79418,1.7888,1.7368,1.76332,1.71534,1.78229,1.79931,1.80841,1.82614,1.77616,1.78786,1.69767,1.77964,1.79951,1.75183,1.72364,1.79674,1.82041,1.78629,1.77771,1.78261,1.79233,1.77983,1.89757,1.77333,1.83242,1.80281,1.79171,1.79031,1.75225,1.72804,1.85918,1.73228,1.7308,1.7639,1.7592,1.74853,1.79719,1.77925,1.81717,1.84927,1.75425,1.83462,1.81453,1.74769,1.81273,1.73158,1.79332,1.78083,1.8347,1.79015,1.78285,1.73001,1.90247,1.77658
1.78988,1.73638,1.78262,1.78987,1.74815,1.80159,1.73068,1.68287,1.76795,1.74122,1.84013,1.78495,1.81413,1.78655,1.77169,1.8132,1.83829,1.88419,1.78043,1.76205,1.75804,1.698,1.78051,1.78213,1.74316,1.70755,1.76789,1.78916,1.80219,1.76471,1.73516,1.76414,1.789,1.75609,1.77551,1.75643,1.75087,1.68402,1.80449,1.76493,1.77524,1.76793,1.78109,1.73797,1.78974,1.84863,1.85656,1.80483,1.79732,1.78318,1.77111,1.77247,1.7371,1.71693,1.80144,1.82257,1.76025,1.85939,1.79894,1.85042
1.74379,1.76402,1.83215,1.80484,1.7514,1.82302,1.7835,1.85919,1.74587,1.76873,1.83573,1.79387,1.79451,1.78773,1.80988,1.80891,1.85057,1.83212,1.84707,1.82332,1.80539,1.74463,1.78242,1.76479,1.76554,1.76623,1.77378,1.73243,1.76471,1.75677,1.73443,1.74073,1.81613,1.77793,1.77247,1.74115,1.76919,1.80083,1.78717,1.82328,1.67938,1.78929,1.79462,1.74956,1.77769,1.78891,1.80791,1.80277,1.77808,1.80738,1.78433,1.76162,1.8444,1.71703,1.80595,1.8097,1.78715,1.76206,1.76101,1.76546
1.772,1.74972,1.72475,1.87177,1.77107,1.81665,1.71965,1.72193,1.71949,1.80944,1.7327,1.78006,1.82391,1.77271,1.79266,1.80092,1.79779,1.82565,1.81106,1.71634,1.84455,1.78239,1.75785,1.78954,1.75462,1.8021,1.81112,1.85154,1.80411,1.81021,1.7933,1.84134,1.79961,1.80059,1.80721,1.77746,1.78394,1.81723,1.76204,1.84315,1.72586,1.7542,1.73871,1.79133,1.76861,1.76404,1.79692,1.78748,1.81206,1.77841,1.73161,1.80923,1.74216,1.78239,1.80729,1.76767,1.75221,1.81174,1.73669,1.75072
1.76142,1.76599,1.85415,1.76172,1.77728,1.79424,1.6918,1.76898,1.75283,1.73696,1.79193,1.73334,1.80361,1.75795,1.7438,1.75868,1.76211,1.83813,1.78154,1.75221,1.72765,1.78069,1.72593,1.79499,1.7913,1.80497,1.72128,1.79846,1.84613,1.7959,1.7795,1.74228,1.76626,1.77541,1.82153,1.84099,1.85651,1.80707,1.85061,1.78996,1.75596,1.75678,1.83068,1.81407,1.79926,1.77902,1.76764,1.74491,1.79053,1.75779,1.82504,1.80841,1.76792,1.74867,1.81241,1.89866,1.77381,1.79714,1.79164,1.87351
1.75792,1.76101,1.73222,1.78855,1.7263,1.74998,1.76513,1.74823,1.82123,1.79395,1.72058,1.816,1.75637,1.79599,1.77699,1.80536,1.7217,1.8223,1.66675,1.81626,1.77461,1.7867,1.72416,1.76783,1.69193,1.82038,1.69997,1.78787,1.69769,1.83075,1.787,1.70378,1.82184,1.81241,1.77353,1.79441,1.7558,1.75769,1.73555,1.77275,1.81461,1.73608,1.73823,1.75773,1.77081,1.79087,1.80475,1.78693,1.7187,1.77647,1.71815,1.80874,1.8233,1.80486,1.85461,1.73201,1.79698,1.7668,1.80655,1.75555
1.75189,1.81523,1.79811,1.76593,1.76245,1.72546,1.73476,1.7792,1.85157,1.85206,1.81446,1.7403,1.75519,1.78774,1.7527,1.75986,1.80922,1.83832,1.7861,1.78068,1.81062,1.68765,1.74569,1.72824,1.78326,1.75352,1.70395,1.71905,1.74468,1.77259,1.73043,1.75579,1.71363,1.76208,1.76417,1.75343,1.84041,1.77369,1.7443,1.7767,1.78864,1.74179,1.84592,1.72612,1.76442,1.78098,1.79466,1.80351,1.74006,1.75928,1.79144,1.68477,1.76653,1.79211,1.76998,1.76251,1.81121,1.73997,1.76942,1.73996
1.8496,1.79385,1.79453,1.83386,1.73239,1.75933,1.77635,1.76134,1.77738,1.84544,1.78087,1.80249,1.80329,1.81885,1.77154,1.74944,1.83317,1.85531,1.79036,1.82905,1.71444,1.74564,1.68485,1.77283,1.79975,1.80736,1.78379,1.83778,1.77766,1.79881,1.83749,1.74718,1.81622,1.80207,1.77416,1.81652,1.74438,1.81381,1.76339,1.82791,1.75201,1.77912,1.67811,1.79689,1.79794,1.79067,1.72862,1.75532,1.7157,1.75825,1.82885,1.72792,1.82672,1.75304,1.8155,1.73444,1.79901,1.76613,1.72228,1.78365
1.83593,1.82455,1.76968,1.73916,1.7932,1.78233,1.75876,1.7644,1.7821,1.78275,1.78765,1.74053,1.74881,1.76021,1.80551,1.79459,1.74096,1.83416,1.80763,1.83531,1.82335,1.69753,1.77906,1.7799,1.7505,1.73627,1.758,1.75275,1.7967,1.76987,1.70039,1.77142,1.79519,1.82041,1.7306,1.84507,1.79924,1.78026,1.73379,1.78761,1.7521,1.77925,1.75392,1.82738,1.74281,1.82968,1.79069,1.71302,1.79937,1.80284,1.78305,1.81977,1.75033,1.7694,1.80764,1.83992,1.72223,1.75964,1.75663,1.75851
1.75662,1.76342,1.7261,1.80647,1.7714,1.73418,1.77671,1.76841,1.77905,1.78058,1.78966,1.71004,1.70454,1.7532,1.75766,1.7678,1.76793,1.76634,1.68542,1.78274,1.6241,1.81413,1.73341,1.68518,1.85071,1.78571,1.82651,1.71778,1.80792,1.70442,1.82475,1.7309,1.75932,1.77893,1.71139,1.68526,1.73568,1.76401,1.79693,1.71625,1.69752,1.78811,1.8081,1.86614,1.72755,1.83603,1.81089,1.81592,1.77569,1.76743,1.77752,1.81071,1.78708,1.89535,1.81179,1.8181,1.73001,1.80599,1.76343,1.76151
1.77614,1.74326,1.81503,1.79914,1.73028,1.80765,1.77666,1.8357,1.76485,1.78902,1.86131,1.82514,1.78096,1.78073,1.84076,1.79054,1.84442,1.8384,1.70682,1.84483,1.75715,1.67717,1.79146,1.703,1.78628,1.77518,1.70106,1.73901,1.76979,1.73659,1.76168,1.76974,1.77839,1.8196,1.72415,1.82143,1.81951,1.75924,1.77945,1.7863,1.7768,1.83219,1.82022,1.7539,1.83843,1.80113,1.75541,1.76317,1.79198,1.69503,1.74197,1.80703,1.81326,1.77529,1.746,1.79975,1.76591,1.71757,1.73697,1.74738
1.68179,1.76337,1.79389,1.82398,1.79186,1.80818,1.81886,1.78357,1.86223,1.7307,1.74216,1.82888,1.73651,1.77153,1.76041,1.83624,1.81035,1.75927,1.76233,1.75017,1.67605,1.73887,1.80916,1.74851,1.86271,1.76715,1.81851,1.75311,1.78713,1.72633,1.71963,1.84674,1.74733,1.74355,1.80785,1.79663,1.76279,1.76073,1.75961,1.76138,1.7713,1.81556,1.78369,1.80565,1.7312,1.72504,1.77193,1.74482,1.82029,1.83155,1.71428,1.7661,1.71016,1.77657,1.77701,1.73959,1.78017,1.79919,1.74499,1.75158
1.73624,1.7622,1.77013,1.7521,1.90852,1.77488,1.81141,1.71926,1.77553,1.74545,1.79167,1.80486,1.80718,1.81239,1.74426,1.76962,1.82765,1.79093,1.85126,1.77648,1.75841,1.84631,1.75184,1.72984,1.76898,1.77337,1.79073,1.86199,1.78396,1.886,1.73371,1.7398,1.81171,1.84258,1.81739,1.76233,1.78734,1.7555,1.84485,1.69898,1.83898,1.81923,1.82561,1.80058,1.79864,1.74759,1.77481,1.70159,1.79461,1.84096,1.79621,1.7808,1.78114,1.76588,1.73517,1.8084,1.77576,1.76893,1.75826,1.78163
1.74297,1.8032,1.76699,1.76508,1.76928,1.79967,1.74052,1.79287,1.74784,1.76219,1.70039,1.76784,1.74689,1.75996,1.75725,1.75351,1.74685,1.78839,1.74163,1.79007,1.76896,1.76373,1.79745,1.73584,1.77407,1.76419,1.79299,1.73195,1.82098,1.73607,1.72204,1.80571,1.73789,1.79335,1.72369,1.73159,1.79033,1.80817,1.80506,1.79246,1.63702,1.70777,1.81644,1.7484,1.77875,1.69911,1.71903,1.82215,1.75572,1.76237,1.81796,1.7704,1.74351,1.83803,1.77483,1.80411,1.79594,1.79809,1.78201,1.85993
1.76428,1.78751,1.77777,1.77996,1.77229,1.74788,1.77942,1.77473,1.78725,1.76434,1.77767,1.76496,1.83211,1.78904,1.79301,1.80949,1.80092,1.77979,1.75146,1.75744,1.78492,1.81989,1.73402,1.78729,1.81578,1.74092,1.69245,1.71305,1.79654,1.78036,1.81626,1.7827,1.72038,1.81638,1.71535,1.77438,1.70477,1.75517,1.78692,1.69989,1.7127,1.6904,1.80109,1.7664,1.82084,1.77021,1.81838,1.71257,1.84204,1.79496,1.75885,1.85332,1.77679,1.76153,1.79139,1.7189,1.75793,1.76616,1.72669,1.73127
1.84725,1.87254,1.81302,1.73443,1.821,1.77671,1.80051,1.76731,1.83831,1.75248,1.80453,1.74198,1.69263,1.78453,1.81393,1.78177,1.86063,1.78588,1.76253,1.79188,1.77174,1.83154,1.74193,1.7488,1.8096,1.79903,1.85027,1.75707,1.78355,1.83049,1.76948,1.73236,1.7803,1.81488,1.7783,1.7325,1.83418,1.80704,1.74696,1.83589,1.78145,1.81442,1.73813,1.79127,1.79585,1.6525,1.81277,1.75286,1.77925,1.76965,1.79376,1.72528,1.7607,1.72785,1.73962,1.65654,1.80727,1.76197,1.77541,1.7626
1.7771,1.75966,1.79024,1.80862,1.8213,1.72053,1.81707,1.79447,1.79904,1.78591,1.80603,1.85442,1.79991,1.72816,1.72545,1.82542,1.7988,1.79246,1.76939,1.76759,1.82981,1.80515,1.73961,1.75066,1.83882,1.80609,1.76294,1.85396,1.82676,1.70942,1.74458,1.74135,1.75973,1.74669,1.74249,1.8008,1.80953,1.78003,1.7804,1.8336,1.77043,1.85175,1.76177,1.73975,1.7887,1.71768,1.74697,1.80256,1.81686,1.79644,1.777,1.80799,1.7926,1.75657,1.79757,1.81562,1.75002,1.80089,1.85689,1.87088
1.83351,1.75883,1.70667,1.76432,1.70591,1.71413,1.78502,1.76374,1.80417,1.82224,1.7406,1.85619,1.79557,1.80471,1.78308,1.75306,1.80477,1.78903,1.80567,1.77637,1.73091,1.7336,1.7231,1.80879,1.79615,1.76429,1.8109,1.73606,1.65335,1.77999,1.79388,1.71901,1.77759,1.80862,1.73847,1.78809,1.78833,1.82398,1.77221,1.88213,1.80159,1.74277,1.71314,1.72629,1.72077,1.83121,1.77189,1.73138,1.74788,1.74165,1.83166,1.74259,1.74196,1.69714,1.83783,1.80093,1.76962,1.83401,1.75326,1.84226
1.8136,1.69658,1.76218,1.77559,1.75481,1.82518,1.74377,1.75962,1.80319,1.81664,1.75736,1.88622,1.81637,1.75947,1.78369,1.81471,1.85099,1.80375,1.77765,1.80647,1.74024,1.76967,1.75551,1.80837,1.71208,1.74661,1.8138,1.76068,1.77286,1.76585,1.75261,1.803,1.7725,1.75234,1.74346,1.77871,1.77804,1.74095,1.79117,1.68596,1.82859,1.71816,1.80351,1.71004,1.79729,1.63748,1.7958,1.83585,1.77524,1.75367,1.74971,1.79445,1.74771,1.75306,1.80009,1.78504,1.7945,1.78643,1.92991,1.80503
1.74762,1.70829,1.81456,1.81688,1.84075,1.77642,1.75848,1.81063,1.80873,1.74534,1.78829,1.75587,1.81962,1.73345,1.82215,1.79615,1.80738,1.81366,1.78441,1.79966,1.78498,1.82282,1.77785,1.7914,1.77521,1.82257,1.72589,1.79114,1.81204,1.83759,1.74511,1.79474,1.77339,1.83476,1.77426,1.83463,1.81579,1.8124,1.75584,1.78813,1.73305,1.73205,1.75613,1.78559,1.78525,1.74791,1.74977,1.76009,1.7343,1.74188,1.78071,1.76091,1.73436,1.78249,1.7891,1.73301,1.82942,1.76708,1.78895,1.77249
1.74711,1.78219,1.79937,1.78891,1.81876,1.75732,1.73164,1.77147,1.76585,1.76411,1.74796,1.85023,1.82825,1.77631,1.80604,1.78398,1.77491,1.75494,1.8305,1.77659,1.75701,1.80263,1.82649,1.77946,1.75377,1.81319,1.66609,1.77811,1.80076,1.75208,1.76865,1.82091,1.78089,1.78679,1.80755,1.8042,1.77585,1.86093,1.77852,1.77494,1.82227,1.67952,1.84401,1.74127,1.79468,1.85246,1.78125,1.74919,1.74154,1.9081,1.73382,1.78701,1.7467,1.76894,1.78495,1.80094,1.82425,1.81103,1.83394,1.67904

max: 3.65123
min: 1.61985
avg: 1.7788
