2.00576,1.93424,2.02022,1.99852,1.95941,1.93301,1.94384,1.87396,1.92187,1.96772,2.0087,1.8693,1.92507,1.89441,1.91413,1.90362,1.8838,1.89138,1.92892,1.94619,1.92087,1.95586,1.94081,1.95972,1.92737,1.97983,1.91002,2.03289,2.02148,1.92258,1.9722,1.97122,1.967,1.9523,1.99113,1.91728,1.96286,1.90593,1.94843,1.90486,1.95108,1.93298,1.95466,1.94978,1.93978,2.02237,1.94069,2.02654,1.96992,2.005,1.99363,1.9617,1.94533,1.98506,1.98776,1.96311,1.97125,1.98552,1.95986,1.98147
1.97979,1.99745,1.99076,1.96854,1.9383,1.89339,1.96449,1.9656,1.89257,1.94704,1.99575,1.90158,2.00037,1.92136,1.90919,1.91087,2.00063,1.94842,1.93178,1.99824,1.92191,1.936,1.93283,1.87088,1.88244,1.99652,1.93025,1.96316,1.97627,1.92722,1.99832,1.92027,1.97585,1.99125,1.90787,1.92618,2.01881,1.88621,1.98605,1.9126,1.93995,1.97417,1.98262,2.00926,1.98165,1.89965,1.91124,1.9872,1.95857,1.94579,1.96344,1.88381,1.97084,1.92427,1.9547,1.95875,1.95732,2.01033,1.97332,1.99881
1.90924,1.89365,1.94478,1.9699,1.92912,1.92331,1.92732,1.95009,1.91936,1.93028,1.95127,2.04144,1.97174,1.9588,1.92543,1.95619,1.94206,1.95818,2.01198,1.96061,1.93753,1.98711,2.00458,1.94023,2.01647,1.92688,2.00008,1.90454,1.98588,2.00295,2.01371,1.93734,2.00669,1.99309,1.93727,1.95519,1.93174,2.00027,1.96435,1.98293,1.97818,1.96295,1.99317,1.97032,2.05933,1.95619,1.96954,1.94901,1.87522,1.92135,1.96038,1.99222,2.02159,1.95237,1.85731,1.97804,1.90448,1.95056,1.95755,1.98162
2.01538,1.85638,1.97205,1.94872,2.00855,1.9068,1.97745,1.99814,1.88771,2.00272,1.95861,1.91767,1.92266,1.9816,2.01744,1.93675,1.98783,1.89833,2.00635,1.9072,1.95636,1.97073,2.06297,1.95702,1.97187,1.93156,2.0154,1.95635,1.98985,1.96702,1.98081,1.93063,2.0292,1.90423,1.98574,1.96369,1.94068,1.97969,2.01799,1.97483,1.90746,1.89799,1.93631,2.00512,1.98975,2.00327,1.93482,1.94944,1.92187,2.02881,1.95355,2.01522,2.00659,1.98288,2.0204,1.9642,2.03686,1.95522,1.97356,2.00271
1.85623,1.92413,2.00811,1.93558,1.89036,1.92868,1.92486,1.96147,1.92906,1.92154,1.95362,1.9407,1.9298,1.93311,2.01506,1.88131,1.96509,1.9287,1.96509,1.94114,1.98433,1.92953,1.95076,1.98974,1.97116,2.01757,1.97267,1.95288,2.00057,1.9298,1.92136,1.95027,1.93237,1.94816,1.95579,1.95442,1.92497,1.94741,1.97855,1.91008,1.93801,1.95582,1.93101,1.99009,1.9473,1.92764,1.97075,1.99973,1.98056,1.96769,2.0733,1.97488,1.97134,1.9383,2.00034,1.97916,2.00809,1.99105,2.00006,1.97969
2.01995,1.95306,1.99169,1.9454,1.98212,2.03161,1.93631,2.06539,1.94828,2.04137,2.02383,1.89763,2.01011,1.93715,1.98798,1.94504,2.0055,1.99395,2.00976,1.94145,1.95872,1.88975,1.99335,1.98646,2.00911,1.93284,1.96977,1.98643,1.97742,1.88033,1.96637,1.92063,1.88906,1.97403,1.99862,1.97343,1.93796,1.97961,1.99425,1.92803,1.97526,1.93582,1.99595,1.87286,1.94605,1.97105,1.93837,1.91908,1.91945,1.91959,1.88195,1.95256,1.96831,1.98963,2.00463,2.00756,1.99281,2.01552,1.8617,1.99796
1.92213,1.97329,1.91889,1.90225,1.88391,1.95619,1.90744,1.96532,1.93743,1.8967,2.05371,1.92288,1.9871,2.0364,1.95406,1.96848,1.95439,1.98545,1.94798,2.02733,2.00373,1.96447,1.95902,1.97651,1.98586,2.05919,1.97976,1.97971,2.00388,1.99106,1.9365,1.98864,2.00039,1.88718,1.98081,2.01249,1.97889,1.9705,2.02793,2.02222,1.90802,1.94654,1.97244,1.98276,1.96052,1.92284,1.99027,1.9017,1.90862,2.00371,1.89855,1.99837,1.97997,1.83223,1.9017,1.925,1.93027,1.98168,1.95143,1.98858
1.93079,1.93861,1.97189,1.92889,1.91194,1.95122,1.91354,1.91014,1.99029,2.00941,1.9281,1.97878,2.00509,1.98853,1.91247,1.93551,1.93965,1.93267,1.95364,1.97219,1.96687,1.92782,1.94019,1.92073,1.95037,1.89225,1.92444,2.01789,1.9672,1.9573,1.90857,1.95562,2.00974,2.01623,1.96978,2.01231,1.96127,2.016,1.94159,1.94919,1.95846,1.9797,1.92017,1.90378,2.04805,1.89736,1.97763,2.04893,1.98534,1.92292,1.95814,1.96481,1.97671,1.95766,1.93625,1.98982,1.90694,2.0358,1.96796,1.98778
1.99713,1.9534,2.02426,1.97522,1.97036,1.92467,2.06527,2.0214,1.97146,1.90412,1.96362,1.93121,2.03606,1.90264,1.95365,1.99308,1.97569,2.02903,1.94962,1.92677,1.97313,1.96196,2.03121,1.97309,1.93717,1.99687,1.94282,1.97179,1.98348,1.96759,1.95507,1.93465,1.97013,1.97165,1.94343,1.92431,1.99036,2.02053,1.93376,1.97793,2.03599,1.94034,1.97345,1.98449,1.96091,1.95622,2.00713,1.97707,1.9984,1.91571,1.98761,1.98746,1.93542,2.00314,2.00272,1.92762,1.905,2.04636,2.02422,1.92463
2.00558,1.92454,1.94676,1.95975,1.98479,1.93766,1.97925,2.00265,2.01327,1.96582,1.9813,1.9349,1.93894,1.9501,1.93476,1.97531,1.96654,1.93269,1.99133,1.95158,1.92984,1.94424,1.82817,1.92502,1.90386,2.0352,1.898,1.94494,1.97007,1.95049,2.0013,1.9272,2.01814,1.92452,1.9414,1.99329,1.95466,1.86825,1.99944,1.99547,1.91174,1.883,1.98108,1.96488,1.88801,1.96754,1.99335,1.95754,1.90452,1.94463,1.8896,1.95822,1.94136,1.96386,1.9364,1.97504,1.93784,1.9273,1.88549,1.99614
1.96449,1.95999,1.98535,1.96316,1.92716,1.96812,1.91664,1.87087,1.94664,1.99705,2.00048,1.9899,1.96792,1.9317,1.98434,1.94016,2.00882,1.89951,2.02133,1.86158,1.97258,1.96711,1.99995,2.00056,1.93622,1.99735,1.91657,2.02794,2.07109,1.92395,1.95916,1.98008,2.03098,1.95093,2.00361,2.04414,1.89023,1.96687,1.93739,1.97178,1.99654,1.94607,1.98055,1.8994,1.93575,1.90812,1.88805,1.98296,1.96808,1.95853,1.93927,2.00157,1.95916,1.91665,1.92408,2.05126,1.889,1.88347,1.96636,1.96753
1.98518,2.013,1.91924,2.01907,2.00686,1.97212,1.93854,1.93094,1.8928,1.95187,1.93138,1.9692,1.9661,1.94306,1.87588,2.03303,1.984,1.99743,1.92327,1.94196,1.99406,1.88932,1.94068,1.98341,1.98122,1.93859,1.84321,1.89678,1.88608,1.93719,1.94923,1.89189,2.00861,1.88785,2.00003,2.02732,1.94594,1.94572,1.99314,2.06248,1.94671,1.94017,1.97024,1.95296,1.93992,1.99734,2.01695,1.94541,1.97884,1.9486,1.98373,1.95919,1.99226,1.9749,1.92776,1.95956,1.9969,1.92559,1.95056,2.04781
1.93954,1.89966,1.9267,1.90312,1.94371,1.90835,1.90888,1.89003,1.91585,1.90951,1.91528,1.93523,1.98519,1.9524,2.01161,1.98356,2.01662,1.94827,1.90949,2.00745,1.97358,1.9411,1.97348,1.93248,1.98014,2.1979,2.00011,1.97347,1.86458,1.94024,1.89867,1.93823,1.89094,2.00375,1.98899,1.98021,2.00958,2.01071,2.00437,1.93257,2.04981,1.92361,2.01801,1.99563,1.87515,1.90138,2.00086,1.95641,1.99167,1.96193,1.95456,2.04448,1.97571,1.89714,1.8855,1.95581,1.97047,1.96185,1.94239,1.96178
1.9573,2.03003,2.00548,1.91975,1.8811,2.00265,1.98025,1.99822,2.01367,1.96419,1.97077,1.99615,1.89078,1.99389,1.96129,1.96841,1.9134,1.99755,1.9864,1.95058,1.97375,1.96648,1.91298,1.96087,1.95737,1.98678,1.94542,1.9067,1.90432,1.93241,1.92794,1.91485,1.96842,1.98791,1.97668,1.92158,1.90533,1.88941,1.89691,1.93447,1.92616,1.91103,1.9632,1.95427,1.96594,2.19757,1.97882,1.93523,1.88628,1.88663,1.95988,1.9491,1.8868,2.00653,1.8764,1.91017,1.9511,1.94955,2.02671,1.92313
1.93649,1.96247,1.97354,1.97523,1.9459,1.96271,1.92365,1.89904,1.98859,1.88476,2.01881,2.01076,1.89807,1.98012,1.94744,1.91961,1.93737,1.9542,2.02799,1.96088,2.0317,1.9677,1.89467,1.92536,2.0642,1.99251,1.94943,1.99876,1.91617,1.91183,1.90622,1.96187,1.94884,2.0018,1.98811,1.93575,1.96756,1.98261,1.96387,1.93632,1.97825,1.86937,1.91034,1.84259,1.99934,1.90178,1.92723,1.96862,1.85596,1.92177,1.89605,1.98152,1.87639,1.94057,1.96906,1.90266,2.01029,1.87405,1.89382,1.84779
1.91054,1.92778,1.8954,1.95825,1.8876,1.94837,2.01994,1.87835,2.02522,1.84824,1.89972,1.99323,1.94988,1.94654,1.973,1.88755,1.96388,1.96118,1.87429,1.94623,1.91089,1.92809,1.9624,1.91039,1.90024,1.97124,1.9418,1.98239,1.96874,1.89409,1.99441,1.91665,1.99744,1.9847,1.96649,1.90214,1.96071,1.94832,1.90015,1.98111,1.94512,1.89557,1.97109,1.9881,1.93288,1.93073,1.9714,1.91156,1.95961,1.96219,1.96723,1.89687,1.91047,1.99506,1.96068,1.93681,1.98404,1.99922,1.96961,1.94968
1.99896,1.95454,2.00927,2.03441,1.88899,1.84205,1.90437,1.98403,1.95858,2.00126,1.8916,1.96616,1.90735,1.92555,1.87027,1.95278,1.98259,1.89285,1.98415,1.98449,1.95365,2.00425,1.98502,1.96251,1.9732,1.93105,1.91728,1.98043,1.93545,2.02608,1.91694,1.95636,1.97653,1.99474,1.96928,1.94981,1.96329,1.95755,1.96216,1.95945,1.97755,1.95954,1.94225,1.92452,1.99696,1.92281,1.98756,1.98757,1.9051,1.96126,1.92172,1.95089,1.9574,2.04989,1.9161,1.96876,2.09033,1.99399,1.91298,1.93193
2.01584,1.97873,2.01645,1.92883,1.95053,1.9853,1.9946,2.01764,2.00918,1.98671,1.94985,2.00564,1.98872,1.98366,1.9824,2.02859,2.00083,1.94554,1.99052,1.99424,1.93769,2.01431,1.96576,1.91705,1.9573,1.93928,1.94228,1.94112,1.98225,1.91967,1.93455,1.95807,1.98436,1.90348,1.92775,1.87432,1.94435,1.85835,2.00068,1.93672,1.93962,1.93507,1.90266,1.94975,1.91209,2.02101,1.95995,1.9764,1.96213,1.93761,1.95149,1.9361,1.93501,1.95051,1.96299,1.93946,2.02291,1.93569,2.02447,1.93018
1.96757,1.91022,1.92981,1.91081,1.99387,1.91804,1.9869,1.90733,1.95975,1.95619,2.00915,1.94553,2.03679,2.01405,1.94868,2,1.93039,1.98905,1.97869,1.94832,1.97597,1.98431,1.9684,1.97852,1.93181,2.0711,1.98093,1.98265,1.99692,2.00212,1.91664,1.94031,2.00838,2.01486,1.98628,1.96992,1.98134,2.05234,1.96705,1.9558,1.93107,1.99435,1.95514,2.01745,2.0046,1.86636,1.90576,1.92277,1.95038,1.95836,1.99865,1.88658,1.94239,1.97517,2.01313,1.89838,1.93022,1.98004,1.99677,2.00957
1.90466,1.9355,1.90745,1.97011,1.91795,1.98233,1.90725,2.0063,1.8673,1.91766,1.95899,1.97379,1.95731,1.8845,2.01022,2.03669,1.97024,1.96142,1.98829,1.98407,1.8951,1.89237,1.92923,1.88708,1.96821,1.93137,1.95303,1.9497,1.94538,2.02281,1.9445,1.96677,1.92407,1.90769,1.95621,1.95857,1.97604,1.94069,1.95244,1.98729,1.92314,2.06454,1.95183,1.92693,1.91985,1.94623,1.87158,1.91745,2.00834,2.01133,1.93803,1.99073,1.9208,1.96294,1.9727,1.9402,1.99827,1.9193,1.97288,2.01831
1.97238,1.94974,1.99577,2.02438,1.94063,1.89768,1.93904,1.95585,1.94001,1.87349,1.86106,1.97419,1.93438,1.96585,1.94176,1.91169,1.99485,1.95399,1.98493,1.98957,1.93812,1.91409,2.01735,1.93659,1.99305,1.9268,1.89208,1.93943,1.97955,1.9645,1.93336,1.91693,1.93465,1.94744,1.92964,1.97162,1.94626,1.94136,1.96121,1.86661,1.9203,1.95094,1.93767,1.90889,2.02557,1.92932,1.93007,1.94761,1.9113,1.98699,1.90888,1.98465,1.93885,1.94141,2.03548,1.96033,1.95418,1.9224,1.98793,1.98749
2.02337,2.00305,1.91184,1.9874,1.96032,1.87542,1.97814,1.92106,1.97928,1.96542,1.98111,1.90624,1.95787,1.95275,1.92912,1.89795,1.97369,1.93538,1.87724,1.98924,1.92191,1.95718,1.89319,1.96808,1.93258,1.94442,1.99131,1.99739,1.97295,1.98357,1.90846,1.91972,1.9014,1.95345,1.83426,2.00163,1.87159,2.0805,1.96106,1.94509,1.98916,1.89937,1.94083,2.06191,1.99969,2.0227,2.02844,1.99659,1.91121,1.93481,1.92152,1.95142,1.9412,1.93094,1.88034,1.98916,1.98155,1.9882,1.99287,2.01606
2.00559,1.95517,1.94947,2.01015,1.92767,1.94191,1.94957,1.98772,1.95045,1.91405,1.95361,1.93834,1.95913,1.98869,1.9644,1.99431,1.92947,1.95157,1.99117,1.97636,1.9765,1.95323,1.93361,2.03114,1.88955,1.95777,1.982,1.9401,1.91516,2.02362,1.99192,2.05287,1.95251,1.90757,1.93578,1.91882,1.9494,1.96267,1.9596,1.92984,1.93574,1.82544,1.95651,1.99909,1.89256,1.96997,1.94443,1.97844,1.96126,2.01065,1.93213,1.89239,1.91309,1.9302,2.01359,2.03338,1.97794,2.04155,1.91291,2.03408
1.98599,1.93968,2.04446,1.96484,1.94077,1.97897,1.97931,1.90883,1.98627,1.85939,1.91249,1.96494,1.92819,1.88607,1.86366,2.01727,1.9424,1.95318,1.99114,1.98832,1.90062,1.9465,2.02998,1.86496,1.93206,2.02457,1.92582,1.92299,1.95732,1.97223,2.02258,1.9971,1.93241,1.9374,1.96748,2.01715,1.925,1.95958,1.93307,1.98787,1.98713,1.99637,1.97385,1.9627,1.98296,1.97458,1.99201,1.95627,1.95728,1.98873,2.02173,2.0014,1.97762,1.96218,2.00217,1.98901,1.97072,1.95823,1.9287,1.98403
1.98777,1.91084,1.92087,1.96175,1.94603,1.99769,1.92676,1.95207,1.94692,1.95777,1.95483,1.95533,2.02721,1.86121,1.92086,1.96658,1.97353,1.93563,1.90969,1.95619,1.87572,1.86855,1.96792,1.92922,1.90309,1.92723,1.87255,1.992,1.93947,1.92328,1.95489,1.91329,1.95708,1.96137,1.94745,1.98951,2.01474,1.93277,1.93226,2.02149,1.99559,1.98413,1.90381,2.01501,1.9915,1.93432,1.97395,1.89215,1.96401,1.95851,2.00695,1.97394,1.97744,1.93329,1.94177,1.89034,1.87803,1.96142,1.97852,1.90228
1.95919,1.93982,1.9715,1.97452,1.94846,1.9308,1.88181,1.94404,1.91922,1.91215,1.94194,1.93767,1.97142,1.91573,1.94566,2.01316,1.97239,1.90014,1.945,2.02884,1.87542,1.87497,1.9368,1.93847,1.9718,1.968,1.93388,1.99752,1.95035,1.95818,1.86618,1.9158,1.95643,1.95678,1.88448,1.94159,1.89685,1.96553,1.96534,1.90383,1.99375,1.99014,1.93222,1.90888,1.87014,1.88325,1.9863,1.94463,1.94209,2.00001,2.06152,1.92937,1.93376,1.88415,1.97311,1.92456,1.91351,1.95024,1.92169,1.97324
1.92711,1.97796,1.96159,1.96771,1.91804,1.94715,1.94457,1.96403,2.01723,1.95236,1.97739,1.99921,2.01052,1.88471,1.97165,1.92673,2.02122,1.99323,1.97313,1.89862,1.94282,1.94676,1.95073,1.97087,2.00542,1.94148,1.92096,1.9987,1.99086,1.94496,2.02814,1.99353,1.95924,1.92989,1.97768,1.97653,1.97577,1.93759,1.98443,1.98102,1.96051,1.96517,1.84586,2.03138,1.91487,1.9728,1.9386,1.96021,1.87903,1.92594,1.91128,1.92638,1.94557,1.94676,1.96186,1.93352,1.92474,1.91574,1.93524,1.88782
1.93162,1.845,1.94447,1.99618,1.90862,1.94695,1.96334,2.00115,1.9111,1.92173,1.91084,1.96076,1.93666,2.04033,1.89915,1.99795,1.93042,1.99827,1.87853,1.88258,1.93756,2.00402,2.08135,1.98484,1.93197,1.98223,1.98198,1.98821,2.01707,1.96935,2.00207,1.93459,2.04055,1.90494,1.99287,1.96442,1.99111,2.03718,1.99751,2.00945,1.96771,1.88236,1.89933,2.06324,1.95648,2.06737,1.94655,1.92742,1.91631,2.00441,1.96074,2.03537,1.93858,1.95894,1.94219,1.92647,1.9796,2.01295,1.99523,1.96467
1.91836,1.95639,1.94818,1.93179,1.9017,1.97919,1.88297,1.97806,1.84966,1.92679,1.97668,2.01241,1.97964,1.91899,1.89576,1.95724,1.96977,1.9945,1.82675,1.96572,1.86395,1.97452,2.0064,1.87636,1.99661,1.98298,1.96724,1.8899,1.93908,1.91297,1.93283,1.91968,1.94574,1.96706,2.02388,1.84495,1.98425,2.01914,1.96201,1.98164,1.98365,1.94895,1.9365,1.92496,1.97569,1.97233,2.00988,2.06635,2.00387,1.94305,1.99154,1.9029,1.95181,2.03892,2.05406,2.00959,1.96554,1.96034,2.01888,2.03069
1.92843,2.00558,1.97427,1.96151,1.98408,1.94691,1.97352,1.9437,1.94481,1.96917,1.98517,1.93332,1.94573,2.04479,1.94485,2.04754,1.9537,1.96252,1.93859,1.98238,1.95797,1.94011,1.96535,1.92699,1.87477,1.95576,1.90244,1.91141,1.99078,1.98993,1.90108,2.01591,1.93709,1.95935,1.867,1.95105,1.92793,1.91629,1.92302,1.93277,1.95642,1.95231,1.91166,2.0037,1.96326,2.00981,1.90646,1.92676,1.94566,1.9483,1.93634,1.87218,1.95437,1.8704,1.97368,1.99811,2.00451,1.95787,1.99387,1.99018
2.02572,2.00591,2.01162,1.97309,1.96297,1.97462,1.94234,1.96929,2.02383,1.91921,1.98979,1.96048,1.91469,1.97234,1.96827,1.95249,1.99125,2.01507,1.94302,2.02749,1.9722,1.97165,2.02835,1.94659,1.97342,1.92942,1.97618,2.0298,1.91319,2.07122,3.77478,1.96943,1.91479,1.96338,2.02974,1.97059,1.95933,1.90415,1.97835,1.8841,1.97741,1.97664,1.93141,1.85774,1.92944,1.97192,2.00516,1.9408,1.96798,1.96797,1.9166,1.9125,1.89312,1.96183,1.95274,1.95234,1.96573,1.94789,1.92054,1.94679
1.99539,1.91104,1.94681,1.92228,1.91976,1.86657,1.99755,2.01035,1.95838,1.97691,1.93926,1.99624,1.99716,1.99857,2.01316,2.01737,1.9939,2.007,1.95691,1.96498,1.90538,1.98174,1.94604,1.92528,1.92539,1.98224,1.9689,1.96081,1.94876,1.91492,2.01335,1.96027,1.89026,2.01393,1.99256,2.00876,1.92593,1.95005,1.99125,1.90046,1.94656,1.99104,1.99623,2.03775,2.04753,2.01368,1.95793,1.96258,1.95876,1.93144,1.94337,1.97055,1.97803,2.00119,1.99065,1.98421,1.96474,1.9567,1.94063,2.06136
1.97018,1.96442,1.94595,1.93782,1.91011,1.91168,1.97009,1.92921,1.98067,1.9038,1.91215,1.97596,1.93378,1.94654,1.91124,1.91473,1.95501,1.96563,1.8824,1.841,1.89662,1.97231,1.95279,2.03197,1.88086,1.98651,1.96645,1.94874,1.9687,1.9443,1.96531,2.00316,2.03509,1.91921,1.97298,1.94128,1.94437,2.03902,1.90092,2.03075,1.9655,1.88267,1.94027,2.03138,1.96706,1.97781,1.95334,1.93128,1.92582,1.96931,1.96792,1.9706,1.95091,1.90409,1.95723,1.94229,2.03383,1.91168,1.97712,1.99385
1.96482,1.96992,2.00847,1.94473,1.97903,2.00584,1.97534,1.99051,1.90504,2.03137,1.99603,1.93924,2.06613,1.94849,1.96331,1.95291,2.03164,2.01054,2.00734,1.9031,1.8989,1.95062,1.91179,1.99555,1.90651,1.89282,1.89975,1.97923,1.95169,1.92532,1.87859,1.94549,1.97064,2.00534,1.90604,1.91264,1.95991,1.9639,1.86629,1.99319,1.96816,1.87708,1.95615,1.95442,1.99764,1.90923,1.97024,1.92937,1.93558,1.94601,1.94785,1.96284,1.99679,2.03306,1.99454,1.89613,2.01108,2.04917,1.91987,1.9051
2.03292,2.01994,1.92982,1.94612,1.99344,2.03223,1.97496,1.94883,1.97076,1.99504,1.96218,1.89275,1.94339,1.95216,1.9845,1.96321,1.96833,1.97212,1.9386,1.90347,1.98415,1.93886,1.96064,1.96523,1.88058,1.8998,1.94143,1.92816,1.99037,1.91025,1.93033,1.99367,1.96072,1.94283,1.98797,1.90301,2.00641,1.94396,1.97006,1.97446,2.01305,1.88551,1.92031,1.9623,1.93103,1.91493,1.94835,1.97602,1.96201,1.92124,2.02438,2.00788,2.00765,1.91076,1.91853,1.94277,1.92745,1.91899,1.92683,1.94601
1.96818,1.96592,1.95251,1.94847,1.97506,1.99627,1.92849,1.9929,1.96583,1.93334,1.92453,1.99598,2.03344,2.05612,1.97139,1.93146,2.00482,1.93591,1.91293,1.90153,1.92564,1.96724,2.02402,1.97465,1.92607,1.96474,1.93017,1.91318,1.95908,1.91381,1.93819,1.90532,2.04026,1.95306,1.93964,2.03431,2.023,1.93864,1.89501,1.94194,2.00232,2.00954,1.9652,1.96555,1.91994,1.96134,1.9163,2.02465,2.02478,1.99199,2.02773,1.95942,1.98306,1.95764,1.9486,1.98633,2.03308,2.04247,1.99613,1.98091
1.98064,1.90753,1.94104,1.99287,1.95767,1.91563,1.93908,1.94799,1.86666,1.90665,1.98026,1.89806,1.98632,1.93708,1.90929,1.85323,1.90831,1.94389,2.01115,1.95135,1.91149,1.84339,1.90947,1.92361,1.96551,1.87197,1.92411,1.9816,1.93216,2.01582,1.95279,1.9526,1.86101,1.97633,1.95037,1.9431,1.92301,2.00845,2.00727,1.97801,1.98434,2.01495,1.92682,1.93782,1.98087,1.93473,2.01551,1.91516,1.88459,1.99062,1.96869,1.9689,1.91929,1.95849,1.97778,1.98266,2.1058,2.01587,1.95316,2.01062
1.95617,2.03168,2.00526,1.97345,1.99251,2.00555,1.91622,1.93175,1.96091,1.99147,1.95097,1.99769,1.90145,1.97607,1.98148,2.00171,1.96294,2.01862,1.98684,1.91976,2.03587,1.90067,2.03944,2.03794,1.92596,1.91787,1.87835,1.91554,1.92968,2.01771,1.99413,1.97004,1.90275,1.94779,1.96817,1.84872,1.86195,1.86723,1.92702,2.00543,1.98201,1.86415,1.97101,1.88949,1.90213,1.91791,1.98618,1.86845,1.95708,1.96474,1.99898,1.96704,1.86158,1.99205,1.9631,1.91421,1.94094,1.97738,1.93193,1.93212
2.01307,2.01067,1.93697,1.9536,1.92401,2.01093,1.94083,1.94987,1.95934,1.94107,1.96094,1.94974,1.95726,1.9398,2.03325,1.9655,1.91692,1.96962,1.98852,1.95209,1.9068,1.97224,2.00289,1.9137,2.01494,1.98941,2.03021,1.91851,1.92111,1.99732,2.0079,1.95685,1.95335,1.90897,1.99575,1.91093,1.96644,2.02632,1.97462,1.96493,1.95971,1.98071,1.99561,1.9367,1.88198,1.89509,2.00558,2.00587,1.89387,1.91181,1.88696,1.9297,1.94266,1.95499,1.89116,1.97773,1.95628,1.85186,1.90554,1.90337
1.92038,1.96097,1.94956,1.9458,1.96423,1.89955,2.02137,1.86663,1.99432,1.95167,1.989,1.92423,1.95407,1.94994,1.99833,2.02849,1.92806,1.92632,1.9466,1.96493,1.95653,1.92015,1.98492,1.90613,1.92413,1.92586,1.97116,1.98308,1.90915,1.94182,1.93533,1.9813,1.93938,1.98607,1.92408,1.88435,1.95793,1.95033,2.01694,1.93172,1.99268,2.07259,2.00374,1.99401,2.0097,1.97105,2.00406,1.96898,1.96221,1.9472,1.91884,1.92846,2.00098,2.02437,1.96324,1.97196,2.08371,1.94134,1.94198,1.91711
1.94058,1.86715,1.97197,1.95972,1.89131,1.91316,1.91742,1.9282,1.99043,1.96204,1.92262,1.8957,1.90268,1.88248,1.99351,1.9168,1.93905,2.0263,1.95723,1.96526,1.94851,1.94098,1.91942,1.90441,1.93257,1.99238,1.95518,1.95829,1.95675,1.934,1.95095,1.94587,1.90489,2.01105,1.90375,1.94821,1.94668,1.97633,2.04631,1.94858,1.96247,1.94797,1.8946,1.94223,1.89175,1.9903,1.88681,1.92781,2.02028,1.99973,1.96856,1.98005,1.99017,2.02148,1.93298,1.99443,1.93138,1.97917,1.93568,1.95659
1.94509,1.94339,1.90401,1.996,2.00758,1.8975,1.92612,2.0151,2.02276,1.94056,1.94582,2.01377,1.96603,2.00211,1.99358,1.89461,1.90745,1.96677,1.97575,1.96475,1.92958,1.93306,1.99312,1.93868,1.9098,1.91785,1.97679,1.94375,1.92967,1.94892,1.91695,1.94714,1.97433,1.95947,1.91781,1.98169,1.94162,1.98848,1.96231,2.01576,1.94077,1.92773,1.95274,1.99226,2.02019,1.93979,1.90509,2.04637,1.8842,1.93429,2.01076,1.91698,1.98303,1.96494,1.84399,1.93914,1.8962,1.9791,1.97797,2.00333
1.95585,2.01,1.9407,1.91266,1.948,2.00921,1.96547,1.89508,1.948,1.89301,2.03993,1.92257,1.95499,1.94346,1.97293,1.91015,1.97369,1.99515,1.9529,1.94406,2.01004,2.00237,1.96035,1.93622,1.90835,1.97295,1.95854,2.08144,1.95969,1.94786,1.96934,1.93442,1.9912,1.92258,2.04037,1.95106,1.96076,1.96249,2.00046,1.92297,1.92222,1.89066,1.97494,1.9059,1.93001,1.9075,1.93078,1.89422,1.97711,1.94427,1.94463,1.96769,2.01603,1.95479,1.95452,1.94835,1.93643,1.9773,1.89819,1.96318
1.9821,1.94011,1.95225,2.00048,1.96303,1.9126,1.89511,1.97141,1.95986,1.97015,1.95481,1.95139,1.9327,2.03303,2.02681,1.99071,2.01082,1.99022,1.957,1.96761,1.95167,1.99782,1.9694,1.95786,1.92912,1.97181,1.99678,1.93447,1.96908,2.04797,2.03148,1.92515,1.97972,1.94078,1.99142,1.98684,1.96871,2.0156,1.95017,1.91245,1.95811,1.98692,1.9238,1.96864,1.897,1.96799,1.94888,1.99223,1.95923,2.0095,1.99018,1.96632,1.92399,2.00891,2.01467,2.02716,1.94582,1.99692,2.01091,1.98809
1.97522,1.90549,1.9837,1.87184,1.91763,1.94281,1.94345,1.93818,1.8899,1.90128,1.88881,1.92184,1.89468,2.00724,1.9188,1.99366,1.98317,1.96657,1.85404,1.97109,1.98651,1.98037,2.06038,1.96922,1.97792,1.92261,1.99594,2.0116,1.91931,1.9743,1.93319,1.91054,1.94509,1.9729,1.97256,1.9891,1.86807,1.9168,2.01252,1.96126,1.93623,1.9871,1.95076,1.92116,1.99786,1.98564,1.97872,2.00154,1.94265,2.00856,1.96531,1.92855,1.84254,1.99636,1.9569,1.89739,1.97293,2.00305,1.94883,2.0393
1.90444,1.99427,1.91975,1.98308,1.96195,1.88165,1.89134,2.03222,1.96042,1.98349,1.94767,1.95996,1.89852,1.91786,1.9509,2.00779,1.97579,1.94575,1.93105,1.95926,2.00038,1.93256,2.00602,1.84169,1.96811,1.92451,1.87793,1.88147,1.95933,1.95691,2.00521,1.92528,1.98841,1.94509,2.03167,1.9398,2.02587,1.87884,1.92835,1.97653,2.00065,1.91128,1.94574,1.90241,1.9104,1.95401,1.90873,2.03528,1.94067,1.96968,1.89284,1.98077,1.95301,1.99001,2.00486,1.9968,2.00299,1.96867,1.93643,1.92289
1.88591,1.97532,2.00987,1.94836,1.93761,1.92192,2.02181,1.95482,1.95822,1.92003,1.90039,1.91045,1.88656,2.03617,1.92635,1.86965,1.95756,1.95732,1.96958,1.98545,1.89444,1.98651,1.99529,1.99786,1.9816,1.97124,1.96529,1.99422,1.97682,1.91643,1.98563,1.94733,1.91201,1.99923,1.96675,1.99574,1.94505,1.9541,2.00543,2.03812,1.94547,1.91251,1.93601,1.89619,1.95746,1.91978,1.8644,1.96828,2.01649,1.9427,1.95325,1.87297,1.91554,1.95211,2.03863,1.93311,1.86864,2.02154,1.89079,2.00063
1.96331,1.93294,1.86693,1.87778,2.01931,2.02838,1.92494,1.94321,1.93622,1.86329,1.99026,1.91497,2.01507,1.94218,1.93611,1.98583,1.88544,1.93957,1.95462,2.00778,1.91984,1.95242,2.02563,1.9386,1.95011,1.94802,1.85989,1.94285,1.97665,2.01286,1.99262,1.95125,1.90883,1.94221,1.97216,1.99718,2.02154,1.97274,1.92646,1.91258,2.00111,1.97645,1.93373,1.97832,2.00179,1.92772,1.94552,1.98289,1.99345,1.99658,1.92064,1.95696,1.85708,1.96246,2.00953,1.9648,1.94854,1.98224,2.00076,2.05863
1.89223,1.98678,1.84916,1.89381,1.83334,1.97626,1.93558,2.06882,1.88878,1.91499,1.90979,2.03337,1.93387,1.98108,1.95992,1.93812,1.89083,2.021,2.02218,1.82971,1.89636,1.95298,1.93172,2.02173,1.97196,1.9518,1.96349,1.8546,1.92915,1.91475,1.93089,1.96702,1.98283,1.98392,1.96429,1.93939,1.90868,2.00156,1.92771,1.96423,1.95529,1.99163,1.92198,1.98414,1.98479,1.9406,1.90863,1.98683,1.9304,1.97939,1.98025,1.99254,2.01464,1.88916,1.9209,1.94869,1.96227,1.94721,1.98233,1.96826
1.95636,2.00346,1.98097,1.97883,1.95547,1.86113,1.9886,1.91315,1.92314,1.95545,1.9707,1.92123,2.00071,1.95395,1.98426,1.94829,1.96474,2.05373,1.90454,2.00209,1.87155,1.99384,2.02993,1.95413,1.92045,2.00114,1.97473,1.8855,1.9331,1.86496,1.97691,1.95047,1.87487,1.93471,1.90486,2.0238,1.91308,1.97651,1.97979,2.01174,1.9653,1.99972,1.90693,1.94867,1.99586,1.9843,1.97513,1.98645,2.01821,1.98305,1.94635,1.99642,1.97192,1.96006,1.98498,1.88321,1.95613,2.0064,1.95314,1.91488
1.97522,1.94263,1.94653,1.96131,1.90961,1.99437,2.00064,1.99754,1.95424,1.94423,1.99516,2.01501,1.90276,1.96479,1.93146,1.97209,1.9401,2.01941,2.00285,1.97535,2.04262,1.9895,1.95759,2.00435,1.91016,1.9771,1.94252,1.97002,1.95909,1.98035,1.97772,1.97368,2.02336,2.05779,1.98314,2.04735,1.90962,1.95748,2.06143,2.00622,1.88709,1.96374,1.95514,1.98588,1.86812,1.84193,1.90658,1.97914,1.94258,1.96007,1.98534,1.9697,1.93526,2.0196,1.94761,1.89866,1.95699,1.91765,1.92053,1.96735
1.94535,2.01185,1.84848,1.90343,2.02878,1.9336,1.92721,1.93266,1.92169,1.96258,1.92407,1.93649,1.90481,1.98903,1.94082,2.04884,1.98379,1.98234,1.94255,1.97392,1.95195,1.95119,1.97412,1.92187,1.95901,1.96444,1.874,1.98234,1.99504,1.98113,1.9214,1.97851,1.93105,2.00076,1.91443,1.9352,1.87418,1.96743,2.0054,1.93106,1.91925,1.94052,2.01087,1.96211,1.87337,1.9794,1.98031,1.95791,1.8911,1.90285,1.99664,2.05618,1.9691,1.98329,1.97923,1.94561,1.98464,1.95862,1.86728,2.00386
1.90916,1.88741,1.92532,1.9687,1.99167,1.8955,2.00453,1.88366,1.99475,1.96783,2.01242,1.9183,1.99366,1.93272,1.847,1.92425,1.93728,1.95188,1.9131,2.05568,1.97261,1.9482,1.86168,2.03627,1.93578,1.97399,2.00564,1.93662,1.94997,1.93706,1.92754,2.03663,2.0002,1.97442,1.88506,1.92935,1.94053,2.00302,1.9665,1.97693,1.93104,1.93569,1.93361,1.94589,2.00075,1.96998,1.9424,1.94499,1.91082,1.95297,2.03351,2.00226,1.95578,1.93267,2.0871,1.9153,1.92769,1.94494,1.96481,2.02226
2.02684,1.97923,1.9673,2.00145,1.93522,1.95708,2.01154,1.93976,1.98045,1.97501,1.95163,1.92721,1.9784,1.94778,1.97371,1.954,1.96377,2.04891,2.01447,2.00513,1.95792,1.93444,2.02039,1.97358,1.90215,1.84228,1.99137,1.93245,2.05042,1.98553,1.93892,1.88027,1.9556,1.92141,1.9566,1.99546,1.98559,1.92743,1.88576,2.0009,1.98287,1.93558,1.97912,1.96334,1.93227,1.90766,1.88117,1.98265,1.92691,1.89517,1.91158,1.98353,1.9755,1.89347,1.99289,1.89732,1.8936,1.9352,1.93053,1.86918
1.94942,1.95638,1.95287,2.00158,1.95908,1.99882,1.95265,1.95331,1.94253,2.00032,1.9922,2.00406,1.99111,2.00545,1.97503,1.97411,2.01235,2.00195,1.87413,1.91916,2.00046,1.97026,2.02745,1.89707,1.93333,1.93102,1.92908,1.99907,1.96169,1.87611,1.93614,1.97603,1.93516,1.95376,2.01107,2.00565,1.99798,1.9626,1.91091,1.9349,1.92107,1.90475,1.91691,1.97417,1.95246,1.90592,1.89688,1.92963,1.92295,1.98459,1.8657,1.99852,1.8783,1.95018,1.92181,1.93955,1.98802,1.91482,1.91795,1.88971
1.95763,1.97013,1.94198,1.90217,1.98073,1.94015,1.97245,1.88085,1.9902,1.91937,1.94066,1.98139,1.89382,1.95008,2.01191,1.98746,1.89503,1.96643,1.93616,2.00482,1.98151,1.88479,2.02056,2.02432,1.93112,1.98626,2.01531,1.9525,1.87857,1.93042,2.04428,1.90999,1.97076,1.91232,1.96121,1.90431,1.88231,1.91667,1.98344,1.97798,2.04014,1.99413,1.96858,1.99483,1.95402,1.97576,1.95563,1.96683,1.98621,1.96864,1.95591,1.96962,1.95198,1.89067,1.97762,1.93614,2.045,1.89949,1.92142,1.94923
1.94912,2.01006,1.89677,1.88908,1.86426,1.87183,1.95577,1.93913,1.93768,1.88591,1.92527,1.87377,1.89799,1.9079,1.95599,1.98393,1.89232,1.90323,1.92059,1.92751,1.98251,1.92493,1.94484,1.96865,1.96979,1.95575,1.89323,1.98949,1.99332,1.93574,1.95954,1.93233,1.97396,1.88794,1.94326,1.94963,1.9759,1.99844,1.97978,1.96794,1.95698,1.98576,1.96362,1.99436,1.98668,2.00501,1.97735,1.95091,1.92745,1.99729,2.00751,2.03296,1.96651,1.92728,1.92153,1.94407,1.89584,1.93433,1.99708,1.97681
1.94391,1.92804,1.906,1.94979,1.93767,1.90211,1.9598,2.00964,1.97366,1.92038,2.00215,2.01017,2.05616,1.99282,2.01871,1.95653,2.0083,1.90111,1.90505,1.95325,1.96162,1.92698,1.86291,1.91422,1.98451,1.87301,1.96602,1.95903,1.96763,1.96528,1.9491,1.85239,1.87899,1.9025,1.92717,1.96125,1.95231,1.90531,1.91671,1.97091,2.00674,1.94741,1.92865,1.98361,1.9871,1.93071,1.93414,2.01456,2.03614,1.95488,1.97216,1.94983,1.93512,1.93589,1.96446,1.96497,1.94065,2.00324,1.9934,1.95985
1.96248,1.88514,1.95652,1.98143,2.01771,1.99767,1.94821,2.02339,1.82972,1.91992,1.91857,1.93293,1.99969,1.95444,1.94209,1.93537,1.91788,1.90425,1.98925,1.96008,1.87893,1.99115,1.98489,1.9492,1.92767,1.97895,1.95794,2.00736,1.96997,1.97528,1.99135,1.93845,2.00006,1.86999,1.903,1.99068,1.91109,1.94417,1.90388,1.84164,1.98558,1.9181,1.99931,1.95533,1.92138,1.98979,2.01346,1.99587,1.90312,1.92122,2.00101,1.8852,2.02273,1.95275,2.00262,1.9889,1.92473,1.90627,1.90395,1.92091
1.97734,1.91298,1.83386,1.91594,1.98496,1.95008,2.02655,1.91281,1.93557,1.96998,1.96415,1.95644,2.04019,1.93559,1.98022,1.95042,1.97748,1.97844,2.00164,2.01079,2.03835,1.95679,1.96181,1.89222,1.99037,1.94889,2.00178,1.89072,1.9094,1.9481,2.00783,1.91267,1.90361,1.9569,1.92253,1.8496,1.93201,1.86423,1.99591,1.97264,1.86472,1.96453,1.87122,2.0366,1.96618,1.95799,1.93567,1.93881,1.9914,1.92709,1.97104,1.98921,1.96445,1.96228,1.92111,1.89543,1.94853,1.95081,1.94539,1.89731

max: 3.77478
min: 1.82544
avg: 1.95678
