0.76198,0.762357,0.705018,0.722214,0.745175,0.687241,0.771418,0.754278,0.722751,0.773216,0.696338,0.792888,0.755398,0.692539,0.714031,0.691694,0.742325,0.725103,0.7402,0.697893,0.764951,0.691494,0.790381,0.776911,0.779905,0.759132,0.661474,0.750243,0.722056,0.740912,0.70062,0.741109,0.732419,0.763831,0.735975,0.742097,0.755142,0.770903,0.741489,0.72566,0.710126,0.713457,0.789155,0.68096,0.741716,0.786718,0.719063,0.704355,0.747461,0.693054,0.779,0.724577,0.699565,0.758332,0.67122,0.786674,0.713982,0.702932,0.750624,0.720569
0.757488,0.682185,0.772287,0.711585,0.711284,0.768768,0.680635,0.72587,0.689851,0.745885,0.732731,0.717734,0.823571,0.712661,0.781784,0.768591,0.748405,0.785134,0.734292,0.743069,0.773155,0.722678,0.701397,0.72978,0.728447,0.784047,0.747174,0.663327,0.741349,0.66857,0.744004,0.755128,0.798174,0.66225,0.704367,0.697488,0.70974,0.716473,0.708797,0.695906,0.750423,0.716445,0.697275,0.730376,0.727673,0.818046,0.753665,0.708775,0.768327,0.718427,0.741874,0.697858,0.726068,0.739276,0.736323,0.742816,0.712673,0.678537,0.713418,0.703574
0.749079,0.76831,0.798892,0.701326,0.725038,0.727431,0.667542,0.726604,0.782415,0.757266,0.740428,0.71989,0.735492,0.683456,0.75107,0.725571,0.681779,0.733058,0.759705,0.74787,0.758741,0.687848,0.765479,0.772066,0.698695,0.73595,0.705509,0.722742,0.751586,0.798204,0.807429,0.726981,0.738307,0.707047,0.691162,0.675352,0.740382,0.735833,0.727363,0.763202,0.669255,0.744105,0.68768,0.723099,0.724242,0.69743,0.794914,0.736721,0.769249,0.749461,0.701638,0.74446,0.783929,0.7183,0.709444,0.724715,0.700595,0.738752,0.76089,0.715708
0.803236,0.74859,0.753164,0.718838,0.704872,0.725728,0.753997,0.779732,0.809511,0.639269,0.728661,0.755107,0.725719,0.689902,0.727647,0.713643,0.719522,0.734927,0.717864,0.695085,0.738636,0.766016,0.759134,0.697642,0.670922,0.764882,0.671225,0.70323,0.736218,0.767712,0.710019,0.722555,0.735029,0.731026,0.686022,0.789226,0.785814,0.734214,0.755269,0.731236,0.732131,0.756691,0.749939,0.693694,0.743842,0.718541,0.780383,0.786718,0.737305,0.75747,0.702444,0.716291,0.729841,0.760319,0.759198,0.786422,0.773933,0.674719,0.768212,0.722362
0.767482,0.76927,0.726468,0.738219,0.705086,0.745747,0.6745,0.779771,0.701879,0.738633,0.718533,0.700002,0.796231,0.761491,0.706707,0.784039,0.741544,0.742089,0.729156,0.734125,0.754201,0.760039,0.707339,0.649411,0.694849,0.742384,0.707089,0.713617,0.716322,0.719198,0.70863,0.735694,0.68717,0.74981,0.732252,0.742345,0.685227,0.817981,0.667044,0.675324,0.734567,0.704438,0.743805,0.73212,0.702618,0.731271,0.751647,0.693726,0.706729,0.734073,0.978515,0.743085,0.720962,0.741387,0.685902,0.695916,0.85953,0.746408,0.701263,0.749115
0.74859,0.73117,0.748175,0.796848,0.745744,0.761916,0.702334,0.753046,0.731509,0.704767,0.790382,0.712787,0.745132,0.716812,0.741803,0.768932,0.684977,0.739663,0.708128,0.788098,0.717018,0.668501,0.732181,0.739222,0.78145,0.726541,0.654511,0.681926,0.709043,0.713082,0.722208,0.772531,0.737389,0.650874,0.662271,0.746636,0.779907,0.764129,0.699719,0.761329,0.733735,0.66867,0.704415,0.82517,0.71673,0.736263,0.776182,0.716466,0.709419,0.741396,0.747605,0.755779,0.71806,0.720115,0.738684,0.773098,0.72946,0.711547,0.766449,0.768575
0.703368,0.810911,0.757481,0.669051,0.696789,0.643075,0.72964,0.794369,0.756495,0.760841,0.954974,0.744881,0.719831,0.727278,0.694697,0.700515,0.757051,0.748718,0.688112,0.707769,0.704376,0.731172,0.840404,0.702527,0.700462,0.730355,0.739786,0.709828,0.70637,0.67155,0.832294,0.706013,0.777275,0.759752,0.760927,0.770602,0.702866,0.789928,0.801327,0.81656,0.732368,0.779683,0.740179,0.740235,0.716346,0.697425,0.732523,0.708928,0.696182,0.699661,0.720738,0.73894,0.73511,0.750461,0.722378,0.762494,0.740161,0.795471,0.695234,0.767183
0.726549,0.782843,0.694201,0.763825,0.726591,0.767541,0.709711,0.6822,0.725801,0.690709,0.734457,0.805213,0.777745,0.791606,0.943131,0.732756,0.629119,0.762239,0.690437,0.812745,0.784258,0.687483,0.778728,0.67464,0.696591,0.797907,0.821402,0.737241,0.750009,0.672306,0.753884,0.721986,0.719775,0.739859,0.722871,0.721953,0.727747,0.801575,0.740035,0.738251,0.777851,0.757191,0.847643,0.739085,0.689446,0.693741,0.738369,0.689421,0.785126,0.723074,0.754773,0.748626,0.752627,0.776255,0.698684,0.717271,0.720153,0.690413,0.793349,0.737059
0.774786,0.760941,0.746644,0.718599,0.648698,0.728217,0.728701,0.692488,0.757593,0.733437,0.781081,0.731449,0.772159,0.784997,0.71195,0.736683,0.708975,0.774845,0.705317,0.768625,0.77447,0.673078,0.755556,0.736314,0.733629,0.754142,0.701369,0.716345,0.730107,0.679313,0.770864,0.750163,0.727764,0.783426,0.882233,0.665047,0.779225,0.752334,0.767706,0.76437,0.751841,0.730172,0.855169,0.76239,0.724407,0.776294,0.748951,0.7317,0.725557,0.708936,0.790784,0.697041,0.774319,0.73556,0.752712,0.793553,0.750149,0.755947,0.625607,0.766207
0.71172,0.748627,0.744098,0.708223,0.725802,0.715064,0.720292,0.729827,0.738854,0.793813,0.740261,0.793546,0.711221,0.810931,0.697698,0.70231,0.702842,0.717112,0.868315,0.688884,0.705959,0.732946,0.670617,0.720752,0.795213,0.755134,0.661536,0.722117,0.678613,0.744482,0.687759,0.767248,0.689338,0.782027,0.679729,0.903777,0.723351,0.749525,0.772134,0.75014,0.763591,0.730715,0.703701,0.800127,0.69862,0.764707,0.728473,0.773704,0.713757,0.685992,0.71474,0.761046,0.733205,0.716957,0.712991,0.718218,0.780978,0.689707,0.775888,0.735854
0.767708,0.841691,0.733766,0.62663,0.718242,0.711114,0.670525,0.782394,0.671683,0.806864,0.742495,0.741298,0.805177,0.730494,0.772523,0.728391,0.753397,0.733716,0.719335,0.644519,0.805368,0.721178,0.71956,0.759815,0.713903,0.746786,0.734323,0.714132,0.686765,0.702012,0.70587,0.731849,0.768773,0.687413,0.766266,0.775798,0.740967,0.716495,0.745184,0.732554,0.754522,0.748942,0.69204,0.687929,0.737777,0.671046,0.687778,0.780264,0.796351,0.696068,0.733851,0.697734,0.70747,0.713245,0.763497,0.963413,0.682105,0.713169,0.757249,0.729558
0.761393,0.695039,0.719262,0.809732,0.713378,0.754015,0.65736,0.753122,0.700445,0.78942,0.681595,0.764848,0.703814,0.761351,0.685551,0.74562,0.785481,0.719174,0.752406,0.759454,0.729028,0.900018,0.753736,0.771187,0.749393,0.696073,0.688435,0.709712,0.786126,0.747548,0.755125,0.788573,0.750096,0.723556,0.828606,0.683835,0.806719,0.798842,0.75083,0.686958,0.706228,0.767348,0.768979,0.686827,0.673769,0.76309,0.753443,0.82508,0.780549,0.716576,0.813716,0.776336,0.747018,0.773052,0.695374,0.74675,0.741474,0.708066,0.755987,0.759318
0.703822,0.67249,0.765217,0.732734,0.663357,0.662329,0.703492,0.742499,0.772373,0.69571,0.674993,0.722087,0.685312,0.716852,0.744624,0.733335,0.740208,0.709586,0.706785,0.723407,0.73372,0.695804,0.700183,0.697813,0.756737,1.26708,0.734255,0.774758,0.72819,0.683249,0.728002,0.749156,0.676685,0.679827,0.775341,0.706899,0.750131,0.705412,0.724176,0.743272,0.803624,0.697633,0.787981,0.817002,0.757045,0.755236,0.757781,0.714852,0.667919,0.727145,0.663972,0.68796,0.678544,0.764239,0.716708,0.708968,0.751482,0.787641,0.732699,0.7276
0.756687,0.731377,0.775078,0.766702,0.729931,0.77441,0.77921,0.646305,0.677427,0.685284,0.706441,0.711685,0.758971,0.700943,0.786535,0.815067,0.745343,0.679366,0.771699,0.752474,0.688753,0.752783,0.707929,0.723412,0.776387,0.723341,0.728696,0.754813,0.728187,0.797495,0.674252,0.713698,0.684806,0.765946,0.814366,0.812308,0.697123,0.745505,0.683978,0.741475,0.789536,0.797965,0.797991,0.724067,0.738047,1.17746,0.725093,0.825204,0.80692,0.730967,0.681389,0.739159,0.672361,0.640134,0.730503,0.761141,0.783566,0.694626,0.810383,0.691647
0.780953,0.718961,0.759805,0.728684,0.739225,0.737413,0.709433,0.757291,0.754259,0.776649,0.733945,0.701387,0.805273,0.731941,0.713278,0.688761,0.773712,0.72921,0.719053,0.789558,0.746535,0.804508,0.761674,0.772309,0.680569,0.783276,0.688006,0.716558,0.722592,0.757918,0.761149,0.788512,0.763866,0.78034,0.716784,0.760761,0.720021,0.733582,0.71865,0.753951,0.707402,0.788795,0.719195,0.692111,0.753889,0.700213,0.675007,0.701364,0.745364,0.745393,0.717681,0.730521,0.793779,0.738129,0.769754,0.700145,0.75051,0.707046,0.713231,0.741888
0.686385,0.694783,0.748739,0.750513,0.767549,0.73236,0.735081,0.72101,0.774774,0.818782,0.722717,0.786401,0.743472,0.742408,0.744512,0.665781,0.892603,0.698546,0.699166,0.665376,0.72365,0.732658,0.715557,0.752597,0.71856,0.71187,0.741503,0.789232,0.792589,0.685586,0.685273,0.736283,0.739828,0.731112,0.75758,0.718823,0.785238,0.755596,0.723145,0.783309,0.794701,0.769236,0.800918,0.779069,0.731769,0.73764,0.712248,0.747871,0.763148,0.727978,0.842272,0.752082,0.828241,0.767948,0.690384,0.737659,0.735147,0.81017,0.775756,0.732918
0.682256,0.702235,0.730823,0.697929,0.75377,0.733628,0.73473,0.783207,0.765832,0.785395,0.737264,0.709707,0.680549,0.724094,0.660151,0.801219,0.72779,0.787021,0.755656,0.728942,0.70416,0.676938,0.670921,0.726858,0.749563,0.743169,0.744828,0.748602,0.709548,0.770341,0.778168,0.773684,0.727911,0.753495,0.71306,0.662915,0.743803,0.732833,0.764684,0.694662,0.739292,0.677283,0.727039,0.696018,0.713286,0.822501,0.70247,0.767498,0.797266,0.730355,0.777808,0.804083,0.719213,0.728715,0.792548,0.756255,0.801888,0.774167,0.738153,0.678472
0.642469,0.720955,0.733982,0.731025,0.67592,0.770767,0.780404,0.767679,0.789234,0.738012,0.770924,0.797105,0.717248,0.77635,0.781743,0.74468,0.755951,0.773791,0.764869,0.726612,0.733119,0.805806,0.669552,0.685255,0.769141,0.777569,0.725735,0.771279,0.721761,0.713639,0.711264,0.71398,0.721826,0.746948,0.722036,0.703628,0.654824,0.76858,0.722115,0.765024,0.713781,0.673096,0.771195,0.704642,0.725019,0.690145,0.675986,0.725624,0.727705,0.646334,0.736675,0.778064,0.784736,0.682424,0.709613,0.801926,0.746303,0.642388,0.77325,0.733036
0.681869,0.686952,0.704527,0.712901,0.779188,0.763769,0.760509,0.803453,0.825326,0.737447,0.767855,0.682539,0.829349,0.779293,0.743253,0.742093,0.677842,0.711392,0.744256,0.720719,0.706188,0.706168,0.800071,0.78606,0.714205,0.757389,0.702678,0.75305,0.768584,0.759721,0.702396,0.697971,0.779532,0.735141,0.708012,0.739331,0.679714,0.717226,0.78802,0.74774,0.751204,0.696154,0.739173,0.724303,0.749672,0.781627,0.774912,0.699188,0.75988,0.703158,0.683403,0.732831,0.711371,0.698752,0.746252,0.727459,0.718583,0.70387,0.76339,0.726098
0.689106,0.754597,0.715619,0.722338,0.783238,0.76266,0.732564,0.671574,0.721464,0.750909,0.76663,0.71914,0.751385,0.715885,0.761034,0.647474,0.752578,0.764315,0.783247,0.704805,0.669406,0.747022,0.73654,0.859784,0.716262,0.706547,0.715165,0.73715,0.740766,0.761753,0.741059,0.746084,0.777727,0.737121,0.701426,0.735327,0.749403,0.737814,0.715859,0.692023,0.791987,0.692159,0.741972,0.739186,0.735166,0.742799,0.695737,0.785242,0.753144,0.755101,0.721317,0.756905,0.756618,0.677862,0.704384,0.697449,0.741569,0.705184,0.798233,0.735266
0.714198,0.762137,0.701705,0.659304,0.644409,0.776994,0.669379,0.71212,0.682135,0.801646,0.765677,0.732437,0.706801,0.74896,0.733315,0.74262,0.706818,0.768833,0.77116,0.733658,0.715354,0.739021,0.751421,0.728451,0.729004,0.789756,0.763461,0.672332,0.747271,0.736129,0.732074,0.776415,0.746241,0.741834,0.750566,0.813842,0.666417,0.759996,0.701246,0.757211,0.723303,0.691092,0.759676,0.771792,0.685893,0.742495,0.693799,0.699176,0.732,0.739622,0.781241,0.669672,0.76925,0.715728,0.775713,0.696536,0.702689,0.746658,0.692868,0.663249
0.741095,0.750123,0.754068,0.641348,0.75829,0.757799,0.70597,0.736526,0.688977,0.769358,0.714986,0.717044,0.760811,0.734696,0.76298,0.762194,0.704415,0.752926,0.776679,0.770812,0.696832,0.763755,0.713026,0.701843,0.736812,0.808204,0.734943,0.73009,0.739543,0.750166,0.730847,0.737938,0.711236,0.727083,0.704187,0.724438,0.646166,0.670165,0.764162,0.720281,0.701253,0.709726,0.736242,0.762639,0.715107,0.73764,0.786764,0.777327,0.769731,0.747395,0.684232,0.72097,0.73537,0.727354,0.811501,0.738429,0.769915,0.70971,0.80289,0.75707
0.724122,0.709573,0.758645,0.752888,0.685281,0.759772,0.696548,0.709858,0.692961,0.71639,0.806385,0.706647,0.775153,0.726872,0.711781,0.75213,0.727041,0.687086,0.760916,0.794252,0.849511,0.653018,0.712165,0.733408,0.714479,0.752362,0.78802,0.744176,0.702326,0.721186,0.76395,0.751013,0.797458,0.786266,0.779566,0.700243,0.68271,0.809703,0.739606,0.806534,0.689485,0.716427,0.721291,0.773585,0.696376,0.751268,0.677106,0.710294,0.763221,0.710062,0.684019,0.659107,0.690226,0.702004,0.820163,0.775699,0.685799,0.726758,0.773094,0.740174
0.732386,0.695271,0.776457,0.751903,0.71881,0.743772,0.741785,0.677309,0.795279,0.723928,0.771941,0.812541,0.718702,0.696181,0.670304,0.797373,0.717039,0.76636,0.733458,0.701309,0.756087,0.719403,0.679128,0.720109,0.724719,0.776366,0.699435,0.661767,0.776396,0.742885,0.6581,0.818797,0.765216,0.715519,0.722735,0.716602,0.768494,0.687423,0.8204,0.750928,0.752831,0.705431,0.7042,0.7704,0.717447,0.760768,0.776586,0.700047,0.74822,0.73006,0.70958,0.683805,0.708426,0.774974,0.739643,0.792337,0.805562,0.782889,0.723525,0.764164
0.625628,0.758316,0.721114,0.785668,0.747509,0.700555,0.763158,0.65006,0.70076,0.699454,0.712088,0.738845,0.732023,0.654099,0.689417,0.676625,0.728231,0.746719,0.723423,0.761677,0.693867,0.699157,0.7166,0.664873,0.755677,0.824331,0.800717,0.698232,0.690212,0.745667,0.797252,0.753839,0.745085,0.772287,0.750904,0.742575,0.681425,0.715879,0.768947,0.730049,0.721567,0.70393,0.742498,0.701058,0.731085,0.706647,0.765044,0.736953,0.727006,0.671813,0.702777,0.793993,0.688076,0.714008,0.743746,0.70348,0.760783,0.626473,0.763757,0.70324
0.769157,0.764831,0.740987,0.735678,0.710751,0.788583,0.784632,0.738667,0.721868,0.679505,0.680529,0.711508,0.703489,0.79276,0.707582,0.71818,0.721829,0.748921,0.71546,0.676898,0.734461,0.724375,0.780194,0.757519,0.710893,0.711186,0.769739,0.780629,0.764615,0.733867,0.745205,0.706256,0.71515,0.694691,0.750647,0.728788,0.71601,0.74603,0.74183,0.746458,0.726789,0.725835,0.6895,0.728783,0.711278,0.762805,0.721224,0.721478,0.747892,0.793751,0.708024,0.714194,0.720622,0.705977,0.731373,0.827313,0.746583,0.699956,0.675414,0.664555
0.803091,0.7618,0.716737,0.706799,0.732681,0.746194,0.768022,0.647331,0.750543,0.679896,0.671223,0.716637,0.718006,0.763679,0.705045,0.668783,0.773166,0.752917,0.698209,0.739434,0.771422,0.771578,0.789781,0.722367,0.741893,0.761351,0.768303,0.738727,0.794575,0.773206,0.680726,0.755956,0.765487,0.728384,0.669765,0.711463,0.69135,0.781181,0.770879,0.804768,0.759713,0.755042,0.727063,0.742225,0.717868,0.762505,0.744442,0.760156,0.75677,0.719876,0.724069,0.709714,0.689974,0.713801,0.694122,0.699935,0.738991,0.695474,0.703568,0.717995
0.709686,0.704146,0.693289,0.722564,0.735925,0.724941,0.749865,0.763767,0.705022,0.733985,0.683212,0.773672,0.758311,0.741912,0.75819,0.738447,0.670721,0.711154,0.703641,0.750566,0.72649,0.747683,0.714729,0.741197,0.723869,0.74544,0.74359,0.743409,0.636979,0.786005,0.675966,0.731602,0.761177,0.719194,0.758178,0.811355,0.739637,0.735855,0.754551,0.729568,0.690135,0.696505,0.730332,0.723237,0.770798,0.757657,0.754898,0.738119,0.754543,0.787225,0.716187,0.730207,0.781325,0.737627,0.783694,0.757906,0.746851,0.703056,0.735471,0.773575
0.720382,0.706633,0.781692,0.678605,0.739809,0.731571,0.778363,0.689386,0.769666,0.734153,0.710378,0.776262,0.764902,0.736107,0.71881,0.699053,0.728787,0.679942,0.697708,0.728197,0.70772,0.717176,0.67841,0.740707,0.69925,0.774884,0.686079,0.780608,0.776651,0.941699,0.744878,0.707328,0.718684,0.799029,0.757043,0.711525,0.75068,0.761148,0.669004,0.784204,0.76983,0.74168,0.742996,0.725544,0.801238,0.764771,0.680733,0.738559,0.735582,0.6391,0.719202,0.683142,0.667014,0.71355,0.667706,0.771613,0.694451,0.760931,0.740922,0.711881
0.754889,0.721786,0.80515,0.765695,0.77366,0.737105,0.774823,0.713857,0.678143,0.744266,0.783938,0.754649,0.727555,0.750876,0.792922,0.777649,0.720701,0.768178,0.692916,0.76168,0.747445,0.753553,0.769635,0.776544,0.721342,0.736864,0.721951,0.71082,0.765932,0.673803,0.761417,0.746966,0.73854,0.691264,0.700305,0.72745,0.760437,0.709258,0.720599,0.747381,0.801562,0.675724,0.764588,0.700338,0.760486,0.787387,0.746831,0.696917,0.726353,0.816844,0.756579,0.737645,0.732502,0.715404,0.672177,0.794954,0.792558,0.682674,0.67288,0.787039
0.734653,0.7609,0.730437,0.781321,0.70111,0.780544,0.731982,0.761669,0.707076,0.734348,0.72394,0.741115,0.711222,0.662132,0.784723,0.738094,0.722797,0.74182,0.745863,0.743323,0.683128,0.791158,0.729769,0.757462,0.774382,0.742184,0.664395,0.739659,0.801408,0.79395,2.95172,0.724683,0.765636,0.75559,0.730153,0.772308,0.744204,0.718039,0.735069,0.771573,0.709936,0.78073,0.751004,0.762128,0.743232,0.738848,0.76072,0.7154,0.695095,0.724683,0.70875,0.786326,0.699163,0.751776,0.703148,0.768568,0.72794,0.754285,0.705538,0.717269
0.701809,0.651285,0.713086,0.732908,0.706527,0.742577,0.715945,0.760367,0.749122,0.729495,0.685862,0.729344,0.723107,0.720092,0.740198,0.78301,0.753679,0.720481,0.707684,0.73641,0.75587,0.728637,0.712862,0.711435,0.799123,0.711687,0.755617,0.762808,0.734405,0.780396,0.710568,0.700782,0.780203,0.714967,0.764396,0.761275,0.772492,0.709947,0.73473,0.756811,0.704436,0.746155,0.736905,0.761401,0.783033,0.715876,0.642846,0.773254,0.722482,0.803447,0.719297,0.783138,0.745794,0.763836,0.785623,0.777136,0.799437,0.825823,0.796332,0.684469
0.69919,0.677222,0.726735,0.722365,0.708757,0.772123,0.711756,0.734684,0.737494,0.653789,0.712934,0.706307,0.780243,0.766332,0.681565,0.782078,0.702019,0.676784,0.723023,0.751237,0.69538,0.703245,0.739353,0.742437,0.709547,0.73172,0.713734,0.71764,0.74049,0.746591,0.652867,0.685962,0.756609,0.686634,0.743626,0.72971,0.75324,0.732998,0.655507,0.714816,0.775683,0.769649,0.747576,0.756232,0.704996,0.707831,0.768758,0.778651,0.730147,0.750618,0.710684,0.747066,0.776848,0.814216,0.762587,0.660961,0.668937,0.79221,0.706405,0.663383
0.696947,0.748155,0.727204,0.737972,0.728953,0.750135,0.68839,0.749718,0.785718,0.756082,0.791463,0.778175,0.776575,0.757794,0.867189,0.757865,0.739705,0.699135,0.751964,0.755622,0.733359,0.749834,0.694934,0.640669,0.704002,0.785564,0.776871,0.765647,0.705959,0.786187,0.734284,0.810265,0.713212,0.680124,0.667195,0.791247,0.704209,0.691889,0.720436,0.719983,0.681829,0.763983,0.721598,0.757862,0.766471,0.742886,0.811096,0.749371,0.739832,0.743872,0.753657,0.724903,0.743352,0.95757,0.732257,0.744904,0.736943,0.68473,0.737589,0.767606
0.72265,0.749726,0.710694,0.699809,0.749081,0.862706,0.767358,0.754649,0.72451,0.689335,0.756712,0.687865,0.716148,0.764716,0.777372,0.742543,0.660135,0.773086,0.782507,0.708657,0.770341,0.766294,0.709956,0.715612,0.739958,0.73544,0.723046,0.703841,0.709011,0.722248,0.709036,0.685275,0.741668,0.744993,0.777779,0.712382,0.699053,0.749729,0.85761,0.74574,0.724053,0.702833,0.735479,0.681106,0.716964,0.644638,0.68157,0.702433,0.728046,0.681274,0.792003,0.762352,0.722194,0.71372,0.762801,0.716341,0.737277,0.701632,0.75471,0.72127
0.708393,0.710285,0.756232,0.824086,0.736749,0.749155,0.735528,0.735589,0.701998,0.73357,0.685128,0.696617,0.728922,0.954217,0.710565,0.694705,0.738999,0.705423,0.71569,0.702176,0.712563,0.759924,0.738485,0.809693,0.749703,0.810987,0.739159,0.720243,0.74118,0.721427,0.741527,0.744922,0.699028,0.63168,0.707302,0.729085,0.71698,0.793209,0.71687,0.685624,0.793382,0.759422,0.777739,0.78055,0.776891,0.725594,0.746859,0.756197,0.644379,0.694622,0.660903,0.712301,0.715364,0.701288,0.759299,0.68059,0.712712,0.686135,0.793025,0.759725
0.780711,0.708242,0.811325,0.77628,0.772961,0.758446,0.758639,0.708837,0.724788,0.746095,0.71617,0.670068,0.720579,0.650048,0.743374,0.689558,0.712305,0.749523,0.758863,0.682295,0.73104,0.710202,0.719769,0.711317,0.692439,0.739427,0.666399,0.686183,0.746391,0.768338,0.747483,0.749421,0.750837,0.743729,0.735365,0.744807,0.724556,0.73386,0.777743,0.715617,0.736889,0.818542,0.710233,0.839604,0.669863,0.736756,0.728666,0.702223,0.743839,0.766545,0.752163,0.697868,0.803302,0.784415,0.750049,0.740462,0.766131,0.706346,0.74508,0.802865
0.783154,0.858573,0.715763,0.795362,0.753747,0.693019,0.753042,0.749627,0.768656,0.737618,0.785913,0.725695,0.707291,0.759624,0.807177,0.748282,0.738533,0.78736,0.742467,0.783813,0.719729,0.743183,0.699995,0.684675,0.742384,0.779564,0.708409,0.697381,0.729836,0.721208,0.707299,0.698884,0.759367,0.74581,0.752253,0.761891,0.759084,0.686434,0.765223,0.693408,0.72097,0.670217,0.679959,0.691742,0.686032,0.744654,0.71134,0.746809,0.741005,0.694244,0.72628,0.737014,0.741081,0.700193,0.731402,0.800116,0.727371,0.726501,0.737721,0.685593
0.726049,0.776662,0.771334,0.707473,0.777225,0.775581,0.759136,0.788963,0.680416,0.741457,0.750577,0.678044,0.729149,0.822639,0.710953,0.748216,0.741861,0.726181,0.730195,0.790316,0.741551,0.880968,0.770962,0.717886,0.65491,0.739198,0.78919,0.756933,0.683352,0.756457,0.768931,0.746713,0.777155,0.695664,0.725099,0.737067,0.689808,0.787527,0.799259,0.794191,0.747605,0.709177,0.722703,0.730179,0.776736,0.712456,0.699165,0.780676,0.720495,0.728456,0.757646,0.721747,0.721527,0.731652,0.751026,0.739985,0.698973,0.720806,0.828909,0.715237
0.744997,0.701777,0.699235,0.817033,0.691864,0.676977,0.776221,0.68547,0.745141,0.691717,0.706109,0.752867,0.681866,0.684399,0.681367,0.649254,0.723301,0.787416,0.670969,0.721161,0.714088,0.846655,0.773824,0.7481,0.704701,0.732047,0.750759,0.699284,0.71789,0.731025,0.770998,0.775367,0.685873,0.734224,0.780625,0.714079,0.715726,0.806021,0.80666,0.703744,0.791423,0.785662,0.746788,0.698137,0.740772,0.78037,0.801662,0.801108,0.783001,0.787088,0.700834,0.694556,0.75921,0.755623,0.813873,0.764639,0.735197,0.751189,0.746283,0.736074
0.727178,0.704345,0.686462,0.796662,0.72361,0.729766,0.737,0.689358,0.684169,0.750897,0.783014,0.742394,0.75981,0.755146,0.71226,0.729086,0.694139,0.812445,0.74311,0.683045,0.715002,0.70196,0.728706,0.734807,0.69268,0.749411,0.809681,0.645744,0.707892,0.749422,0.726561,0.690185,0.813661,0.750477,0.769646,0.77744,0.68143,0.745913,0.682521,0.726382,0.775764,0.689977,0.744635,0.737571,0.64108,0.77781,0.730285,0.716925,0.773945,0.751688,0.705888,0.727839,0.727937,0.745197,0.752754,0.728097,0.723066,0.688156,0.7801,0.761537
0.71855,0.799371,0.703433,0.702022,0.681003,0.702829,0.823696,0.789747,0.720664,0.775648,0.750607,0.79766,0.723979,0.714353,0.646728,0.712715,0.723445,0.735158,0.758536,0.772533,0.755208,0.708,0.715283,0.741043,0.698289,0.731391,0.724042,0.711748,0.799707,0.764454,0.702455,0.752484,0.7034,0.743944,0.794038,0.755152,0.69566,0.84279,0.70249,0.787101,0.74757,0.721606,0.778508,0.810592,0.765536,0.750277,0.655886,0.726556,0.685458,0.705881,0.820338,0.745325,0.750725,0.785934,0.709684,0.821481,0.715909,0.73002,0.757037,0.712557
0.682342,0.754475,0.74805,0.821436,0.743911,0.771812,0.738722,0.75763,0.745933,0.767449,0.75291,0.768718,0.740849,0.724248,0.719231,0.772381,0.699257,0.733401,0.722945,0.768125,0.714283,0.740881,0.670927,0.794111,0.705066,0.757706,0.765303,0.745309,0.780387,0.76259,0.744345,0.766353,0.727,0.733819,0.779993,0.745714,0.721033,0.764845,0.763736,0.728901,0.735692,0.721041,0.694228,0.772377,0.754553,0.778937,0.630891,0.749765,0.726851,0.725221,0.678751,0.692663,0.763347,0.700052,0.665548,0.756207,0.78925,0.697855,0.724704,0.703939
0.68784,0.716723,0.70247,0.725526,0.704525,0.795099,0.760153,0.718666,0.737586,0.70729,0.775464,0.688783,0.735066,0.75422,0.765364,0.751434,0.729793,0.740515,0.701166,0.762026,0.637328,0.781386,0.740351,0.694799,0.769487,0.713088,0.751948,0.736277,0.735967,0.751704,0.706891,0.705927,0.678039,0.735422,0.719135,0.767807,0.814134,0.708938,0.741687,0.749403,0.721128,0.701076,0.741842,0.738386,0.711732,0.726866,0.811489,0.732481,0.760863,0.662447,0.714331,0.775836,0.761046,0.733987,0.76617,0.727665,0.740163,0.685226,0.776782,0.753927
0.709507,0.728436,0.697198,0.766502,0.693013,0.731912,0.71968,0.72784,0.742061,0.76638,0.737599,0.70165,0.727783,0.71164,0.721038,0.728145,0.753996,0.700039,0.694166,0.695473,0.824708,0.701491,0.748363,0.704169,0.731451,0.758886,0.678528,0.719741,0.690428,0.755778,0.72473,0.755603,0.760604,0.71776,0.76381,0.70275,0.710144,0.7707,0.68487,0.747656,0.684699,0.688104,0.656306,0.744211,0.806272,0.797269,0.771188,0.733973,0.788496,0.73443,0.704415,0.803359,0.705347,0.744958,0.753633,0.768666,0.718561,0.764699,0.752369,0.754919
0.780999,0.820272,0.747488,0.705202,0.752959,0.720482,0.738341,0.821737,0.724349,0.717318,0.74638,0.733427,0.757152,0.702283,0.664403,0.758223,0.744407,0.752429,0.753285,0.840766,0.736958,0.803131,0.783013,0.661983,0.782881,0.685545,0.731223,0.703028,0.774382,0.705502,0.721779,0.701352,0.740621,0.706738,0.670283,0.766275,0.723324,0.719799,0.765466,0.722345,0.748451,0.754601,0.674343,0.744804,0.70435,0.751794,0.775238,0.712327,0.713974,0.721028,0.745231,0.783015,0.687105,0.709904,0.712313,0.71923,0.709253,0.689778,0.77999,0.728578
0.736427,0.709915,0.689599,0.787959,0.719881,0.74347,0.783629,0.749002,0.686924,0.709273,0.721792,0.702528,0.742008,0.695047,0.710184,0.749314,0.748496,0.713903,0.742356,0.730448,0.734882,0.658522,0.69483,0.774586,0.706546,0.766473,0.672061,0.68904,0.765262,0.748871,0.743584,0.72076,0.821647,0.753002,0.76564,0.763061,0.769631,0.776402,0.782883,0.765419,0.757565,0.765492,0.773369,0.720072,0.6639,0.736396,0.711437,0.756302,0.698601,0.72151,0.805055,0.770284,0.678868,0.748367,0.690745,0.732985,0.626337,0.74574,0.793496,0.770016
0.739412,0.702259,0.759647,0.751217,0.727291,0.765514,0.694293,0.748425,0.795329,0.732711,0.786643,0.707985,0.707099,0.721421,0.693417,0.766741,0.753541,0.752547,0.744084,0.688029,0.70855,0.714646,0.754273,0.697241,0.724345,0.745363,0.746393,0.763974,0.693139,0.706918,0.75081,0.759193,0.695008,0.723135,0.767519,0.683628,0.788393,0.710528,0.767793,0.772837,0.712193,0.771549,0.787197,0.789958,0.767557,0.763266,0.746626,0.726221,0.661783,0.747982,0.738472,0.735639,0.731822,0.652079,0.75429,0.733867,0.718442,0.807464,0.771693,0.714498
0.684006,0.697398,0.737728,0.760996,0.69331,0.693655,0.732769,0.696855,0.720989,0.687917,0.749755,0.671123,0.713496,0.689576,0.672076,0.709574,0.703766,0.713613,0.787036,0.73452,0.77045,0.719542,0.799724,0.721114,0.730342,0.755179,0.774289,0.739245,0.689224,0.676365,0.747402,0.714325,0.783018,0.720667,0.724363,0.712184,0.698098,0.67593,0.725782,0.725795,0.773173,0.696652,0.680946,0.764494,0.703078,0.68889,0.750666,0.742147,0.79937,0.725491,0.798938,0.770299,0.741052,0.708548,0.711616,0.72843,0.802578,0.749181,0.759489,0.671265
0.744278,0.806483,0.724014,0.723589,0.794382,0.735577,0.768175,0.699816,0.697019,0.772347,0.7164,0.686221,0.768047,0.666921,0.745755,0.727747,0.721956,0.783874,0.727231,0.756215,0.783371,0.730123,0.721344,0.708627,0.724091,0.655671,0.76222,0.683823,0.728097,0.674501,0.704816,0.779934,0.63508,0.781565,0.717008,0.79193,0.751717,0.743802,0.717438,0.693652,0.726843,0.682135,0.753114,0.681868,0.867128,0.744665,0.720607,0.742267,0.750189,0.741438,0.787781,0.749211,0.736531,0.784571,0.659749,0.734802,0.721592,0.694515,0.735514,0.727028
0.773227,0.763814,0.813941,0.795892,0.73547,0.742603,0.68364,0.732773,0.770944,0.720638,0.756381,0.79794,0.704484,0.726731,0.767525,0.851741,0.757506,0.749744,0.683486,0.701223,0.730894,0.754072,0.72045,0.774306,0.775939,0.713965,0.790034,0.742815,0.740245,0.790022,0.681935,0.863211,0.75692,0.752738,0.722539,0.720431,0.765373,0.78568,0.700602,0.745676,0.753114,0.745621,0.735318,0.760324,0.737858,0.681451,0.664141,0.679219,0.740692,0.710506,0.692429,0.704219,0.72468,0.751534,0.734825,0.71078,0.717809,0.657376,0.731271,0.706933
0.683169,0.700834,0.645006,0.724319,0.884068,0.769739,0.719143,0.734384,0.790968,0.769576,0.764797,0.752461,0.669599,0.675211,0.744112,0.683964,0.748841,0.678333,0.701028,0.739527,0.722505,0.725893,0.750386,0.722219,0.794002,0.754426,0.699798,0.709644,0.787949,0.742319,0.712692,0.754082,0.689254,0.746599,0.71839,0.704563,0.66201,0.704382,0.768873,0.705663,0.785481,0.772387,0.748331,0.694475,0.756759,0.766555,0.744597,0.734419,0.759224,0.737842,0.766203,0.922654,0.763635,0.744924,0.743195,0.724794,0.76591,0.726149,0.782562,0.724081
0.713274,0.743815,0.762699,0.653845,0.824186,0.734154,0.647524,0.700082,0.694366,0.71856,0.659418,0.712212,0.765897,0.690313,0.753109,0.732766,0.719315,0.786082,0.732766,0.612774,0.763086,0.709303,0.791311,0.787056,0.796807,0.724387,0.696777,0.685559,0.761329,0.807189,0.681797,0.773104,0.686626,0.771795,0.773007,0.750695,0.68377,0.727038,0.755984,0.715673,0.73692,0.676097,0.772197,0.76752,0.723505,0.835461,0.737356,0.758573,0.735738,0.759306,0.740547,0.754853,0.7578,0.723319,0.731411,0.751959,0.739188,0.735873,0.834983,0.741056
0.751119,0.732974,0.728155,0.772103,0.683442,0.591676,0.759288,0.778603,0.759198,0.755328,0.697224,0.732401,0.764741,0.746932,0.75396,0.711398,0.796164,0.720341,0.740446,0.726252,0.7598,0.740553,0.729595,0.6582,0.77285,0.753685,0.783843,0.611002,0.733287,0.797374,0.704464,0.75543,0.776858,0.75391,0.780418,0.709399,0.754805,0.696982,0.746031,0.690415,0.685867,0.751797,0.761149,0.704792,0.657983,0.71791,0.691063,0.694906,0.8001,0.733835,0.720127,0.761836,0.77137,0.794416,0.723843,0.692701,0.781335,0.751909,0.734062,0.663442
0.789211,0.74279,0.741546,0.75167,0.752899,0.712332,0.700572,0.723947,0.771974,0.728649,0.745372,0.756216,0.739796,0.759019,0.74633,0.779418,0.695978,0.708975,0.7728,0.736292,0.694415,0.787517,0.834258,0.829262,0.746778,0.749578,0.770102,0.761347,0.767943,0.782747,0.749166,0.709513,0.805441,0.704598,0.803693,0.764235,0.719406,0.769093,0.81778,0.729127,0.813338,0.785853,0.669743,0.726,0.698635,0.66426,0.817141,0.750202,0.705355,0.713486,0.802271,0.696747,0.708576,0.691742,0.753648,0.711048,0.718761,0.741136,0.728664,0.757663
0.769704,0.731156,0.675679,0.734487,0.769651,0.72751,0.721077,0.729708,0.752537,0.743202,0.790792,0.719305,0.66197,0.742178,0.769508,0.738187,0.784707,0.6923,0.729444,0.731959,0.764544,0.726953,0.731226,0.773069,0.792596,0.76125,0.669804,0.815549,0.748642,0.751428,0.783182,0.706812,0.776259,0.727901,0.714798,0.775134,0.763632,0.804503,0.744549,0.707129,0.765116,0.735388,0.719326,0.778452,0.736119,0.711357,0.779248,0.747107,0.714004,0.727229,0.769904,0.715916,0.722082,0.765666,0.772171,0.719418,0.696777,0.711095,0.843138,0.769856
0.729089,0.665038,0.736427,0.631624,0.715041,0.714202,0.79298,0.781738,0.669941,0.707513,0.774305,0.782045,0.746332,0.690455,0.752586,0.785251,0.740314,0.750144,0.764288,0.780125,0.711671,0.685812,0.653112,0.704599,0.713323,0.66538,0.696554,0.742406,0.689169,0.743019,0.756629,0.774436,0.761049,0.674566,0.717808,0.739083,0.761784,0.735112,0.782319,0.749218,0.752747,0.811674,0.79101,0.774463,0.717361,0.683115,0.725678,0.718188,0.735975,0.701022,0.744161,0.692575,0.764865,0.710133,0.709352,0.700191,0.734997,0.71372,0.752587,0.74068
0.820921,0.794956,0.741444,0.77453,0.710151,0.716991,0.745169,0.757563,0.700915,0.707003,0.741462,0.744669,0.783481,0.801807,0.733788,0.744409,0.717341,0.722129,0.832831,0.727709,0.712008,0.818432,0.768773,0.690764,0.698973,0.674082,0.695675,0.749262,0.741997,0.696607,0.713842,0.724642,0.779729,0.706166,0.77206,0.666182,0.667333,0.724193,0.719892,0.671724,0.668013,0.697571,0.800307,0.746323,0.861781,0.781832,0.706743,0.763409,0.785672,0.66774,0.744185,0.754311,0.779828,0.670558,0.714357,0.701414,0.814884,0.720314,0.733971,0.738303
0.693323,0.676088,0.785336,0.778906,0.744642,0.803282,0.67281,0.719574,0.738496,0.634464,0.692207,0.740233,0.737722,0.778761,0.791896,0.722523,0.759482,0.678102,0.702308,0.721294,0.752879,0.749335,0.71441,0.781233,0.72424,0.731572,0.74176,0.685656,0.682014,0.703208,0.707015,0.774224,0.770047,0.742084,0.761643,0.696883,0.795313,0.780744,0.765966,0.716037,0.718374,0.697057,0.762114,0.763571,0.71845,0.773364,0.723244,0.641144,0.762251,0.748955,0.736413,0.754654,0.72793,0.700861,0.752233,0.717176,0.693154,0.760069,0.741394,0.674609
0.714452,0.701758,0.775295,0.744469,0.910742,0.753592,0.766334,0.788365,0.738615,0.777554,0.784675,0.708682,0.757468,0.739098,0.73925,0.699079,0.737828,0.652651,0.777801,0.686509,0.785751,0.726237,0.745461,0.77654,0.814146,0.733056,0.65211,0.70183,0.657828,0.71874,0.679095,0.731187,0.740659,0.813192,0.743982,0.73738,0.748832,0.760033,0.762492,0.753427,0.72758,0.788758,0.721485,0.765776,0.734362,0.755363,0.744445,0.74667,0.74021,0.72075,0.764115,0.770063,0.781806,0.711586,0.75763,0.716252,0.70951,0.723269,0.733279,0.756598

max: 2.95172
min: 0.591676
avg: 0.737225
