File Name,exposure, SOCF
,,Min,Max,Avg
QRNG_Data/Experiment_8/TLHG/ROI60x60/,40,1.02931,1.36096,1.04238
QRNG_Data/Experiment_8/TLHG/ROI60x60/,65,1.02318,1.17074,1.03077
QRNG_Data/Experiment_8/TLHG/ROI60x60/,90,1.0183,1.09571,1.02456
QRNG_Data/Experiment_8/TLHG/ROI60x60/,115,1.01592,1.07315,1.02067
QRNG_Data/Experiment_8/TLHG/ROI60x60/,140,1.0137,1.06006,1.0179
QRNG_Data/Experiment_8/TLHG/ROI60x60/,165,1.01249,1.04686,1.01591
QRNG_Data/Experiment_8/TLHG/ROI60x60/,190,1.01086,1.03531,1.01425
QRNG_Data/Experiment_8/TLHG/ROI60x60/,215,1.0104,1.02898,1.01314
QRNG_Data/Experiment_8/TLHG/ROI60x60/,240,1.0095,1.02542,1.01215
QRNG_Data/Experiment_8/TLHG/ROI60x60/,265,1.0092,1.02224,1.01135
QRNG_Data/Experiment_8/TLHG/ROI60x60/,290,1.00864,1.02117,1.01066
QRNG_Data/Experiment_8/TLHG/ROI60x60/,315,1.00832,1.01853,1.01003
QRNG_Data/Experiment_8/TLHG/ROI60x60/,340,1.00764,1.01683,1.00964
QRNG_Data/Experiment_8/TLHG/ROI60x60/,365,1.00763,1.01728,1.00919
QRNG_Data/Experiment_8/TLHG/ROI60x60/,390,1.00723,1.0135,1.00878
QRNG_Data/Experiment_8/TLHG/ROI60x60/,415,1.007,1.0125,1.00846
QRNG_Data/Experiment_8/TLHG/ROI60x60/,440,1.00705,1.01254,1.00825
QRNG_Data/Experiment_8/TLHG/ROI60x60/,465,1.00656,1.01197,1.00798
QRNG_Data/Experiment_8/TLHG/ROI60x60/,490,1.00634,1.01163,1.00773
QRNG_Data/Experiment_8/TLHG/ROI60x60/,515,1.00632,1.01036,1.00751
QRNG_Data/Experiment_8/TLHG/ROI60x60/,540,1.00638,1.00975,1.00736
QRNG_Data/Experiment_8/TLHG/ROI60x60/,565,1.00604,1.01002,1.00718
QRNG_Data/Experiment_8/TLHG/ROI60x60/,590,1.00615,1.01008,1.00719
QRNG_Data/Experiment_8/TLHG/ROI60x60/,615,1.00601,1.00915,1.00699
QRNG_Data/Experiment_8/TLHG/ROI60x60/,640,1.00579,1.00937,1.00688
QRNG_Data/Experiment_8/TLHG/ROI60x60/,665,1.00583,1.00971,1.00675
QRNG_Data/Experiment_8/TLHG/ROI60x60/,690,1.00567,1.00828,1.00661
QRNG_Data/Experiment_8/TLHG/ROI60x60/,715,1.00568,1.00853,1.0065
QRNG_Data/Experiment_8/TLHG/ROI60x60/,740,1.00545,1.00774,1.0064
QRNG_Data/Experiment_8/TLHG/ROI60x60/,765,1.00546,1.00784,1.00629
QRNG_Data/Experiment_8/TLHG/ROI60x60/,790,1.00547,1.00784,1.00619
QRNG_Data/Experiment_8/TLHG/ROI60x60/,815,1.00539,1.00712,1.00611
QRNG_Data/Experiment_8/TLHG/ROI60x60/,840,1.00523,1.00741,1.00602
QRNG_Data/Experiment_8/TLHG/ROI60x60/,865,1.00525,1.00711,1.00595
QRNG_Data/Experiment_8/TLHG/ROI60x60/,890,1.00523,1.00694,1.00587
QRNG_Data/Experiment_8/TLHG/ROI60x60/,915,1.00506,1.00661,1.0058
QRNG_Data/Experiment_8/TLHG/ROI60x60/,940,1.00506,1.00671,1.00573
QRNG_Data/Experiment_8/TLHG/ROI60x60/,965,1.005,1.00648,1.00567
QRNG_Data/Experiment_8/TLHG/ROI60x60/,990,1.00503,1.00643,1.00561
