File Name,exposure, SOCF
,,Min,Max,Avg
QRNG_Data/Experiment_8/CP41B/ROI60x60_Backgroundremoved/,40,1.07006,2.06208,1.12874
QRNG_Data/Experiment_8/CP41B/ROI60x60_Backgroundremoved/,65,1.04558,1.55731,1.07259
QRNG_Data/Experiment_8/CP41B/ROI60x60_Backgroundremoved/,90,1.03872,1.42058,1.05475
QRNG_Data/Experiment_8/CP41B/ROI60x60_Backgroundremoved/,115,1.02782,1.30667,1.04205
QRNG_Data/Experiment_8/CP41B/ROI60x60_Backgroundremoved/,140,1.02498,1.188,1.03424
QRNG_Data/Experiment_8/CP41B/ROI60x60_Backgroundremoved/,165,1.02067,1.13389,1.02828
QRNG_Data/Experiment_8/CP41B/ROI60x60_Backgroundremoved/,190,1.01799,1.09505,1.0252
QRNG_Data/Experiment_8/CP41B/ROI60x60_Backgroundremoved/,215,1.01678,1.09648,1.02269
QRNG_Data/Experiment_8/CP41B/ROI60x60_Backgroundremoved/,240,1.01575,1.07712,1.02045
QRNG_Data/Experiment_8/CP41B/ROI60x60_Backgroundremoved/,265,1.01352,1.05523,1.01821
QRNG_Data/Experiment_8/CP41B/ROI60x60_Backgroundremoved/,290,1.0133,1.05125,1.01726
QRNG_Data/Experiment_8/CP41B/ROI60x60_Backgroundremoved/,315,1.01227,1.04661,1.01607
QRNG_Data/Experiment_8/CP41B/ROI60x60_Backgroundremoved/,340,1.01154,1.03608,1.01481
QRNG_Data/Experiment_8/CP41B/ROI60x60_Backgroundremoved/,365,1.01094,1.02975,1.01398
QRNG_Data/Experiment_8/CP41B/ROI60x60_Backgroundremoved/,390,1.01055,1.0307,1.01341
QRNG_Data/Experiment_8/CP41B/ROI60x60_Backgroundremoved/,415,1.01006,1.03211,1.0126
QRNG_Data/Experiment_8/CP41B/ROI60x60_Backgroundremoved/,440,1.00999,1.02635,1.01218
QRNG_Data/Experiment_8/CP41B/ROI60x60_Backgroundremoved/,465,1.00963,1.02259,1.0117
QRNG_Data/Experiment_8/CP41B/ROI60x60_Backgroundremoved/,490,1.00913,1.0262,1.01124
QRNG_Data/Experiment_8/CP41B/ROI60x60_Backgroundremoved/,515,1.00882,1.02083,1.01085
QRNG_Data/Experiment_8/CP41B/ROI60x60_Backgroundremoved/,540,1.0086,1.01908,1.01049
QRNG_Data/Experiment_8/CP41B/ROI60x60_Backgroundremoved/,565,1.0082,1.01713,1.01015
QRNG_Data/Experiment_8/CP41B/ROI60x60_Backgroundremoved/,590,1.00837,1.01908,1.01016
QRNG_Data/Experiment_8/CP41B/ROI60x60_Backgroundremoved/,615,1.00801,1.01763,1.00981
QRNG_Data/Experiment_8/CP41B/ROI60x60_Backgroundremoved/,640,1.00783,1.01552,1.00956
QRNG_Data/Experiment_8/CP41B/ROI60x60_Backgroundremoved/,665,1.00753,1.01531,1.0093
QRNG_Data/Experiment_8/CP41B/ROI60x60_Backgroundremoved/,690,1.00741,1.01445,1.00912
QRNG_Data/Experiment_8/CP41B/ROI60x60_Backgroundremoved/,715,1.00732,1.01408,1.00885
QRNG_Data/Experiment_8/CP41B/ROI60x60_Backgroundremoved/,740,1.00713,1.01313,1.00869
QRNG_Data/Experiment_8/CP41B/ROI60x60_Backgroundremoved/,765,1.0072,1.01404,1.0085
QRNG_Data/Experiment_8/CP41B/ROI60x60_Backgroundremoved/,790,1.00713,1.01294,1.00834
QRNG_Data/Experiment_8/CP41B/ROI60x60_Backgroundremoved/,815,1.00668,1.01168,1.00815
QRNG_Data/Experiment_8/CP41B/ROI60x60_Backgroundremoved/,840,1.00665,1.01204,1.00803
QRNG_Data/Experiment_8/CP41B/ROI60x60_Backgroundremoved/,865,1.00665,1.01234,1.00787
QRNG_Data/Experiment_8/CP41B/ROI60x60_Backgroundremoved/,890,1.00652,1.01123,1.00775
QRNG_Data/Experiment_8/CP41B/ROI60x60_Backgroundremoved/,915,1.00641,1.01057,1.00761
QRNG_Data/Experiment_8/CP41B/ROI60x60_Backgroundremoved/,940,1.00637,1.01102,1.00749
QRNG_Data/Experiment_8/CP41B/ROI60x60_Backgroundremoved/,965,1.00627,1.00989,1.00739
QRNG_Data/Experiment_8/CP41B/ROI60x60_Backgroundremoved/,990,1.00617,1.01044,1.00728
