File Name,Exposure,Average,,,Variance,,,Fano Factor
,,Min,Max,Avg,Min,Max,Avg,Min,Max,Avg
QRNG_Data/Experiment_8/CP41B/ROI60x60_Backgroundremoved/exp40gain20.000000Voltage1.720000/,40,8.59722,9.94139,9.51613,10.6094,12.2756,11.5161,1.09161,1.38543,1.21282
QRNG_Data/Experiment_8/CP41B/ROI60x60_Backgroundremoved/exp65gain20.000000Voltage1.720000/,65,14.5653,15.9058,15.5525,16.1901,18.3241,17.249,1.04412,1.2477,1.10965
QRNG_Data/Experiment_8/CP41B/ROI60x60_Backgroundremoved/exp90gain20.000000Voltage1.720000/,90,20.4794,21.8792,20.7091,21.44,24.7713,22.8705,0.99115,1.19956,1.10446
QRNG_Data/Experiment_8/CP41B/ROI60x60_Backgroundremoved/exp115gain20.000000Voltage1.720000/,115,26.3417,26.9908,26.6441,26.8271,30.5735,28.6148,1.00848,1.13943,1.07396
QRNG_Data/Experiment_8/CP41B/ROI60x60_Backgroundremoved/exp140gain20.000000Voltage1.720000/,140,32.3881,32.9672,32.6685,31.503,36.7091,34.4637,0.966144,1.1222,1.05495
QRNG_Data/Experiment_8/CP41B/ROI60x60_Backgroundremoved/exp165gain20.000000Voltage1.720000/,165,38.3369,39.9667,39.4629,38.1406,43.1676,40.5094,0.963406,1.10874,1.02665
QRNG_Data/Experiment_8/CP41B/ROI60x60_Backgroundremoved/exp190gain20.000000Voltage1.720000/,190,44.2717,46.1422,45.0703,43.5987,49.3803,46.4318,0.956543,1.10065,1.03032
QRNG_Data/Experiment_8/CP41B/ROI60x60_Backgroundremoved/exp215gain20.000000Voltage1.720000/,215,50.4281,51.1406,50.7799,49.7285,55.7868,52.6322,0.982399,1.09761,1.03648
QRNG_Data/Experiment_8/CP41B/ROI60x60_Backgroundremoved/exp240gain20.000000Voltage1.720000/,240,56.4994,57.2869,56.8663,53.6097,63.7341,58.6087,0.93813,1.11464,1.03064
QRNG_Data/Experiment_8/CP41B/ROI60x60_Backgroundremoved/exp265gain20.000000Voltage1.720000/,265,63.5214,64.4039,63.9708,59.5563,69.7284,64.6568,0.92953,1.09098,1.01072
QRNG_Data/Experiment_8/CP41B/ROI60x60_Backgroundremoved/exp290gain20.000000Voltage1.720000/,290,68.6136,69.5942,69.0687,65.8614,76.2555,70.739,0.952719,1.10167,1.02418
QRNG_Data/Experiment_8/CP41B/ROI60x60_Backgroundremoved/exp315gain20.000000Voltage1.720000/,315,74.6172,75.5608,75.1503,72.4868,82.6356,77.046,0.962313,1.10059,1.02523
QRNG_Data/Experiment_8/CP41B/ROI60x60_Backgroundremoved/exp340gain20.000000Voltage1.720000/,340,80.9353,82.8406,82.148,78.0394,89.7007,83.1201,0.947288,1.10161,1.01185
QRNG_Data/Experiment_8/CP41B/ROI60x60_Backgroundremoved/exp365gain20.000000Voltage1.720000/,365,86.8144,89.0092,88.1848,83.2357,94.3218,89.0619,0.942759,1.06916,1.00996
QRNG_Data/Experiment_8/CP41B/ROI60x60_Backgroundremoved/exp390gain20.000000Voltage1.720000/,390,92.8875,94.705,93.4568,89.719,102.971,95.2314,0.955722,1.09889,1.019
QRNG_Data/Experiment_8/CP41B/ROI60x60_Backgroundremoved/exp415gain20.000000Voltage1.720000/,415,99.1928,101.164,100.447,94.1693,109.288,101.621,0.947918,1.08595,1.01169
QRNG_Data/Experiment_8/CP41B/ROI60x60_Backgroundremoved/exp440gain20.000000Voltage1.720000/,440,104.985,107.317,105.947,99.9737,114.918,108.21,0.948228,1.08856,1.02138
QRNG_Data/Experiment_8/CP41B/ROI60x60_Backgroundremoved/exp465gain20.000000Voltage1.720000/,465,110.969,112.748,111.816,106.768,122.658,114.655,0.953691,1.09378,1.02539
QRNG_Data/Experiment_8/CP41B/ROI60x60_Backgroundremoved/exp490gain20.000000Voltage1.720000/,490,117.219,119.291,117.954,112.683,127.764,120.969,0.952262,1.08662,1.02557
QRNG_Data/Experiment_8/CP41B/ROI60x60_Backgroundremoved/exp515gain20.000000Voltage1.720000/,515,123.283,125.395,124.062,119.272,139.133,127.693,0.961087,1.11666,1.02927
QRNG_Data/Experiment_8/CP41B/ROI60x60_Backgroundremoved/exp540gain20.000000Voltage1.720000/,540,129.428,130.825,130.154,125.978,143.538,134.582,0.965268,1.10314,1.03402
QRNG_Data/Experiment_8/CP41B/ROI60x60_Backgroundremoved/exp565gain20.000000Voltage1.720000/,565,135.329,138.024,136.399,131.398,151.691,140.997,0.9537,1.1043,1.03371
QRNG_Data/Experiment_8/CP41B/ROI60x60_Backgroundremoved/exp590gain20.000000Voltage1.720000/,590,135.518,138.173,136.405,131.309,152.376,141.298,0.963268,1.11497,1.03587
QRNG_Data/Experiment_8/CP41B/ROI60x60_Backgroundremoved/exp615gain20.000000Voltage1.720000/,615,141.961,144.321,143.23,138.731,158.949,148.493,0.97431,1.10567,1.03674
QRNG_Data/Experiment_8/CP41B/ROI60x60_Backgroundremoved/exp640gain20.000000Voltage1.720000/,640,147.966,150.541,149.433,146.104,169.151,155.756,0.977474,1.13674,1.04233
QRNG_Data/Experiment_8/CP41B/ROI60x60_Backgroundremoved/exp665gain20.000000Voltage1.720000/,665,154.274,156.908,155.701,152.125,172.794,162.803,0.982842,1.10412,1.04561
QRNG_Data/Experiment_8/CP41B/ROI60x60_Backgroundremoved/exp690gain20.000000Voltage1.720000/,690,160.211,161.741,160.957,161.192,180.344,169.629,1.00036,1.12379,1.05388
QRNG_Data/Experiment_8/CP41B/ROI60x60_Backgroundremoved/exp715gain20.000000Voltage1.720000/,715,166.751,169.068,168.064,165.923,189.148,177.364,0.98798,1.12503,1.05533
QRNG_Data/Experiment_8/CP41B/ROI60x60_Backgroundremoved/exp740gain20.000000Voltage1.720000/,740,172.602,175.15,173.697,171.112,195.004,184.089,0.981909,1.11982,1.05984
QRNG_Data/Experiment_8/CP41B/ROI60x60_Backgroundremoved/exp765gain20.000000Voltage1.720000/,765,178.874,181.278,180.106,180.129,205.982,191.934,0.99838,1.14652,1.06568
QRNG_Data/Experiment_8/CP41B/ROI60x60_Backgroundremoved/exp790gain20.000000Voltage1.720000/,790,184.892,186.911,185.752,185.677,211.414,198.688,1.00019,1.13537,1.06964
QRNG_Data/Experiment_8/CP41B/ROI60x60_Backgroundremoved/exp815gain20.000000Voltage1.720000/,815,190.784,193.828,192.476,193.138,217.551,205.819,1.00115,1.13024,1.06934
QRNG_Data/Experiment_8/CP41B/ROI60x60_Backgroundremoved/exp840gain20.000000Voltage1.720000/,840,196.828,200.202,198.349,200.035,228.896,213.839,1.00881,1.15552,1.07811
QRNG_Data/Experiment_8/CP41B/ROI60x60_Backgroundremoved/exp865gain20.000000Voltage1.720000/,865,203.519,206.451,204.549,205.604,239.736,220.923,1.00652,1.17004,1.08005
QRNG_Data/Experiment_8/CP41B/ROI60x60_Backgroundremoved/exp890gain20.000000Voltage1.720000/,890,209.652,212.395,210.782,208.571,245.298,229.236,0.988366,1.16302,1.08756
QRNG_Data/Experiment_8/CP41B/ROI60x60_Backgroundremoved/exp915gain20.000000Voltage1.720000/,915,216.179,219.024,217.469,220.998,255.253,236.888,1.02132,1.17475,1.0893
QRNG_Data/Experiment_8/CP41B/ROI60x60_Backgroundremoved/exp940gain20.000000Voltage1.720000/,940,222.205,225.109,223.692,230.786,259.869,244.614,1.02718,1.15966,1.09354
QRNG_Data/Experiment_8/CP41B/ROI60x60_Backgroundremoved/exp965gain20.000000Voltage1.720000/,965,228.265,231.657,229.694,237.177,270.928,253.316,1.03385,1.18335,1.10284
QRNG_Data/Experiment_8/CP41B/ROI60x60_Backgroundremoved/exp990gain20.000000Voltage1.720000/,990,234.572,237.57,235.803,244.004,282.036,260.594,1.03413,1.19499,1.10513
