File Name,Exposure,Average,,,Variance,,,Fano Factor
,,Min,Max,Avg,Min,Max,Avg,Min,Max,Avg
QRNG_Data/Experiment_8/CP41B/ROI60x60/exp40gain20.000000Voltage1.720000/,40,14.1239,15.4306,15.1596,10.8853,12.5128,11.7431,0.714495,0.855704,0.774877
QRNG_Data/Experiment_8/CP41B/ROI60x60/exp65gain20.000000Voltage1.720000/,65,20.1706,21.5831,20.9096,16.3037,18.5728,17.6207,0.764772,0.909926,0.843246
QRNG_Data/Experiment_8/CP41B/ROI60x60/exp90gain20.000000Voltage1.720000/,90,26.2794,27.7681,26.967,21.8727,24.9431,23.3793,0.79464,0.94184,0.867236
QRNG_Data/Experiment_8/CP41B/ROI60x60/exp115gain20.000000Voltage1.720000/,115,32.3717,33.8064,32.729,27.3063,31.3544,29.3694,0.8371,0.958729,0.897397
QRNG_Data/Experiment_8/CP41B/ROI60x60/exp140gain20.000000Voltage1.720000/,140,38.545,40.0486,38.9349,33.0433,37.7203,35.3756,0.851753,0.968428,0.908624
QRNG_Data/Experiment_8/CP41B/ROI60x60/exp165gain20.000000Voltage1.720000/,165,44.7822,45.5039,45.1162,39.0121,44.631,41.5793,0.868904,0.982882,0.921596
QRNG_Data/Experiment_8/CP41B/ROI60x60/exp190gain20.000000Voltage1.720000/,190,51.0208,52.6069,51.9042,45.0965,50.6146,47.7635,0.862362,0.986736,0.920287
QRNG_Data/Experiment_8/CP41B/ROI60x60/exp215gain20.000000Voltage1.720000/,215,57.2319,58.6953,57.6158,49.8423,57.8572,54.1348,0.870165,1.00319,0.939584
QRNG_Data/Experiment_8/CP41B/ROI60x60/exp240gain20.000000Voltage1.720000/,240,63.5294,65.2217,64.6917,56.0215,63.598,60.3093,0.869033,0.981556,0.932279
QRNG_Data/Experiment_8/CP41B/ROI60x60/exp265gain20.000000Voltage1.720000/,265,69.5181,71.3864,70.0727,61.6081,70.8832,66.343,0.877903,1.00949,0.946781
QRNG_Data/Experiment_8/CP41B/ROI60x60/exp290gain20.000000Voltage1.720000/,290,75.845,76.8542,76.3647,68.3442,76.8186,72.8066,0.894542,1.00768,0.953406
QRNG_Data/Experiment_8/CP41B/ROI60x60/exp315gain20.000000Voltage1.720000/,315,82.0606,83.8303,82.6475,74.7167,84.925,79.0957,0.905901,1.02487,0.957026
QRNG_Data/Experiment_8/CP41B/ROI60x60/exp340gain20.000000Voltage1.720000/,340,88.3964,90.4006,89.5961,79.6412,91.5133,85.5707,0.888172,1.02851,0.955111
QRNG_Data/Experiment_8/CP41B/ROI60x60/exp365gain20.000000Voltage1.720000/,365,94.9678,96.8308,96.2376,84.5067,97.0552,91.6697,0.880711,1.00802,0.952542
QRNG_Data/Experiment_8/CP41B/ROI60x60/exp390gain20.000000Voltage1.720000/,390,101.075,103.261,101.893,91.9761,104.652,98.5038,0.900602,1.02409,0.96675
QRNG_Data/Experiment_8/CP41B/ROI60x60/exp415gain20.000000Voltage1.720000/,415,107.521,109.544,108.704,97.7307,111.021,104.685,0.89671,1.0281,0.963041
QRNG_Data/Experiment_8/CP41B/ROI60x60/exp440gain20.000000Voltage1.720000/,440,113.702,115.739,115.001,103.326,117.088,111.29,0.898703,1.02207,0.967752
QRNG_Data/Experiment_8/CP41B/ROI60x60/exp465gain20.000000Voltage1.720000/,465,119.956,122.272,121.487,111.385,124.366,118.078,0.917746,1.01983,0.971942
QRNG_Data/Experiment_8/CP41B/ROI60x60/exp490gain20.000000Voltage1.720000/,490,126.249,128.47,127.109,116.621,133.074,124.825,0.91192,1.04675,0.982046
QRNG_Data/Experiment_8/CP41B/ROI60x60/exp515gain20.000000Voltage1.720000/,515,132.342,134.745,133.199,123.398,142.255,131.969,0.92712,1.06947,0.990768
QRNG_Data/Experiment_8/CP41B/ROI60x60/exp540gain20.000000Voltage1.720000/,540,138.759,140.923,139.557,129.897,148.464,138.933,0.927529,1.0645,0.995535
QRNG_Data/Experiment_8/CP41B/ROI60x60/exp565gain20.000000Voltage1.720000/,565,145.167,147.389,146.251,136.154,157.382,146.158,0.926505,1.07892,0.999375
QRNG_Data/Experiment_8/CP41B/ROI60x60/exp590gain20.000000Voltage1.720000/,590,145.385,147.975,146.663,136.674,154.651,145.895,0.932694,1.06094,0.994771
QRNG_Data/Experiment_8/CP41B/ROI60x60/exp615gain20.000000Voltage1.720000/,615,152.629,154.126,153.312,144.026,161.893,153.48,0.937764,1.05921,1.0011
QRNG_Data/Experiment_8/CP41B/ROI60x60/exp640gain20.000000Voltage1.720000/,640,158.052,159.758,158.822,149.607,172.876,160.667,0.939667,1.08579,1.01162
QRNG_Data/Experiment_8/CP41B/ROI60x60/exp665gain20.000000Voltage1.720000/,665,164.607,167.045,166.079,156.565,180.933,168.122,0.943428,1.08973,1.01231
QRNG_Data/Experiment_8/CP41B/ROI60x60/exp690gain20.000000Voltage1.720000/,690,171.604,173.479,172.576,163.489,192.361,175.916,0.949537,1.11368,1.01935
QRNG_Data/Experiment_8/CP41B/ROI60x60/exp715gain20.000000Voltage1.720000/,715,176.904,179.699,178.072,171.457,199.935,183.726,0.963132,1.12051,1.03175
QRNG_Data/Experiment_8/CP41B/ROI60x60/exp740gain20.000000Voltage1.720000/,740,183.571,186.149,184.964,175.453,202.517,190.642,0.952007,1.09308,1.0307
QRNG_Data/Experiment_8/CP41B/ROI60x60/exp765gain20.000000Voltage1.720000/,765,189.963,192.893,191.382,186.328,212.479,198.488,0.974019,1.11308,1.03714
QRNG_Data/Experiment_8/CP41B/ROI60x60/exp790gain20.000000Voltage1.720000/,790,196.613,199.245,198.289,195.211,221.119,206.128,0.982629,1.11582,1.03953
QRNG_Data/Experiment_8/CP41B/ROI60x60/exp815gain20.000000Voltage1.720000/,815,202.744,205.531,204.007,201.82,228.929,214.298,0.988638,1.12059,1.05044
QRNG_Data/Experiment_8/CP41B/ROI60x60/exp840gain20.000000Voltage1.720000/,840,209.304,212.279,210.359,208.123,234.666,222.385,0.988822,1.11469,1.05717
QRNG_Data/Experiment_8/CP41B/ROI60x60/exp865gain20.000000Voltage1.720000/,865,215.594,218.846,217.244,215.217,248.939,229.527,0.989465,1.15231,1.05654
QRNG_Data/Experiment_8/CP41B/ROI60x60/exp890gain20.000000Voltage1.720000/,890,222.389,225.365,223.397,221.178,255.236,238.488,0.990232,1.14138,1.06756
QRNG_Data/Experiment_8/CP41B/ROI60x60/exp915gain20.000000Voltage1.720000/,915,229.251,232.003,230.793,230.686,260.579,246.602,1.001,1.12777,1.06849
QRNG_Data/Experiment_8/CP41B/ROI60x60/exp940gain20.000000Voltage1.720000/,940,236.054,238.406,237.241,241.163,273.363,255.091,1.01787,1.15097,1.07524
QRNG_Data/Experiment_8/CP41B/ROI60x60/exp965gain20.000000Voltage1.720000/,965,241.531,244.835,242.956,248.536,280.751,262.285,1.02494,1.15569,1.07956
QRNG_Data/Experiment_8/CP41B/ROI60x60/exp990gain20.000000Voltage1.720000/,990,249.138,251.556,250.205,248.407,287.851,270.038,0.993913,1.14977,1.07927
