^C:\Users\albar\Desktop\IITM_QRNG\iitm_qrng_repos\QRNG_Correlation_Analysis\QRNG_Correlation_Analysis.vcxproj
C:\Users\albar\Desktop\IITM_QRNG\iitm_qrng_repos\x64\Release\QRNG_Correlation_Analysis.ipdb
C:\Users\albar\Desktop\IITM_QRNG\iitm_qrng_repos\x64\Release\QRNG_Correlation_Analysis.iobj
^C:\USERS\ALBAR\DESKTOP\IITM_QRNG\IITM_QRNG_REPOS\QRNG_CORRELATION_ANALYSIS\X64\RELEASE\MAIN.OBJ|C:\USERS\ALBAR\DESKTOP\IITM_QRNG\IITM_QRNG_REPOS\QRNG_CORRELATION_ANALYSIS\X64\RELEASE\STORAGE.OBJ
C:\USERS\ALBAR\DESKTOP\IITM_QRNG\IITM_QRNG_REPOS\X64\RELEASE\QRNG_CORRELATION_ANALYSIS.EXE
C:\USERS\ALBAR\DESKTOP\IITM_QRNG\IITM_QRNG_REPOS\QRNG_CORRELATION_ANALYSIS\X64\RELEASE\QRNG_CORRELATION_ANALYSIS.IPDB
C:\USERS\ALBAR\DESKTOP\IITM_QRNG\IITM_QRNG_REPOS\X64\RELEASE\QRNG_CORRELATION_ANALYSIS.PDB
C:\USERS\ALBAR\DESKTOP\IITM_QRNG\IITM_QRNG_REPOS\QRNG_CORRELATION_ANALYSIS\X64\RELEASE\QRNG_CORRELATION_ANALYSIS.IOBJ
