1.33845,1.2507,1.29579,1.31426,1.27074,1.35302,1.28515,1.23407,1.32813,1.30719,1.34018,1.33847,1.26097,1.27169,1.26687,1.20987,1.34302,1.24285,1.29067,1.36381,1.33702,1.25665,1.3024,1.31497,1.28524,1.30067,1.31672,1.31801,1.25436,1.22829,1.4329,1.30083,1.36984,1.25828,1.30806,1.30799,1.43261,1.27566,1.25992,1.32557,1.24533,1.34054,1.34391,1.28557,1.34017,1.31384,1.32509,1.35016,1.34101,1.24157,1.30364,1.40251,1.2842,1.30178,1.27717,1.26868,1.38498,1.27925,1.35633,1.30682
1.34648,1.35635,1.31234,1.30188,1.34117,1.30559,1.27857,1.41204,1.25859,1.34639,1.32926,1.39403,1.33531,1.38347,1.30526,1.25317,1.33729,1.33692,1.40633,1.31592,1.24033,1.29616,1.34224,1.26313,1.29945,1.30392,1.38431,1.23104,1.30842,1.32819,1.25594,1.29248,1.35181,1.28855,1.32986,1.25006,1.3462,1.29247,1.31746,1.30995,1.28298,1.28784,1.28704,1.35918,1.29381,1.31116,1.2958,1.35894,1.26387,1.28028,1.3221,1.28873,1.25203,1.32378,1.29693,1.29205,1.19385,1.33332,1.27268,1.27158
1.36152,1.31132,1.3344,1.29829,1.2583,1.31887,1.26305,1.25212,1.3115,1.30594,1.32702,1.31671,1.21482,1.35506,1.35719,1.35104,1.32013,1.323,1.3375,1.29872,1.39417,1.41945,1.25706,1.2871,1.39312,1.35309,1.29913,1.30863,1.29977,1.34849,1.37028,1.28589,1.3204,1.33407,1.38372,1.33067,1.30598,1.32739,1.27592,1.31873,1.28252,1.28888,1.24917,1.24349,1.22951,1.34714,1.29442,1.32706,1.29703,1.29339,1.29638,1.33043,1.34943,1.34908,1.27967,1.33044,1.3335,1.38326,1.29456,1.33503
1.30862,1.24499,1.28639,1.28257,1.30508,1.33061,1.34903,1.30065,1.29115,1.29324,1.30196,1.25622,1.36573,1.32241,1.31326,1.3268,1.32878,1.33316,1.32068,1.28462,1.37568,1.2926,1.31207,1.37579,1.27375,1.29116,1.28963,1.37737,1.34786,1.31056,1.21698,1.29035,1.27814,1.34431,1.29243,1.35001,1.22109,1.34311,1.28554,1.28941,1.32577,1.24034,1.30858,1.37004,1.28814,1.31568,1.23951,1.3285,1.24718,1.31311,1.39009,1.33349,1.34565,1.28082,1.32044,1.33241,1.32899,1.33775,1.38482,1.26947
1.22626,1.29498,1.28642,1.30378,1.26981,1.21235,1.28126,1.31722,1.2173,1.29057,1.24412,1.25735,1.31916,1.29704,1.3077,1.29503,1.33023,1.32348,1.2882,1.21166,1.30676,1.345,1.35156,1.24477,1.2195,1.33629,1.22103,1.33968,1.43246,1.34841,1.31823,1.37277,1.25701,1.33759,1.28686,1.25155,1.27863,1.3274,1.30812,1.29538,1.29393,1.19535,1.23434,1.25687,1.18972,1.22502,1.2972,1.31707,1.3798,1.34013,1.39629,1.35259,1.34224,1.3324,1.31915,1.35294,1.27914,1.31038,1.29291,1.36886
1.32455,1.28939,1.27797,1.24965,1.36812,1.32407,1.35056,1.28717,1.30448,1.32819,1.36522,1.33519,1.36141,1.29458,1.26322,1.32009,1.39477,1.3439,1.34229,1.31755,1.36969,1.30932,1.32702,1.23105,1.33301,1.28168,1.36234,1.28493,1.32262,1.34262,1.29285,1.27839,1.32807,1.26176,1.2131,1.29487,1.22998,1.30268,1.25046,1.37995,1.31796,1.37571,1.34867,1.3513,1.31317,1.32496,1.3309,1.33579,1.25992,1.28253,1.37357,1.33036,1.25751,1.33325,1.2815,1.3084,1.22873,1.26645,1.32336,1.31815
1.31879,1.35654,1.34823,1.3475,1.33997,1.33745,1.22238,1.35402,1.3392,1.39246,1.47552,1.29366,1.35666,1.24256,1.24266,1.21338,1.35639,1.32219,1.37527,1.23868,1.36889,1.31375,1.32194,1.24439,1.29631,1.30664,1.30458,1.29023,1.28171,1.25291,1.25123,1.32377,1.32458,1.29649,1.34144,1.32286,1.29503,1.33672,1.27502,1.29583,1.29623,1.35152,1.38315,1.26953,1.29913,1.30135,1.34596,1.29726,1.35433,1.29445,1.40064,1.31706,1.2886,1.24347,1.26696,1.29543,1.33474,1.26599,1.28851,1.31278
1.34874,1.16627,1.28601,1.32537,1.2989,1.34035,1.32227,1.28767,1.35077,1.31615,1.29254,1.30284,1.35574,1.32046,1.35656,1.2836,1.30253,1.31631,1.28852,1.35064,1.23408,1.31834,1.31403,1.40744,1.34012,1.30022,1.31637,1.29746,1.34995,1.33627,1.39934,1.36017,1.33897,1.33122,1.28464,1.3206,1.32377,1.29182,1.32217,1.24382,1.33894,1.28404,1.3299,1.37366,1.34113,1.32542,1.26831,1.31746,1.27018,1.37939,1.33978,1.25168,1.3059,1.40785,1.32454,1.29451,1.32786,1.33214,1.38457,1.28794
1.2627,1.30007,1.30479,1.24598,1.34509,1.276,1.2963,1.23677,1.32693,1.31418,1.34011,1.3211,1.31627,1.37942,1.30189,1.28019,1.3625,1.27762,1.32531,1.25745,1.3002,1.26117,1.29508,1.32669,1.35221,1.31426,1.30659,1.28609,1.22082,1.27468,1.30517,1.32835,1.33856,1.28304,1.42678,1.22513,1.31345,1.32332,1.33847,1.42252,1.32356,1.29038,1.32982,1.32897,1.33611,1.30475,1.24461,1.27491,1.28674,1.26639,1.31238,1.39146,1.28291,1.33209,1.3351,1.20629,1.30773,1.32147,1.32588,1.34525
1.29596,1.28191,1.3139,1.25129,1.34621,1.37187,1.23941,1.3603,1.29433,1.3368,1.40313,1.38553,1.23961,1.35007,1.36006,1.30165,1.27519,1.33752,1.32233,1.28004,1.32517,1.32665,1.35428,1.29761,1.26122,1.34659,1.31635,1.27854,1.26101,1.28043,1.39663,1.30571,1.277,1.32402,1.3211,1.374,1.28146,1.26076,1.31388,1.2896,1.27722,1.29632,1.29309,1.38293,1.27505,1.39424,1.37414,1.27366,1.31451,1.3477,1.33956,1.27515,1.29952,1.34203,1.28916,1.28329,1.31455,1.30124,1.31995,1.2967
1.31932,1.38582,1.20414,1.36736,1.31998,1.30859,1.27787,1.30135,1.32193,1.37115,1.35632,1.25679,1.26661,1.33021,1.35682,1.2121,1.31945,1.30562,1.38309,1.34365,1.33175,1.38419,1.3465,1.32058,1.29712,1.30706,1.39571,1.32589,1.27625,1.28572,1.28923,1.34192,1.37233,1.2971,1.29698,1.32172,1.33783,1.39513,1.27742,1.35935,1.23701,1.22822,1.16471,1.31795,1.29077,1.32569,1.35243,1.35152,1.31024,1.26912,1.26214,1.32121,1.32133,1.27936,1.26842,1.44493,1.22987,1.302,1.3681,1.32467
1.31347,1.29063,1.32182,1.30977,1.33957,1.3211,1.37469,1.28291,1.31464,1.28885,1.24108,1.30003,1.2242,1.36088,1.38429,1.3013,1.28752,1.29845,1.32012,1.3734,1.3607,1.33409,1.25692,1.31572,1.27107,1.34135,1.29427,1.34196,1.35197,1.27649,1.35249,1.32265,1.2461,1.37077,1.32358,1.36394,1.35118,1.36331,1.34177,1.33882,1.2771,1.35791,1.3455,1.3288,1.34769,1.34124,1.35089,1.28191,1.27322,1.2562,1.37754,1.30411,1.35818,1.29518,1.31974,1.33908,1.30545,1.32062,1.29283,1.32019
1.31835,1.32083,1.29461,1.24457,1.36707,1.28484,1.25294,1.34132,1.29296,1.32924,1.31492,1.29438,1.3098,1.25259,1.29701,1.33054,1.3776,1.28336,1.27554,1.32137,1.2517,1.32335,1.29617,1.33605,1.24573,1.74988,1.24318,1.30289,1.30165,1.28026,1.29261,1.29426,1.34092,1.33875,1.27216,1.30358,1.38826,1.32567,1.35699,1.37022,1.32128,1.273,1.27823,1.32654,1.31545,1.32568,1.32739,1.36837,1.26196,1.34453,1.28062,1.35117,1.34732,1.3442,1.29388,1.28638,1.32403,1.30555,1.36152,1.33335
1.30852,1.35858,1.31306,1.20225,1.2314,1.31397,1.39626,1.41914,1.29683,1.32838,1.35139,1.34694,1.31688,1.343,1.30091,1.37059,1.36585,1.32027,1.38747,1.26477,1.26939,1.34643,1.28432,1.25285,1.22889,1.33137,1.24758,1.28902,1.34417,1.3036,1.34001,1.27147,1.27093,1.33483,1.26886,1.28073,1.31735,1.27769,1.33794,1.24664,1.32773,1.30388,1.30956,1.31332,1.33394,1.6978,1.32746,1.30605,1.29404,1.31603,1.30046,1.35009,1.32672,1.30791,1.2778,1.35394,1.32301,1.34599,1.30202,1.29198
1.36517,1.2869,1.32576,1.29654,1.29832,1.28778,1.27085,1.26906,1.31813,1.26927,1.36867,1.38243,1.31864,1.28343,1.32815,1.25539,1.42112,1.36952,1.28815,1.31789,1.33213,1.29699,1.25369,1.3157,1.37212,1.29761,1.33428,1.29525,1.30502,1.3004,1.30042,1.32871,1.32647,1.40901,1.35719,1.35486,1.26817,1.38055,1.28074,1.21617,1.27485,1.34534,1.23431,1.28583,1.31004,1.28155,1.22459,1.37141,1.3681,1.37355,1.30037,1.31202,1.29403,1.27038,1.21467,1.30311,1.37414,1.32129,1.30205,1.30029
1.25936,1.33068,1.28389,1.29904,1.36675,1.36614,1.23681,1.31282,1.29731,1.2976,1.32604,1.23255,1.35895,1.33697,1.38711,1.33492,1.37015,1.27627,1.35381,1.34615,1.31293,1.30085,1.26168,1.25713,1.28257,1.3418,1.29565,1.31107,1.2904,1.41329,1.40163,1.35832,1.32424,1.30908,1.34065,1.3196,1.3884,1.28377,1.28205,1.32085,1.34242,1.33461,1.33278,1.35087,1.37128,1.25901,1.31384,1.28586,1.36472,1.26641,1.43013,1.2764,1.35005,1.26005,1.28905,1.36085,1.32667,1.3912,1.32487,1.43103
1.2842,1.26085,1.30142,1.2973,1.28597,1.30881,1.2379,1.24541,1.31839,1.25632,1.27663,1.30852,1.359,1.30756,1.22736,1.357,1.24433,1.3792,1.34992,1.28155,1.35328,1.32324,1.25853,1.35294,1.40079,1.29002,1.34231,1.36435,1.26213,1.31534,1.25444,1.26569,1.35801,1.26048,1.34825,1.3089,1.36575,1.33406,1.26467,1.34051,1.25176,1.28428,1.27658,1.40548,1.2644,1.31113,1.28872,1.29846,1.25143,1.28905,1.30456,1.38552,1.35451,1.27544,1.34086,1.35316,1.36639,1.33588,1.22529,1.36667
1.34235,1.31913,1.26319,1.29391,1.27937,1.31922,1.28252,1.26159,1.3161,1.31767,1.31711,1.2508,1.33255,1.35707,1.37001,1.23797,1.36113,1.27709,1.38089,1.29726,1.28114,1.35311,1.31401,1.29504,1.2934,1.31025,1.26586,1.268,1.26673,1.29444,1.20765,1.30727,1.34158,1.31898,1.36094,1.31522,1.35623,1.29994,1.30191,1.27784,1.35617,1.3107,1.31238,1.30173,1.31098,1.33092,1.33986,1.23475,1.26166,1.33151,1.29294,1.28242,1.32938,1.24628,1.33237,1.37182,1.38444,1.31341,1.32216,1.25613
1.22355,1.27301,1.34707,1.3912,1.25152,1.38351,1.28462,1.31613,1.28838,1.36577,1.34995,1.27298,1.33783,1.29654,1.26158,1.33579,1.30012,1.32431,1.31241,1.27104,1.27463,1.31847,1.3596,1.30325,1.32949,1.32255,1.33236,1.25423,1.3411,1.37843,1.37013,1.23961,1.21608,1.28393,1.29827,1.32626,1.30424,1.31691,1.3086,1.37017,1.29208,1.34453,1.30903,1.34954,1.41241,1.33317,1.22975,1.3263,1.33423,1.33814,1.33023,1.29922,1.25873,1.29316,1.24059,1.30577,1.30335,1.2623,1.31744,1.3057
1.35716,1.30898,1.36717,1.35449,1.31881,1.31732,1.26579,1.28781,1.3244,1.32978,1.33141,1.32856,1.32266,1.32004,1.3349,1.34712,1.28881,1.21003,1.29424,1.41122,1.34303,1.25852,1.36194,1.33249,1.26229,1.27582,1.32289,1.31872,1.27158,1.35356,1.34831,1.31142,1.2793,1.29228,1.32372,1.30885,1.28526,1.33861,1.28827,1.32381,1.33653,1.38461,1.29742,1.31311,1.42018,1.30299,1.32604,1.33938,1.37663,1.32131,1.3167,1.35855,1.31161,1.31944,1.31656,1.3388,1.33722,1.27634,1.42006,1.29062
1.30249,1.33882,1.32398,1.27295,1.30284,1.31389,1.40864,1.33019,1.31345,1.26448,1.283,1.30272,1.25039,1.2888,1.29412,1.34443,1.29335,1.29965,1.2859,1.29914,1.32911,1.30914,1.24041,1.28265,1.34154,1.31822,1.27287,1.30105,1.32036,1.38162,1.3282,1.33451,1.36244,1.25622,1.23572,1.23103,1.26126,1.40514,1.32941,1.28657,1.33099,1.2922,1.27974,1.2706,1.20827,1.31536,1.34011,1.24278,1.32039,1.35568,1.38712,1.27106,1.32285,1.30425,1.25042,1.33661,1.26484,1.41832,1.35547,1.31493
1.36465,1.26188,1.32065,1.30102,1.31187,1.32621,1.30109,1.29161,1.35163,1.33438,1.3448,1.27749,1.31065,1.29009,1.44462,1.31193,1.35207,1.31789,1.29008,1.33531,1.29261,1.228,1.25891,1.36559,1.26592,1.28708,1.29641,1.35393,1.26414,1.29978,1.35253,1.30218,1.23389,1.32024,1.35136,1.37208,1.2797,1.28721,1.24423,1.32213,1.35329,1.28152,1.28616,1.31977,1.28679,1.36275,1.37876,1.24083,1.2981,1.26263,1.28592,1.36111,1.26069,1.27624,1.27308,1.31675,1.32554,1.30596,1.35478,1.34948
1.35753,1.29189,1.28738,1.3375,1.3301,1.32335,1.31992,1.32003,1.22699,1.28657,1.33914,1.26886,1.3548,1.30652,1.38861,1.26406,1.36059,1.29385,1.32841,1.36276,1.33553,1.36724,1.22,1.31742,1.31703,1.30373,1.35511,1.32803,1.3891,1.27477,1.35694,1.28924,1.26632,1.31896,1.43615,1.36465,1.31892,1.31715,1.27333,1.34581,1.26268,1.2024,1.2819,1.22625,1.33625,1.30624,1.3589,1.30679,1.33641,1.318,1.24108,1.2899,1.29267,1.27686,1.38057,1.37084,1.23964,1.22051,1.30328,1.34383
1.31281,1.26391,1.29232,1.35698,1.25903,1.30302,1.33055,1.37256,1.28109,1.33015,1.30318,1.24448,1.30514,1.2785,1.30192,1.35675,1.37117,1.35311,1.29252,1.27442,1.24793,1.33043,1.33089,1.38903,1.28562,1.34502,1.29835,1.37504,1.34458,1.35839,1.33348,1.3774,1.37219,1.36583,1.35162,1.32037,1.32638,1.29672,1.26553,1.27347,1.31695,1.31844,1.26347,1.39102,1.31718,1.32561,1.3412,1.34261,1.35735,1.33004,1.31536,1.33363,1.30474,1.31803,1.33922,1.36613,1.37073,1.34086,1.29388,1.31385
1.30017,1.36129,1.31823,1.30452,1.2645,1.302,1.32591,1.26232,1.3021,1.34776,1.32216,1.3207,1.26979,1.24539,1.28332,1.33226,1.27915,1.28758,1.28025,1.25993,1.38346,1.29777,1.32667,1.34016,1.29553,1.36137,1.22041,1.3061,1.3335,1.28121,1.25856,1.22171,1.30827,1.33262,1.32634,1.32347,1.27384,1.29753,1.34665,1.2491,1.26324,1.34358,1.35919,1.29818,1.33175,1.22777,1.30504,1.33896,1.32029,1.29202,1.29974,1.32147,1.35687,1.38503,1.33745,1.24518,1.36187,1.32411,1.33628,1.3329
1.30921,1.35325,1.30402,1.29821,1.37283,1.28752,1.3843,1.3042,1.29482,1.36372,1.3023,1.32733,1.3416,1.31892,1.30708,1.33953,1.36794,1.2832,1.35575,1.3616,1.29648,1.25296,1.2244,1.34875,1.26821,1.30586,1.28359,1.29519,1.30732,1.29597,1.21074,1.29416,1.37397,1.27128,1.33309,1.36732,1.34118,1.33035,1.27668,1.32939,1.25222,1.26359,1.3311,1.21535,1.28243,1.33551,1.32099,1.30329,1.31179,1.32172,1.37226,1.31443,1.30519,1.21446,1.29731,1.39232,1.33616,1.30105,1.30748,1.31026
1.32945,1.23441,1.31122,1.29681,1.25955,1.25805,1.27918,1.28107,1.30617,1.38728,1.28576,1.30749,1.31527,1.3219,1.3365,1.24078,1.29913,1.39704,1.33635,1.28068,1.3359,1.38736,1.33022,1.26964,1.25046,1.32344,1.32822,1.18608,1.35843,1.29064,1.31832,1.31612,1.34525,1.31574,1.30464,1.3613,1.30353,1.3612,1.32656,1.28811,1.30577,1.25897,1.26513,1.31743,1.33116,1.28261,1.33411,1.37517,1.26491,1.29384,1.26155,1.23879,1.33009,1.30305,1.28132,1.29831,1.36778,1.3397,1.28256,1.32593
1.3219,1.22453,1.27248,1.26599,1.30853,1.32735,1.27151,1.32095,1.22247,1.293,1.28474,1.27025,1.31032,1.35362,1.32245,1.32523,1.37717,1.27242,1.33886,1.3391,1.25996,1.26138,1.26373,1.28771,1.29929,1.28292,1.35948,1.32049,1.31162,1.27387,1.32558,1.29111,1.26644,1.29745,1.30958,1.32931,1.31737,1.3218,1.34712,1.28704,1.29385,1.35352,1.28564,1.31313,1.36214,1.29908,1.36223,1.35107,1.33769,1.31411,1.35235,1.32055,1.34841,1.35688,1.33648,1.31892,1.31243,1.33709,1.27238,1.31585
1.32988,1.24744,1.25148,1.30761,1.27813,1.307,1.3196,1.27811,1.27545,1.32099,1.29282,1.37626,1.30402,1.26307,1.40496,1.27883,1.30469,1.32826,1.32244,1.30677,1.26233,1.29701,1.27739,1.36216,1.30243,1.35519,1.29596,1.31881,1.27268,1.38333,1.30056,1.32144,1.27153,1.23689,1.28408,1.28282,1.31409,1.22889,1.41585,1.36592,1.36196,1.32896,1.35133,1.31881,1.27494,1.27796,1.30857,1.33482,1.31788,1.36413,1.30008,1.34681,1.31705,1.31207,1.25229,1.26237,1.33536,1.33768,1.38773,1.32856
1.32663,1.3507,1.26322,1.32284,1.38384,1.30968,1.3377,1.27384,1.35719,1.3322,1.38152,1.40703,1.26604,1.2918,1.34574,1.36259,1.36589,1.31604,1.35572,1.41562,1.26533,1.27347,1.25116,1.30841,1.3379,1.27951,1.30685,1.33144,1.29009,1.30964,1.36404,1.3131,1.36737,1.3004,1.31131,1.232,1.37034,1.30065,1.31861,1.31868,1.29009,1.27904,1.28019,1.36224,1.3001,1.31478,1.26731,1.30349,1.22584,1.42322,1.28876,1.24159,1.24236,1.33175,1.30117,1.3455,1.35106,1.38231,1.34602,1.29409
1.36063,1.35028,1.3665,1.25665,1.3165,1.32231,1.3961,1.31578,1.25655,1.24693,1.41645,1.32259,1.43746,1.33995,1.2935,1.29951,1.34294,1.27191,1.36359,1.3196,1.3248,1.40749,1.38314,1.37289,1.36928,1.29505,1.24517,1.32633,1.38402,1.28878,3.38762,1.35782,1.3287,1.2988,1.27495,1.34222,1.33808,1.3281,1.32699,1.37322,1.32245,1.30898,1.27026,1.33941,1.33704,1.24081,1.38152,1.33915,1.31338,1.3362,1.30579,1.34812,1.32507,1.28837,1.25753,1.33918,1.29328,1.27288,1.32328,1.28918
1.30381,1.36048,1.29813,1.36058,1.37637,1.23542,1.34431,1.2975,1.36016,1.3524,1.27598,1.25717,1.28493,1.32565,1.33582,1.32093,1.30023,1.37837,1.27135,1.24259,1.31494,1.32938,1.31997,1.31249,1.29733,1.31417,1.32537,1.26278,1.24722,1.32048,1.25309,1.24896,1.36483,1.31429,1.35164,1.37892,1.36918,1.28087,1.30209,1.29272,1.33448,1.29816,1.25677,1.3841,1.3628,1.33686,1.30449,1.27882,1.29852,1.3319,1.28675,1.28126,1.37776,1.39808,1.3873,1.34969,1.30207,1.35611,1.26555,1.31899
1.20398,1.26657,1.32198,1.27323,1.28088,1.31791,1.27103,1.41728,1.2995,1.29217,1.33966,1.23526,1.27165,1.34212,1.21094,1.32791,1.30109,1.34302,1.26665,1.2849,1.29137,1.34898,1.34854,1.35519,1.31474,1.20395,1.31553,1.29586,1.35622,1.32299,1.24141,1.22137,1.30937,1.25461,1.33332,1.32919,1.25941,1.32364,1.26549,1.26748,1.38212,1.32031,1.35625,1.35949,1.33557,1.32793,1.26363,1.29846,1.32381,1.30251,1.28958,1.34886,1.34128,1.26694,1.36183,1.33913,1.40937,1.3372,1.32223,1.37348
1.28106,1.32378,1.23764,1.36179,1.31645,1.35379,1.31673,1.34048,1.35934,1.28116,1.32719,1.34226,1.31265,1.28228,1.39099,1.35478,1.34598,1.29412,1.31979,1.33515,1.3617,1.34455,1.31623,1.31495,1.28072,1.3227,1.28739,1.23176,1.31801,1.24322,1.33847,1.27986,1.3797,1.29642,1.27664,1.31513,1.37961,1.29305,1.28739,1.30022,1.34947,1.3402,1.32154,1.28767,1.2969,1.24665,1.34114,1.39611,1.28816,1.32489,1.35992,1.36764,1.33078,1.39147,1.26343,1.28816,1.3242,1.3325,1.30601,1.34223
1.28987,1.32725,1.27517,1.30803,1.29834,1.36355,1.3273,1.32106,1.2615,1.32593,1.26118,1.35689,1.29382,1.28696,1.31111,1.31435,1.30078,1.27377,1.29247,1.34098,1.2864,1.26505,1.27606,1.30157,1.3538,1.3158,1.33843,1.28654,1.32265,1.31921,1.26362,1.32423,1.34289,1.36473,1.38492,1.36523,1.21682,1.32261,1.3589,1.29703,1.31847,1.34201,1.39143,1.2347,1.31344,1.27357,1.24243,1.28379,1.32305,1.28589,1.32387,1.31563,1.2629,1.31818,1.23386,1.2717,1.26754,1.37152,1.31408,1.37074
1.27977,1.26554,1.33921,1.27167,1.29859,1.25889,1.28507,1.29496,1.33962,1.30434,1.27317,1.32992,1.28549,1.44611,1.34657,1.34981,1.29326,1.27589,1.23849,1.32584,1.28865,1.36696,1.32154,1.27145,1.32051,1.43102,1.32157,1.33447,1.41687,1.27529,1.34181,1.25095,1.32524,1.37813,1.3174,1.27522,1.35593,1.36513,1.30298,1.35461,1.28433,1.27645,1.31061,1.31722,1.34104,1.29646,1.366,1.2824,1.28012,1.30294,1.33818,1.30375,1.3512,1.3489,1.25612,1.35804,1.35522,1.44405,1.3061,1.2928
1.31393,1.24977,1.28937,1.27826,1.22159,1.32284,1.1681,1.32311,1.32323,1.31544,1.30774,1.33219,1.33733,1.31562,1.34634,1.3053,1.28975,1.29345,1.27583,1.27918,1.31437,1.27046,1.30195,1.32641,1.28302,1.34178,1.26278,1.30037,1.2646,1.26882,1.35682,1.29427,1.29984,1.31839,1.32385,1.29721,1.31552,1.33171,1.33563,1.27304,1.30735,1.29869,1.33364,1.30922,1.3324,1.32739,1.31402,1.35616,1.37854,1.34223,1.32322,1.29388,1.32426,1.34062,1.28446,1.39905,1.28886,1.29444,1.36514,1.27419
1.32865,1.35885,1.38325,1.27316,1.38839,1.35859,1.31851,1.33042,1.33399,1.3693,1.36974,1.35361,1.32823,1.25866,1.38127,1.34208,1.31085,1.35279,1.30102,1.32001,1.31516,1.31687,1.29898,1.34138,1.3337,1.33004,1.33761,1.30343,1.2787,1.26971,1.35776,1.24398,1.31544,1.38462,1.27267,1.26709,1.26778,1.23095,1.31783,1.22012,1.27727,1.29197,1.28381,1.23765,1.33721,1.32409,1.29575,1.3535,1.33241,1.39791,1.30144,1.36475,1.2399,1.4026,1.33966,1.27637,1.34109,1.26581,1.288,1.35415
1.29515,1.31256,1.32139,1.37641,1.2992,1.3133,1.32099,1.37591,1.34472,1.32649,1.3612,1.38233,1.34047,1.30705,1.3489,1.35285,1.29072,1.27247,1.25535,1.29425,1.33991,1.40185,1.40799,1.33281,1.30131,1.2558,1.34582,1.31086,1.37651,1.29123,1.34393,1.31701,1.30527,1.37702,1.33749,1.37111,1.37928,1.36065,1.37561,1.30651,1.22616,1.35773,1.29853,1.30746,1.37079,1.30099,1.31048,1.31235,1.24276,1.28809,1.27442,1.36703,1.3045,1.32423,1.30345,1.33493,1.31703,1.26816,1.23258,1.30492
1.29544,1.33851,1.27649,1.34254,1.33609,1.30693,1.30039,1.31336,1.25759,1.26997,1.19412,1.30491,1.29018,1.30073,1.32047,1.28639,1.32525,1.38288,1.30319,1.37684,1.32478,1.27117,1.34386,1.34595,1.29334,1.29793,1.33741,1.27439,1.32975,1.29641,1.29876,1.29903,1.31404,1.34606,1.28073,1.29574,1.24788,1.32644,1.31198,1.26305,1.32591,1.33482,1.38196,1.31773,1.35927,1.3165,1.34475,1.3855,1.30061,1.31308,1.34621,1.27767,1.2979,1.35046,1.24625,1.38337,1.40574,1.38095,1.25978,1.32984
1.33049,1.24367,1.2844,1.27017,1.35361,1.3549,1.30687,1.27081,1.27514,1.34583,1.25971,1.31079,1.32161,1.33005,1.24915,1.36191,1.30143,1.30376,1.29027,1.32454,1.31828,1.31937,1.30277,1.2799,1.26325,1.3232,1.36519,1.30955,1.24702,1.32299,1.29508,1.32729,1.3291,1.29171,1.27346,1.27636,1.26733,1.28546,1.25516,1.33233,1.3096,1.348,1.31316,1.36381,1.29672,1.27752,1.39052,1.31175,1.36277,1.38195,1.31671,1.34826,1.27967,1.28911,1.28077,1.2737,1.3225,1.31555,1.2973,1.33439
1.3385,1.29618,1.3572,1.29514,1.23623,1.34997,1.37727,1.24246,1.31807,1.35893,1.25285,1.35449,1.35734,1.25231,1.29416,1.37607,1.30255,1.37318,1.29428,1.31662,1.33055,1.26782,1.3073,1.3108,1.27853,1.29364,1.31831,1.37993,1.26799,1.2708,1.3471,1.2601,1.25797,1.24742,1.33681,1.31797,1.34241,1.25573,1.30123,1.28103,1.33131,1.29701,1.27083,1.29387,1.25192,1.32487,1.26108,1.24202,1.30518,1.31482,1.32381,1.26735,1.34383,1.33383,1.30794,1.23973,1.24971,1.31583,1.31732,1.26035
1.35302,1.32097,1.29125,1.24156,1.36564,1.22611,1.28112,1.29722,1.31508,1.26172,1.35914,1.2973,1.36867,1.28395,1.36061,1.31192,1.32952,1.33902,1.39603,1.28125,1.31576,1.29646,1.3547,1.4064,1.35414,1.28946,1.32362,1.30602,1.26168,1.31324,1.34861,1.30596,1.41708,1.25403,1.29371,1.33777,1.34906,1.39271,1.29721,1.31718,1.2537,1.33385,1.29414,1.2685,1.33072,1.36204,1.30519,1.31121,1.25576,1.30625,1.24581,1.37071,1.32356,1.22968,1.31132,1.2742,1.32344,1.31714,1.24205,1.31378
1.33628,1.31043,1.29015,1.28866,1.25095,1.32253,1.28561,1.33137,1.27414,1.31347,1.26459,1.25552,1.29389,1.32323,1.30334,1.35362,1.37456,1.33088,1.28578,1.36122,1.2955,1.32428,1.2961,1.35154,1.34297,1.31354,1.29542,1.29734,1.27879,1.30729,1.331,1.34654,1.2664,1.33999,1.29599,1.36346,1.30023,1.30555,1.35684,1.37037,1.27219,1.2864,1.3192,1.3395,1.30171,1.32798,1.32917,1.32451,1.30616,1.3409,1.27553,1.22449,1.34309,1.28769,1.33064,1.29268,1.36059,1.31744,1.35418,1.3984
1.28441,1.32303,1.33071,1.25288,1.32099,1.36299,1.33306,1.3233,1.27293,1.39119,1.31194,1.36269,1.27045,1.34583,1.28653,1.36504,1.30346,1.31214,1.36893,1.23455,1.27372,1.3367,1.25571,1.36859,1.30614,1.31808,1.34175,1.32787,1.30494,1.28967,1.22415,1.29599,1.24647,1.2953,1.3038,1.36601,1.32729,1.25018,1.25677,1.31326,1.29619,1.33718,1.26416,1.3938,1.31179,1.39374,1.35707,1.35052,1.28332,1.31994,1.35011,1.32506,1.29411,1.3541,1.38794,1.27683,1.28852,1.29652,1.32865,1.36822
1.2761,1.38989,1.37153,1.28271,1.27974,1.31005,1.34364,1.31332,1.32073,1.34767,1.28698,1.33727,1.33392,1.33199,1.32292,1.43703,1.36314,1.31565,1.38731,1.34586,1.31649,1.32861,1.30527,1.15738,1.29848,1.27058,1.28794,1.27853,1.24734,1.26231,1.2912,1.28394,1.3247,1.31521,1.3283,1.26445,1.25866,1.30958,1.30825,1.32723,1.3508,1.31537,1.28717,1.32976,1.29549,1.32173,1.30737,1.38805,1.35846,1.25602,1.264,1.25644,1.27042,1.2917,1.37098,1.23225,1.35184,1.3258,1.28005,1.26869
1.3674,1.32662,1.35598,1.33742,1.27075,1.25148,1.32783,1.34286,1.26721,1.25548,1.3995,1.31549,1.32624,1.3359,1.33502,1.31185,1.31116,1.29565,1.32764,1.3864,1.32426,1.35218,1.34055,1.35924,1.35749,1.24262,1.28238,1.36402,1.3079,1.34253,1.24763,1.32051,1.29473,1.33553,1.31932,1.30105,1.28548,1.34196,1.24022,1.23481,1.28374,1.36796,1.33049,1.31099,1.25878,1.27088,1.30644,1.30666,1.30827,1.22192,1.32599,1.30907,1.30518,1.28587,1.30288,1.30782,1.27092,1.31839,1.30422,1.26724
1.29447,1.2361,1.29801,1.29416,1.29293,1.32119,1.31894,1.22223,1.27888,1.37391,1.25497,1.28528,1.32934,1.28145,1.31195,1.37671,1.30768,1.38992,1.33975,1.28843,1.31278,1.31742,1.35777,1.267,1.33146,1.31373,1.26379,1.279,1.26907,1.33607,1.31925,1.34859,1.25252,1.36756,1.29132,1.3818,1.326,1.32378,1.30063,1.30777,1.26183,1.32642,1.38459,1.3486,1.25821,1.28546,1.29387,1.27387,1.3505,1.38947,1.31713,1.36167,1.31715,1.33391,1.32096,1.37646,1.38433,1.34022,1.28839,1.33797
1.32554,1.32246,1.27264,1.30408,1.38472,1.2558,1.33985,1.30993,1.32861,1.3617,1.2618,1.27454,1.33098,1.32504,1.25315,1.24465,1.19956,1.35158,1.34028,1.2636,1.29732,1.28908,1.32207,1.25066,1.3464,1.35052,1.30459,1.32416,1.28926,1.36051,1.29343,1.3222,1.36633,1.33617,1.38383,1.30156,1.26937,1.27655,1.32608,1.35354,1.33054,1.36023,1.30963,1.24158,1.3308,1.29423,1.29748,1.30432,1.32541,1.38102,1.37032,1.35035,1.24845,1.28084,1.36007,1.38713,1.3243,1.31499,1.2875,1.32243
1.36104,1.40813,1.31469,1.26942,1.37877,1.34703,1.24311,1.33703,1.34895,1.35175,1.31566,1.30085,1.34091,1.35042,1.2785,1.36635,1.30422,1.25295,1.35682,1.28499,1.35081,1.32519,1.26968,1.2976,1.33665,1.26612,1.26234,1.30612,1.30811,1.31522,1.30305,1.28198,1.28231,1.30711,1.3073,1.26221,1.38733,1.27623,1.33081,1.29557,1.37184,1.30209,1.32644,1.31081,1.38173,1.37702,1.33238,1.30159,1.26754,1.33055,1.32767,1.21161,1.28093,1.31084,1.29061,1.3142,1.24773,1.32007,1.41072,1.25104
1.32171,1.27281,1.29578,1.32018,1.38518,1.39407,1.33053,1.27068,1.31688,1.31951,1.31199,1.2791,1.31036,1.28682,1.31189,1.32782,1.32701,1.30086,1.32991,1.31767,1.40656,1.35451,1.35545,1.31166,1.32334,1.30224,1.35744,1.32072,1.29692,1.28749,1.29664,1.49334,1.27541,1.30471,1.33157,1.31332,1.27765,1.31993,1.2615,1.34008,1.32159,1.29394,1.31611,1.32995,1.37396,1.28698,1.35557,1.31905,1.25609,1.36614,1.2979,1.37933,1.28002,1.27378,1.22117,1.26674,1.32661,1.2702,1.35718,1.3376
1.32459,1.37544,1.28599,1.31481,1.36081,1.30403,1.36778,1.30106,1.32088,1.20671,1.27502,1.30194,1.42342,1.36285,1.36182,1.31047,1.35115,1.30931,1.33506,1.23889,1.35437,1.28551,1.24098,1.32814,1.31902,1.38179,1.2922,1.3585,1.27127,1.34776,1.34041,1.28672,1.33386,1.38964,1.27664,1.30113,1.36227,1.31844,1.23606,1.33801,1.27053,1.35127,1.35798,1.27303,1.27435,1.31297,1.28433,1.23493,1.3367,1.30238,1.29832,1.40543,1.27815,1.36736,1.28017,1.37309,1.3001,1.31237,1.38733,1.36303
1.27462,1.32011,1.29174,1.28308,1.27144,1.25432,1.33917,1.23805,1.24962,1.2962,1.29692,1.31636,1.31287,1.27841,1.31033,1.33019,1.25567,1.35787,1.27112,1.31586,1.3174,1.34407,1.31168,1.28525,1.33032,1.28955,1.2857,1.33251,1.30705,1.29217,1.29574,1.31831,1.34779,1.25991,1.31504,1.3646,1.29611,1.33631,1.38241,1.31586,1.2726,1.33512,1.33437,1.35259,1.29247,1.36797,1.24046,1.30289,1.3077,1.35504,1.32266,1.34533,1.28776,1.31323,1.33812,1.26778,1.35896,1.28957,1.24546,1.31844
1.38737,1.29979,1.35108,1.31876,1.24899,1.25611,1.32393,1.32887,1.37641,1.30596,1.37116,1.32634,1.39189,1.25476,1.4506,1.37331,1.28299,1.33589,1.32223,1.37113,1.23594,1.22781,1.26215,1.31288,1.30204,1.3527,1.21341,1.32055,1.26614,1.35569,1.35974,1.3253,1.29453,1.31469,1.30684,1.31963,1.26231,1.36977,1.25427,1.26507,1.3245,1.30971,1.3056,1.34792,1.33427,1.24916,1.31389,1.29319,1.26351,1.3773,1.34328,1.32139,1.22632,1.33051,1.3364,1.33711,1.32646,1.34716,1.26347,1.3279
1.29307,1.27991,1.27834,1.32964,1.27423,1.30927,1.3259,1.44832,1.27447,1.31654,1.3627,1.32281,1.26677,1.33491,1.36847,1.38483,1.29251,1.3682,1.28157,1.33881,1.32888,1.27157,1.33735,1.34647,1.31049,1.40443,1.30372,1.29292,1.24753,1.35724,1.37162,1.32908,1.25047,1.34066,1.35955,1.31429,1.35848,1.26997,1.38709,1.277,1.33517,1.30138,1.34403,1.36557,1.27984,1.29338,1.35137,1.29317,1.2474,1.34578,1.20634,1.28448,1.24925,1.29364,1.29981,1.24829,1.26834,1.19295,1.33555,1.30098
1.31612,1.34772,1.45606,1.30742,1.31406,1.26166,1.31896,1.36279,1.20832,1.32536,1.37624,1.25285,1.29535,1.2695,1.2421,1.34678,1.29505,1.30626,1.34046,1.29679,1.29987,1.29085,1.37582,1.35652,1.31211,1.33327,1.27663,1.30751,1.28774,1.29371,1.36993,1.27985,1.27854,1.30367,1.35207,1.26104,1.25982,1.33467,1.37481,1.31913,1.31747,1.35936,1.23825,1.33597,1.25605,1.36499,1.32392,1.26511,1.32172,1.30193,1.25623,1.30487,1.3369,1.33012,1.29671,1.25318,1.34593,1.30943,1.45904,1.32326
1.32565,1.32066,1.33161,1.23543,1.19264,1.19167,1.29437,1.29588,1.28962,1.28718,1.32342,1.30425,1.274,1.304,1.2874,1.23952,1.23078,1.28179,1.3176,1.37333,1.28151,1.36291,1.31727,1.24956,1.29654,1.27242,1.2567,1.31056,1.33314,1.35607,1.26096,1.32332,1.24156,1.36256,1.25667,1.30157,1.25538,1.28927,1.27384,1.34338,1.33605,1.29275,1.40241,1.31431,1.29228,1.37917,1.3529,1.36033,1.29832,1.39219,1.31522,1.29635,1.30402,1.26356,1.30369,1.36252,1.32332,1.31556,1.37093,1.35694
1.36589,1.25351,1.34972,1.3216,1.2744,1.29139,1.3385,1.33926,1.30167,1.32147,1.32217,1.30446,1.22463,1.337,1.33008,1.27,1.38833,1.36313,1.40245,1.35334,1.27042,1.29986,1.32339,1.30895,1.34035,1.32066,1.25691,1.30248,1.31583,1.34612,1.25943,1.26754,1.21161,1.29829,1.35505,1.24069,1.32907,1.25653,1.30409,1.22471,1.41076,1.31691,1.33676,1.32116,1.39022,1.29875,1.30851,1.30935,1.27951,1.27559,1.36009,1.36461,1.34881,1.3327,1.31262,1.35049,1.29584,1.2707,1.2726,1.30021
1.28999,1.2478,1.27617,1.30775,1.32191,1.4151,1.37351,1.27898,1.33451,1.25686,1.28653,1.36006,1.32342,1.2807,1.33424,1.25483,1.33589,1.35822,1.28078,1.33436,1.30626,1.29743,1.33279,1.36914,1.34924,1.25674,1.31676,1.30468,1.36841,1.39302,1.27693,1.32321,1.28355,1.31483,1.23546,1.27594,1.40631,1.28414,1.2746,1.4373,1.32386,1.33383,1.35995,1.28992,1.25147,1.27832,1.32185,1.35538,1.31529,1.34962,1.3745,1.31135,1.31965,1.23276,1.34685,1.27766,1.24914,1.34911,1.31946,1.35786
1.28304,1.30345,1.35867,1.26424,1.42448,1.32855,1.2879,1.3358,1.36058,1.34396,1.27979,1.28009,1.28206,1.33209,1.28458,1.25341,1.32524,1.36131,1.27055,1.37734,1.32166,1.35647,1.29714,1.32501,1.35199,1.39391,1.36247,1.28745,1.37025,1.34476,1.40162,1.28925,1.31496,1.38097,1.32339,1.35951,1.31996,1.3038,1.38396,1.32855,1.30617,1.30484,1.37494,1.36545,1.34386,1.34587,1.31548,1.30591,1.31824,1.34689,1.39387,1.27726,1.31964,1.28799,1.33692,1.32449,1.284,1.36572,1.37496,1.26946

max: 3.38762
min: 1.15738
avg: 1.31384
