0.43165,0.371669,0.448078,0.390015,0.431152,0.433273,0.420601,0.430341,0.397949,0.380176,0.460732,0.458547,0.469129,0.423393,0.375235,0.388971,0.414993,0.442148,0.398809,0.382782,0.389698,0.448212,0.399502,0.41926,0.404801,0.464548,0.38103,0.434525,0.39103,0.379899,0.379682,0.481972,0.419954,0.441134,0.394997,0.425971,0.458328,0.456551,0.437289,0.473666,0.383801,0.470216,0.460054,0.406119,0.416737,0.528004,0.37922,0.404804,0.371489,0.355473,0.439888,0.473934,0.441995,0.396611,0.423391,0.36816,0.399579,0.382144,0.444713,0.416966
0.409074,0.379552,0.443839,0.446805,0.38158,0.437153,0.447457,0.430425,0.429337,0.339922,0.390209,0.359176,0.439622,0.400971,0.405068,0.441627,0.461436,0.405497,0.389732,0.35008,0.394215,0.442331,0.454171,0.449066,0.434295,0.390339,0.409903,0.399283,0.38218,0.439703,0.375843,0.440396,0.493264,0.401108,0.408854,0.428637,0.457524,0.414888,0.428096,0.427699,0.409207,0.438422,0.408128,0.434686,0.385271,0.419501,0.423371,0.368737,0.428561,0.407548,0.466021,0.376455,0.476464,0.392792,0.443737,0.417133,0.435163,0.446687,0.483623,0.412984
0.474483,0.406437,0.426651,0.424849,0.454068,0.399873,0.447574,0.4168,0.376054,0.430583,0.457745,0.401398,0.385223,0.425113,0.381276,0.461533,0.483756,0.453193,0.34572,0.478741,0.45885,0.455028,0.426125,0.411317,0.379898,0.376361,0.434382,0.442921,0.465093,0.467385,0.417789,0.384049,0.428074,0.361291,0.414394,0.381753,0.409574,0.381383,0.369337,0.437095,0.399008,0.36678,0.426894,0.438496,0.40947,0.420702,0.366382,0.402646,0.416928,0.508378,0.405146,0.419866,0.489503,0.426653,0.396423,0.410821,0.42733,0.392796,0.416102,0.365318
0.463075,0.379075,0.452637,0.394974,0.420017,0.405855,0.448189,0.394527,0.373066,0.370631,0.42204,0.418945,0.400871,0.397491,0.340087,0.488347,0.413509,0.394983,0.362844,0.439298,0.392656,0.421732,0.390283,0.439689,0.343225,0.409373,0.467821,0.496311,0.427334,0.429711,0.414912,0.380484,0.386635,0.432848,0.434779,0.440095,0.423194,0.493679,0.442031,0.429317,0.394542,0.439087,0.37898,0.417233,0.402587,0.437974,0.410744,0.452601,0.40399,0.390072,0.414137,0.41117,0.443953,0.380789,0.346013,0.40739,0.427684,0.446564,0.485067,0.466866
0.34654,0.394746,0.423837,0.381116,0.409252,0.412702,0.411489,0.367361,0.460363,0.401232,0.453539,0.41903,0.378794,0.371079,0.348241,0.402397,0.398052,0.464305,0.417003,0.407785,0.414738,0.426443,0.398601,0.368569,0.418544,0.422493,0.385414,0.403325,0.413941,0.388034,0.427506,0.363429,0.368611,0.430201,0.342722,0.431919,0.407937,0.363787,0.393743,0.415559,0.415661,0.439829,0.403685,0.40604,0.417542,0.515853,0.399884,0.37855,0.421511,0.413616,0.568809,0.418484,0.417967,0.381748,0.451225,0.436055,0.477518,0.456046,0.342907,0.397829
0.429019,0.444689,0.43394,0.38767,0.395123,0.384266,0.439594,0.493717,0.444188,0.44608,0.387293,0.40097,0.42858,0.41324,0.418757,0.401368,0.442209,0.406421,0.452364,0.420447,0.393277,0.422912,0.442913,0.387306,0.441847,0.38807,0.36388,0.352944,0.393212,0.385422,0.433141,0.386977,0.386477,0.382889,0.349811,0.381175,0.403211,0.470489,0.393519,0.448163,0.367555,0.37421,0.436133,0.412124,0.378659,0.456731,0.458258,0.459505,0.366301,0.479334,0.38857,0.371959,0.416166,0.420456,0.436604,0.396387,0.403733,0.412946,0.418697,0.410059
0.436611,0.422782,0.461774,0.392081,0.371903,0.411593,0.426285,0.443236,0.365179,0.441398,0.58385,0.453759,0.438362,0.417358,0.440368,0.404433,0.407304,0.417008,0.402776,0.433549,0.452656,0.441569,0.365776,0.372277,0.444074,0.449355,0.381605,0.438197,0.377797,0.375952,0.407463,0.312406,0.434466,0.357861,0.460635,0.457043,0.440634,0.414548,0.40208,0.40915,0.440829,0.36181,0.434127,0.407493,0.426595,0.386743,0.402696,0.362149,0.436941,0.420882,0.3777,0.411946,0.417726,0.393413,0.448451,0.411587,0.464169,0.397716,0.383827,0.359525
0.414468,0.446367,0.404345,0.365995,0.420501,0.412391,0.428792,0.373973,0.429129,0.415288,0.350895,0.372497,0.411931,0.427612,0.462534,0.420962,0.396731,0.364349,0.393959,0.486502,0.43953,0.393398,0.404155,0.443725,0.413139,0.434465,0.487938,0.452177,0.414861,0.476178,0.452893,0.432085,0.384381,0.389661,0.374375,0.409426,0.418389,0.38956,0.383106,0.388232,0.457121,0.382559,0.444436,0.419479,0.396291,0.4383,0.43575,0.432944,0.41694,0.405974,0.417696,0.434936,0.428107,0.425431,0.383409,0.457978,0.402796,0.430186,0.371109,0.440152
0.423715,0.39033,0.431302,0.426028,0.378077,0.346486,0.418807,0.409196,0.427834,0.441357,0.393886,0.433469,0.410447,0.453445,0.45186,0.42768,0.43229,0.412987,0.411669,0.385841,0.408492,0.434567,0.395801,0.412756,0.460901,0.393057,0.420969,0.477312,0.396017,0.467271,0.404938,0.398752,0.436215,0.425127,0.537678,0.38214,0.459526,0.385781,0.399013,0.456397,0.444859,0.392337,0.41063,0.45005,0.485855,0.443689,0.401458,0.433307,0.374647,0.395034,0.422425,0.426798,0.438381,0.437384,0.427367,0.423334,0.421871,0.377384,0.400099,0.41982
0.384757,0.456499,0.396413,0.397452,0.416206,0.416064,0.38871,0.414014,0.469168,0.397652,0.44552,0.415184,0.376686,0.446124,0.383829,0.399654,0.384157,0.486767,0.426009,0.402023,0.385123,0.386458,0.386444,0.4146,0.35775,0.422257,0.405928,0.426563,0.46934,0.406166,0.444769,0.421881,0.439556,0.456648,0.390657,0.57678,0.369456,0.416858,0.3637,0.401592,0.420199,0.422192,0.407244,0.500696,0.477947,0.405178,0.372415,0.445022,0.422999,0.403252,0.365842,0.419304,0.383767,0.413005,0.435961,0.383265,0.422941,0.42243,0.424839,0.43977
0.4111,0.460416,0.431299,0.443253,0.451946,0.422154,0.421391,0.375389,0.422539,0.392597,0.418012,0.404492,0.4576,0.390292,0.411688,0.448936,0.400359,0.449034,0.409386,0.424107,0.452679,0.436794,0.415221,0.393114,0.434177,0.418296,0.423545,0.432246,0.372517,0.372339,0.411363,0.40688,0.491521,0.391231,0.462394,0.429076,0.360267,0.412036,0.412602,0.365465,0.37814,0.371441,0.360645,0.368453,0.393448,0.452849,0.459065,0.392452,0.360349,0.473581,0.420163,0.450894,0.397684,0.388476,0.35353,0.553511,0.44871,0.422448,0.397979,0.373809
0.386848,0.403722,0.391413,0.45272,0.411082,0.484462,0.393424,0.463058,0.378756,0.421259,0.445695,0.403271,0.437202,0.44458,0.364023,0.484416,0.429999,0.460652,0.463452,0.396454,0.38774,0.489281,0.401796,0.424789,0.415073,0.464029,0.423912,0.415804,0.408084,0.397141,0.389062,0.377047,0.38614,0.425383,0.399878,0.43102,0.413213,0.453782,0.402902,0.442212,0.452013,0.404681,0.456794,0.413496,0.395837,0.415131,0.347041,0.409321,0.424059,0.448549,0.430139,0.409037,0.532888,0.386803,0.444432,0.409392,0.430591,0.410857,0.4029,0.444092
0.404228,0.397973,0.408258,0.356045,0.384674,0.399014,0.425872,0.411554,0.354014,0.393135,0.410109,0.46381,0.399621,0.389667,0.415121,0.379754,0.477336,0.401651,0.394973,0.454599,0.407348,0.429066,0.36608,0.458897,0.406405,0.643626,0.42553,0.434047,0.438241,0.396148,0.406267,0.406376,0.460347,0.419371,0.439076,0.470744,0.411362,0.410982,0.426537,0.44052,0.449081,0.373976,0.421273,0.425589,0.428984,0.39,0.388571,0.390109,0.407294,0.403153,0.419851,0.425326,0.378465,0.355166,0.366212,0.431432,0.415843,0.479679,0.459804,0.44496
0.479016,0.42274,0.413792,0.461515,0.381644,0.413464,0.494072,0.423317,0.4276,0.420465,0.456572,0.469477,0.418581,0.477236,0.426189,0.4077,0.368642,0.455761,0.420879,0.425823,0.465869,0.373799,0.368443,0.424898,0.368215,0.475682,0.436028,0.45188,0.458686,0.423223,0.391375,0.318722,0.396889,0.40502,0.351815,0.383218,0.399859,0.391849,0.330489,0.375689,0.384128,0.396238,0.397259,0.416548,0.496427,0.709286,0.422573,0.38487,0.347416,0.401666,0.415199,0.448203,0.404451,0.431304,0.441857,0.407559,0.415008,0.400427,0.398661,0.468808
0.37471,0.415279,0.417653,0.354459,0.380868,0.414927,0.442319,0.422909,0.434388,0.374745,0.400158,0.465153,0.394425,0.465326,0.44796,0.39304,0.434115,0.459908,0.445503,0.415878,0.425798,0.418558,0.450546,0.396397,0.458069,0.392775,0.461696,0.376169,0.423477,0.456289,0.406444,0.420483,0.423935,0.382723,0.432847,0.39664,0.413526,0.40437,0.46048,0.384533,0.394212,0.473674,0.390625,0.410479,0.545886,0.407772,0.38317,0.373012,0.399382,0.340643,0.421872,0.463205,0.441581,0.434106,0.438674,0.412404,0.354136,0.393873,0.391566,0.346229
0.388388,0.374938,0.395298,0.444619,0.3873,0.414574,0.462155,0.462484,0.478857,0.404285,0.390814,0.434937,0.47808,0.39389,0.421286,0.389699,0.550977,0.364107,0.415257,0.446177,0.432454,0.453621,0.380713,0.373726,0.414107,0.39781,0.396618,0.418422,0.451773,0.364372,0.414921,0.431178,0.427647,0.373814,0.422891,0.396253,0.546866,0.393766,0.426055,0.414607,0.413104,0.45147,0.407723,0.39022,0.382854,0.449529,0.448656,0.452737,0.458692,0.394239,0.450343,0.410081,0.365979,0.503855,0.432512,0.441234,0.43091,0.386165,0.44261,0.388035
0.445227,0.354682,0.430004,0.406671,0.460076,0.449168,0.443307,0.377528,0.437139,0.365424,0.410533,0.435967,0.36264,0.377332,0.431605,0.421016,0.457269,0.3928,0.412196,0.411098,0.413349,0.458954,0.437618,0.422677,0.366225,0.437108,0.384586,0.393157,0.387696,0.368425,0.433651,0.38661,0.396528,0.488301,0.41678,0.391166,0.484345,0.381082,0.468635,0.432073,0.428659,0.46599,0.454686,0.41475,0.421288,0.462711,0.388511,0.384695,0.419966,0.422822,0.408181,0.415124,0.407847,0.387151,0.391121,0.4382,0.497205,0.43058,0.358132,0.433557
0.370521,0.404132,0.473416,0.492286,0.413323,0.435658,0.410896,0.397334,0.407279,0.422722,0.372012,0.449983,0.380985,0.464063,0.415923,0.411345,0.435442,0.422703,0.427458,0.411053,0.437335,0.423001,0.380768,0.421581,0.427176,0.442189,0.412073,0.420563,0.41849,0.367509,0.397058,0.409284,0.413899,0.383852,0.404947,0.37386,0.34477,0.414994,0.459106,0.36475,0.466171,0.371371,0.370235,0.45221,0.397538,0.35103,0.446548,0.426855,0.485551,0.427305,0.367496,0.383275,0.355418,0.489508,0.366639,0.40402,0.416246,0.402764,0.432804,0.469164
0.44408,0.327091,0.386277,0.54335,0.40435,0.44935,0.457762,0.393082,0.427885,0.426364,0.363583,0.428633,0.399826,0.371378,0.479724,0.367766,0.427629,0.463366,0.397407,0.406514,0.473437,0.424685,0.411814,0.444415,0.432902,0.414556,0.409785,0.451247,0.453079,0.481257,0.433487,0.433944,0.391057,0.427214,0.406925,0.411397,0.482051,0.394163,0.436845,0.415771,0.451172,0.439325,0.364634,0.432208,0.358959,0.423806,0.396635,0.383322,0.417082,0.463579,0.394838,0.409724,0.373561,0.471806,0.384566,0.414388,0.386651,0.421067,0.397256,0.411762
0.370524,0.408457,0.463537,0.452746,0.418164,0.379979,0.417957,0.398807,0.370938,0.416664,0.387704,0.39261,0.397482,0.399805,0.403802,0.384477,0.422533,0.419207,0.395212,0.433623,0.386692,0.434086,0.372371,0.447651,0.3704,0.445523,0.442308,0.471654,0.443471,0.459312,0.412367,0.352367,0.389355,0.446263,0.429242,0.429363,0.426384,0.398744,0.40079,0.440999,0.386552,0.428235,0.400661,0.425932,0.467085,0.39089,0.491393,0.438326,0.399616,0.402654,0.4052,0.396746,0.413471,0.402924,0.428147,0.460311,0.47017,0.426881,0.430039,0.356389
0.41066,0.425499,0.461789,0.425364,0.433933,0.426794,0.362896,0.425252,0.385162,0.419094,0.399696,0.36468,0.431482,0.378113,0.416256,0.369651,0.399192,0.413435,0.476081,0.439618,0.42042,0.476093,0.420638,0.404256,0.341309,0.412929,0.407591,0.422474,0.406318,0.380012,0.412354,0.467179,0.436246,0.470533,0.391135,0.417702,0.344714,0.410497,0.477666,0.42551,0.387803,0.431702,0.400995,0.42503,0.38786,0.444573,0.442304,0.449666,0.451997,0.458573,0.407269,0.390933,0.414119,0.389509,0.454863,0.388163,0.396943,0.455452,0.424327,0.451916
0.425796,0.390327,0.413032,0.436943,0.433387,0.390195,0.346161,0.392375,0.3963,0.425369,0.453391,0.456438,0.461456,0.454755,0.494851,0.421189,0.468607,0.414269,0.43703,0.446982,0.429985,0.421215,0.454386,0.390808,0.406176,0.389424,0.401813,0.412691,0.39452,0.389137,0.423453,0.410925,0.380564,0.375181,0.393344,0.405225,0.448665,0.40035,0.409226,0.434119,0.373833,0.43128,0.436623,0.374197,0.408943,0.365752,0.400547,0.380083,0.373437,0.383825,0.388094,0.43867,0.370333,0.428541,0.418339,0.428001,0.407456,0.374447,0.385508,0.382361
0.448881,0.455264,0.435701,0.409664,0.373782,0.471539,0.429082,0.474975,0.402071,0.453017,0.428547,0.438146,0.381422,0.386103,0.46179,0.417761,0.428363,0.408774,0.383841,0.415059,0.420052,0.420111,0.455248,0.39188,0.408807,0.413226,0.388451,0.464498,0.376499,0.364675,0.414665,0.443882,0.423061,0.428337,0.477593,0.45117,0.440801,0.380367,0.419694,0.440493,0.395495,0.402084,0.425257,0.384188,0.400009,0.381319,0.409299,0.433272,0.462833,0.427688,0.386157,0.421867,0.501694,0.441989,0.37097,0.375486,0.382781,0.38408,0.424513,0.429744
0.380666,0.413179,0.379539,0.410818,0.379871,0.381273,0.368425,0.408956,0.360976,0.415368,0.43613,0.369385,0.41174,0.429165,0.394802,0.417111,0.402426,0.416507,0.377709,0.435813,0.420106,0.43415,0.409162,0.418674,0.41963,0.454328,0.417731,0.465784,0.386099,0.414702,0.424837,0.469274,0.4641,0.365115,0.38206,0.39525,0.388615,0.465303,0.438542,0.425866,0.465324,0.479483,0.424311,0.47699,0.45014,0.391618,0.427656,0.465317,0.335986,0.38247,0.409563,0.443179,0.428641,0.378459,0.391735,0.425734,0.457992,0.409639,0.387215,0.450272
0.444575,0.424085,0.425833,0.399094,0.396588,0.41304,0.409446,0.429034,0.419383,0.404757,0.384936,0.401647,0.346775,0.430706,0.462517,0.409486,0.415245,0.405466,0.471943,0.434817,0.447524,0.419094,0.458143,0.369779,0.406478,0.409421,0.363948,0.447255,0.374476,0.425549,0.431164,0.389073,0.407793,0.403363,0.378763,0.380698,0.404109,0.456047,0.418022,0.418473,0.420361,0.425079,0.451937,0.420379,0.411717,0.369933,0.382983,0.430233,0.4436,0.404355,0.375738,0.502956,0.452878,0.449425,0.492288,0.461218,0.428721,0.425374,0.397873,0.430782
0.44928,0.389649,0.413775,0.45789,0.492431,0.423279,0.415392,0.362757,0.407846,0.336572,0.351916,0.417322,0.445365,0.403061,0.444286,0.413,0.401433,0.417418,0.436219,0.369781,0.419744,0.42014,0.431824,0.3871,0.414699,0.405307,0.395,0.453345,0.367598,0.443109,0.434619,0.385267,0.41661,0.418337,0.421314,0.500269,0.388474,0.43116,0.40721,0.430993,0.408483,0.463521,0.362565,0.383544,0.457938,0.385858,0.356056,0.373911,0.437346,0.427828,0.447268,0.401548,0.403205,0.461108,0.450119,0.38732,0.378828,0.396551,0.399439,0.374694
0.416776,0.365317,0.455755,0.40497,0.381476,0.409332,0.447586,0.423779,0.481987,0.422559,0.42504,0.44996,0.429192,0.39417,0.424891,0.369362,0.423772,0.393599,0.405933,0.409037,0.392698,0.365307,0.384794,0.423679,0.495187,0.462573,0.391113,0.396816,0.364606,0.430033,0.384281,0.391583,0.402782,0.407043,0.427538,0.402444,0.428226,0.447659,0.375806,0.474294,0.415958,0.374984,0.402736,0.367484,0.385904,0.411898,0.459969,0.431458,0.43517,0.404194,0.398486,0.391733,0.385353,0.409654,0.373522,0.360151,0.458369,0.387173,0.385105,0.478745
0.425465,0.413938,0.382723,0.441315,0.415824,0.421298,0.373628,0.397859,0.415794,0.408944,0.45192,0.432153,0.438488,0.500976,0.408149,0.44767,0.388202,0.366121,0.462993,0.400055,0.416021,0.445412,0.399984,0.434435,0.431059,0.367578,0.3909,0.372452,0.424056,0.372068,0.446176,0.438216,0.44203,0.3706,0.381023,0.37658,0.480691,0.439034,0.492131,0.388266,0.45638,0.443829,0.416941,0.429304,0.416163,0.434545,0.390491,0.414517,0.439353,0.426683,0.420111,0.401756,0.444309,0.372127,0.443937,0.441135,0.430112,0.356382,0.455836,0.442307
0.419624,0.359165,0.436891,0.363669,0.437645,0.420372,0.447933,0.37572,0.392424,0.466301,0.405521,0.459851,0.469517,0.502424,0.437381,0.409154,0.435306,0.376618,0.358267,0.396191,0.430048,0.409776,0.411593,0.43059,0.407202,0.372863,0.381454,0.415533,0.443254,0.480811,0.406908,0.434318,0.472087,0.362252,0.422664,0.430173,0.435524,0.365742,0.392282,0.414292,0.421606,0.367468,0.377407,0.416043,0.423842,0.470094,0.422352,0.475508,0.415691,0.402984,0.42942,0.431276,0.372357,0.425051,0.433021,0.414754,0.364549,0.402816,0.39961,0.408791
0.388108,0.396279,0.431306,0.408677,0.408088,0.494304,0.425373,0.344342,0.415637,0.448835,0.402696,0.407136,0.431099,0.378114,0.382321,0.412894,0.357022,0.392943,0.479883,0.382374,0.430927,0.399511,0.454267,0.367566,0.392364,0.390873,0.403264,0.395143,0.405909,0.367423,0.434646,0.435924,0.391313,0.451556,0.392186,0.409143,0.388205,0.428133,0.38751,0.414383,0.400489,0.457735,0.403231,0.4464,0.430863,0.407259,0.417884,0.474357,0.41712,0.491334,0.424531,0.391087,0.427644,0.428645,0.469157,0.375115,0.432617,0.391231,0.444525,0.418583
0.431973,0.380821,0.425418,0.43983,0.458926,0.439998,0.429113,0.429468,0.387138,0.383812,0.4591,0.401553,0.363484,0.364888,0.405985,0.420799,0.383438,0.404808,0.36073,0.363322,0.429904,0.445081,0.408619,0.426517,0.433273,0.438202,0.400143,0.489801,0.348284,0.460502,2.60086,0.329515,0.398612,0.396355,0.441144,0.414099,0.392205,0.379702,0.439606,0.398225,0.462043,0.384142,0.431394,0.434642,0.42806,0.407612,0.442299,0.416183,0.412744,0.394202,0.398487,0.400539,0.376186,0.373711,0.359272,0.470283,0.398236,0.440347,0.386484,0.423946
0.398061,0.450124,0.425418,0.459528,0.392106,0.427264,0.42622,0.450804,0.40506,0.423804,0.394283,0.416071,0.389123,0.412341,0.51314,0.401881,0.441734,0.343138,0.485915,0.419464,0.387993,0.388987,0.471409,0.418669,0.397322,0.444186,0.37779,0.40755,0.442528,0.391248,0.362766,0.444012,0.442421,0.384474,0.439441,0.505676,0.399569,0.434832,0.453649,0.412528,0.399538,0.447958,0.442809,0.39999,0.412218,0.359109,0.417855,0.461665,0.406646,0.431502,0.424116,0.376302,0.427139,0.500622,0.527662,0.411439,0.478582,0.417301,0.369976,0.444089
0.413671,0.422964,0.367553,0.431667,0.368103,0.394347,0.449547,0.419231,0.453486,0.417592,0.41339,0.438415,0.4214,0.376432,0.354447,0.392624,0.431374,0.403392,0.441879,0.351935,0.452776,0.39772,0.452763,0.452237,0.437976,0.454628,0.418894,0.448655,0.395929,0.484629,0.473681,0.432831,0.393062,0.397239,0.397466,0.412195,0.46157,0.437846,0.444444,0.359128,0.447664,0.391908,0.380865,0.353262,0.39211,0.417217,0.375702,0.394579,0.397363,0.443246,0.399052,0.408589,0.333728,0.468071,0.407992,0.413266,0.446411,0.422464,0.480056,0.448029
0.451809,0.425868,0.40349,0.376556,0.414877,0.473337,0.481384,0.450431,0.440424,0.443126,0.453137,0.46308,0.407957,0.436641,0.568343,0.400601,0.411307,0.418965,0.351367,0.442391,0.424609,0.416051,0.433414,0.439285,0.442101,0.389553,0.44079,0.427875,0.43992,0.393396,0.417573,0.49206,0.437762,0.483359,0.337871,0.438675,0.414212,0.417746,0.449843,0.461398,0.446532,0.383202,0.381526,0.359113,0.436822,0.4174,0.403961,0.436483,0.338573,0.442652,0.393065,0.408482,0.437201,0.551585,0.350913,0.457591,0.437287,0.317059,0.388969,0.438524
0.386903,0.458902,0.387923,0.510852,0.367114,0.573561,0.435687,0.386856,0.391949,0.367361,0.402824,0.435558,0.420494,0.417581,0.391468,0.349334,0.3783,0.375469,0.42813,0.395181,0.468358,0.399364,0.426264,0.444409,0.382183,0.441542,0.428523,0.365665,0.435605,0.383242,0.381068,0.452412,0.432714,0.43729,0.349745,0.392415,0.426885,0.40241,0.417827,0.421803,0.402469,0.40996,0.347385,0.397163,0.386804,0.407836,0.38312,0.416623,0.443783,0.426538,0.417392,0.533619,0.445168,0.424475,0.400981,0.364869,0.465587,0.465928,0.379398,0.449373
0.434646,0.336298,0.417892,0.41668,0.453459,0.396128,0.408238,0.427602,0.370071,0.483072,0.334097,0.469264,0.42416,0.562653,0.435684,0.376724,0.441195,0.408034,0.437026,0.4147,0.406071,0.419674,0.380094,0.428118,0.362619,0.509874,0.39092,0.390888,0.401685,0.397331,0.420567,0.455775,0.507013,0.411454,0.420941,0.417683,0.399128,0.404339,0.461518,0.410509,0.470853,0.466558,0.370016,0.441541,0.407609,0.40266,0.453987,0.363972,0.392917,0.399273,0.414832,0.443031,0.433988,0.463301,0.345843,0.420116,0.479088,0.405382,0.45088,0.420059
0.414041,0.36757,0.437205,0.416895,0.420759,0.502805,0.38335,0.43362,0.433393,0.398738,0.416062,0.414478,0.421825,0.436753,0.457302,0.459889,0.372719,0.380407,0.413309,0.426288,0.44116,0.429609,0.464929,0.395345,0.447564,0.397328,0.397613,0.419157,0.476983,0.334056,0.422626,0.457889,0.425193,0.348472,0.41498,0.42548,0.39062,0.413608,0.391586,0.380517,0.442987,0.348773,0.492428,0.45207,0.382227,0.476402,0.458372,0.410517,0.393708,0.370606,0.484774,0.389723,0.330077,0.440862,0.423551,0.386806,0.428818,0.379814,0.429139,0.431195
0.431151,0.546772,0.400359,0.384518,0.382542,0.437527,0.459031,0.425523,0.487525,0.415725,0.418952,0.467514,0.435502,0.438601,0.458842,0.411102,0.401104,0.412115,0.377012,0.466982,0.389875,0.406009,0.425199,0.430703,0.387135,0.380462,0.421878,0.406066,0.417836,0.409866,0.408466,0.413655,0.421971,0.397618,0.393942,0.451567,0.358134,0.427683,0.447818,0.458811,0.439933,0.39113,0.472807,0.417417,0.42516,0.411755,0.415156,0.391675,0.428676,0.416102,0.332084,0.41755,0.383896,0.451993,0.447754,0.381656,0.455262,0.433008,0.363351,0.459075
0.427197,0.432192,0.419062,0.388938,0.455496,0.415089,0.35146,0.42745,0.391592,0.388418,0.39857,0.39199,0.410313,0.34372,0.388316,0.42926,0.354273,0.391487,0.406791,0.417086,0.464787,0.504137,0.444583,0.39998,0.441982,0.42626,0.384916,0.445356,0.423363,0.415589,0.404558,0.439868,0.426001,0.44805,0.428864,0.396939,0.388267,0.418132,0.451458,0.421947,0.403664,0.437206,0.398455,0.363238,0.41237,0.439312,0.423396,0.405787,0.454301,0.377251,0.399852,0.415284,0.429485,0.417207,0.378174,0.420531,0.490347,0.461741,0.451849,0.382195
0.40828,0.439042,0.385094,0.425732,0.468413,0.417814,0.419861,0.394304,0.455341,0.404834,0.416646,0.459579,0.457638,0.446802,0.395167,0.406197,0.472218,0.393571,0.351932,0.480499,0.394938,0.433198,0.376032,0.377581,0.349652,0.408438,0.37695,0.386239,0.426773,0.386128,0.391738,0.312876,0.377203,0.362568,0.482245,0.451465,0.392278,0.397547,0.477212,0.441669,0.377981,0.372401,0.412809,0.420398,0.426555,0.351765,0.427849,0.42419,0.450805,0.389558,0.462828,0.41036,0.441218,0.35517,0.397262,0.381121,0.432857,0.375541,0.426574,0.460864
0.438285,0.439559,0.460649,0.374173,0.377683,0.366516,0.45003,0.369725,0.442901,0.40801,0.394306,0.41506,0.382331,0.389386,0.407919,0.376483,0.366964,0.391947,0.441881,0.399464,0.472078,0.446085,0.419477,0.406726,0.338703,0.44625,0.457097,0.411005,0.398348,0.45422,0.318661,0.350574,0.465279,0.420155,0.403545,0.494544,0.43134,0.41592,0.39097,0.41489,0.451776,0.36264,0.44539,0.461731,0.462653,0.455262,0.358158,0.412744,0.43294,0.446357,0.370581,0.376724,0.424343,0.513453,0.366356,0.454541,0.413918,0.472117,0.414362,0.402368
0.42182,0.438346,0.449709,0.384794,0.421268,0.422373,0.429035,0.451405,0.489321,0.469871,0.425716,0.439603,0.402138,0.412282,0.356438,0.421182,0.450133,0.427596,0.477532,0.425931,0.417171,0.425979,0.439737,0.460803,0.430778,0.393607,0.457923,0.412434,0.353002,0.421807,0.413331,0.457282,0.364386,0.426102,0.365512,0.380776,0.400313,0.449995,0.403351,0.415792,0.409097,0.44315,0.40169,0.404932,0.464725,0.427494,0.426847,0.423813,0.39423,0.453883,0.403138,0.377198,0.372493,0.373099,0.436909,0.467827,0.414928,0.438869,0.467746,0.436148
0.365935,0.41947,0.458817,0.429239,0.368347,0.386389,0.431072,0.37429,0.400427,0.434627,0.399389,0.402792,0.42824,0.433903,0.379643,0.412109,0.451975,0.416388,0.441093,0.361714,0.382106,0.399113,0.413888,0.439062,0.405244,0.390267,0.451657,0.377733,0.40781,0.443334,0.380554,0.416425,0.43546,0.418512,0.426511,0.422572,0.428859,0.442109,0.394861,0.431098,0.469334,0.39549,0.401355,0.390399,0.395192,0.443497,0.403559,0.355383,0.380246,0.417055,0.383999,0.449058,0.358343,0.427458,0.432048,0.368651,0.431662,0.473736,0.46312,0.426672
0.425563,0.35943,0.452894,0.430629,0.391798,0.384722,0.433931,0.413745,0.433418,0.427289,0.445304,0.449562,0.425873,0.398627,0.439258,0.436671,0.408529,0.448041,0.375857,0.381338,0.368301,0.399195,0.460116,0.408678,0.411032,0.367207,0.39473,0.394983,0.421883,0.404209,0.407223,0.420062,0.393888,0.448837,0.441065,0.447391,0.490584,0.391673,0.435186,0.442841,0.431518,0.410871,0.428399,0.406554,0.435758,0.378695,0.405461,0.45655,0.410172,0.4557,0.411424,0.430709,0.473018,0.406524,0.456103,0.408065,0.369502,0.372589,0.377848,0.460383
0.437837,0.411018,0.383478,0.406166,0.418543,0.433405,0.397326,0.415351,0.368328,0.421071,0.426247,0.4527,0.403992,0.364782,0.424946,0.398086,0.379898,0.490765,0.377028,0.450118,0.374062,0.381365,0.408144,0.44288,0.421799,0.471985,0.394282,0.40179,0.412328,0.382706,0.431035,0.400161,0.453757,0.395753,0.421347,0.442098,0.386014,0.407734,0.384841,0.434501,0.43339,0.402812,0.392617,0.423964,0.414349,0.402875,0.408107,0.393365,0.413065,0.432765,0.427997,0.392263,0.414623,0.430684,0.41672,0.400613,0.436188,0.363912,0.448611,0.449475
0.389874,0.416802,0.409723,0.413823,0.383924,0.392009,0.448311,0.448113,0.421434,0.429855,0.393537,0.450719,0.477864,0.442107,0.368539,0.449028,0.504086,0.416594,0.467298,0.481012,0.431021,0.385703,0.448566,0.364312,0.392251,0.374826,0.415831,0.448668,0.443906,0.434165,0.422345,0.39472,0.369162,0.393533,0.407759,0.369962,0.434165,0.386958,0.388264,0.384643,0.364497,0.3945,0.441509,0.433311,0.408544,0.447883,0.404474,0.39038,0.355442,0.432901,0.397732,0.431021,0.383816,0.385453,0.38476,0.401104,0.409023,0.415359,0.387891,0.443167
0.4044,0.3828,0.40103,0.414462,0.478181,0.382683,0.434493,0.369222,0.411822,0.419076,0.458322,0.451217,0.416653,0.40012,0.436742,0.435787,0.472757,0.339253,0.415233,0.451878,0.432835,0.420233,0.390993,0.420284,0.496865,0.421898,0.463657,0.405331,0.40132,0.447735,0.457719,0.444391,0.4637,0.366843,0.397515,0.426029,0.398939,0.487316,0.39327,0.479582,0.402484,0.4395,0.361176,0.417265,0.454637,0.418551,0.412244,0.403513,0.418783,0.383393,0.368773,0.531142,0.507794,0.470191,0.379958,0.435268,0.418996,0.389688,0.438982,0.448056
0.386051,0.413767,0.424043,0.356834,0.46836,0.379412,0.428101,0.429383,0.41502,0.432726,0.373434,0.413919,0.39498,0.454086,0.4326,0.418579,0.473785,0.445576,0.409374,0.390592,0.41325,0.419503,0.430219,0.426278,0.438579,0.456587,0.413073,0.41626,0.372483,0.413376,0.406744,0.434774,0.429576,0.446368,0.449383,0.446085,0.41841,0.382,0.486233,0.401168,0.396117,0.453481,0.440393,0.486222,0.400099,0.412435,0.471153,0.412449,0.389793,0.42532,0.445153,0.410431,0.408776,0.400091,0.379954,0.429241,0.436688,0.451039,0.400351,0.455782
0.360867,0.402393,0.414864,0.422788,0.45845,0.415785,0.422582,0.395227,0.419804,0.445659,0.448231,0.418228,0.501157,0.395269,0.408237,0.380438,0.355082,0.407781,0.432731,0.42311,0.403216,0.43601,0.471303,0.391798,0.388526,0.391126,0.406073,0.416313,0.372897,0.387206,0.446783,0.441222,0.40201,0.387576,0.421833,0.475669,0.411396,0.429374,0.420153,0.395508,0.420617,0.40278,0.395768,0.401412,0.425283,0.415351,0.470175,0.439339,0.404702,0.462627,0.477751,0.37289,0.406936,0.410248,0.395727,0.432642,0.449823,0.412581,0.430069,0.392208
0.380577,0.463823,0.481058,0.424022,0.466378,0.380301,0.437126,0.457196,0.431569,0.437175,0.400864,0.420803,0.434432,0.384976,0.416952,0.444561,0.391193,0.426888,0.38331,0.394528,0.369555,0.441895,0.425387,0.425508,0.417979,0.370956,0.388284,0.403944,0.400109,0.405676,0.458088,0.419981,0.381129,0.48324,0.40737,0.382135,0.384706,0.344859,0.413484,0.346173,0.416203,0.456379,0.407614,0.425505,0.599446,0.437613,0.384786,0.394859,0.441061,0.436017,0.399984,0.408792,0.404838,0.417148,0.389596,0.426281,0.404378,0.413379,0.466247,0.404555
0.355883,0.425543,0.422671,0.405809,0.478102,0.380303,0.399037,0.422204,0.376066,0.40188,0.370395,0.382155,0.402366,0.430304,0.455183,0.427794,0.423598,0.434169,0.390005,0.386118,0.434774,0.491288,0.438209,0.432729,0.36113,0.444711,0.460419,0.37327,0.425977,0.442455,0.409434,0.563712,0.487046,0.420611,0.461143,0.40164,0.444337,0.452171,0.375759,0.427912,0.387036,0.403478,0.405219,0.42046,0.459232,0.425283,0.429878,0.384824,0.406647,0.456396,0.526254,0.412357,0.38945,0.389689,0.368513,0.460564,0.433127,0.389096,0.394455,0.39424
0.393269,0.362044,0.415583,0.424359,0.524861,0.49094,0.436632,0.403804,0.41193,0.518374,0.395913,0.474655,0.426054,0.372271,0.42838,0.380277,0.452388,0.445788,0.432261,0.398514,0.434587,0.435545,0.429332,0.42501,0.38371,0.379537,0.390927,0.415585,0.426458,0.42684,0.415722,0.395708,0.440828,0.415214,0.433474,0.408851,0.477497,0.433385,0.397662,0.420263,0.389267,0.472915,0.44809,0.397529,0.441663,0.41237,0.391775,0.411219,0.402979,0.416645,0.384806,0.474525,0.413297,0.449109,0.438038,0.424844,0.411844,0.412608,0.38883,0.388691
0.436724,0.401502,0.465809,0.445027,0.408353,0.377494,0.435274,0.473756,0.421789,0.38281,0.411446,0.388495,0.425673,0.381843,0.406773,0.362888,0.456288,0.451294,0.417973,0.42203,0.442748,0.384871,0.41543,0.415501,0.418322,0.402903,0.393067,0.453889,0.411019,0.403062,0.426061,0.455311,0.413848,0.335917,0.395537,0.416282,0.381464,0.406556,0.417312,0.450593,0.450057,0.361027,0.513681,0.423334,0.40628,0.460144,0.425897,0.443521,0.42487,0.393288,0.442195,0.402451,0.437259,0.384767,0.389207,0.411264,0.411063,0.524369,0.434423,0.406405
0.478309,0.465251,0.392421,0.446745,0.454174,0.420045,0.395668,0.446481,0.402503,0.383744,0.407592,0.377805,0.403053,0.405919,0.422537,0.42505,0.415749,0.424716,0.408279,0.384431,0.376139,0.495057,0.379999,0.410065,0.431944,0.34828,0.401985,0.449058,0.405377,0.433887,0.407455,0.405502,0.41721,0.384216,0.409492,0.421967,0.427708,0.422809,0.369592,0.403358,0.402748,0.350593,0.393795,0.412053,0.427207,0.408816,0.380187,0.361337,0.402331,0.435444,0.405505,0.329033,0.420665,0.40314,0.416257,0.404823,0.427709,0.442909,0.420017,0.413045
0.449727,0.377768,0.482036,0.434083,0.423962,0.470341,0.427831,0.365942,0.434074,0.357846,0.407073,0.409513,0.403136,0.413663,0.398286,0.440918,0.37678,0.453434,0.435166,0.394951,0.486802,0.410951,0.431971,0.384109,0.389757,0.423735,0.420153,0.408289,0.397072,0.466424,0.454303,0.373957,0.438961,0.464763,0.425942,0.435687,0.454063,0.460505,0.413027,0.383405,0.397728,0.401354,0.381848,0.442026,0.463963,0.418816,0.499317,0.415503,0.440223,0.423474,0.396222,0.437262,0.327115,0.406786,0.377837,0.388468,0.411917,0.465619,0.36128,0.485733
0.39855,0.390566,0.48938,0.422506,0.434044,0.390642,0.380233,0.394754,0.427051,0.399858,0.465404,0.440206,0.400141,0.372249,0.431001,0.423714,0.374195,0.368527,0.419717,0.461364,0.430952,0.42392,0.331925,0.363849,0.433265,0.423139,0.400356,0.431958,0.401999,0.444659,0.448473,0.430087,0.452786,0.421922,0.420003,0.43414,0.390533,0.428652,0.42362,0.447632,0.418111,0.416275,0.410448,0.413954,0.436921,0.433528,0.389908,0.420597,0.434914,0.407433,0.405821,0.405468,0.408659,0.438008,0.418407,0.378723,0.4449,0.390443,0.47438,0.405441
0.411132,0.415023,0.400897,0.429134,0.424891,0.36325,0.447356,0.459588,0.423233,0.391306,0.392102,0.409343,0.392217,0.410798,0.416034,0.431872,0.391896,0.419446,0.422884,0.411918,0.420012,0.392148,0.415844,0.440752,0.419323,0.478456,0.442003,0.466621,0.413556,0.371255,0.472045,0.403105,0.423322,0.435731,0.406177,0.383267,0.343036,0.418671,0.411211,0.425749,0.459034,0.455853,0.41995,0.396333,0.400878,0.422811,0.397639,0.395544,0.477368,0.395981,0.410637,0.456265,0.413395,0.388585,0.408256,0.429332,0.420376,0.436063,0.433401,0.454208
0.446421,0.365457,0.418434,0.355175,0.435592,0.415299,0.434805,0.384611,0.483848,0.35374,0.42619,0.453735,0.398342,0.437612,0.410066,0.44658,0.405125,0.42623,0.479969,0.457648,0.399801,0.378305,0.461531,0.390387,0.412778,0.389622,0.431364,0.394215,0.369338,0.391861,0.405946,0.394931,0.430354,0.424416,0.427612,0.390281,0.360624,0.331472,0.46217,0.415622,0.393656,0.418248,0.415209,0.420654,0.472196,0.394957,0.412882,0.391845,0.437269,0.450242,0.430738,0.451839,0.48076,0.392824,0.438966,0.411159,0.391534,0.437455,0.489278,0.449812
0.412428,0.490557,0.394179,0.398968,0.471834,0.421977,0.387175,0.444489,0.401755,0.367147,0.436247,0.414565,0.430974,0.443038,0.423331,0.399057,0.383209,0.387253,0.428556,0.403065,0.377081,0.441772,0.389821,0.438026,0.440039,0.404254,0.39232,0.427452,0.428971,0.411682,0.442363,0.438463,0.4113,0.357244,0.439613,0.410907,0.422942,0.406334,0.427214,0.427595,0.393315,0.400091,0.510834,0.405602,0.404735,0.400367,0.416402,0.40206,0.394668,0.424088,0.401806,0.391885,0.395939,0.462031,0.449614,0.438201,0.404821,0.41425,0.42249,0.421064
0.40903,0.385028,0.389666,0.437875,0.540855,0.436341,0.429184,0.455442,0.459055,0.375307,0.410236,0.382016,0.385667,0.384866,0.452341,0.371962,0.406263,0.467731,0.399674,0.431796,0.348519,0.452325,0.406162,0.414913,0.448014,0.371567,0.467838,0.380183,0.441858,0.382663,0.393769,0.435978,0.370059,0.484225,0.463643,0.408866,0.427594,0.388528,0.438318,0.383604,0.418038,0.429624,0.429927,0.391846,0.4464,0.402612,0.411214,0.409371,0.399921,0.423364,0.353266,0.421023,0.423912,0.485487,0.403034,0.431729,0.418296,0.438709,0.393194,0.446512

max: 2.60086
min: 0.312406
avg: 0.418087
