1.90433,1.84376,1.90944,1.83548,1.88454,1.93804,1.87184,1.82207,1.91028,1.81397,1.87369,1.92676,1.88315,1.88987,1.93089,1.89584,1.8833,1.92744,1.90205,1.89794,1.92358,1.89387,1.93005,1.86861,1.90331,1.92451,1.96892,1.85675,1.93492,1.94729,1.93985,1.99501,1.90737,1.84803,2.01406,1.89933,1.90158,1.88417,1.8766,1.92511,1.86643,1.94521,1.92316,1.91044,1.90493,1.9738,1.93544,1.96716,1.93355,1.85609,1.90685,1.95607,1.8958,1.94216,1.93435,1.95953,1.89133,1.86928,1.95777,2.03089
1.93521,1.94751,1.95385,1.8755,1.91926,1.88524,1.88641,1.9015,1.86066,1.90372,1.92986,1.90616,1.91519,1.90598,1.87601,1.90593,1.92133,1.9455,1.88603,1.94957,1.86306,1.90987,1.9553,1.91325,1.86338,1.95056,1.92334,1.97505,1.81118,1.8841,1.92259,1.85962,1.85495,1.91806,1.94439,1.88602,1.86213,1.77675,1.81542,1.88353,1.89392,1.90242,1.95526,1.91941,1.93954,1.97033,1.87891,1.85981,2.00113,1.89093,1.95854,1.9238,1.8818,1.97516,1.919,1.94112,1.88851,1.90221,1.90595,1.90066
1.98035,2.03608,1.953,1.80808,1.93059,1.92977,1.83368,1.98377,1.94958,1.87311,1.92191,1.91542,1.91552,1.93925,1.92515,1.92929,1.94592,1.86049,1.88443,1.90238,1.95741,1.94319,1.9436,1.92402,1.94751,1.92773,1.94387,1.94583,1.98128,1.92348,1.87719,2.01139,1.87518,1.87969,1.95473,1.93118,1.9006,1.90775,1.94307,1.85312,1.86325,1.87108,1.87099,1.88888,1.89922,1.88749,1.96075,1.85607,1.92307,1.90808,1.88559,1.93482,1.87984,1.9116,1.88654,1.86289,1.90468,1.86339,1.91007,1.89539
1.93419,1.86019,1.87075,1.93253,1.99951,1.99782,1.97018,1.90515,1.96817,1.84581,1.92368,1.89523,1.88184,1.96685,1.89686,1.86662,1.89002,1.90778,1.94564,1.90614,1.8901,1.92656,1.9015,1.91613,1.91855,1.8898,1.91839,1.84225,1.899,1.9297,1.83305,1.88621,1.94409,1.98411,1.93744,1.89318,1.94814,1.90342,1.94396,1.99126,1.97212,1.93531,1.97683,2.02326,1.93072,1.92358,1.91096,1.99004,1.90301,1.89434,1.91962,2.00947,1.94057,1.91672,1.91819,1.97083,1.97386,1.98019,1.8833,1.95861
1.84261,1.86527,1.92929,1.92075,1.93448,1.8895,1.95555,1.8717,1.87916,1.81638,1.89981,1.91404,1.94391,1.94848,1.82834,1.85646,1.87428,1.97091,1.9192,1.84658,1.9356,1.88782,1.95049,1.87134,1.93365,1.93016,1.87908,1.92441,1.93486,1.86301,1.88489,1.935,1.99686,1.91142,1.94637,1.9403,1.85125,1.87705,1.99089,1.94099,1.86519,1.97365,1.96513,1.92297,1.89073,1.94371,1.94251,1.89258,1.86614,1.90023,2.02404,1.91875,1.94967,1.87562,1.86486,1.94563,1.96547,1.89774,1.9178,1.90709
1.97717,1.97238,1.93976,1.91013,1.92981,1.94267,1.89004,1.97089,1.98861,1.935,1.90931,1.91176,1.86812,1.89411,1.97323,1.82646,1.93094,1.93457,1.95218,1.97229,1.89277,1.85927,1.88355,1.8881,1.97822,1.93139,1.95662,1.90462,1.81338,1.91384,1.9096,1.88065,1.82271,1.85328,1.90728,1.9897,1.87389,1.85962,1.88832,1.84773,1.86747,1.8588,1.91077,1.88514,1.92084,1.89188,1.83155,1.89474,1.91715,1.89086,2.01804,1.87324,1.83786,1.93004,1.86391,1.95249,1.9266,1.86924,1.98874,1.93122
1.95002,1.96059,1.94848,1.85243,1.91028,1.91464,1.87922,1.93755,1.93547,1.84575,1.94219,1.87072,1.98328,1.90109,1.96168,1.8814,1.98692,1.85884,1.91497,1.96475,1.9368,1.95944,1.89232,1.93444,1.91607,1.95464,1.90829,1.94522,1.9839,1.87281,1.93459,1.98368,1.93067,1.89736,1.93301,1.99008,1.94749,1.96151,1.96196,1.9387,1.96887,1.86201,1.88682,1.89371,1.875,1.92134,1.86716,1.9219,1.85739,1.88933,1.85349,1.9744,1.92467,1.82974,1.92864,1.96154,1.87984,1.89995,1.90743,1.85153
1.86744,1.88354,1.94292,1.96285,1.92502,1.86466,1.92459,1.93215,1.91099,1.90335,1.95494,1.93032,1.93369,1.80383,1.87833,1.88195,2.0135,1.9086,1.90265,1.96281,1.9634,1.93382,1.90189,1.95378,1.92501,1.95485,1.82478,1.96491,1.88376,1.92366,1.86246,1.95139,1.9133,1.84018,1.91771,1.93753,1.97073,1.92202,1.90723,1.97275,1.91595,1.94417,1.99728,2.02337,1.95586,1.96577,1.9608,1.8921,1.9457,1.94621,1.92864,1.93226,1.95303,1.90722,1.95777,1.97545,1.86974,1.96476,1.91931,1.956
1.91094,1.95114,1.93674,1.935,1.91384,1.98089,1.87843,1.84271,1.9429,1.91508,1.85169,1.90098,1.91121,1.84643,1.9072,1.85937,1.89159,1.93106,1.91589,1.86764,1.8432,1.86225,1.86955,1.92909,1.84407,1.86712,1.8954,1.95384,1.94618,1.90275,1.86067,1.90394,1.93729,1.85667,1.94012,1.90991,1.8124,1.96223,1.94102,1.94474,1.90151,1.89681,1.90869,1.94747,1.91988,1.85842,1.89183,1.87737,1.83798,1.90105,1.87913,1.97072,1.95832,1.9027,1.95582,1.91248,1.96508,1.90407,1.8794,1.87268
1.93956,1.92944,2.00252,1.89797,1.81763,1.86718,1.88669,1.96739,1.89902,1.86302,1.94746,1.94579,1.87631,1.95861,1.93042,1.98371,1.95929,1.90325,1.89113,1.9458,1.91445,1.92608,1.84615,1.87834,1.86613,1.921,1.80639,1.89417,1.84723,1.88197,1.92565,1.90133,1.83754,1.84839,1.90144,2.00913,1.89046,1.90744,1.86174,1.85191,1.88363,1.90885,1.99227,1.88644,1.9327,1.85666,1.8998,1.83176,1.93415,1.95257,1.87075,1.94861,1.86938,1.87239,1.95587,1.98209,1.943,1.89081,1.91913,1.86745
1.90277,1.92017,1.84439,1.91196,1.88998,1.90961,1.91941,1.95753,1.91542,1.88393,1.94584,1.91538,1.87827,1.9385,1.82575,1.86392,1.88687,1.96268,1.89078,1.95704,1.91236,1.92795,1.95921,1.952,1.91751,1.90103,1.89948,1.89027,1.88969,1.90014,1.90526,1.88128,1.85134,1.95843,1.97643,1.92976,1.96463,1.97373,1.89818,1.89986,1.89142,1.87074,1.88988,1.8978,1.93982,1.89183,1.9017,1.91804,1.93367,1.92232,1.8797,1.91418,1.88784,1.92561,1.85167,1.9609,1.8984,1.86518,1.88069,1.90173
1.88384,1.8983,1.9276,1.94675,1.90102,1.88407,1.88902,1.98145,1.85015,1.81717,1.94041,1.88796,1.90567,1.9602,2.00976,1.90862,1.99132,1.85535,1.9007,1.95795,1.91812,1.94285,1.92018,1.89303,1.94199,1.90315,1.93336,1.96617,1.93908,1.83327,1.95647,1.94602,1.854,1.97732,1.9761,1.90914,1.97183,1.91772,1.94347,2.003,1.94017,1.88732,1.9581,1.89973,1.92713,1.96685,1.89504,1.95689,1.91341,1.94655,1.9264,1.91904,1.94337,1.84188,1.90186,1.93154,1.91037,1.92103,1.93707,1.93449
1.8611,1.94383,1.91395,1.91065,1.9416,1.8824,1.9003,1.87606,1.95302,1.89946,1.95852,1.88946,1.95984,1.86752,1.78524,1.9239,1.90052,1.91914,1.87158,1.93064,1.88859,1.88548,1.87043,1.90643,1.85318,2.18585,1.91209,1.9117,1.82031,1.96429,1.95524,1.97106,1.937,1.92359,1.92553,1.93926,1.93871,1.90225,1.93929,1.85286,1.92995,1.9662,1.9296,1.9659,1.93198,1.8639,1.94213,1.90984,1.91772,1.87548,1.87347,1.89457,1.85235,1.88099,1.95236,1.91961,1.91943,1.94752,1.92153,1.95385
1.91567,1.88446,1.94015,1.9214,1.95254,1.99539,1.95247,1.92614,1.9119,1.91677,1.86077,1.91899,1.93243,1.9342,1.90302,1.84738,1.82228,1.94332,1.88214,1.918,1.87214,1.97487,1.81386,1.88938,1.91415,1.881,1.88601,1.90904,1.85296,1.86235,1.93811,1.81093,1.89225,1.97141,1.87832,1.88724,1.82213,1.90386,1.83437,1.89439,1.86506,1.99047,1.87788,1.9306,1.90455,2.13069,1.92579,1.87907,1.90889,1.94067,1.93176,1.88186,1.84055,1.91511,1.94894,1.87415,1.88027,1.94958,1.90697,1.82043
1.90445,1.89035,1.91371,1.91447,1.96036,1.91452,1.92161,1.92098,1.92162,1.89863,1.89517,1.93995,1.93408,1.84967,1.89448,1.9688,1.8957,1.9621,1.97089,1.97405,1.99863,1.91358,1.89332,1.84506,1.9139,1.88328,1.94924,1.96556,1.9233,1.93503,1.94116,2.05267,1.99435,1.91217,1.97771,1.85008,1.94581,1.90654,2.01433,1.89271,1.90478,1.89486,1.92072,1.77961,1.93956,1.84714,1.93753,1.86207,1.87132,1.87907,1.87807,1.92949,1.95227,1.91508,1.90687,1.9944,1.97465,1.81417,1.90509,1.91203
1.88827,1.92115,1.93439,1.83377,1.87067,1.92686,1.80101,1.90588,1.93519,1.93436,1.8416,1.91101,1.9344,1.84251,1.9372,1.90284,1.94596,1.85395,1.84672,1.88927,1.90879,1.96291,1.8319,1.91062,1.92807,1.91905,1.85537,1.96222,1.85791,1.91353,1.93848,1.98758,1.91783,1.91802,1.87077,1.8884,1.90507,1.91142,1.94524,2.00323,1.87803,1.91025,1.88424,1.89573,1.91813,1.96325,1.91077,1.95903,1.97408,1.90035,1.94426,1.8783,1.80707,1.85432,1.97436,1.90507,1.95616,1.88082,1.92268,1.92135
1.86564,1.9611,1.82115,1.84073,1.88793,1.91667,1.85256,1.84227,1.92028,1.84926,1.91286,1.89948,1.83919,1.8586,1.98481,1.85629,1.80559,1.89665,1.91318,1.90609,1.88104,1.91117,1.92386,1.97495,1.92599,1.95727,1.89146,1.90363,1.86806,1.86933,1.87012,1.98363,1.8554,1.94138,1.97399,1.82916,1.84778,1.8897,1.86556,1.93187,1.91156,1.89696,1.94899,1.84353,1.9093,1.96971,1.90923,1.93764,1.86854,1.90522,1.92213,1.81933,1.88919,1.87732,1.81702,1.92532,1.87244,1.92958,1.98397,1.93153
1.95553,1.89089,1.85707,1.91663,1.88526,1.93442,1.90778,1.92426,1.8734,1.95803,1.88925,1.93257,1.88164,1.99959,1.94352,1.95149,1.92517,1.98116,1.951,1.91545,1.87947,1.92164,1.95411,1.88316,1.94505,1.86942,1.84862,1.98044,1.87376,1.93772,1.87571,1.86614,1.86232,1.95313,1.9229,1.88354,1.91507,1.89615,1.89428,1.90151,1.85921,1.89783,1.92545,1.86388,1.86316,1.90486,1.9761,1.82518,1.83111,1.92407,1.86584,1.91514,1.90543,1.9157,1.9441,1.94674,1.86606,1.86244,1.89277,1.91529
1.97818,1.87066,1.88683,1.86108,1.96028,1.84536,1.89665,1.91986,1.90031,1.92138,1.88796,1.96004,1.93101,1.91522,1.93737,1.87498,1.88436,1.96085,1.92147,1.87387,1.86098,1.86615,1.88763,1.94254,1.89978,1.85118,1.94477,1.97234,1.90583,1.86097,1.87407,1.97296,1.92644,1.94281,1.94913,1.92288,1.92524,1.90694,1.92326,1.92791,1.84829,1.88156,1.91617,1.89209,1.93534,1.86589,1.88853,1.90273,1.81816,1.87348,1.87581,1.9441,1.92484,1.92311,1.92533,1.90387,1.91776,1.90936,1.86253,1.87246
1.85564,1.87015,1.86822,1.9535,1.94027,1.90676,1.89574,1.96135,1.90003,1.94359,1.953,1.94532,1.91112,1.83942,1.90523,2.01093,1.90245,1.95064,1.89427,1.8981,1.88593,1.91881,1.86143,1.91603,1.946,1.87435,1.88437,1.89282,1.801,1.91333,1.94778,1.99543,1.95017,1.91388,1.97877,1.98662,1.92521,1.95324,1.89299,1.93308,1.97933,1.8908,1.87032,1.87743,1.89877,1.93948,1.94615,1.97646,1.90589,1.92283,1.91775,1.8779,1.99431,1.92965,1.89788,1.8844,1.93664,1.86805,1.89872,1.9091
1.97463,1.92383,1.9175,1.86922,1.8952,1.8668,1.80493,1.94222,1.9399,1.86545,1.81825,1.95594,1.88516,1.86301,1.88256,1.9298,1.86237,1.91229,1.89368,1.93971,1.92181,1.93408,1.77201,2.00184,1.88174,1.89306,1.92463,1.89553,1.86189,1.91855,1.94404,1.9696,1.97812,1.88841,1.8956,1.90701,1.91495,1.88823,1.91974,1.8989,1.95853,1.94284,1.92275,1.8418,1.90235,1.88996,1.95797,1.93861,1.90341,1.91827,1.94226,1.95753,1.90035,1.9127,1.94359,1.89778,1.90402,1.97548,1.94606,1.93788
1.94629,1.95686,1.93532,1.97319,1.96157,1.90134,1.8599,1.93612,1.85303,1.88915,2.00691,1.9359,1.94664,1.90774,1.88938,1.98875,1.96378,1.96697,1.94349,1.91907,1.85672,1.84195,1.94781,1.88299,1.90922,1.89553,1.80782,1.88402,1.84405,1.98091,1.81564,1.9353,1.926,1.83962,1.8922,1.95249,1.89401,1.86347,1.96917,1.90669,1.92342,1.88689,1.93379,1.90145,1.92247,1.90618,1.92056,1.96467,1.85168,1.90073,1.84228,1.91371,1.9409,1.82778,1.8492,1.85804,1.85667,1.81107,1.94812,1.92943
1.9028,1.83867,1.90903,1.90478,1.89472,1.89849,1.9719,1.94367,1.88441,1.90205,1.89173,1.93484,1.89136,1.88884,1.88293,1.89973,1.88245,1.98779,1.98101,1.89482,1.95467,1.908,1.83944,1.93039,1.93386,1.9776,1.95505,1.9331,1.92756,1.88573,1.92634,1.94911,1.91076,1.97598,1.938,1.906,1.86374,1.88198,1.99346,1.82387,1.84795,1.95821,1.87997,1.87164,1.8985,1.97093,1.85217,1.92219,1.92573,1.82372,1.90765,1.89331,1.87518,1.87925,1.89954,1.86884,1.88713,1.90039,1.94311,1.89838
1.89897,1.92183,1.81558,1.89077,1.97587,1.94804,1.86588,1.96668,1.95609,1.87512,1.94976,1.85701,1.96433,1.82603,1.86814,1.84397,2.02247,1.92325,1.86129,1.84786,1.8981,1.91061,1.93177,1.90722,1.94506,1.87424,1.9431,1.90385,1.91185,1.92413,1.9052,2.00152,1.83489,1.89802,1.92228,1.88742,1.87845,1.81469,1.91495,1.9099,1.89991,1.89464,1.89137,1.95561,1.88372,1.92958,1.92519,1.86852,1.96072,1.91902,1.80891,1.8722,2.07686,1.98134,1.97506,1.97756,1.91975,1.91305,1.96545,1.90144
1.93306,1.9275,1.92087,1.8679,1.91551,1.96934,1.88933,1.91891,1.81844,1.89256,1.84127,1.86628,1.88948,1.91422,1.87705,1.7603,1.90701,1.86047,1.9053,1.95755,1.8966,1.96445,1.84946,1.85179,1.87868,2.00433,1.90562,1.93325,1.90442,1.90881,1.92134,1.94088,1.94991,1.87657,1.89806,1.87166,1.96062,1.88965,1.89448,1.87979,1.90825,1.94364,1.84513,1.92613,2.01575,1.83267,1.95121,1.90399,1.91561,1.88696,1.99028,1.95268,1.90545,1.85467,1.93786,1.90156,1.92005,1.94328,1.8322,1.88377
1.91173,1.86391,1.96544,1.83899,1.92365,1.83518,1.9006,1.88955,1.89231,1.93036,1.90557,1.9883,1.86234,1.89928,1.96118,1.88695,1.97277,1.91381,1.82756,1.93952,1.89542,1.84341,1.95967,1.89187,1.89924,1.92455,1.84629,1.94063,1.93502,1.89299,1.93802,1.86447,1.94065,1.93539,1.93839,1.87811,1.89204,1.8477,1.87717,1.97048,1.94871,1.88451,1.94584,1.80709,1.8884,1.90844,1.88016,1.97203,1.91552,1.90354,1.83962,1.9271,1.97804,1.92253,1.8905,1.92312,1.91073,1.91438,1.9366,1.9422
1.91628,1.83579,1.88102,1.86283,1.96382,1.91997,1.89821,1.90984,1.85868,1.92001,1.98089,1.95356,1.89243,1.91023,1.92185,1.90534,1.95472,1.88099,1.95229,1.85589,2.00961,1.89091,1.91594,1.89431,1.92362,1.95811,1.92807,1.91529,1.86114,1.91814,1.91377,1.91156,1.96954,1.92014,1.99444,1.96331,1.84923,1.91247,1.90216,1.8979,1.87403,1.9228,1.90416,1.93461,1.94712,1.88275,1.90998,1.81526,1.83254,1.86218,1.91105,1.96219,1.9067,1.8926,1.86344,1.80738,1.94762,1.96323,1.89964,1.83735
1.87866,1.87553,1.89543,1.8872,1.91961,1.97885,1.93476,1.98546,1.90589,1.97403,1.92718,1.93631,1.8957,1.9175,1.88813,1.86399,1.89774,1.85589,1.92581,1.93529,1.92082,1.87708,1.87444,1.87178,1.94613,1.91852,1.9102,1.91859,1.92613,1.91441,1.91728,1.96675,1.88527,1.85099,1.86009,1.98393,1.91783,1.93484,1.99856,1.93781,1.86628,1.89042,1.97471,1.93614,1.9631,1.87824,1.93371,1.90144,1.94606,1.95326,1.94014,1.96344,1.93481,1.92028,1.98053,1.89003,1.92965,1.97198,1.93769,1.9911
1.91527,1.85451,1.8013,1.9089,1.93064,1.85136,1.93785,1.86736,1.90801,1.95287,1.92334,1.86056,1.89002,1.86493,1.8846,1.98018,1.8743,1.974,1.93434,1.83953,1.82466,1.92484,1.84135,1.88918,1.91797,1.86004,1.82571,1.93163,1.90556,1.99635,1.89701,1.92936,1.95151,1.88643,1.83678,1.85004,1.95181,1.92775,1.95132,1.94612,1.91303,1.9259,1.88646,1.95357,1.91146,1.93284,1.88428,1.92346,1.89204,1.91423,1.9679,1.93144,1.89619,1.97828,1.93126,1.93098,1.941,1.92353,1.9528,1.93771
1.90184,1.9488,1.89524,1.95112,1.92551,1.95435,1.91486,1.9887,1.86926,1.90229,1.95513,1.87973,1.93232,1.8761,1.84647,2.01868,1.93723,1.8428,1.94253,1.98831,1.89023,1.89365,1.90995,1.90795,1.9115,1.88704,1.86104,1.9407,1.85733,1.8917,1.96032,1.87777,1.89635,1.86434,1.93811,1.85804,1.94085,1.88051,1.85299,1.86171,1.88048,1.94113,1.87985,1.87349,1.81168,1.94863,1.92522,1.90924,1.99376,1.9724,1.85629,1.88315,1.884,1.98559,1.85725,1.87673,1.91494,1.92067,1.89212,1.93714
1.91438,1.98459,1.93252,1.92145,1.94799,1.95967,1.86719,1.89286,1.85115,1.92857,1.89367,1.97044,1.89519,1.90144,1.98509,1.94031,1.923,1.91289,1.98551,1.91783,1.84906,1.94894,1.92053,1.93078,1.97602,1.94471,1.91219,1.88513,1.99457,1.87884,3.78173,1.92437,1.88341,1.89908,1.86456,1.83955,1.92287,1.92983,1.92756,1.9208,1.84509,1.83678,1.84692,1.87715,1.95336,1.93087,1.9293,1.89074,1.96845,1.93967,1.89693,1.89315,2.04278,1.92339,1.87169,1.9536,1.88219,1.88415,1.8786,1.92048
1.85185,1.89188,1.9823,1.89936,1.90889,1.95022,1.92815,1.99969,1.87327,1.89343,1.94301,1.91036,1.95005,1.89332,1.91965,1.97801,1.9193,1.91655,1.91745,1.93343,1.88834,1.87998,1.92541,1.92339,1.94483,1.93099,1.96432,1.90848,1.93703,1.92678,1.8646,1.91254,1.89839,1.88583,1.87599,1.88773,1.92913,1.93561,1.88859,1.94595,1.93118,1.92159,1.94099,1.9688,1.90751,1.89751,1.9558,1.90578,1.86795,1.91066,1.93188,1.95477,2.00895,1.92799,1.9553,1.81682,1.94005,2.0433,1.89708,1.93276
1.94101,1.83609,1.92722,1.9311,1.93383,1.9,1.91952,1.86742,1.87292,1.89112,1.85628,1.85054,1.86834,1.85012,1.89135,1.89111,1.93304,1.87747,1.89232,1.83457,1.89171,1.90668,1.9217,1.87218,1.95226,1.94174,1.87957,1.92902,1.88911,1.86417,1.90976,1.86862,1.89752,1.93155,1.87119,1.92287,1.91887,1.94478,1.95565,1.93316,1.91604,1.88819,1.96997,1.92479,1.9672,1.88544,1.91913,1.92846,1.92765,1.91498,1.91755,1.95565,1.94171,1.92009,1.87505,1.91422,1.95364,1.95626,1.94466,1.97432
1.96634,1.84954,1.9039,1.93436,1.9123,1.88726,1.97047,1.97808,1.82892,1.8986,1.8532,1.91442,1.91336,2.0067,1.99927,1.98115,1.91307,1.93124,1.91315,1.92524,1.88697,1.91543,1.93505,1.91516,1.86296,1.97539,1.89682,1.93324,1.97339,1.90417,1.91197,1.94694,1.85688,1.82875,1.93573,1.89978,1.9394,1.83164,1.78886,1.85305,1.91972,1.90673,1.90022,1.90362,1.8971,1.89669,1.88174,1.86526,1.93225,1.9203,1.91403,1.95456,1.88141,2.00232,1.91301,1.95076,1.88469,1.94788,1.91817,1.91073
1.88162,1.86293,1.86492,1.94707,1.96105,1.92082,1.98146,1.9324,1.88963,1.93382,1.9677,1.91959,1.89231,1.92929,1.8973,1.86432,1.97281,1.91844,1.88372,1.89809,1.95091,1.91989,1.96148,1.88089,2.01677,1.87538,1.90239,1.85776,1.94937,1.97967,1.89503,1.95504,1.95383,1.90341,1.92193,2.00171,1.91208,1.97158,1.99769,1.91867,1.93587,1.83522,1.89486,1.89904,1.90312,1.95581,1.87006,1.80589,1.88705,1.86359,1.90267,1.85046,1.86014,1.90349,1.94175,1.89408,1.87213,1.91333,1.95345,1.87972
1.83239,1.91463,1.91804,1.9567,1.92585,1.95719,1.89561,1.90042,1.91861,1.85725,1.82471,1.91386,1.90452,1.9634,1.94448,1.94453,1.97735,1.93529,1.94646,1.93703,1.92283,1.87096,1.9005,1.89776,1.83943,1.94047,1.7986,1.90583,1.93329,1.90219,1.97615,1.92185,1.90866,1.93011,1.88922,1.88019,1.84979,1.95115,1.98591,1.92759,1.99461,1.92869,1.92233,1.91269,1.93932,1.8912,1.87306,1.90984,1.92693,1.94496,1.83569,1.90142,1.97635,1.89831,1.9071,1.94808,1.94971,1.93985,1.9822,1.91428
1.89662,1.91323,1.9412,1.96624,1.88871,1.88169,1.86117,1.82732,1.90769,1.89036,1.92115,1.93985,1.8868,1.91052,1.88025,1.88901,1.8564,1.93234,1.88009,1.90865,1.91215,1.90411,1.87648,1.95794,1.92868,1.97283,1.96625,1.92938,1.87429,1.88539,1.85828,1.91363,1.94363,1.89803,1.86829,1.95782,1.8303,1.94629,1.87213,1.88101,1.85994,1.94577,1.85662,1.93376,1.91088,1.88943,1.89632,1.91336,1.92212,1.93228,1.83634,1.84961,1.87553,1.92808,1.85448,1.91316,1.93004,1.98347,1.89675,1.95005
1.91803,1.96957,1.93735,1.87312,1.9383,1.94881,1.93153,1.92015,1.87886,1.94035,1.89643,1.96981,1.92212,1.97521,1.99028,1.90385,1.93171,1.96098,1.91548,1.99654,1.89263,1.88219,1.8746,1.8662,1.92126,1.8414,1.94427,1.87162,1.82729,1.8623,1.91113,1.88589,1.8925,1.86426,1.90337,1.94036,1.88838,1.94054,1.87247,1.89454,1.82303,1.9125,1.90236,1.90755,1.9048,1.86942,1.97124,1.82422,1.84626,1.88738,1.91211,1.85524,1.87119,1.90936,1.89622,1.88525,1.87925,1.88159,1.93678,1.99813
1.94543,1.93618,1.92269,1.93035,1.95625,1.89734,1.91608,1.88909,1.96691,1.98183,1.9593,1.8352,1.87978,1.92807,1.9512,1.90273,1.93507,1.90027,1.96851,1.92844,1.94889,2.0009,1.94456,1.92407,1.97215,1.93593,1.92786,1.94764,1.87533,1.91952,1.86509,1.90763,1.84356,1.89579,1.96154,1.94385,1.91874,2.01243,1.97932,1.92688,1.85017,1.98556,1.96889,1.92841,1.8473,1.87768,1.85369,1.93517,1.93742,1.91995,1.92229,1.86465,1.87834,1.93037,1.85479,1.94966,1.87275,1.95641,1.83333,1.89243
1.92817,1.92688,1.85004,1.86862,1.90887,1.79983,1.89517,1.90191,1.95967,1.95224,1.86617,1.92226,1.93521,1.93437,1.86006,1.92024,1.8795,1.86089,1.89314,1.88189,1.93535,1.98687,1.92563,1.96967,1.98784,1.9489,1.89629,1.90307,1.99314,1.89451,1.93048,1.89927,1.92281,1.91847,1.92715,1.91599,1.95052,1.98868,1.88304,1.93528,1.88518,1.85587,1.98731,1.95231,2.0608,1.96821,1.96454,1.95791,1.89847,1.85873,1.88103,1.947,1.87379,1.94583,1.87627,1.97498,1.97319,1.9025,1.87502,1.91568
1.88714,1.89588,1.89889,1.9325,1.82802,1.88462,1.88111,1.89945,1.92165,1.90437,1.90115,1.88432,1.91111,1.80446,1.96169,1.94805,1.92838,1.91808,1.86519,1.94585,1.90423,1.8551,1.87361,1.93627,1.93169,1.93928,1.90948,1.94547,1.80269,1.94792,1.94411,1.95041,1.93419,1.90087,1.9417,1.96205,1.93727,1.9287,1.91373,1.89498,1.93365,1.92365,1.88328,1.87046,1.89141,1.851,1.92901,1.88467,1.92678,1.85856,1.82202,1.94829,1.93457,1.79013,1.93857,1.90189,1.9699,1.92733,1.89547,1.92846
1.94684,1.9046,1.88541,1.92094,1.81698,1.95331,1.90368,1.97065,1.89485,1.93624,1.94619,1.84358,2.00109,1.87152,1.95448,1.8491,1.93765,1.95983,1.88921,1.94478,1.92144,1.87352,1.80619,1.86572,1.93226,1.87218,1.89559,1.86849,1.88673,1.89378,1.81125,1.86631,1.87894,1.82539,1.85224,1.83325,1.81914,1.86621,1.92195,1.92086,1.97449,1.93953,1.8834,1.93789,1.93043,1.87402,1.88836,1.95111,1.98552,1.86821,1.97906,1.8302,1.89737,1.86911,1.83173,1.83595,1.87199,1.9216,1.84006,1.86007
1.92462,1.97897,1.93935,1.9193,1.93555,1.93331,2.00906,1.9231,1.8875,1.9007,1.96155,1.89579,1.93594,1.96508,1.94979,1.85694,1.90535,1.95257,1.95544,1.91548,1.91132,1.86523,1.97134,1.96414,2.01633,1.88676,1.9623,1.92975,1.91399,1.93527,1.88103,1.97035,1.90565,1.98182,1.96924,1.85353,1.94025,1.90321,1.86691,1.98292,1.92783,1.89048,1.89811,1.86268,1.87075,1.88804,1.8715,1.8606,1.88736,1.90643,1.97891,1.90212,1.92431,1.82317,1.85769,1.87511,1.90182,1.91579,1.90681,1.89778
1.93392,1.98947,1.91348,1.93606,1.91697,1.89413,1.77147,1.8653,1.90704,1.90699,1.86989,1.85482,1.94502,1.89864,1.88443,1.93363,1.9214,1.86989,1.86814,1.85756,2.00334,1.89767,1.87153,1.88667,1.87879,1.96001,1.92136,1.89126,1.87474,1.86996,1.86949,1.88506,1.92378,1.9062,1.90143,1.93524,1.98842,1.93669,1.8937,1.93008,1.99255,1.86613,1.92835,1.98763,1.85015,1.93928,1.90964,1.89115,1.90562,1.92747,1.9286,1.91459,1.90383,1.94224,1.92042,1.96713,1.90797,1.86309,1.99758,1.88399
1.85696,1.87203,1.90738,1.99108,1.90276,1.94984,1.84797,1.88328,1.88114,1.95148,1.90957,1.9553,1.86743,1.83972,1.85703,1.85023,1.80351,1.97955,1.88631,1.85187,1.88854,1.93587,1.87498,1.92958,1.91419,1.91041,1.91268,1.95928,1.84029,1.9473,1.83188,1.93604,1.88693,1.93195,1.89372,1.96715,1.90163,1.93177,1.91537,1.84373,1.8546,1.85318,1.89167,1.98487,1.91715,1.82733,1.93082,1.90957,1.93914,1.89444,1.87859,1.93774,1.94561,1.94317,1.88133,1.87449,1.94882,1.97477,1.93228,1.88967
1.94602,1.93288,1.95692,1.97729,1.90801,1.96077,1.9315,1.88522,1.89433,1.94833,1.95199,1.93229,1.8921,1.94307,1.95022,1.96854,1.92318,2.02857,1.82783,1.88302,1.87874,1.8768,1.90473,1.85553,1.92305,1.95142,1.86292,1.98976,1.90791,1.95115,1.98347,1.79211,1.85785,1.89369,1.9798,1.94844,1.90872,1.89725,1.84834,1.85256,1.903,1.92505,1.88592,1.90614,1.88714,1.92604,1.85491,1.93341,1.89524,1.9144,1.86804,1.94723,1.91351,1.9055,1.96166,1.89045,1.84322,1.94155,1.91036,1.88857
1.93135,1.90735,1.91241,1.85555,1.84024,1.89477,1.91882,1.91384,1.86651,1.87398,1.87431,1.84425,1.90887,1.92554,1.91666,1.92255,1.89682,1.87366,1.97154,1.91154,1.84145,1.865,1.89784,1.91738,1.97253,1.87205,1.88221,1.9767,1.91715,1.90255,1.88713,1.96097,1.85261,1.99244,1.94502,1.88366,1.92311,1.89435,1.88288,1.92174,1.90547,1.90223,1.9313,1.83565,1.97132,1.88837,1.88581,1.92507,1.91623,1.87453,1.9155,1.8989,1.88208,1.88234,1.96355,1.83839,1.85342,1.8808,1.82544,1.88076
1.89515,1.9085,1.92426,1.89102,1.91222,1.99156,1.92387,1.91351,1.84805,1.98108,1.92122,1.88451,1.90239,1.94485,1.93475,2.01242,1.89469,1.92898,1.94702,1.89793,1.91044,1.91645,1.84369,1.92086,1.9036,1.88811,1.88245,1.91992,1.95383,1.90055,1.87337,1.97508,1.91862,1.99362,1.90175,1.90507,1.84075,1.99887,1.91783,1.95772,1.86993,1.95843,1.89399,1.96387,1.93109,1.87486,1.96426,1.82793,1.8989,1.95294,1.92589,1.95181,1.9123,1.94957,1.99674,1.90202,1.89251,1.88875,1.95947,1.91117
1.95012,1.85603,1.88433,1.86874,1.84318,1.8441,1.86896,1.92383,1.92715,1.83336,1.90085,1.89008,1.85242,1.86446,1.93201,1.87395,1.91476,1.8071,1.81162,1.88809,1.90841,1.85538,1.79835,1.86157,1.85109,1.90193,1.96217,1.86404,1.97998,1.87618,1.87706,1.876,1.99068,1.87531,1.88688,1.8927,1.93014,1.94588,1.96169,1.90453,1.87807,1.87631,1.87545,1.92965,1.91219,1.88851,1.90752,1.91117,1.90809,1.88164,1.85448,1.85052,1.89265,1.86522,1.96341,1.83862,1.89013,1.95882,1.94574,1.9887
1.96003,1.94184,1.91135,1.94526,1.98231,1.99232,1.88069,1.98713,1.90582,1.90339,1.8357,1.93137,1.86804,1.91257,1.97448,1.96432,1.94708,1.93061,1.86255,1.94923,1.87467,1.98754,1.87332,1.89441,1.93513,1.94001,1.85497,1.87548,1.91415,1.93743,2.00812,1.86271,1.85731,1.86095,1.98055,1.96653,1.93508,1.921,1.91907,1.97014,1.89719,1.90335,1.87792,1.85931,2.00964,1.88206,1.86302,1.97721,1.94329,1.86174,1.93007,1.90573,1.95843,1.94625,1.92501,1.90256,1.90514,1.92271,1.88063,1.92404
1.89431,1.96032,1.92809,1.87052,1.83615,1.95788,1.92441,1.91593,1.94836,1.94037,1.90221,1.91144,1.9853,2.00001,1.90392,1.94057,1.99303,1.9352,1.92886,1.91027,1.93836,1.94597,1.94323,1.94655,1.90232,1.95157,1.93689,1.9049,1.99272,1.93348,1.9402,1.94048,1.86845,1.99852,1.90873,1.91237,1.96334,1.96427,1.92569,2.07383,1.91501,1.9066,1.90183,1.93361,1.88467,1.938,1.98134,1.97618,1.92359,1.90416,1.86123,1.93581,1.87616,1.89494,1.86118,1.88036,1.90772,1.91982,1.85904,1.94073
1.95074,1.92291,1.82328,1.82106,1.96133,1.99744,1.91131,1.94122,1.95779,1.8431,1.93609,1.9563,1.90337,1.89137,1.80946,1.94003,1.85464,1.87135,1.95136,1.92993,1.89191,1.90038,1.90565,1.92015,1.93365,1.96677,1.90529,1.93544,1.93359,1.90935,1.98964,1.92147,1.92464,1.89991,1.88981,1.91994,1.85747,2.01805,1.86488,1.92385,1.9317,1.91689,1.88113,1.88388,1.98665,1.88819,1.94701,1.9634,1.96878,1.91682,1.87612,1.95883,1.93844,1.91809,1.8827,1.89095,1.89136,1.93006,1.85376,1.98277
1.8949,1.95711,1.93419,1.86434,1.84137,1.90315,1.88787,1.8782,1.83768,1.9669,1.81181,1.82521,1.8903,1.89868,1.86094,1.95027,1.95133,1.90345,1.94753,1.86681,1.90599,1.89442,1.93529,1.90859,1.89201,1.88402,1.91492,1.93678,1.94993,1.86622,1.93639,1.89105,1.89647,1.95504,1.89527,1.88327,1.89911,1.93361,1.91603,1.87161,1.84592,1.94918,1.8971,1.89062,1.92209,1.86398,1.88618,1.90192,1.89482,1.94883,1.92212,1.85485,1.89916,1.98143,1.91057,1.91553,1.81465,1.84522,1.9857,1.94812
1.92382,1.96744,1.90699,1.93824,1.89588,1.92628,1.89942,1.92304,1.88877,1.99741,1.92335,1.87978,1.89214,1.91129,1.93412,1.94728,1.86952,1.92208,1.92464,1.89281,1.86712,1.89927,1.88383,1.89721,1.89369,1.88552,1.92533,1.87945,1.92961,1.86032,1.95096,1.877,1.93388,1.90328,1.94257,1.87871,1.90019,1.89878,1.86299,1.82108,1.89765,1.81636,1.85512,1.87993,1.84425,1.89048,1.89476,1.89756,1.84726,1.88226,1.84494,1.88779,1.88156,1.80343,1.87132,1.93199,1.92581,1.83066,1.86384,1.80472
1.88421,1.91526,1.95059,1.94892,1.93035,1.95737,1.83701,1.88274,1.93145,1.90016,1.94958,1.85801,1.91683,1.88501,1.91935,1.92381,1.93225,1.89324,1.90133,1.94719,1.9201,1.91386,1.86701,1.90922,1.97434,1.88886,1.86816,1.9144,1.96427,1.88218,1.91097,1.92942,1.94401,1.94994,1.87214,1.96838,1.89677,1.83181,1.93856,1.97049,1.98144,1.89047,1.85827,1.9152,1.85297,1.88602,1.94632,1.87488,1.86353,1.92069,1.93711,1.90939,1.96338,1.90908,1.87416,1.84656,1.87646,1.92188,1.90372,1.93323
1.90768,1.86056,1.93023,1.88805,1.90321,1.95884,1.91893,1.93132,1.90731,1.9661,1.97078,1.92724,1.90623,1.95585,1.93148,1.96944,1.95857,1.89771,1.95285,1.92423,1.96082,1.90439,1.8457,1.9427,1.89511,1.92249,1.88592,1.92208,1.9994,1.9563,1.98256,1.8335,1.93329,1.90811,1.94458,1.91414,1.96947,1.94355,1.96762,1.99057,1.95808,1.93721,1.88622,1.9416,1.88955,1.91389,1.978,1.83112,1.95781,1.88442,1.95661,1.8754,1.93246,1.93811,1.98437,1.91761,1.91068,1.8718,1.9458,1.94431
1.9533,1.92205,1.89848,1.86773,1.81717,1.86426,1.86147,1.91176,1.83871,1.92933,1.88241,1.89842,1.88656,1.853,1.93095,1.95267,1.92187,1.9106,1.90128,1.97309,1.85808,1.92893,1.87745,1.87715,1.86042,1.92647,1.83895,1.90904,1.82309,1.92375,1.95817,1.95379,1.87801,1.90658,1.9025,1.88657,1.88077,1.92256,1.87061,1.91624,1.89357,1.9103,1.95073,1.97516,1.93825,2.03941,1.87549,1.92482,1.97969,2.06869,1.91835,1.89882,1.90736,1.93737,1.87314,1.87874,2.00821,1.91948,1.90919,1.95741
1.96371,1.95007,1.85835,1.90805,1.95956,1.85803,1.91959,1.91887,1.9243,1.93737,1.95765,1.88222,1.8592,1.94534,1.9688,1.90427,1.93668,1.86954,1.95948,1.92494,1.80829,1.86383,1.87355,1.91453,1.8761,1.83604,1.94005,1.86429,1.89338,1.91594,1.92663,1.89563,1.91017,1.88957,1.89568,1.87159,1.82943,1.89601,1.86682,1.92773,1.86613,1.85083,1.93443,1.89169,1.92876,1.92405,1.95122,1.9377,1.83926,1.88717,1.89371,1.9246,1.8897,1.8577,1.85173,1.91885,1.98482,1.85373,1.93848,1.9425
1.86488,1.87795,1.9378,1.92484,1.93648,1.9299,1.91228,1.9619,1.89557,1.97561,1.83589,1.93993,1.95009,1.89197,1.91567,1.92292,1.89374,1.86676,1.89071,1.93602,1.92356,1.94122,1.94852,1.98172,1.92847,1.9653,1.86458,1.91926,1.89952,1.9789,1.96459,1.82495,1.96611,1.95275,1.94114,1.95781,1.90624,1.91966,1.95791,1.89848,1.82513,1.98953,1.90351,1.84868,1.9341,1.86461,1.94255,1.97383,1.94216,1.81012,1.9024,1.95507,1.91879,1.93161,1.83785,1.92094,1.90002,1.86441,1.94342,1.8857
1.88982,1.90986,1.96291,1.87848,1.95152,1.8936,1.92283,1.86757,1.92651,1.90818,1.86819,1.91416,1.96004,1.90425,1.85294,1.90068,1.89353,1.82011,1.96864,1.92776,1.84631,1.83635,1.84871,1.93498,1.90775,1.93781,1.88496,1.89934,1.79734,1.88906,1.88613,1.88106,1.8715,1.83813,1.85056,1.94536,1.95152,1.93774,1.86122,1.85021,1.95351,1.95645,1.95575,1.94958,1.935,1.92847,1.88817,1.95346,1.96018,1.87962,2.02795,1.91213,1.85263,1.97915,1.94347,1.89485,1.89514,1.93671,1.9904,1.8894

max: 3.78173
min: 1.7603
avg: 1.91176
