File Name,Exposure,Average,,,Variance,,,Fano Factor
,,Min,Max,Avg,Min,Max,Avg,Min,Max,Avg
QRNG_Data/Experiment_6/SmallLED/ROI80x4_Backgroundremoved/exp0gain20.000000Voltage1.720000/,0,15.9344,18.1156,16.7854,14.578,22.6836,17.7689,0.842945,1.31031,1.05949
QRNG_Data/Experiment_6/SmallLED/ROI80x4_Backgroundremoved/exp10gain20.000000Voltage1.720000/,10,16.85,18.2094,17.4846,14.5838,22.7403,18.1565,0.829703,1.27979,1.03853
QRNG_Data/Experiment_6/SmallLED/ROI80x4_Backgroundremoved/exp20gain20.000000Voltage1.720000/,20,15.8594,18.1969,17.2335,13.6539,21.8923,17.8652,0.785694,1.30147,1.03768
QRNG_Data/Experiment_6/SmallLED/ROI80x4_Backgroundremoved/exp30gain20.000000Voltage1.720000/,30,16.4375,18.2094,17.4791,14.6535,21.6586,18.0986,0.836392,1.22451,1.03557
QRNG_Data/Experiment_6/SmallLED/ROI80x4_Backgroundremoved/exp40gain20.000000Voltage1.720000/,40,16.8844,18.1281,17.5146,13.8547,22.6108,17.8907,0.776308,1.29505,1.02157
QRNG_Data/Experiment_6/SmallLED/ROI80x4_Backgroundremoved/exp50gain20.000000Voltage1.720000/,50,15.8719,17.8594,16.6039,14.2438,22.9871,17.9695,0.876538,1.39918,1.08262
QRNG_Data/Experiment_6/SmallLED/ROI80x4_Backgroundremoved/exp60gain20.000000Voltage1.720000/,60,25.95,28.5781,27.3111,22.7963,33.3637,27.7789,0.843076,1.21964,1.01754
QRNG_Data/Experiment_6/SmallLED/ROI80x4_Backgroundremoved/exp70gain20.000000Voltage1.720000/,70,27.0094,28.6719,27.8607,21.9312,33.9,27.2723,0.791471,1.2241,0.978939
QRNG_Data/Experiment_6/SmallLED/ROI80x4_Backgroundremoved/exp80gain20.000000Voltage1.720000/,80,37.4094,39.5031,38.3678,28.907,48.1965,36.8439,0.743529,1.24088,0.96025
QRNG_Data/Experiment_6/SmallLED/ROI80x4_Backgroundremoved/exp90gain20.000000Voltage1.720000/,90,36.2281,38.7375,37.4114,28.5312,45.6873,37.2725,0.750945,1.2154,0.996477
QRNG_Data/Experiment_6/SmallLED/ROI80x4_Backgroundremoved/exp100gain20.000000Voltage1.720000/,100,36.6125,39.4469,37.9369,30.1617,46.0056,36.9859,0.808957,1.21789,0.975201
QRNG_Data/Experiment_6/SmallLED/ROI80x4_Backgroundremoved/exp110gain20.000000Voltage1.720000/,110,47.2563,49.9531,48.7812,38.8293,59.1621,47.0398,0.793144,1.20539,0.964278
QRNG_Data/Experiment_6/SmallLED/ROI80x4_Backgroundremoved/exp120gain20.000000Voltage1.720000/,120,46.7812,49.6812,48.1591,38.1101,59.5215,47.3403,0.800697,1.25465,0.983112
QRNG_Data/Experiment_6/SmallLED/ROI80x4_Backgroundremoved/exp130gain20.000000Voltage1.720000/,130,57.45,60.1781,58.9887,46.1936,68.1069,56.0059,0.787847,1.15112,0.949476
QRNG_Data/Experiment_6/SmallLED/ROI80x4_Backgroundremoved/exp140gain20.000000Voltage1.720000/,140,57.5094,60.5063,59.121,46.21,67.9012,56.5499,0.795438,1.13725,0.956505
QRNG_Data/Experiment_6/SmallLED/ROI80x4_Backgroundremoved/exp150gain20.000000Voltage1.720000/,150,57.5094,60.3813,59.2419,45.6069,69.3972,56.4499,0.773982,1.16738,0.952864
QRNG_Data/Experiment_6/SmallLED/ROI80x4_Backgroundremoved/exp160gain20.000000Voltage1.720000/,160,67.175,70.9906,68.9862,50.5797,77.5199,66.0948,0.735671,1.122,0.958102
QRNG_Data/Experiment_6/SmallLED/ROI80x4_Backgroundremoved/exp170gain20.000000Voltage1.720000/,170,67.1531,71.2125,69.4289,52.44,77.4586,65.8797,0.763284,1.11151,0.94891
QRNG_Data/Experiment_6/SmallLED/ROI80x4_Backgroundremoved/exp180gain20.000000Voltage1.720000/,180,67.5125,70.8,69.0335,50.7753,79.6906,65.8482,0.737444,1.15703,0.95385
QRNG_Data/Experiment_6/SmallLED/ROI80x4_Backgroundremoved/exp190gain20.000000Voltage1.720000/,190,78.25,81.7844,79.8688,62.9851,90.8873,75.2422,0.787202,1.14379,0.942129
QRNG_Data/Experiment_6/SmallLED/ROI80x4_Backgroundremoved/exp200gain20.000000Voltage1.720000/,200,78.7062,81.8469,80.2399,60.4379,91.5552,75.9293,0.748138,1.13932,0.946331
QRNG_Data/Experiment_6/SmallLED/ROI80x4_Backgroundremoved/exp210gain20.000000Voltage1.720000/,210,88.4062,91.925,89.9995,64.9383,99.6543,84.3135,0.723773,1.11167,0.936871
QRNG_Data/Experiment_6/SmallLED/ROI80x4_Backgroundremoved/exp220gain20.000000Voltage1.720000/,220,88.3625,91.9094,90.0883,68.5998,105.771,85.094,0.7486,1.16951,0.944577
QRNG_Data/Experiment_6/SmallLED/ROI80x4_Backgroundremoved/exp230gain20.000000Voltage1.720000/,230,89.125,92.2781,90.8181,64.8361,99.6671,84.6027,0.712778,1.09909,0.931561
QRNG_Data/Experiment_6/SmallLED/ROI80x4_Backgroundremoved/exp240gain20.000000Voltage1.720000/,240,99.9781,103.041,101.409,77.7108,114.909,95.325,0.759939,1.14191,0.939991
QRNG_Data/Experiment_6/SmallLED/ROI80x4_Backgroundremoved/exp250gain20.000000Voltage1.720000/,250,99.9594,102.809,101.301,71.9551,116.451,94.665,0.708677,1.14287,0.934437
QRNG_Data/Experiment_6/SmallLED/ROI80x4_Backgroundremoved/exp260gain20.000000Voltage1.720000/,260,110.572,114.122,112,83.6216,131.832,104.224,0.740117,1.18,0.930606
QRNG_Data/Experiment_6/SmallLED/ROI80x4_Backgroundremoved/exp270gain20.000000Voltage1.720000/,270,109.622,113.144,111.479,79.1215,122.202,104.324,0.711085,1.09556,0.935801
QRNG_Data/Experiment_6/SmallLED/ROI80x4_Backgroundremoved/exp280gain20.000000Voltage1.720000/,280,109.247,113.737,111.277,81.4591,130.163,104.059,0.733763,1.16169,0.935191
QRNG_Data/Experiment_6/SmallLED/ROI80x4_Backgroundremoved/exp290gain20.000000Voltage1.720000/,290,120.275,124.419,122.14,90.7671,147.488,114.451,0.742414,1.19593,0.937045
QRNG_Data/Experiment_6/SmallLED/ROI80x4_Backgroundremoved/exp300gain20.000000Voltage1.720000/,300,120.078,123.819,121.961,93.3236,132.096,113.416,0.765183,1.08411,0.929945
QRNG_Data/Experiment_6/SmallLED/ROI80x4_Backgroundremoved/exp310gain20.000000Voltage1.720000/,310,131.594,135.062,133.214,99.7292,152.391,123.204,0.745761,1.14969,0.92489
QRNG_Data/Experiment_6/SmallLED/ROI80x4_Backgroundremoved/exp320gain20.000000Voltage1.720000/,320,131.016,134.959,133.233,98.0569,152.901,122.99,0.734921,1.14254,0.923112
QRNG_Data/Experiment_6/SmallLED/ROI80x4_Backgroundremoved/exp330gain20.000000Voltage1.720000/,330,131.081,134.656,133.207,95.239,161.605,122.323,0.716301,1.2226,0.918303
QRNG_Data/Experiment_6/SmallLED/ROI80x4_Backgroundremoved/exp340gain20.000000Voltage1.720000/,340,141.128,145.741,143.465,107.519,162.21,132.009,0.746074,1.13002,0.920209
QRNG_Data/Experiment_6/SmallLED/ROI80x4_Backgroundremoved/exp350gain20.000000Voltage1.720000/,350,141.106,145.709,143.73,103.602,162.397,131.717,0.717469,1.13576,0.916437
QRNG_Data/Experiment_6/SmallLED/ROI80x4_Backgroundremoved/exp360gain20.000000Voltage1.720000/,360,153.053,156.456,154.618,112.315,178.034,143.097,0.725081,1.14681,0.925491
QRNG_Data/Experiment_6/SmallLED/ROI80x4_Backgroundremoved/exp370gain20.000000Voltage1.720000/,370,151.784,155.991,153.982,113.965,180.308,142.411,0.740587,1.16068,0.924886
QRNG_Data/Experiment_6/SmallLED/ROI80x4_Backgroundremoved/exp380gain20.000000Voltage1.720000/,380,153.213,156.812,154.944,117.06,175.322,144.954,0.758195,1.13202,0.935548
QRNG_Data/Experiment_6/SmallLED/ROI80x4_Backgroundremoved/exp390gain20.000000Voltage1.720000/,390,162.344,167.406,164.86,121.18,197.491,152.785,0.72944,1.17971,0.926788
QRNG_Data/Experiment_6/SmallLED/ROI80x4_Backgroundremoved/exp400gain20.000000Voltage1.720000/,400,162.412,168.144,165.486,119.598,186.719,153.879,0.721921,1.12829,0.929897
QRNG_Data/Experiment_6/SmallLED/ROI80x4_Backgroundremoved/exp410gain20.000000Voltage1.720000/,410,162.45,166.137,164.694,121.369,187.729,152.521,0.738144,1.13466,0.926043
QRNG_Data/Experiment_6/SmallLED/ROI80x4_Backgroundremoved/exp420gain20.000000Voltage1.720000/,420,174.338,178.625,176.522,129.022,192.73,164.433,0.729942,1.09919,0.931528
QRNG_Data/Experiment_6/SmallLED/ROI80x4_Backgroundremoved/exp430gain20.000000Voltage1.720000/,430,174.412,178.238,176.349,128.207,199.274,162.212,0.727028,1.13292,0.919827
QRNG_Data/Experiment_6/SmallLED/ROI80x4_Backgroundremoved/exp440gain20.000000Voltage1.720000/,440,184.484,189.137,186.496,141.547,217.615,174.865,0.756948,1.16284,0.937681
QRNG_Data/Experiment_6/SmallLED/ROI80x4_Backgroundremoved/exp450gain20.000000Voltage1.720000/,450,185.037,189.534,187.239,141.667,216.087,173.255,0.748721,1.15229,0.925328
QRNG_Data/Experiment_6/SmallLED/ROI80x4_Backgroundremoved/exp460gain20.000000Voltage1.720000/,460,185.156,189.034,187.282,143.858,209.001,172.374,0.766351,1.11456,0.920378
QRNG_Data/Experiment_6/SmallLED/ROI80x4_Backgroundremoved/exp470gain20.000000Voltage1.720000/,470,195.522,200.459,198.071,149.957,220.301,184.889,0.757919,1.12221,0.93346
QRNG_Data/Experiment_6/SmallLED/ROI80x4_Backgroundremoved/exp480gain20.000000Voltage1.720000/,480,194.231,199.672,197.123,149.277,220.628,183.879,0.760185,1.11765,0.932816
QRNG_Data/Experiment_6/SmallLED/ROI80x4_Backgroundremoved/exp490gain20.000000Voltage1.720000/,490,205.666,209.887,207.648,156.157,232.596,193.738,0.755933,1.11395,0.933023
QRNG_Data/Experiment_6/SmallLED/ROI80x4_Backgroundremoved/exp500gain20.000000Voltage1.720000/,500,206.025,211.431,208.83,161.814,240.452,194.072,0.771025,1.15666,0.929376
QRNG_Data/Experiment_6/SmallLED/ROI80x4_Backgroundremoved/exp510gain20.000000Voltage1.720000/,510,206.963,211.556,208.997,153.795,237.573,194.882,0.738169,1.13478,0.93239
QRNG_Data/Experiment_6/SmallLED/ROI80x4_Backgroundremoved/exp520gain20.000000Voltage1.720000/,520,216.656,221.003,218.768,150.68,251.817,205.57,0.687713,1.15561,0.939673
QRNG_Data/Experiment_6/SmallLED/ROI80x4_Backgroundremoved/exp530gain20.000000Voltage1.720000/,530,216.491,221.947,219.514,168.176,246.328,204.468,0.764695,1.12439,0.931464
QRNG_Data/Experiment_6/SmallLED/ROI80x4_Backgroundremoved/exp540gain20.000000Voltage1.720000/,540,228.206,233.097,230.569,163.165,265.181,213.918,0.708951,1.14588,0.927786
QRNG_Data/Experiment_6/SmallLED/ROI80x4_Backgroundremoved/exp550gain20.000000Voltage1.720000/,550,227.488,232.328,230.015,175.451,269.761,213.746,0.765011,1.17179,0.929236
QRNG_Data/Experiment_6/SmallLED/ROI80x4_Backgroundremoved/exp560gain20.000000Voltage1.720000/,560,226.869,231.772,229.871,170.993,262.034,213.706,0.73872,1.13878,0.929729
QRNG_Data/Experiment_6/SmallLED/ROI80x4_Backgroundremoved/exp570gain20.000000Voltage1.720000/,570,238.219,242.525,240.764,185.345,269.667,222.381,0.766868,1.12204,0.92366
QRNG_Data/Experiment_6/SmallLED/ROI80x4_Backgroundremoved/exp580gain20.000000Voltage1.720000/,580,237.684,243.253,240.189,183.781,270.617,221.47,0.772269,1.12209,0.922038
QRNG_Data/Experiment_6/SmallLED/ROI80x4_Backgroundremoved/exp590gain20.000000Voltage1.720000/,590,238.091,243.363,240.811,182.906,271.381,223.214,0.75869,1.12717,0.9269
QRNG_Data/Experiment_6/SmallLED/ROI80x4_Backgroundremoved/exp600gain20.000000Voltage1.720000/,600,248.359,253.109,250.64,193.773,290.348,230.809,0.771535,1.16512,0.920881
QRNG_Data/Experiment_6/SmallLED/ROI80x4_Backgroundremoved/exp610gain20.000000Voltage1.720000/,610,248.162,253.875,251.073,187.627,283.985,235.291,0.745614,1.14379,0.937167
QRNG_Data/Experiment_6/SmallLED/ROI80x4_Backgroundremoved/exp620gain20.000000Voltage1.720000/,620,259.741,264.775,262.369,196.891,292.899,245.414,0.748254,1.12177,0.935392
QRNG_Data/Experiment_6/SmallLED/ROI80x4_Backgroundremoved/exp630gain20.000000Voltage1.720000/,630,259.828,264.759,262.448,201.294,293.656,244.003,0.765702,1.11874,0.92974
QRNG_Data/Experiment_6/SmallLED/ROI80x4_Backgroundremoved/exp640gain20.000000Voltage1.720000/,640,259.575,264.275,262.219,202.871,300.423,245.709,0.774022,1.14312,0.937015
QRNG_Data/Experiment_6/SmallLED/ROI80x4_Backgroundremoved/exp650gain20.000000Voltage1.720000/,650,269.562,275.359,272.57,186.814,316.231,254.935,0.686586,1.16682,0.935296
QRNG_Data/Experiment_6/SmallLED/ROI80x4_Backgroundremoved/exp660gain20.000000Voltage1.720000/,660,269.359,274.522,272.155,189.817,314.717,254.847,0.703255,1.15827,0.936381
QRNG_Data/Experiment_6/SmallLED/ROI80x4_Backgroundremoved/exp670gain20.000000Voltage1.720000/,670,281.009,286.731,283.518,208.44,343.688,263.281,0.736123,1.21552,0.928621
QRNG_Data/Experiment_6/SmallLED/ROI80x4_Backgroundremoved/exp680gain20.000000Voltage1.720000/,680,280.816,285.956,283.911,212.609,347.511,266.202,0.750101,1.22475,0.937631
QRNG_Data/Experiment_6/SmallLED/ROI80x4_Backgroundremoved/exp690gain20.000000Voltage1.720000/,690,280.266,285.478,282.935,212.504,329.884,263.774,0.751845,1.16733,0.932286
QRNG_Data/Experiment_6/SmallLED/ROI80x4_Backgroundremoved/exp700gain20.000000Voltage1.720000/,700,292.406,296.931,294.558,224.53,327.179,274.13,0.76013,1.11178,0.930669
QRNG_Data/Experiment_6/SmallLED/ROI80x4_Backgroundremoved/exp710gain20.000000Voltage1.720000/,710,290.7,296.153,293.586,222.022,333.94,272.467,0.755498,1.14117,0.928036
QRNG_Data/Experiment_6/SmallLED/ROI80x4_Backgroundremoved/exp720gain20.000000Voltage1.720000/,720,301.675,307.416,304.484,220.561,337.393,284.837,0.723514,1.11011,0.935477
QRNG_Data/Experiment_6/SmallLED/ROI80x4_Backgroundremoved/exp730gain20.000000Voltage1.720000/,730,302.175,307.766,305.107,216.773,339.969,281.124,0.708076,1.11649,0.921406
QRNG_Data/Experiment_6/SmallLED/ROI80x4_Backgroundremoved/exp740gain20.000000Voltage1.720000/,740,303.069,307.491,305.337,228.602,333.771,283.931,0.750431,1.09068,0.929917
QRNG_Data/Experiment_6/SmallLED/ROI80x4_Backgroundremoved/exp750gain20.000000Voltage1.720000/,750,312.781,318.597,315.708,244.199,363.636,296.16,0.771843,1.15043,0.93811
QRNG_Data/Experiment_6/SmallLED/ROI80x4_Backgroundremoved/exp760gain20.000000Voltage1.720000/,760,312.538,318.988,316.077,222.189,357.936,294.685,0.704082,1.13284,0.93232
QRNG_Data/Experiment_6/SmallLED/ROI80x4_Backgroundremoved/exp770gain20.000000Voltage1.720000/,770,323.413,329.241,326.602,231.137,375.464,304.77,0.706843,1.15417,0.933146
QRNG_Data/Experiment_6/SmallLED/ROI80x4_Backgroundremoved/exp780gain20.000000Voltage1.720000/,780,325.225,331.038,327.518,244.952,375.363,303.14,0.751193,1.14466,0.925575
QRNG_Data/Experiment_6/SmallLED/ROI80x4_Backgroundremoved/exp790gain20.000000Voltage1.720000/,790,324.012,330.041,326.91,212.666,358.184,303.435,0.650105,1.09483,0.928189
QRNG_Data/Experiment_6/SmallLED/ROI80x4_Backgroundremoved/exp800gain20.000000Voltage1.720000/,800,335.706,340.916,338.335,262.654,398.414,312.551,0.771794,1.18139,0.923791
QRNG_Data/Experiment_6/SmallLED/ROI80x4_Backgroundremoved/exp810gain20.000000Voltage1.720000/,810,335.322,341.034,338.223,253.953,404.829,317.731,0.753444,1.20079,0.939426
QRNG_Data/Experiment_6/SmallLED/ROI80x4_Backgroundremoved/exp820gain20.000000Voltage1.720000/,820,334.312,341.288,337.522,261.761,375.96,314.865,0.779935,1.11084,0.932875
QRNG_Data/Experiment_6/SmallLED/ROI80x4_Backgroundremoved/exp830gain20.000000Voltage1.720000/,830,346.119,352.134,349.006,250.815,391.838,323.664,0.718977,1.12058,0.927376
QRNG_Data/Experiment_6/SmallLED/ROI80x4_Backgroundremoved/exp840gain20.000000Voltage1.720000/,840,345.853,352.594,349.05,256.399,379.92,325.51,0.733146,1.09041,0.932575
QRNG_Data/Experiment_6/SmallLED/ROI80x4_Backgroundremoved/exp850gain20.000000Voltage1.720000/,850,357.016,363.353,359.964,263.879,402.896,334.075,0.733608,1.11649,0.928042
QRNG_Data/Experiment_6/SmallLED/ROI80x4_Backgroundremoved/exp860gain20.000000Voltage1.720000/,860,355.491,362.059,359.052,275.894,407.034,332.685,0.768193,1.13948,0.926588
QRNG_Data/Experiment_6/SmallLED/ROI80x4_Backgroundremoved/exp870gain20.000000Voltage1.720000/,870,357.522,362.709,359.938,279.834,420.18,333.93,0.779929,1.16528,0.927736
QRNG_Data/Experiment_6/SmallLED/ROI80x4_Backgroundremoved/exp880gain20.000000Voltage1.720000/,880,366.459,374.041,370.794,277.034,433.862,344.104,0.747988,1.17254,0.927996
QRNG_Data/Experiment_6/SmallLED/ROI80x4_Backgroundremoved/exp890gain20.000000Voltage1.720000/,890,366.191,372.981,369.884,274.268,435.239,346.823,0.742198,1.17654,0.937634
QRNG_Data/Experiment_6/SmallLED/ROI80x4_Backgroundremoved/exp900gain20.000000Voltage1.720000/,900,376.703,383.2,380.151,284.162,429.66,354.226,0.74862,1.13108,0.931786
QRNG_Data/Experiment_6/SmallLED/ROI80x4_Backgroundremoved/exp910gain20.000000Voltage1.720000/,910,376.969,383.384,380.397,278.433,427.07,355.057,0.73223,1.12312,0.933365
QRNG_Data/Experiment_6/SmallLED/ROI80x4_Backgroundremoved/exp920gain20.000000Voltage1.720000/,920,377.756,384.438,381.051,296.568,471.287,357.369,0.777609,1.23534,0.937861
QRNG_Data/Experiment_6/SmallLED/ROI80x4_Backgroundremoved/exp930gain20.000000Voltage1.720000/,930,387.747,394.797,391.454,292.577,449.287,361.738,0.743644,1.14977,0.924102
QRNG_Data/Experiment_6/SmallLED/ROI80x4_Backgroundremoved/exp940gain20.000000Voltage1.720000/,940,388.688,394.444,391.556,279.933,464.611,366.834,0.719494,1.18664,0.936861
QRNG_Data/Experiment_6/SmallLED/ROI80x4_Backgroundremoved/exp950gain20.000000Voltage1.720000/,950,399.247,405.691,401.989,280.912,464.876,371.742,0.698776,1.16313,0.924754
QRNG_Data/Experiment_6/SmallLED/ROI80x4_Backgroundremoved/exp960gain20.000000Voltage1.720000/,960,398.375,405.172,401.566,302.3,444.891,376.492,0.751056,1.10429,0.937559
QRNG_Data/Experiment_6/SmallLED/ROI80x4_Backgroundremoved/exp970gain20.000000Voltage1.720000/,970,399.65,405.131,402.341,301.042,462.449,372.339,0.748094,1.15155,0.92542
QRNG_Data/Experiment_6/SmallLED/ROI80x4_Backgroundremoved/exp980gain20.000000Voltage1.720000/,980,409.131,415.975,412.804,307.411,475.356,378.917,0.742096,1.15821,0.917931
QRNG_Data/Experiment_6/SmallLED/ROI80x4_Backgroundremoved/exp990gain20.000000Voltage1.720000/,990,409.925,416.387,412.483,327.361,466.847,383.849,0.791133,1.13485,0.930562
QRNG_Data/Experiment_6/SmallLED/ROI80x4_Backgroundremoved/exp1000gain20.000000Voltage1.720000/,1000,421.416,427.322,423.859,316.628,481.456,393.637,0.74738,1.14231,0.928699
