0.038082,-0.00223253,-0.0111603,0.029737,0.0134331,-0.0205646,0.00343124,-0.0995828,-0.00472413,0.0738815,0.0639928,0.0707543,0.0563756,-0.0181342,-0.0155701,0.0169702,0.0465668,-0.0496362,-0.0383605,0.0206029,0.0663004,0.0559559,0.00387616,-0.0213932,-0.004956,0.0643917,-0.0371158,-0.0177689,-0.0102613,0.00266466,0.0652183,-0.0368583,-0.00930148,-0.0142099,-0.0246546,-0.0451713,0.0389236,-0.0160379,0.0191547,-0.0186723,-0.0209832,-0.00692807,-0.0588225,0.0163286,0.00430597,-0.0865266,-0.0415634,-0.110382,0.0453344,-0.0699863,-0.0022517,0.056649,-0.045811,0.0438874,0.0487394,-0.0405029,-0.0545871,0.023112,-0.0106076,0.0515028
0.0382391,-0.000783352,0.04224,0.0416518,0.0671584,0.0365536,0.00471492,0.01592,-0.0345791,0.0712892,0.0157131,0.000606461,0.0487158,0.0460153,-0.108602,0.0603272,0.109493,-0.032573,0.0593864,0.103776,0.0864408,0.0151885,-0.0745767,-0.0691879,0.065794,-0.152794,-0.0633888,-0.0700573,-0.0267319,-0.077911,-0.00676524,0.0762201,0.0394391,0.0296315,0.00635935,0.0403994,0.0968661,0.0261399,-0.000123485,0.0106373,0.0901205,-0.00863928,0.0259893,0.0886163,-0.0676672,0.0605725,0.0253993,-0.00413505,-0.0248179,-0.0624607,-0.00114961,0.0463995,0.0132448,-0.0523414,-0.0831684,-0.0335588,0.0590711,0.0128277,0.0884164,0.0201438
0.0234732,0.0332478,0.0966378,0.0373212,-0.0577512,-0.0276975,0.0392615,-0.0599848,0.113559,0.0594133,-0.00433843,-0.0183889,0.00565385,-0.0847772,0.0419028,0.00680139,-0.0145936,-0.14648,0.0464022,-0.0178183,0.0600393,-0.00807391,0.0989045,0.0158956,-0.00657198,0.103307,0.0995079,0.0510808,0.0841904,-0.0752565,0.106296,0.0952856,-0.0479085,0.0200774,0.0410404,0.170205,-0.0253932,0.142547,0.0188108,0.0540811,0.109623,-0.0430317,0.0829178,-0.00825704,-0.0555577,0.116359,-0.0737071,0.0738581,-0.000166441,0.104831,0.0415725,0.0158631,-0.0882994,0.0803469,-0.0751655,0.00231881,-0.0290845,0.00334238,0.0283429,-0.0312575
0.0238803,0.0706182,-0.0161412,-0.0700245,0.0203715,0.0462485,-0.00752364,-0.0107466,0.0620494,0.118031,0.102433,0.0600639,0.0568005,0.00544754,-0.119653,-0.0166017,0.0527794,-0.105056,0.0355288,-0.0373848,-0.0423984,-0.015604,-0.0306917,-0.0583206,0.080032,-0.0524985,-0.15843,0.0198738,-0.060702,0.065432,-0.020394,0.0152064,-0.101122,0.0187985,-0.0477693,0.0226694,-0.0417117,0.0117158,-0.0584694,0.0966005,0.00918465,0.0497683,0.0814729,0.211137,-0.0193457,-0.00434062,0.0296463,-0.0632734,0.110177,-0.0916671,0.0337613,0.0302963,0.0676994,-0.0718185,-0.0172154,-0.0461196,0.00073186,0.0171175,-0.00667782,-0.0804989
0.0640391,0.03642,0.0286303,-0.146051,0.141776,0.0542204,0.0435047,-0.00229213,0.123889,0.0424801,-0.0407527,0.0127099,0.00797833,0.0935981,0.0170315,0.10282,-0.0565043,0.0147073,-0.0118586,-0.034987,-0.0151295,-0.0520948,-0.0466883,0.0174013,0.0512232,-0.00405861,0.0669583,0.00461543,0.011816,-0.0514811,0.0807487,-0.0479691,0.0608933,0.0160833,0.0214462,-0.0870022,0.121415,-0.0227673,0.0636869,0.0237965,0.027545,-0.0937366,-0.0511232,-0.0936592,0.0819459,0.0138878,-0.0386784,0.00327804,-0.163556,0.130923,-0.0553012,0.0258327,-0.0508988,-0.0724245,0.0170921,0.0311308,-0.024828,-0.0512264,0.0308928,-0.0984538
0.0753108,0.0535977,-0.0644122,0.11543,0.0620522,-0.0690347,0.0396588,0.0699881,0.0276873,0.0906762,0.00444746,-0.00377019,-0.00860587,-0.0314081,0.037019,-0.0646098,-0.0104173,-0.0441116,-0.0547864,-0.0531107,-0.0735646,-0.0401528,0.0449691,-0.0170081,0.0618762,0.00161778,0.020146,0.0368128,-0.0356298,-0.071273,0.0555351,-0.0138004,-0.0274466,0.0145555,-0.0124983,-0.110355,-0.0208893,0.0332504,0.0528266,0.0649364,0.0244249,0.0264169,-0.0124202,0.00235981,0.0201677,-0.00469179,0.114874,-0.0103013,-0.0803611,-0.0885798,-0.0496868,0.0461807,-0.00221436,-0.0800088,0.0188107,0.0781872,0.0466204,0.00145525,-0.0632491,-0.0101209
-0.0358962,-0.0673648,-0.017838,-0.0210009,-0.113576,-0.0605289,0.0170462,0.00311244,-0.0879503,0.108001,0.044218,0.0462366,0.0314764,-0.012229,-0.0308918,-0.0342956,0.0123229,-0.00515155,0.0070379,-0.091949,0.131996,0.0119163,-0.00922026,-0.0187342,-0.0110676,-0.0102466,0.0380206,-0.13446,-0.0238253,-0.0757641,-0.0476146,0.0608848,-0.0243443,-0.0809204,-0.0311977,0.0319259,-0.0703127,0.0333659,-0.0538149,0.0286318,0.0667976,-0.0599324,0.0224168,0.0713058,0.0836681,-0.023814,-0.0371997,0.160965,0.015457,-0.0119198,0.0364486,0.00883192,-0.0508431,0.0307146,-0.0341606,0.0186547,0.0706406,0.0747202,-0.0357935,-0.0419414
0.133631,0.0322395,-0.0138569,0.111125,-0.0316576,0.075596,-0.112273,-0.00783513,-0.0125014,-0.0747655,-0.0126865,0.00686077,-0.000199598,-0.0665157,0.0363406,0.0338778,0.0639448,0.100149,-0.0598089,-0.0243184,-0.00780804,-0.0665732,0.0144445,-0.0403918,0.0909589,-0.0622625,0.0641432,-0.0725625,-0.0146145,-0.00255453,0.040449,0.0429946,0.018447,-0.0814728,-0.0694832,0.0364313,0.00390485,0.041995,-0.0612979,0.0669748,-0.00475272,-0.0474051,-0.123569,0.0423505,-0.117553,-0.00438342,-0.0552465,-0.0880547,0.0112336,-0.0710915,0.115182,-0.0199382,0.0554669,0.0368782,0.0703129,-0.0309808,0.00223698,-0.0149189,0.10478,0.0959386
0.0845959,0.0812219,-0.00301146,0.0738743,0.0913554,-0.0850004,-0.0105345,-0.0621979,0.107509,0.03221,0.0420548,0.0464013,-0.0849034,0.0444575,0.070676,-0.00731302,0.0109693,-0.136723,0.142421,0.0109695,-0.0579796,-0.0829855,-0.0531224,-0.157157,-0.0459117,-0.0788436,-0.0285143,0.025915,0.0306186,0.0387467,-0.0694257,-0.0134611,-0.0168114,0.0538284,0.0150298,-0.036066,0.000231308,0.0796199,-0.00869147,-0.0490952,-0.0611768,0.0659722,0.12216,-0.0459939,-0.0117761,0.0196309,-0.10044,-0.00801025,-0.0311691,0.0745617,-0.0592032,0.0373779,-0.155583,0.0557315,-0.0281257,-0.0295665,-0.0617139,0.0585278,0.0433358,-0.065166
-0.0488263,0.0657991,0.0932684,0.138665,0.0341677,-0.0160151,-0.0570713,0.0332382,0.0506305,-0.0484687,0.0399696,-0.0608185,0.114984,0.00286489,0.0222505,-0.0369481,0.0551217,-0.0813471,0.0055345,-0.0517487,0.0406031,0.0355637,0.0701,0.0209954,0.090907,0.00212603,-0.0370443,-0.0335719,-0.0739173,0.0168074,0.0537211,-0.0874523,-0.132838,-0.0530104,0.0511476,0.0782534,0.0543547,-0.0230235,0.0715832,-0.0204334,0.0260911,0.112252,-0.0146568,0.00324877,-0.121378,0.0322135,0.0752039,0.0779361,0.0112591,0.0146559,-0.0233951,-0.0655639,-0.0482743,0.0287752,0.0239838,-0.0170551,0.0493638,-0.0483766,0.0734653,0.0503806
0.0825957,0.0667096,-0.0190206,0.117029,0.0458874,0.0306479,-0.015278,0.0256866,0.00738957,0.0737963,-0.00225812,0.0678598,-0.00703781,0.0315644,0.0449706,-0.0414368,0.0838539,-0.0355919,0.0261358,-0.145026,-0.0411527,-0.071094,-0.0441626,0.0841256,0.00804768,-0.00510114,0.00952319,0.0244572,0.00852747,-0.127609,-0.048058,0.00748788,-0.0389601,-0.0153037,0.00321413,0.063095,0.0440769,-0.0570443,0.0738082,0.059452,-0.0524093,0.0151475,-0.114557,-0.0516374,0.066386,-0.028772,0.04447,0.0229867,0.0541896,-0.00469751,-0.0525034,0.00724466,0.0480934,-0.023082,0.0326247,-0.0325266,-0.0222017,-0.0478023,-0.00304509,-0.0292524
0.0762368,-0.00812636,-1.89861e-05,0.0052891,-0.00261807,-0.0767153,0.0152091,0.0615453,-0.0629876,0.0120657,-0.0427524,-0.0887129,-0.0847418,-0.128317,-0.0822544,-0.0375122,0.0218972,-0.0465806,0.0714129,0.0579691,-0.0442726,-0.0313565,0.0724235,0.0732762,0.0213423,-0.0287836,0.167309,-0.00823182,0.0680465,-0.146011,0.00277363,0.00896894,-0.108133,0.0669754,-0.133464,0.00765104,-0.103695,0.0832611,-0.0501157,-0.00859619,-0.0353427,-0.025187,0.0128129,-0.00114736,-0.0587321,-0.0579994,-0.0415909,-0.033862,-0.0157375,0.0459147,0.00781933,-0.0139468,0.0879251,0.0595718,0.0136318,0.0638281,0.0271253,0.0436563,-0.0185434,0.00230704
-0.0604898,-0.116723,-0.0147893,0.0267087,-0.0498294,-0.0294166,0.0274015,-0.0772861,-0.0604914,0.0780715,-0.0189631,-0.0767725,-0.069602,-0.0890306,0.0494748,-0.131993,0.0485667,-0.0561567,-0.04502,0.0121109,0.0926976,-0.0918302,0.0410209,0.0603422,-0.0407712,-0.0645645,-0.0397883,-0.0278919,0.127923,-0.0849601,-0.0113547,0.0602805,-0.00557519,-0.00489663,-0.0002003,-0.0362257,-0.0842249,0.0168913,0.0323357,-0.00226447,0.0511702,0.030518,0.00335555,-0.0266715,0.0816113,0.0259761,0.102014,0.0964875,-0.169677,0.0810324,-0.0377497,0.0102865,-0.00984814,-0.0547592,0.0643907,-0.0327877,-0.0117173,0.00895599,0.0348655,0.0435021
0.0409619,0.0052074,0.0179974,-0.0115995,0.0167766,0.0849373,0.0416375,0.00604577,0.0500389,-0.126445,0.0819819,-0.00803699,-0.0129188,-0.0702974,0.0254756,-0.0290162,0.099314,-0.0200608,-0.00371031,-0.0409587,-0.0617754,0.0937422,-0.106514,0.00374155,0.0133374,-0.0303968,0.0699136,-0.102091,-0.0544095,0.0178491,0.095822,0.00992948,0.0983702,-0.0770229,0.0926484,-0.0172311,0.0676339,-0.0504522,-0.0634692,-0.1266,-0.0909133,-0.0894533,0.0835594,0.103138,-0.00652194,0.0538693,-0.0463789,0.0379224,0.0748044,-0.0527268,-0.127911,-0.0325213,0.0198884,-0.099415,-0.125678,0.0607868,0.0193234,0.0419428,0.0379398,0.0107861
0.121865,-0.125315,-0.0468869,-0.0290712,-0.0595938,0.105444,0.0114105,0.0570659,0.111651,0.104612,0.00839488,0.0389839,0.0354025,0.042467,0.106201,0.0169261,-0.0475517,0.0578865,-0.106135,0.0834723,0.0642545,0.0350573,0.105721,-0.00588473,-0.0724521,-0.041072,0.0250886,0.0404499,0.0487972,0.0332544,-0.0286035,0.0400843,-0.00466211,0.0583102,0.0163384,-0.00945939,0.174283,-0.00805773,0.00535941,0.0583412,-0.025789,0.0133547,-0.0484282,0.0148216,0.0385049,-0.047348,0.164993,0.0832315,0.046455,-0.0887569,0.00384131,-0.179974,0.10457,0.0488701,-0.0501162,0.100364,0.112039,-0.0459161,0.00823862,0.0779831
0.10951,-0.0409283,-0.00227104,-0.00676828,0.0406061,0.00634918,0.0994863,0.0707162,-0.0704737,0.0525649,-0.00563547,-0.0422155,-0.0825524,-0.0436893,0.00916659,-0.00507076,-0.0590662,-0.00408288,0.0668668,0.0120431,-0.0962764,0.0517266,0.0813241,-0.0191765,0.041559,0.0452534,0.0788872,0.0201614,0.0127828,-0.0652886,-0.0161163,0.00245259,0.000931006,0.0438948,0.0557174,-0.027322,0.00794457,0.0758325,0.0744793,0.100321,0.0359598,-0.0485136,0.00600011,-0.0801859,-0.0119577,0.00727943,-0.131802,-0.0106929,0.105462,-0.0153302,-0.049351,-0.0856435,-0.0307221,-0.028321,0.00831614,-0.130385,0.0260209,-0.00197208,-0.0330136,-0.00728046
-0.0725497,-0.0160311,0.0128993,-0.0764264,0.0234984,0.0558582,-0.0440582,-0.00286488,0.0851651,-0.0945602,-0.0482337,-0.111484,0.000792513,0.0187245,0.0153119,-0.0308381,0.0222231,0.0717167,0.0488035,-0.0925749,0.0269868,0.0319641,0.0146881,-0.0312617,-0.058804,-0.0876034,0.00822703,-0.00104516,0.122455,0.0432005,-0.0785513,-0.19824,-0.0920504,0.0231702,-0.0594095,0.0295517,0.0351834,-0.0494887,-0.0749069,0.0154102,-0.00433366,-0.0581635,0.000440124,-0.033661,0.00189121,-0.0334722,0.0797778,0.00956514,0.109162,-0.0276753,-0.0267679,-0.082525,0.0952423,-0.00727972,-0.0351477,-0.0121308,-0.0289961,0.019655,0.000153788,0.0176476
-0.00621907,-0.0260384,0.0646432,0.0010758,0.0194208,-0.0727377,-0.0103754,-0.0206177,0.0525882,-0.035756,-0.0213391,0.00078971,0.0684899,0.0531625,0.0296846,-0.0122517,0.0856022,0.0491123,0.0379878,0.0930335,0.102137,0.0152528,0.0382864,-0.0934418,0.0832185,0.00225179,-0.00741965,0.0557576,0.0273149,0.0476909,-0.0133681,0.00617201,-0.0175087,-0.0449758,-0.0604805,-0.0366296,-0.104667,-0.0253286,-0.0678817,-0.00823284,-0.0881587,-0.0924755,-0.182999,-0.00973582,0.0444839,0.0951952,-0.00548682,0.0268313,0.0120529,-0.0529774,-0.0295627,-0.0436115,0.101472,0.0836079,0.144649,-0.0970493,0.0441369,-0.042405,0.00594481,-0.007835
0.0520657,0.00788206,0.0116848,-0.0367692,-0.0383682,0.01083,-0.00711692,-0.0695568,-0.131393,0.0617568,-0.0369563,-0.0164924,-0.0422208,-0.02333,-0.0204415,0.00640595,0.000618304,-0.0513484,0.000514372,-0.0207381,0.00265249,0.105373,0.00433117,0.120842,0.045875,0.00320244,0.0230078,0.0258338,0.0294893,-0.0969683,0.0026437,0.012638,0.00780843,-0.024618,0.0447314,0.0484144,-0.0726553,0.0308555,0.0655358,0.0481309,0.0285592,-0.0569804,-0.0672412,-0.0939192,0.0184711,0.0119951,-0.0566841,-0.00546932,0.0394951,0.0084528,-0.0654401,-0.0844284,0.0193964,-0.00615405,0.0164451,-0.0228038,0.0354584,-0.0520714,-0.0071777,0.0759887
-0.0807603,0.0508664,0.0246591,0.00373744,0.0201088,0.149157,-0.0442715,-0.0703988,0.0187944,-0.0172104,0.0370036,0.0554702,-0.0140228,0.00983254,0.0454329,0.0224815,-0.135437,-0.00246251,0.0318164,0.0216845,0.110084,-0.00713765,0.0340729,-0.00636343,0.0163194,-0.0533452,0.0258024,0.127174,-0.0241314,-0.0279677,-0.0318651,-0.00142666,-0.0895278,-0.0386977,0.0923325,-0.00513957,0.0423502,0.104121,-0.0404998,-0.00936275,0.0290773,-0.00234124,0.0547384,0.0296567,-0.0211529,-0.00414032,-0.0333843,0.0590508,0.0120918,-0.0620685,0.00403468,-0.0201257,-0.00522536,0.0228923,0.03793,0.0148755,-0.0618974,-0.110898,0.104041,0.0169736
0.0496069,-0.0385353,0.0439007,0.0983847,0.0196234,-0.0644053,0.0781544,0.00917217,-0.0798706,0.0521982,0.0208508,-0.0813115,0.0918282,0.0335515,0.000487196,0.0141321,0.0271465,-0.164885,0.0911404,-0.0608116,0.0460648,-0.0373647,0.063269,0.00982182,-0.0489211,-0.0950995,0.00990187,0.0072867,-0.120351,-0.00396667,0.0100979,0.136523,-0.0074935,0.0345078,0.127964,0.0345841,-0.00866591,0.0694617,0.0616797,0.0140069,0.0304488,-0.0339975,0.0108462,-0.0228087,-0.0207537,-0.0535,0.0370109,0.0518773,0.0178414,0.125053,-0.0405266,-0.0125504,-0.0716779,-0.0446538,-0.0258511,0.0825739,-0.0483688,-0.0581947,-0.0717386,-0.00276898
-0.0482826,0.0954714,-0.0022235,-0.0447011,0.104931,-0.0192313,-0.0399734,-0.0957339,0.12373,-0.0995717,-0.0269113,0.0307233,0.0340706,-0.0105804,0.0561553,0.00140853,-0.0193859,-0.0589486,0.00549288,0.00833392,0.055668,-0.0367343,0.0785487,0.00669755,0.0300641,0.019506,0.00756139,-0.0624059,0.0220219,-0.0581331,0.0568426,0.0520699,0.00829185,-0.059707,-0.0364725,0.00270773,0.0635405,0.00758257,-0.00970787,-0.00935685,0.0246663,-0.00700407,-0.122741,-0.00727142,0.0238373,0.0447228,0.0243623,0.0351415,0.0936162,-0.00360164,0.0481446,0.0361823,-0.0487496,0.0504833,0.0582672,0.030075,0.0179598,0.0459117,0.0144713,-0.00545433
0.0823761,0.0903404,0.0043416,0.09617,0.00562744,-0.040993,0.0045828,-0.0178035,-0.00714936,-0.0604159,0.0571068,0.0197782,0.0620425,-0.0641167,0.11524,-0.0129013,0.0390999,-0.0787996,0.0199012,-0.0790744,-0.0346752,0.0188674,0.0713335,0.0464954,-0.048443,-0.0508628,-0.0635725,0.0161636,0.0218605,0.0920027,0.0115111,0.034255,0.0155347,-0.0854955,-0.0198529,-0.0333708,-0.0276747,-0.101846,-0.00094118,-0.0188783,0.0814873,-0.020372,0.0383871,-0.0628416,-0.0676031,0.0348002,0.0769493,-0.0657062,0.0215445,-0.00417037,-0.0428358,-0.0696292,-0.0612921,0.00823375,0.040934,0.0738246,0.0288902,-0.116122,-0.0276112,0.00574508
-0.0520241,0.0772204,-0.00828154,0.0265039,-0.0717835,-0.0856068,-0.0216951,-0.0611864,0.107859,-0.0415401,0.0572055,0.078884,0.0189672,0.0412249,-0.0500125,0.00391537,0.0238558,-0.00751952,-0.0664705,0.0172762,0.0755662,0.0138619,0.0680747,-0.0312013,0.0378334,-0.0756545,0.0435821,-0.0337791,-0.065618,0.0661914,0.032707,0.00246607,-0.100208,0.0148665,-0.0892606,-0.0413276,-0.0282568,0.012133,0.095227,-0.0963316,0.0342958,-0.0208333,-0.0490617,0.0217847,-0.0726476,-0.0301149,-0.0324137,-0.0826867,-0.0426159,-0.042582,0.103623,0.0111921,-0.00930068,-0.09085,-0.0451977,0.0326398,0.0456814,0.00263495,-0.0198258,-0.0102614
-0.038902,-0.029704,-0.0295048,0.0369481,0.022965,0.00985895,0.0435563,-0.0099231,-0.0413034,-0.0154127,-0.00802981,-0.00658545,0.0496203,0.00127932,-0.0488307,0.0815315,0.0435316,0.137382,-0.014966,-0.00279577,-0.000682435,-0.0733124,-0.0562817,-0.0541825,-0.024077,-0.125012,0.0204463,0.0468116,-0.0180706,-0.0184783,-0.0340426,-0.0400171,0.0938662,0.0392596,0.0515944,0.0624586,0.0294031,-0.0216552,0.0266304,-0.0665508,0.0598832,-0.0455078,0.0604918,0.0301253,0.0982433,0.0297786,0.0107156,-0.00134179,0.037801,-0.0608995,0.0613466,-0.0498648,0.0677424,0.0123393,0.018419,0.0769101,-0.0918423,-0.00622803,-0.0809705,0.0708311
-0.0633065,-0.0186772,-0.0157134,-0.0794427,-0.0501917,0.0143882,-0.0635722,0.0173987,0.054168,-0.0144221,-0.0118022,0.0514317,0.0307671,0.048837,-0.087936,-0.0630404,-0.0760901,0.0391412,0.0334247,-0.0157546,-0.018041,-0.0142454,-0.00630885,0.00199812,-0.0209488,0.0420897,0.096724,-0.0752799,0.00350082,-0.0292869,0.04242,0.00172968,0.0246545,0.0674922,-0.0181962,0.0234477,0.0378093,-0.0588504,0.0318328,0.0606582,0.0544777,0.00101739,0.0403502,0.0357641,-0.0375989,-0.0267817,0.0544085,-0.0766812,0.0272443,0.0101065,0.0842062,0.0235876,0.00592753,0.0619273,-0.0438861,-0.00289677,0.0132987,0.0490436,0.00711884,0.026048
-0.000996854,-0.0785234,-0.0920693,-0.0908528,0.0276021,-0.00652551,0.000283483,-0.0101504,0.0609433,-0.0186109,-0.0680305,0.0280673,0.0322037,0.105733,-0.0648442,-0.0126279,0.0271581,-0.0523058,-0.0230342,-0.0102199,0.0442901,0.00818001,-0.0285367,0.0842624,-0.0985393,0.0942864,0.0564841,0.0242877,-0.0005208,0.0893448,-0.025795,0.0889911,0.0830405,0.155081,0.0170366,0.0935191,0.0361421,0.0762516,-0.0210406,0.0563481,0.0397054,0.113875,0.0846388,0.0754794,-0.0656248,0.0166558,-0.052278,0.0234325,0.111462,0.0636421,-0.126398,-0.120564,0.0367428,-0.039529,0.0650705,0.00629431,-0.0440076,-0.00152282,-0.0605362,0.0520021
0.0254905,-0.0577783,0.0445444,0.0683525,0.0484546,-0.00217052,-0.107742,-0.0816988,-0.0462903,-0.0507607,-0.115181,0.075953,0.0238875,0.00220858,-0.0531839,0.037317,-0.148123,-0.0176266,-0.0593593,0.0548115,-0.0879959,-0.0494456,0.000621046,0.0358493,-0.0106361,0.110856,0.081591,-0.0348021,-0.0335358,-0.0717361,-0.0240042,-0.123007,0.0541673,-0.0236037,-0.0245371,0.00796246,-0.0223827,-0.0821157,-0.0949562,0.0623186,-0.0967661,0.0161155,0.040496,0.00514917,0.0569723,0.0782391,0.072172,8.93153e-05,0.0926379,0.133489,-0.0426942,0.0615379,-0.0707437,0.0393837,-0.0730665,-0.0275881,0.00511153,-0.0197827,-0.0278988,0.0391716
0.0305712,-0.0348241,0.0247737,0.0285699,-0.0602683,-0.00510915,0.00988679,0.0631225,-0.0385974,0.0949679,-0.112875,-0.0516088,0.09132,-0.0799097,-0.114644,0.0653115,0.0362012,-0.0523074,-0.0304475,0.0645452,0.00543248,0.078915,0.0291085,0.0225391,-0.0449491,-0.0482816,0.0105168,0.00418362,0.018109,0.0313696,0.0551061,-0.0441405,0.036025,0.0369442,0.0324361,0.0302041,-0.0652527,0.0842435,-0.0445241,-0.000524573,0.0153548,-0.0776174,-0.0668721,8.35051e-05,0.016849,0.0535752,-0.038316,-0.016318,0.0693369,0.0651963,-0.108683,0.00668738,-0.00478171,-0.0689305,-0.031561,0.0398221,0.0154235,0.0418356,0.0722638,0.0201318
0.0356646,-0.00567327,0.148503,-0.0198264,0.0473856,-0.0941409,-0.0612184,-0.0186647,-0.0419443,-0.00537718,-0.0112734,0.0583032,0.0510181,-0.097342,-0.00896025,0.0241388,0.0353297,-0.00921168,-0.00441139,-0.011769,0.0057611,0.0183596,-0.0112075,-0.0411769,-0.0403893,-0.0165946,-0.00419364,-0.0930446,-0.0644961,0.0219489,0.0161097,0.0322821,0.0587061,-0.0196288,-0.0623383,0.0394779,0.0188803,0.0413995,-0.0181298,-0.00167792,0.0154285,0.0806762,-0.00919545,-0.0509664,-0.0363745,-0.0680987,-0.0568111,0.0934052,-0.0340724,-0.0118902,0.0269791,-0.128409,-0.0518535,-0.0299922,-0.0259403,-0.011633,0.0593214,0.0911227,0.0831942,-0.0988262
0.0186688,-0.0805535,0.00922043,-0.0408424,0.0607517,0.188314,0.0400171,0.0343614,0.0406395,-0.0567383,-0.103558,-0.000434672,-0.0831869,0.0693429,0.0405718,0.112972,-0.0313083,0.0412977,0.00507322,0.0812713,-0.00244718,-0.0915587,-0.000885061,-0.0118389,-0.0592743,0.0222451,0.0731153,-0.0193843,-0.05079,-0.0798729,1,0.000830234,-0.0301894,0.0882899,-0.01452,0.0595843,0.0698756,-0.145099,-0.147503,-0.0906017,0.0100954,0.022748,0.0234511,0.00353105,-0.0888289,-0.000967031,-0.0409361,-0.0226618,0.0613388,-0.0215587,-0.0151972,-0.0440492,-0.0361615,0.0102165,0.091833,0.0879305,-0.0168164,0.0367081,0.10535,0.0103245
-0.00890755,0.0834517,-0.0098248,0.0887553,-0.00799311,0.0979308,0.0134429,-0.0539358,-0.0728495,-0.0229054,-0.0189559,-0.058853,0.0598077,-0.077452,0.0133454,0.0202154,0.0723065,-0.0255878,-0.118982,0.0806324,-0.0672386,-0.0258213,0.00744882,0.00409133,0.0472885,-0.0746684,-0.132194,0.0862033,0.0525122,0.0709006,-0.120584,0.0834989,0.0864425,-0.0486932,-0.0644283,-0.065168,-0.0588395,0.0193408,0.088434,0.0831315,-0.0587587,-0.09442,0.0508458,0.086861,0.00503305,0.0477204,0.00693571,-0.0392686,0.0817396,0.0369099,-0.0130196,0.114156,-0.0780322,0.0354707,-0.00107026,0.0225844,-0.0204573,-0.0649168,0.058946,-0.0710623
0.0186845,-0.0640776,0.0636236,0.0574577,0.0771726,0.124812,0.00765519,-0.0110699,-0.011397,0.118523,0.00350473,0.179057,0.0097084,-0.0260294,0.0248839,0.0131237,-0.0332043,0.0523496,-0.125069,-0.074427,-0.126407,0.0880541,-0.005328,-0.0345917,-0.00716972,-0.0278282,-0.00328199,0.145777,-0.0698634,-0.035945,0.0113275,0.0199795,-0.124415,0.0136534,0.106939,-0.0462506,-0.0172684,0.0568847,0.003993,-0.0251384,0.0611471,-0.0305436,0.0451437,-0.049258,0.0540208,0.0284276,-0.00431533,0.0670987,0.0874229,-0.061237,-0.0552837,0.0286757,-0.0060456,-0.0749263,0.0614827,0.0646855,0.00031007,-0.0864283,0.0352874,-0.0730763
-0.0212838,-0.0859472,-0.0186695,-0.00416119,-0.0548482,-0.0467394,-0.116203,0.00233078,0.0217931,0.0410669,-0.0132564,0.0103721,0.0835221,0.111743,0.0528356,-0.0693694,-0.0334073,0.0293422,0.108386,0.0686794,0.00625287,-0.0208485,0.0803198,-0.0471465,-0.0779415,-0.101775,0.0184827,-0.0528127,0.013632,-0.0446766,-0.0110599,0.0153995,0.0487924,-0.0100183,0.0984484,-0.0533349,0.0557302,-0.033998,-0.0660169,0.0506806,-0.0224034,0.0350831,-0.00761376,-0.0612872,-0.0793275,0.05933,-0.062781,-0.0138929,0.106622,0.0141785,0.0203205,-0.0378854,-0.0215111,0.121366,0.00702515,-0.000933114,0.0233197,-0.102809,-0.040733,-0.0528944
0.0170364,0.0985771,-0.0388406,0.0148593,0.0520062,-0.164086,0.0284129,-0.0291987,0.0457464,0.0877837,0.0454751,0.0583098,-0.0136549,-0.0351526,-0.0329,0.0681248,0.00872533,0.015057,-0.055522,0.0543821,-0.0716699,0.0770499,-0.0394694,-0.0575995,0.0576672,0.0365007,0.0756022,-0.00182051,0.0485324,-0.00297411,-0.00895804,-0.0898086,0.0342288,0.123548,-0.000682485,-0.05761,-0.055217,-0.0212604,-0.0747741,0.0897694,-0.108558,0.0297443,0.0261223,0.0673191,-0.054899,-0.0186845,-0.0464911,0.0728324,0.0832841,0.0212623,0.151816,0.101373,-0.0141068,0.0640477,0.00243924,-0.0367048,0.0702732,0.00172153,-0.0633225,0.0681062
0.0106389,0.050067,-0.0486779,0.0754085,0.0736783,-0.0492259,0.0819306,0.0665192,0.0130236,0.0919606,-0.00116293,0.00363318,-0.0304611,-0.018074,0.0227383,-0.0219338,-0.0559886,-0.0308484,0.00955492,0.0304739,0.0168172,-0.0396976,0.0574944,0.0446483,0.0771859,0.0711765,0.113071,-0.00879876,-0.0630559,-0.157396,0.00445421,0.0456269,-0.0276229,-0.0442257,0.0265665,0.0347591,0.0247727,-0.0103446,-0.0397554,-0.0636985,0.0570358,-0.0043702,0.00391815,0.0213668,0.0569466,0.0326683,0.0194732,-0.0508375,0.0308376,0.004258,0.0349289,0.0586985,0.035248,0.0861548,0.0453132,-0.00836917,-0.00336274,-0.0511253,0.112354,0.0372915
0.073384,-0.0769798,-0.0187058,-0.0352709,0.0590395,-0.0959839,0.0649405,-0.0595551,0.108872,-0.00740157,0.110557,-0.0433841,0.0867371,-0.0100813,0.00401166,-0.0472399,0.036733,0.00554076,0.0499584,-0.0313584,-0.00781944,0.0104174,-0.0691615,0.0441088,-0.0187379,-0.0414478,0.034509,-0.0391597,0.023737,0.115789,-0.106785,-0.0319033,0.00880455,-0.0549375,-0.042093,0.0230413,0.00537626,0.0482777,-0.0308278,-0.0689547,-0.0417364,0.0282008,0.0991208,-0.126162,0.00962876,-0.011721,0.0441658,0.0651391,-0.0183351,0.0667067,-0.132915,0.0502367,-0.109187,0.155858,-0.0880962,-0.0752316,-0.0318559,0.0927528,0.0517553,-0.0310983
-0.0239231,-0.00097914,0.0553648,-0.0425086,-0.0915449,0.0342618,-0.110639,-0.0423039,0.0632357,0.0738227,0.0466618,0.022865,-0.0810904,-0.0110315,0.123003,0.114864,0.0124219,0.0683837,0.0394321,0.00492781,-0.00961769,-0.0911858,-0.038754,0.0319181,-0.0197389,0.0697769,-0.0143539,-0.025108,0.0831685,-0.00344352,-0.0166677,-0.0521646,-0.0266276,0.0605515,0.114582,-0.0534851,0.00469952,-0.0539028,0.0576834,0.0154342,-0.021183,-0.00508884,-0.0651412,-0.0425287,0.0362926,-0.0925929,-0.0328576,-0.0449652,0.0348703,-0.0383727,-0.140582,0.0324418,0.120661,0.0374803,-0.020791,-0.0339032,-0.0177503,-0.0316397,0.011452,0.0464913
-0.0367511,-0.0506936,-0.00720321,0.0324325,-0.0338128,0.0324071,0.075683,-0.0187312,0.078288,0.000314538,-0.10299,0.130447,-0.00726596,0.0410078,-0.0749901,0.0387629,-0.00473593,-0.123363,0.0867724,0.0511331,-0.0464325,0.0386751,-0.0880736,0.0148365,0.0321565,0.030606,-0.0525311,-0.0378417,-0.0251394,-0.0366127,-0.0250304,0.0262718,0.00131567,0.0815145,-0.133362,-0.0109112,0.095046,-0.0208001,0.0142282,0.011031,0.0366002,-0.00925106,0.0234553,0.0146486,0.0866234,-0.0928503,0.051186,-0.0688149,-0.0295266,0.0631776,-0.159407,0.0540514,0.0210408,0.00749474,0.0594147,-0.0275515,-0.110452,0.0292578,0.00681087,-0.0313036
-0.074673,-0.012799,-0.0254729,-0.0565163,0.0125866,0.021372,-0.0728705,-0.030521,0.0611151,0.0886079,0.117707,-0.090137,-0.00782114,-0.0566355,0.0265137,0.0299218,-0.113104,0.035803,-0.0118097,-0.0432145,-0.0266814,0.0144293,0.0277048,0.121695,0.00352636,0.0179731,-0.054569,0.0361542,0.05851,0.0239968,0.039245,0.0568993,0.0194274,0.0734641,-0.0496849,-0.0245646,-0.0658882,-0.0309733,0.0289542,-0.0199723,0.0381756,0.0633542,-0.0634788,-0.0190215,0.0672402,-0.0357033,0.095362,0.0359665,0.0292152,-0.0314753,-0.0834316,-0.0964823,0.0631191,0.0663979,0.0015066,-0.0284609,0.0888362,-0.0374129,-0.0180197,0.00882272
-0.0995521,0.0299506,0.0163792,-0.02328,0.0465854,0.0935863,0.0184104,-0.044454,0.0542744,0.047205,0.0197889,-0.00267219,-0.0517193,0.0189565,-0.0338169,-0.0671183,0.0770506,-0.00548736,0.00315192,-0.0717777,-0.0123451,-0.0256843,0.0126347,0.0349236,0.0222885,-0.0209734,0.00801748,0.0493584,-0.139075,0.0014274,0.0587,-0.114818,-0.0534994,-0.039066,-0.0177366,0.112686,-0.0276725,-0.0312127,-0.0993532,-0.105832,0.0126998,0.0296917,-0.00743567,-0.0602513,0.0482386,0.0364325,0.0276592,-0.0320939,-0.00169562,-0.0020062,0.0425645,0.0453491,0.0475094,-0.033178,0.0991353,0.0290219,-0.0383077,-0.0643513,0.0278288,0.0146011
0.0304331,0.0402999,0.0410607,-0.0122679,0.0783089,-0.0335061,-0.000242597,0.0659095,0.024202,-0.088127,-0.0631794,0.0623679,0.0428237,-0.0339159,-0.00130655,0.0930293,-0.013193,0.0180097,0.0181314,0.0024007,0.100417,-0.0225172,0.0465654,0.0595273,-0.0362082,0.0677437,0.00201512,0.0865411,0.00614095,-0.0405892,0.0111461,-0.0451312,-0.0096899,-0.0325515,0.000252163,0.15476,0.0107437,-0.0640047,0.0459146,-0.0931101,0.0286058,0.033511,0.0622262,-0.05582,-0.0618043,-0.0956461,-0.0757211,0.0582314,0.0486741,-0.0810725,-0.045117,0.0519524,-0.0893358,0.0577113,0.0164701,-0.0292831,0.0203629,-0.0871263,0.0550101,-0.0574762
-0.0367995,-0.0780377,-0.0500376,0.00307906,-0.0692146,-0.0131862,0.0655936,0.0527891,0.0867285,0.0920015,0.0403028,0.00248345,-0.0391265,0.00385349,0.105074,-0.0625997,-0.0649457,-0.0420455,-0.0806661,0.123872,0.0412484,0.0220198,0.0176693,-0.0349934,-0.0486899,0.00563309,-0.0086805,-0.0015916,0.0234765,0.0148488,-0.0437704,0.0342913,-0.0861978,0.0153688,0.023209,-0.0392047,0.0104551,0.0411408,0.0533796,-0.0420654,-0.0236104,0.154172,0.0284195,-0.0148884,0.0807537,0.00428154,0.0816124,-0.049697,0.0095126,-0.0365802,0.0560701,-0.0271761,0.130793,-0.00520343,-0.0325559,0.0992362,0.0807898,0.021629,0.0501875,-0.0328142
-0.0322102,0.0405322,-0.0524813,-0.034304,-0.105495,0.102991,0.104634,-0.00719476,-0.0377651,-0.0389615,0.0176242,0.0714386,-0.116126,-0.000320601,0.034275,-0.113526,0.0907692,-0.136285,-0.069048,0.0121975,-0.0174636,-0.0209991,-0.0721759,0.0316459,-0.0756638,-0.0459854,-0.00321856,-0.0132637,0.00251483,0.00608873,-0.17283,0.00208616,0.0177504,-0.0441361,-0.061987,0.0191443,0.0052783,0.0214274,-0.0385263,-0.037616,-0.0255069,-0.0718473,0.015646,0.0157771,0.0124715,-0.0125907,0.0409071,0.0661745,0.0794191,-0.0342617,-0.0587171,0.181304,-0.0633683,-0.0493168,0.0250976,-0.0106378,-0.0319235,-0.00653667,-0.0884675,0.0358738
0.0256739,-0.0187179,0.00775429,-0.0485555,-0.0878839,-0.0166374,-0.0116354,0.00496356,-0.0569763,-0.058533,0.0214467,-0.0121699,0.133978,-0.0733168,-0.0476536,0.00659126,-0.0703701,0.13375,0.0479975,0.0712369,0.0380146,-0.115718,0.054881,-0.064515,0.0238277,0.0329742,-0.0683297,-0.100105,-0.000125068,-0.0431647,0.00880082,-0.0246584,0.0271694,0.098993,-0.0169914,0.060653,0.0784874,-0.0423032,0.0279004,-0.0208497,0.0488301,0.0231958,0.0806883,-0.0195421,0.0330235,0.0962724,-0.0486777,0.10526,0.0124956,0.0328588,0.0733228,0.0266621,0.0298243,0.0170886,0.0613932,-0.0733624,-0.00635819,0.0348671,-0.0480618,-0.0160814
0.0659953,-0.0585816,0.00443655,-0.0706363,-0.101094,-0.0288965,0.00789697,0.00663449,0.171998,0.0569456,-0.0236369,-0.0341331,-0.0364068,0.0388628,-0.0759153,0.0208367,0.0703213,0.0323965,0.0552242,0.0318651,-0.0152322,0.0262837,-0.00392798,-0.0308872,-0.0504758,0.0386666,-0.0316496,-0.00881308,0.0450299,0.0546822,-0.0933312,-0.105425,0.0479531,-0.0835369,-0.0593616,-0.0680613,-0.0395329,-0.01743,-0.0432647,-0.016315,-0.0126213,-0.0327273,0.0840487,-0.0407604,-0.0394635,-0.0196975,-0.0670534,0.076228,0.00445976,-0.0378326,-0.00250647,0.0279836,0.0279603,0.0182287,0.0783111,-0.0493178,0.04278,0.011977,0.064897,-0.0772811
-0.00281509,-0.0611159,-0.0745067,-0.0835512,-0.0164423,0.0474282,0.0468844,0.022357,0.145755,0.0191479,-0.0211646,-0.0599905,0.11326,0.0451603,-0.0674583,0.118672,-0.0489646,0.0995717,0.0465748,-0.0444194,-0.0716696,-0.0420213,-0.0658603,0.0471212,0.0584669,0.0123538,0.0249025,-0.103542,-0.0135577,-0.027866,0.0264218,0.01256,-0.089175,0.00188519,-0.0283263,-0.0148807,0.0346975,-0.00644804,-0.0898538,0.151893,0.0205007,-0.020978,0.0995987,0.043344,-0.0519297,-0.00187572,0.141412,-0.00192,-0.185533,-0.0145342,-0.0675381,0.00608139,-0.0315044,-0.0228693,-0.218147,-0.0809896,0.0270495,0.0234601,0.0372345,-0.0310404
-0.00451624,-0.0699744,0.0092313,-0.0118652,0.0936837,-0.0343976,-0.0514387,0.0768166,0.00073936,0.0848786,0.0911726,0.0264412,-0.113109,-0.0697384,-0.0611959,-0.1021,0.119607,-0.122301,0.0381321,-0.0740488,-0.0402747,-0.0233782,0.0219299,0.0280427,-0.0104938,0.130718,0.00461332,0.038498,0.00519917,0.060865,0.00162114,0.0328198,0.00651988,-0.0219292,0.00893158,0.0352561,-0.00996137,0.0807381,0.0725045,-0.083975,0.07511,0.0532305,-0.010196,-0.0153097,0.0713068,-0.0942507,-0.0401826,0.0766916,-0.0318853,-0.120892,-0.0839082,0.0423364,-0.0522327,0.033072,0.0462489,-0.0347261,-0.0157438,-0.0519173,0.0183619,0.0807608
0.0106013,0.133581,-0.0579197,0.0130788,-0.072199,-0.0131764,0.0736789,-0.0677168,0.0453074,0.0119702,-0.0318556,-0.0581615,0.0508213,0.0115991,-0.0150079,-0.0425435,0.0351153,-0.0912406,0.0875805,-0.00815675,0.143083,0.00219623,-0.0269782,0.0194392,0.0160838,-0.0645173,0.0888169,0.0399719,0.00211646,-0.115633,-0.0272239,-0.0808693,0.0801693,0.00185069,0.00876778,-0.015347,-0.0318519,-0.042261,-0.0290264,-0.0452585,0.0424341,-0.000415686,0.096861,-0.084196,0.024855,-0.0807913,-0.00736809,0.061344,-0.0210684,0.0207491,0.110248,0.0165153,-0.0359694,-0.080456,0.0231995,0.106921,0.00287634,-0.0764301,-0.0269544,-0.0581607
-0.127422,-0.0186787,-0.10146,-0.032334,0.0235296,-0.0684976,0.0380679,0.0308169,-0.0433321,-0.0466875,-0.0984877,-0.0882266,0.0405155,0.0437171,-0.145876,-0.0983144,-0.0747982,0.0416462,0.0514017,0.0407432,0.0120504,0.0103829,0.00340526,0.0442854,-0.0744203,-0.0181038,-0.0218238,0.0335793,0.0771619,0.0484077,8.82002e-05,0.0166281,0.060317,0.0386904,0.00351414,0.142375,0.0587427,0.140846,0.023637,-0.00699339,0.00615121,-0.117621,0.00290166,-0.0692926,-0.0929138,-0.0861376,-0.0591731,-0.00502136,0.0451254,-0.0390228,-0.0904759,-0.0786815,0.0504965,0.0457509,-0.0438023,-0.00811832,-0.0905707,0.0162172,0.045399,0.0128846
0.0693371,0.0265512,-0.00782239,0.0101114,0.00757132,-0.00903711,-0.0265272,0.0803856,0.0394607,0.0665674,0.031953,0.0254723,-0.0433363,0.066728,-0.106845,0.134705,0.0401055,-0.0862224,0.0373617,-0.0317604,0.066714,0.0670055,-0.033488,0.0216021,0.0676324,0.0707332,-0.0254056,0.0193829,-0.0389323,0.0443476,0.0837627,0.0627401,-0.067791,0.0534838,0.0361922,-0.0819749,0.0241085,0.00727794,0.0502832,0.0208281,0.064323,-0.151677,0.0215746,0.0306854,-0.0147615,0.0450507,0.0280294,0.0368632,0.0878412,-0.0209344,0.0242145,0.0370526,0.0583558,-0.0119401,-0.00682672,-0.0714433,0.00850676,-0.0591215,0.0301152,0.0105313
0.0427895,0.0367218,0.0353926,-0.067545,0.0590698,0.00207671,0.0468346,0.0232488,-0.0719642,-0.104378,0.0161121,-0.0904494,0.0531443,0.103328,0.00445494,-0.0205211,0.0291876,-0.0251974,0.00574567,0.126229,0.102398,-0.0824203,0.041613,-0.0288462,0.0454971,0.0737832,0.063508,0.00315959,0.0577313,-0.0466487,-0.0308413,-0.0340075,-0.00639065,0.0333785,0.0514508,0.0170978,0.0087922,-0.073597,-0.00380279,0.0115938,0.0104131,-0.001149,0.105649,-0.00747852,-0.0041176,-0.0191295,0.0531514,-0.0249565,-0.0284984,-0.125607,0.0112645,-0.0194478,-0.00189342,0.0521002,-0.0203944,-0.0294384,0.0398797,0.0276163,0.0638034,0.00307683
-0.0811012,-0.00145842,-0.0912929,0.0468055,-0.0515024,0.0499758,0.00248774,0.0144156,-0.121259,-0.0918613,0.0466978,0.0259307,-0.0537349,0.0772949,-0.0180618,-0.0870453,-0.080799,0.0113831,0.00832252,0.0643773,-0.101976,-0.0205748,0.0360964,0.0607791,-0.0118363,0.0436354,-0.0304491,-0.033105,-0.0439694,-0.00331499,-0.00773429,-0.0288883,0.0821811,-0.101316,-0.115401,-0.0496762,-0.149852,-0.115579,-0.0449529,-0.0763664,0.0426651,-0.0869635,-0.0604026,-0.123924,-0.0541152,-0.0151277,0.0686053,-0.0333508,-0.00259958,-0.0934079,0.0425352,-0.00750783,0.0365039,0.0686785,0.0198279,0.00835529,0.00149355,0.0350437,0.0293575,0.0350231
0.0599953,0.0617665,-0.0810692,0.00682234,-0.0901088,-0.0263696,0.0227407,-0.0112719,-0.00214079,-0.0104161,0.0419776,-0.0984388,-0.0344862,0.107209,-0.021657,0.0546016,0.0113183,-0.00957833,0.0395714,-0.0428446,0.0710063,0.0838319,-0.0512193,-0.0299548,-0.0854924,0.0653652,0.0892463,-0.0424067,0.0423385,-0.00651607,-0.0433601,0.00983212,0.0564558,-0.0159721,0.0425118,-0.0587149,-0.0348528,-0.0337651,0.106348,-0.0827154,0.0442594,0.00719356,-0.0562994,-0.0113135,-0.035389,0.02,-0.0362653,0.0492648,-0.00448636,-0.0553977,0.0430522,0.00702308,-0.0348639,-0.0659084,0.0284766,0.0381555,-0.00786509,-0.0288763,0.00148987,0.0316995
-0.0784937,-0.054969,-0.187115,-0.0294732,-0.0691423,0.00438595,-0.0883235,0.0442544,-0.0438424,-0.0689315,0.0289429,-0.0062978,-0.00386185,-0.00899897,-0.00415516,-0.0152943,0.0621067,0.0123196,0.0528875,0.0903872,-0.0676079,0.0296821,-0.00464755,-0.00601355,-0.0376613,-0.0591909,-0.0392408,-0.0348705,-0.0463967,0.0090116,-0.107753,0.0759606,-0.0789355,0.0488876,0.0371234,-0.0477547,-0.023767,0.00479018,-0.000824675,0.0282041,0.00814633,-0.0671832,0.013849,-0.00777228,-0.0821504,0.00245628,0.0305376,-0.0329782,-0.000578443,0.0472942,-0.0591403,-0.0933586,0.160246,-0.0167805,0.0391698,-0.110715,-0.0196745,0.0417829,-0.0944139,-0.0375646
0.00295926,-0.0529324,-0.0388147,-0.0504515,-0.0535232,-0.0526541,-0.00160076,0.0506437,-0.0256469,0.0138062,-0.103385,-0.0580508,0.00472974,-0.0162204,0.0312467,-0.0165757,0.0318412,0.102594,0.0901489,-0.0416769,-0.0193672,-0.0854301,0.0200685,-0.0391395,0.0472278,0.0259988,0.0361467,0.0909021,-0.0123514,0.0263785,0.00746603,0.0302677,-0.0177948,0.028075,0.108953,0.0273997,-0.0225515,0.103052,-0.0344163,0.0733222,0.0206453,-0.102188,-0.0291944,0.0374952,0.0322524,0.0619752,-0.0936057,0.0189272,0.0658806,-0.090753,0.0246446,-0.0746963,-0.0544594,-0.0235305,-0.102177,0.0297036,-0.0262299,-0.0409127,0.00777652,0.0702517
-0.0708852,-0.109665,-0.142705,-0.0293996,0.123515,0.00737845,-0.00859681,-0.00808501,-0.017805,-0.0544382,-0.0659325,-0.0462584,0.0645373,0.0122179,0.0612827,0.035702,0.00388602,-0.0477806,-0.0782588,-0.00197025,-0.0186747,-0.0841749,0.0145096,-0.0663261,0.114982,-0.00138847,0.0168792,0.118478,-0.0185679,-0.0387649,-0.0213053,0.0318908,0.0610263,0.0795388,-0.0342349,0.00576159,0.059757,0.000587013,-0.0491656,-0.0270137,-0.0364092,-0.0731401,-0.053383,-0.0649053,0.0203172,-0.0334547,-0.118357,0.0230276,0.0204206,0.0608282,-0.0821351,0.106342,-0.0107064,-0.0769219,0.0642585,-0.0336601,0.0230353,0.0135712,0.00563299,-0.0162892
0.098299,-0.0728842,0.0443722,0.0586864,-0.118239,0.0465445,0.0473716,-0.0653905,0.0905742,-0.0587697,0.0572801,0.0402195,-0.0379152,-0.067091,0.0532075,0.0283124,0.0559302,-0.0403644,-0.0284027,-0.0106578,0.0815031,0.045618,0.0870546,-0.0283575,0.0159484,0.0341431,0.0373167,-0.0517875,-0.0479715,-0.0764633,-0.0963276,0.0260581,0.0522065,-0.0649344,0.00501155,-0.0791371,-0.0462028,-0.120579,-0.0652658,0.0955925,0.100114,-0.00530356,-0.0350706,0.0454116,-0.0292866,0.0168177,0.0298515,-0.00564325,0.0690471,0.0168337,-0.00107003,-0.0803497,-0.0583513,0.0763001,-0.0171492,0.063099,-0.0575242,0.0217371,0.0193833,-0.0139177
0.0171603,-0.00152272,0.0156284,-0.153414,-0.00986956,-0.0373066,-0.0034798,-0.117198,-0.0860324,-0.13395,-0.0566037,-0.0024579,0.00228265,-0.0839565,0.0257016,0.115096,0.0679168,-0.0410324,-0.0300127,0.0132028,-0.0301691,-0.00461138,-0.0452639,0.040601,0.00165353,0.0256838,0.0481898,-0.108422,0.0695855,0.0574063,0.0200012,0.0519865,-0.101117,-0.0127656,0.0940292,-0.0272055,-0.0307858,0.00600577,-0.0513418,-0.0297204,-0.0757448,-0.052708,-0.137275,0.0449443,0.0475365,0.0708582,-0.105662,-0.0357786,-0.0149494,-0.0339003,0.096193,-0.0895609,0.0690802,0.050086,0.0292161,0.0594496,0.0670423,-0.102773,0.0738454,-0.0588103
-0.0256406,-0.0148863,0.0506112,-0.102038,0.147528,-0.00402802,-0.0335146,-0.0392335,0.102954,0.0595871,0.0594956,-0.0641783,-0.0397959,0.0477756,-0.100861,0.103217,0.0320334,0.0137514,0.00232132,-0.0724919,0.0382897,-0.016612,0.0840487,0.0102681,0.0470339,-0.00261116,0.0851881,-0.0503803,-0.00799924,-0.0925966,-0.0966122,-0.0215382,0.0805059,0.0224023,0.0840974,0.0658157,-0.00753443,0.00518499,-0.0648297,0.0174814,-0.02089,-0.0421735,0.113306,-0.0591246,-0.0374238,0.0510451,-0.0130344,0.0533961,-0.0550352,0.0426117,-0.059397,-0.0512881,0.0429605,0.0529821,0.0150556,0.0998173,0.0319492,0.00516858,-0.013861,0.00485182

max: 1
min: -0.218147
avg: 0.00155032
