-0.0109823,-0.0328178,0.00522021,0.0425776,-0.0825028,0.0162586,-0.0360884,0.0331615,0.0206482,0.0763461,-0.00854279,0.00149295,-0.0718562,0.046195,0.0535433,-0.026314,-0.0113823,-0.0304052,-0.063708,-0.0634277,0.0213212,0.00271883,-0.0469089,0.00279818,-0.0450217,-0.00852272,0.0364841,0.101436,-0.0240714,0.134549,0.00647186,-0.0302181,0.00295576,0.00731482,-0.0175555,0.05722,-0.00626972,-0.0480354,-0.0303938,0.0214261,0.014404,0.0144126,-0.0188975,0.0624658,-0.0230563,-0.0559991,-0.0188633,0.0232489,0.167633,0.0123555,0.0825578,-0.0178432,0.0590341,0.0881074,-0.142421,0.0751315,0.0833034,0.0378216,0.0351421,-0.00388036
-0.0293915,-0.00407899,-0.0615321,0.0338264,-0.0826131,-0.0350166,0.0410876,-0.00397176,0.0564802,-0.0117482,-0.0852782,0.00905975,0.0678681,-0.0994066,0.00662564,0.022656,0.0543491,-0.00861631,0.0168986,0.10963,-0.0815631,0.00813944,-0.0330286,0.0406581,-0.0252929,0.0850029,-0.0100357,0.0326138,-0.0752509,-0.0290189,-0.00178737,-0.0395811,-0.0376457,-0.0168638,0.128453,-0.0348585,0.0597454,0.0673151,0.00936531,0.0486604,0.0315731,-0.0389189,0.0860958,-0.0425273,-0.00539964,-0.00718061,0.0257291,-0.0737229,-0.1025,0.0270753,0.0238355,0.0464171,-0.0283455,0.0412353,-0.0073877,-0.0370857,-0.0428294,-0.00799075,-0.00540914,0.0247471
-0.0357492,-0.000272408,-0.0194602,0.0194962,0.0366378,0.0594733,-0.0857307,-0.0138067,0.150302,-0.0148307,0.129621,0.0378951,0.0544924,-0.0782654,-0.0155532,-0.0340052,-0.0251326,0.0532281,-0.0662621,-0.0083115,0.111785,0.0469218,0.118852,-0.048676,0.00315768,0.0742805,-0.0395055,-0.0248881,0.11451,0.00960311,0.0941562,0.0134122,0.00364757,-0.00075521,0.0796792,0.0327578,-0.0388811,0.0505473,0.0550202,0.0461967,-0.0107504,0.0167291,0.0347743,-0.0576278,0.00639758,-0.0302314,-0.0474833,-0.000132903,0.0457064,-0.086297,-0.0518428,-0.0792327,-0.0253551,0.084687,-0.0118047,0.00372868,-0.052408,-0.048593,-0.0206278,-0.0200327
0.0466356,0.0155362,-0.0784323,0.032403,-0.0189252,0.0613194,-0.0594083,-0.0105016,-0.0523634,0.0869357,0.0984531,0.0329973,-0.0443964,-0.109472,-0.00217004,-0.0386891,-0.0605367,-0.0339896,0.0352294,-0.0421163,-0.144248,0.0360381,-0.0399805,0.00321738,-0.066864,0.0552705,-0.0592483,-0.0425129,0.00371294,0.0535241,-0.0450544,-0.0731893,0.00170773,-0.0381797,0.0256882,0.0335279,0.00204903,-0.0381189,0.0667453,0.082041,0.0732075,0.0893061,-0.0591485,0.0265361,0.0259645,0.0667089,0.0838454,-0.0689277,0.0448239,0.0941407,-0.00496949,0.100928,-0.0765855,-0.00547121,-0.0100665,-0.0741665,0.0989854,-0.0308813,-0.052284,-0.0198919
-0.0119316,-0.0150002,-0.0173623,0.00304238,-0.0756939,0.0328336,-0.00458869,-0.00871303,-0.0111231,0.0224773,-0.0188757,-0.015605,0.0406403,-0.0361101,-0.00150952,0.0175194,-0.0376336,0.0335275,-0.00087494,0.0696436,0.0293357,0.115435,-0.0750255,-0.0888353,0.0401718,-0.0332213,-0.0583674,-0.00891357,-0.111388,0.0322789,-0.141081,0.117467,0.0406643,-0.0106782,0.00444044,0.0237435,-0.0212258,0.0019783,0.103638,-0.0214584,0.0375374,0.0200537,-0.0333647,0.000895465,0.0582756,-0.00487223,0.0482563,0.108036,-0.076721,0.0377694,-0.00695917,-0.0586783,-0.0746667,0.0548793,-0.0156282,0.0414673,0.0734375,0.0578821,-0.072721,0.101438
0.0220533,0.0494493,-0.0862907,-0.00694787,0.0525459,-0.0166518,-0.0840256,0.061658,0.179925,0.071418,-0.108834,0.0282447,0.052141,0.0134955,-0.000897406,0.0463203,0.0368764,0.0430929,0.0671593,0.00651338,-0.0247594,0.00641584,0.00817362,0.0683578,0.0437107,-0.0474562,0.0389615,0.0447656,0.102267,-0.0146825,0.126652,0.0319314,0.0660498,-0.00712123,0.0186147,-0.0120441,0.0762581,-0.040692,-0.0719356,-0.0107976,0.071425,0.0452829,-0.00297954,0.0239066,-0.149256,-0.0719104,-0.0545552,0.0530191,0.0162039,0.0700868,0.0423463,0.050843,-0.0657177,4.28112e-05,-0.000934742,0.00919946,-0.0230389,-0.00928905,-0.0691532,-0.0302477
-0.0656678,0.123715,-0.100407,0.0632905,0.00507177,-0.0407129,0.0537531,-0.0879454,-0.0211652,0.00588845,0.0277967,0.0559869,0.0409584,0.13384,0.0332765,0.0327603,-0.0160786,-0.0123681,-0.0328918,-0.0565829,0.0445068,-0.0652161,0.0879299,0.00140341,0.0262791,0.0232737,0.0692835,-0.00330958,0.0567564,-0.000535348,0.00782135,0.0669569,0.0536291,0.014906,-0.0260056,0.060027,0.00856098,-0.0360612,0.0412195,-0.0185736,-0.0143505,-0.127995,-0.0254411,-0.0734895,0.0130844,-0.0217946,-0.00686343,-0.00113392,-0.00948972,0.00321411,0.0865065,-0.151514,-0.0282333,0.0248247,0.0464375,-0.0776576,0.0662221,0.0347352,-0.149435,-0.00371935
-0.0592796,0.0393927,-0.039285,0.0222818,-0.0364742,-0.0314091,-0.0153348,0.036443,-0.0128642,-0.0608277,0.0338599,0.00324301,0.0988211,0.082632,-0.0935994,-0.00988707,0.000253369,-0.0126144,0.024934,0.0466263,-0.0495148,0.0625605,0.0157234,0.0824987,-0.034597,0.0266384,0.0399588,-0.111047,-0.026649,-0.0325326,0.0970776,0.051895,-0.0364031,0.170799,0.0287969,0.00540065,0.0213536,-0.0143501,-0.0493266,-0.00252859,-0.131682,0.072522,-0.0417436,0.0350144,0.016441,-0.00121149,0.120312,0.0330319,0.084978,0.0233276,-0.0154892,0.0670661,-0.0518072,-0.025166,0.155082,0.0139573,0.0437284,0.136531,-0.125063,-0.0208533
-0.0652426,-0.0296767,-0.0277913,-0.0394032,0.0771933,0.00578749,0.0419313,-0.00237422,-0.0363536,0.0580638,-0.100472,0.143001,-0.0868534,0.034721,-0.0117186,0.0578117,0.0414745,-0.0363117,-0.0570874,0.064888,-0.0139771,0.0524015,0.138803,-0.0097111,-0.0332329,0.0188722,-0.0412266,0.070043,0.0181375,-0.000322482,0.0332086,0.0392184,-0.00357727,0.101698,-0.0115081,0.0963301,0.0228855,-0.00078194,0.0547335,0.0182981,0.165546,0.0706228,-0.0720323,0.0113304,0.151022,0.0135826,-0.0169918,-0.0459952,0.0290454,-0.0418736,-0.0519089,0.00346421,-0.0846764,-0.0441147,-0.0346955,0.0209317,-0.0258919,0.0500092,0.0337963,0.075634
-0.059643,-0.010677,0.0857896,0.0931938,-0.0221869,0.0297178,0.0216568,0.0820695,0.0628926,0.0396841,0.0762886,-0.0881214,0.0745413,0.00807442,-0.03593,0.121885,-0.0570419,-0.00908765,0.0258414,-0.151057,0.0570026,0.05767,0.012779,-0.105677,0.0451948,-0.00719489,-0.10728,0.0366637,0.0210821,0.071678,0.0406992,0.0305328,-0.0770506,-0.00964175,-0.0278506,0.0662925,-0.0239905,0.0261958,-0.00735648,-0.0186983,0.00651336,-0.0177087,0.0528108,-0.0475849,-0.0170604,-4.1462e-05,-0.0458942,-0.105555,-0.0960413,-0.0840427,0.0799535,0.039729,-0.0542791,0.0647412,0.0358106,-0.0476314,-0.0121063,0.00732502,-0.0915892,0.0306498
0.0010123,-0.00488785,0.01296,0.0248089,0.0162112,-0.0341956,-0.0278277,0.175149,-0.0184266,-0.00223177,0.00334793,-0.0816616,0.0980911,-0.0714306,0.0581545,-0.0257974,0.0424244,0.0413868,0.0175692,0.0287564,-0.0465912,0.105543,-0.0618625,0.043381,0.03177,0.0484508,-0.0699789,-0.0287041,-0.0810351,-0.0174133,0.0195978,0.0576486,-0.0221172,-0.0489566,0.0637796,-0.0367936,0.0457027,0.00666389,-0.0160922,-0.01011,0.00846593,-0.0418513,0.0127409,0.0223179,-0.0387067,0.0497282,0.0958386,-0.0954813,0.110293,0.00541885,-0.0629979,0.0604657,0.0535211,-0.0588174,-0.0040018,-0.00677899,0.0466481,-0.051781,-0.0344271,-0.00895115
-0.00301539,0.0369501,0.0253003,0.0492113,-0.0209217,-0.0105689,-0.00721079,-0.0375103,-0.0882298,0.044249,0.0728056,0.0341029,0.049976,0.0451323,-0.0651754,0.035618,0.0164086,-0.0819538,-0.084415,0.0139272,0.00115795,-0.0853385,0.00510251,0.00247169,-0.0236328,-0.0114334,-0.0483862,0.109378,-0.0762475,-0.0379332,0.0517181,-9.32209e-05,0.0798964,0.00555719,0.0549433,-0.0490307,0.000962475,0.040694,0.00489165,-0.00693371,0.0679531,0.0990433,-0.0987965,-0.110764,0.0244778,0.0187436,0.0383219,-0.0631091,-0.0156604,0.0462276,0.0636033,-0.0191486,-0.0569067,0.0186891,-0.00763234,0.0298024,0.0470785,-0.00530977,0.0869966,-0.0571564
-0.0708978,0.0589318,0.0709959,-0.0228882,0.0356598,0.0294957,0.13149,0.0267395,0.0528429,0.0877409,-0.0307822,-0.0443182,0.113728,0.0944292,-0.00560275,0.0157157,0.0382791,0.0902499,-0.0994104,0.109735,0.0150772,0.00640035,0.00584443,-0.119621,0.110627,-0.0112327,0.0343916,-0.0866379,0.0979272,-0.00834953,0.0418038,-0.10105,-0.0296543,0.0976167,0.0235493,0.0213911,-0.089974,-0.0151061,-0.0280834,0.00648214,-0.0463658,0.0042613,-0.0290294,-0.00838802,-0.058607,0.0491574,-0.0833455,-0.00550628,0.131816,-0.0352311,-0.0172446,0.000910749,0.0280624,-0.0502814,-0.102522,-0.0182257,-0.0191514,0.113491,0.0786047,0.0585075
0.0236833,0.124743,-0.0707331,-0.0033642,0.0178244,-0.00451722,-0.00809008,-0.0209092,0.0673315,-0.0159623,0.0307499,-0.00361794,-0.0315418,0.00889748,-0.0963224,0.0317235,-0.0241899,-0.00266878,-0.115485,0.0343539,0.04338,0.105513,-0.0857535,0.0381206,0.0557035,-0.062317,-0.024894,-0.0430477,-0.0167188,0.0277129,-0.0345962,-0.0584793,-0.0449256,-0.051925,0.00721294,0.0700146,0.0396286,-0.000389054,-0.068473,-0.0124457,0.0125643,-0.0768567,-0.0258285,0.0635577,-0.0659364,-0.0644727,0.0856596,-0.0223591,0.0533163,0.0479035,0.000510051,0.00879113,0.0732136,0.0533162,0.0196897,0.0494303,0.0283641,-0.0107081,-0.0461827,0.0737722
-0.0459886,-0.0166281,-0.0779825,-0.065096,-0.0252666,0.0632684,-0.0160501,-0.0912764,-0.108237,-0.0509932,0.0871131,-0.0495043,-0.0559232,0.0663597,0.0208471,0.0188801,-0.112519,-0.0309211,-0.0210087,0.0336102,-0.0391236,0.0926913,-0.0183546,-0.043081,0.0293201,0.113343,-0.00930529,0.00705995,0.0424778,-0.10022,0.0651637,-0.0676784,0.137877,0.0329091,-0.0375824,-0.0767387,-0.0207095,0.0718081,-0.0368162,-0.0895071,-0.0255629,-0.0781284,0.00731612,-0.0622919,0.0106974,0.0160546,-0.056274,-0.0156064,-0.106531,0.0219736,-0.0156723,0.0466571,0.0473554,0.0175579,-0.0146833,0.172666,0.0415912,0.0651554,0.0154028,0.0307411
0.0808948,-0.0466018,0.123497,-0.0196466,0.00516459,0.0146537,-0.00467794,0.0149827,-0.029859,0.00574489,-0.00340542,-0.0956411,0.0172325,0.041432,-0.0637771,0.102805,-0.0315624,-0.0443639,-0.0138015,-0.00724007,-0.0248517,0.0768046,0.0277242,0.0129285,-0.0133633,-0.108377,0.111747,0.0543111,0.0837685,0.0718923,0.0413825,-0.0424667,0.0228777,0.0222444,-0.0894489,0.00848874,0.0389102,0.0292966,-0.0111591,0.0433791,0.00253645,0.0339029,-0.0281508,-0.0252916,0.0070961,-0.0601697,0.0430441,0.0115154,-0.0987172,0.0282371,-0.0311718,-0.0165508,0.0931259,0.000120642,0.00798064,-0.0252301,0.00761897,-0.017753,-0.0343652,-0.00208091
0.00521628,-0.039301,-0.0819849,0.0998897,-0.0173517,0.0162219,0.0619952,-0.119786,0.0242426,-0.0959706,0.0443878,0.0232451,0.0851139,-0.0615132,-0.0278345,-0.0120062,-0.0291461,-0.0663599,-0.00692275,0.0163823,-0.0941091,0.0152986,0.0160838,-0.00604804,0.0568168,0.0221318,0.0598088,-0.010738,-0.081945,-0.000424707,0.0104706,0.114834,0.0195119,-0.112171,0.103008,0.0298123,-0.12774,-0.010121,0.0886875,0.0727627,-0.049713,0.0214488,0.0518527,-0.116902,0.0939122,-0.0962304,0.0933903,-0.000632538,-0.16034,-0.0210701,-0.0673762,-0.0698967,-0.0254049,0.0101789,0.147019,0.133211,0.144863,0.0534076,0.0819989,0.00124035
-0.0194371,-0.170407,-0.072264,-0.0693523,0.0542458,0.0560469,-0.0169252,0.116308,-0.00386152,0.0970892,-0.138846,-0.0205513,-0.0153524,-0.0438391,0.00541518,-0.00572452,-0.0129364,-0.0476974,0.00742619,-0.0812799,0.0388056,0.00854408,-0.0234786,-0.0230512,0.0545898,-0.0556985,0.00784144,-0.0940181,0.0304107,-0.0819567,-0.0654441,0.0692985,-0.0147362,-0.00374181,-0.129857,0.134176,0.0365346,0.00342689,-0.0312537,-0.0847207,-0.0206132,-0.0507781,-0.00371566,-0.0589399,0.016537,0.0637951,0.0534843,-0.0566463,0.0317826,-0.00504326,0.10777,-0.0259847,-0.0230782,-0.0969081,-0.056173,-0.0881155,0.0368352,-0.0779441,0.0304619,0.0485521
0.0618859,0.0366791,0.0808084,0.0377426,0.007972,0.0695271,-0.0194082,0.0209029,-0.0290621,-0.10338,0.0238594,0.0121587,0.0456926,-0.0712906,0.0890145,-0.0961389,0.00362045,0.0270555,0.0343311,-0.00355459,-0.0681734,0.0736218,0.0926489,-0.00186202,-0.0133659,0.0947848,0.0380575,-0.00281639,0.0227713,0.00670183,0.0228584,-0.090265,0.0264202,0.0561134,-0.124763,0.0135747,0.107583,-0.023748,-0.0905416,0.0851748,0.00791832,-0.115175,-0.0781294,-0.0589813,-0.00209305,0.00549777,0.093793,0.0486975,-0.06821,-0.0961219,0.0161512,-0.0851733,0.143865,-0.0492502,-0.0983315,-0.0926568,-0.0970756,0.0125124,-0.0306335,0.0607578
-0.0528089,0.0198517,0.114946,0.112504,0.0269549,0.0726146,0.0510634,0.0415589,0.121023,-0.165104,-0.00532415,0.0792313,0.0434846,0.0913534,0.00826187,-0.105353,0.0871382,-7.98255e-05,0.0162241,0.0168156,-0.00289925,-0.0613663,-0.0179201,0.154535,-0.0788551,0.0402696,0.00740857,-0.0634968,0.0816601,0.0503603,-0.0490195,0.015604,0.0203864,0.0397121,0.0598906,0.0442871,0.0220634,-0.0204286,0.029448,0.0739444,0.0248978,-0.0966426,0.0613222,0.0495086,0.103148,0.117783,-0.0445756,0.154995,0.108627,0.023147,-0.0379142,0.105569,-0.0510233,0.0769907,-0.0067055,-0.0048083,-0.0165578,-0.0309814,0.119503,0.0664182
-0.000167147,0.0660602,0.0282039,-0.00674561,0.108203,0.0350587,0.112461,0.0482204,-0.0983071,-0.0325907,0.0138231,0.00297618,0.0306534,0.00431712,0.00991966,0.0359601,0.0576221,-0.0483798,0.0386956,-0.0194705,0.0355914,-0.0246099,0.0573728,0.0569197,-0.035156,-0.104521,-0.0178509,-0.0834935,0.0293368,-0.0289612,-0.00623173,-0.0022739,0.0203855,-0.180026,-0.0175749,-0.0255088,-0.0122596,-0.01162,-0.0575218,-0.0407449,-0.093887,0.0651058,-0.0581527,0.0600577,-0.122373,-0.0522923,0.011105,0.0384964,-0.0761156,0.0762271,-0.00860839,-0.101905,-0.0361033,0.0606603,-0.0525585,-0.0837995,0.101233,-0.0231765,0.0131348,0.0561708
0.0918192,0.00474597,-0.0338628,0.0893324,0.00975523,0.0354714,-0.0370983,0.0183263,-0.0486861,-0.0929085,-0.0373743,-0.00298658,0.033307,-0.0420936,0.0794535,0.00615757,-0.00764549,-0.0704544,0.0225592,0.0665395,-0.0230867,0.040914,0.174375,0.000988023,-0.135556,-0.00720355,0.0665638,-0.0182253,0.121266,-0.0644587,0.0834682,0.0150007,0.0403636,0.0172611,0.0056855,-0.071016,-0.0211629,0.045353,-0.0457032,0.0322374,-0.034501,0.00566039,0.0446663,-0.0181005,0.0284979,0.054212,0.0790663,-0.0169832,0.0540283,0.0522617,0.0753381,0.032747,-0.0393503,-0.0116711,0.0178851,0.0387552,0.0359016,-0.0177622,0.0094912,0.0110362
-0.0227831,0.0099993,0.00439802,-0.0617466,-0.099791,-0.0316426,0.0224151,0.0498724,-0.0188199,0.0389336,-0.0219023,-0.0298293,0.00426095,0.0480929,0.0988921,-0.0132254,0.0338895,0.0695174,0.0537836,-0.0557139,0.00830332,-0.101632,-0.0462136,-0.096879,0.0605452,0.024338,-0.0590629,0.0278311,-0.0185915,-0.0729337,-0.0650427,-0.0524815,-0.0687473,0.115714,-0.0699994,-0.0513117,0.035942,-0.0697882,0.0626332,-0.118483,0.0120908,0.00689777,-0.0221973,-0.0819856,0.0714185,-0.0706689,-0.188429,0.0056802,0.0876277,0.00974826,-0.00683786,-0.132975,0.00688876,0.0230462,-0.0741208,-0.0782232,-0.066217,0.00692553,-0.0363464,0.0613285
0.00710012,0.0551256,-0.0284793,-0.100481,-0.0874779,-0.132059,0.0266506,-0.0290105,0.0370177,-0.0308978,-0.00164858,0.0377056,-0.0481035,-0.0476442,0.0409495,-0.0630554,-0.106772,-0.0173625,-0.0462442,-0.0693051,-0.111143,-0.0347848,0.0482505,0.0480522,0.0266596,0.0399064,-0.00655424,-0.000783016,0.001278,0.0764628,0.0216379,-0.0170945,-0.0120732,0.0714494,-0.00238365,0.0660312,-0.0706214,0.0864018,-0.00829811,0.152795,-0.104035,0.0428864,-0.0608234,0.0138305,0.00286388,-0.0808606,0.0502225,-0.02961,0.0018233,0.0390219,0.0566214,-0.0415258,0.00813598,-0.0774259,-0.0132522,-0.0729845,-0.104605,-0.0223146,0.0182977,0.0370977
-0.0260927,-0.0336419,0.0280966,0.00346209,-0.00937416,-0.0994642,-0.0118979,0.0424498,-0.0629201,-0.0116547,0.035197,-0.0241426,0.0703997,-0.00670047,0.0913444,0.0382387,-0.0534002,0.0596755,-0.103987,0.0516642,-0.0182691,-0.0102881,0.0178284,-0.0451836,0.0512511,0.096567,-0.0254917,-0.0417977,0.0785901,0.0602622,0.0120866,-0.0812486,-0.000779968,-0.103702,0.0172222,-0.00709825,-0.101038,0.0443456,-0.0406215,-0.115996,-0.0342583,-0.0443046,-0.120154,0.0201943,0.0800576,-0.00476366,-0.0666733,0.00789685,-0.0204593,-0.0442563,0.0556542,0.0497749,0.0841972,-0.00824769,0.04799,0.0531608,0.0251471,-0.0406237,0.0413691,-0.0274439
-0.0511402,-0.106639,-0.0482984,-0.0681282,0.046269,0.00426649,-0.0289563,0.0476334,-0.0484261,-0.0777625,-0.177088,0.0240518,-0.00413076,0.0113736,-0.105302,0.0230195,0.0257864,0.0356588,-0.106367,0.0256271,-0.055335,-0.0974333,0.0603941,0.120143,0.0430286,0.0185872,-0.0138496,0.038687,-0.00975567,-0.00467622,0.0233138,-0.00688223,-0.054027,-0.01897,0.0388349,0.0974637,-0.0739643,0.0734153,-0.0571177,0.0635971,0.061431,-0.04127,-0.00859202,0.00674749,-0.0245101,-0.0075992,-0.0461121,-0.0567291,0.0541147,-0.0586219,-0.0316714,-0.0209915,-0.0364316,0.0649349,0.00816948,0.00681333,0.00372971,0.0151789,0.0270818,-0.0356743
-0.025117,-0.022538,-0.0605668,-0.0253432,0.039219,-0.0102779,-0.0535129,0.133409,-0.0293635,0.0552132,0.0768253,0.0859771,0.02808,0.0293598,-0.0290456,-0.020758,-0.0400275,-0.0468963,-0.0915111,-0.0214122,-0.0458301,0.0153394,-0.020945,0.0575185,-0.079249,0.0368233,-0.0717072,-0.0267662,-0.017014,-0.0105925,0.0148286,-0.0539967,0.0289384,-0.0277422,0.0613329,0.0368499,0.0371966,-0.0366944,-0.0694757,-0.0299995,-0.0984191,0.0430249,-0.0366111,-0.0566462,0.0366224,0.037518,0.00635018,0.0089762,0.0327966,0.0240587,0.0751405,0.0150902,0.0128558,-0.0367961,0.0650541,0.0135396,0.0336624,-0.0250816,-0.00875285,0.00606025
-0.041836,-0.0297381,0.101039,-0.052256,-0.0685305,0.0124377,-0.11915,0.00404013,0.0673407,-0.0682328,-0.0697144,0.0633088,-0.10211,-0.126723,-0.0362609,-0.0640873,0.0709292,-0.0096595,0.0458992,-0.0648504,0.0465906,0.0339437,-0.0490791,-0.0005652,0.0776892,-0.0404396,0.00387884,0.0788115,-0.0594366,-0.00385284,0.0360486,-0.0092585,-2.20081e-05,0.0803072,0.0714237,-0.0872865,-0.0138696,-0.0196031,0.0337175,-0.0474485,-0.104167,0.0248361,0.0432573,-0.0243629,0.0047351,-0.0564049,-0.0579231,-0.0102727,-0.0993494,-0.0703162,-0.0479407,0.0959413,-0.0978441,-0.0331364,0.113003,0.117397,-0.0224388,-0.0661342,0.00730306,0.0709436
0.003357,-0.05919,-0.0431635,-0.0368262,-0.0197359,-0.0742627,0.0104623,0.0348986,-0.0666485,0.0412501,0.091992,0.0713749,-0.0622213,0.0575996,-0.00132046,-0.0226756,-0.0089298,0.0499273,0.0111291,0.0575996,-0.0208005,-0.0521477,0.105789,0.0226521,0.028248,0.0951173,-0.114366,-0.00717394,-0.0257697,0.0169425,0.03752,0.0109503,0.0305212,0.102675,0.043039,0.0365528,0.0674045,0.0117579,0.0324312,-0.0334992,-0.00717378,-0.121758,-0.0852177,-0.0867238,0.0256472,-0.092593,0.0674023,0.0453019,0.0688464,-0.0146487,-0.0565011,-0.0593872,0.0354142,0.0385313,-0.018253,-0.00926998,-0.0537328,-0.0735749,0.0160082,-0.0236352
0.0124492,-0.0180836,-0.117401,-0.0115216,0.00613755,-0.0655317,-0.0701302,0.0309109,0.0361684,-0.00196811,-0.0474898,0.0225634,-0.0292973,0.0496716,0.0542913,0.0616406,0.0329296,-0.128013,-0.0495574,0.052376,0.0272601,-0.0186707,-0.048846,-0.0176401,-0.0225925,-0.0540513,0.0438333,0.0662359,-0.00335892,-0.0442001,-0.023365,-0.072178,0.0461323,0.0832801,0.02459,0.00709308,0.066275,-0.0113034,0.0293841,0.0905669,-0.0743521,0.0473985,0.01994,0.0116485,-0.0123835,0.041649,-0.005992,0.0583162,-0.119792,-0.0700283,-0.00677761,0.0490661,-0.0167465,-0.109602,-0.0348381,0.102562,-0.0289074,-0.00515773,0.0145951,0.03145
-0.0240849,-0.0428277,-0.163354,0.00840485,0.00802466,-0.0319364,-0.0247191,0.113024,0.0792608,0.0166567,-0.00423658,0.0285651,0.00386657,-0.042176,-0.0414883,-0.0695308,-0.0780271,-0.00838843,-0.0280472,0.00601567,-0.0210887,-0.0344306,-0.0910451,0.0183182,-0.0272592,0.00262005,-0.0204537,-0.0820234,-0.0740396,0.0445892,1,0.000509744,0.0917325,-0.0392901,0.00512699,0.0640696,0.0555511,0.0508369,-0.109524,0.0467554,0.068715,-0.0388874,0.0477485,0.0538259,0.0188628,-0.0779792,-0.0578443,-0.030891,-0.0186795,-0.0592887,0.0456477,0.0125063,0.0471639,-0.0872614,-0.0208264,-0.0862366,-0.0926716,-0.0132914,0.0800151,-0.00473087
-0.0427702,0.0507767,-0.100911,0.0445818,-0.0180954,0.00192922,-0.142868,-0.0775053,0.0401056,0.00403156,0.0378314,0.045505,0.0264592,-0.0272895,-0.0256217,-0.0166819,0.0296784,0.089725,-0.166393,-0.0792255,0.0458887,-0.0902179,0.00447808,0.0387496,-0.0287397,-0.0412605,-0.0208149,0.00705436,-0.055121,-0.0245374,0.105158,-0.0444214,0.0582831,0.105508,-0.0527302,-0.0138586,-0.0283487,0.0484702,0.0321873,-0.0190948,0.0451503,0.0277217,0.00138955,0.0801665,-0.0440719,-0.0732126,0.0690639,-0.0460062,0.0687466,-0.0248304,0.0445073,-0.0264478,0.0953628,-0.025818,-0.0836193,0.0134121,0.0731914,0.0729086,0.0142795,0.084958
0.0561986,-0.0676133,0.0705862,0.0031088,0.048026,-0.0882015,0.0688735,0.0088188,-0.0609167,0.210502,0.033854,0.0637325,0.0498591,-0.0237895,-0.0284568,0.0304758,-0.0660824,0.111519,-0.0225779,-0.0328173,-0.0984221,0.0409076,0.0382849,-0.115851,-0.0555995,0.0119872,-0.0520932,0.0475448,0.0903715,-0.0176289,0.0150478,0.00349673,0.0400279,0.052983,-0.152426,0.059959,0.0174957,-0.0687204,-0.102202,-0.104593,0.128593,0.0265148,0.088558,-0.0158646,-0.0245235,0.0267122,-0.0270641,0.0223348,-0.041341,-0.0302876,-0.0350804,0.0748295,0.0173504,0.0538629,-0.069929,-0.0355699,-0.00129984,0.0903754,0.0375904,0.144939
-0.0472055,-0.0420065,0.0320771,0.0789339,0.022721,-0.0276984,0.0268047,-0.0686516,-0.000802415,0.122912,-0.0325329,0.00919093,-0.0426712,-0.117956,-0.00984812,0.0236622,-0.0241744,0.03132,-0.0334333,-0.163204,0.0528332,0.00554173,0.0424616,0.0720055,-0.0294604,-0.0156923,-0.0190145,-0.0516219,-0.0749086,-0.0413662,-0.0586464,0.0212326,0.0802127,0.0922914,-0.000157701,0.0819086,0.0146018,0.0264106,0.129991,0.00858917,-0.0190558,-0.00609838,0.0358773,0.050183,-0.0681183,0.0508985,-0.00866187,0.00900438,0.0913866,-0.00761371,0.0118067,-0.0249134,0.0613319,-0.0401898,0.0304575,-0.0666367,0.0557627,-0.0565157,-0.0824087,-0.0401047
0.00987705,-0.114367,0.0162408,0.00527582,0.0719376,-0.076639,-0.0313484,-0.0168051,0.0682964,0.0988455,0.097513,0.000389929,-0.0200362,0.126881,0.0367372,-0.101754,-0.0237732,0.0316324,-0.071421,-0.0237222,0.0946344,-0.028759,0.0967797,0.0303553,0.0374446,-0.0413603,-0.0265766,-0.0455577,-0.00595374,-0.00194714,0.0557723,-0.0379088,-0.079558,0.0372592,-0.00263363,0.0116509,0.0054653,0.0221108,0.0352723,-0.0924921,0.0496989,-0.0532267,0.0278771,0.0959805,0.0528546,0.0502654,0.0322877,-0.00673464,-0.0187155,0.00952337,-0.0107736,-0.0659039,-0.0554696,0.107091,0.0680779,-0.0706154,-0.118302,0.059692,-0.0248422,0.00576021
0.0122568,-0.0978718,-0.0217098,0.0862922,-0.0564836,-0.0341785,-0.0117271,0.0166423,-0.0168058,0.102105,-0.0168807,-0.123912,-0.0731349,-0.0900272,0.0563104,0.132251,-0.00210385,0.0111246,0.00497667,0.0486975,-0.0337909,-0.0130605,0.0561262,-0.0822846,0.104441,-0.0247923,0.0364798,0.0916916,-0.0330482,0.0970487,0.0378519,0.033215,0.102397,0.045942,-0.0025202,-0.0861785,0.0779402,0.0275064,0.0587455,0.0263047,0.0294614,-0.111975,-0.0313957,0.0534002,-0.0664676,0.00443747,0.125606,-0.0340018,-0.0313235,-0.0211478,0.0307268,0.0579641,0.0334698,-0.0443619,-0.0162528,0.00491824,0.00288696,-0.0376837,0.011512,0.00248663
0.0915748,-0.0881743,0.00663506,-0.0444769,-0.0714262,-0.0433209,0.0981811,-0.0149066,-0.0462127,-0.0399798,0.0150163,0.0350698,-0.0908876,0.017547,-0.0222033,-0.0508121,-0.0425633,0.0316242,0.00395935,0.0288871,-0.0154934,-0.0210618,0.0114283,0.033603,-0.00396381,-0.0673447,0.0222774,0.013606,0.0244397,0.0184663,0.0544142,-0.047056,0.0367008,-0.0908232,-0.0066152,0.0110594,-0.130585,-0.020487,0.000125256,0.0476242,0.0883491,-0.078877,-0.0697875,0.0190867,-0.0172248,-0.0215804,0.0434679,0.0165993,-0.0862576,-0.0184603,-0.0654507,-0.0568256,0.00396983,-0.0461088,0.00050673,0.040028,0.0100566,0.0316809,-0.0192425,0.0508983
0.0105719,0.017802,-0.00702371,-0.0735366,-0.0256481,0.034367,0.026044,-0.0952787,0.0354673,0.181862,-0.0990803,0.07834,0.0255824,0.124493,-0.0577415,0.0486108,-0.0556183,0.0262584,-0.0455893,-0.0128053,-0.0403237,-0.00121983,-0.0231843,0.0507264,-0.0873711,-0.0392787,-0.0452242,0.0774282,-0.00540429,0.0150776,-0.0146557,-0.0356039,-0.0397236,0.001746,-0.0319351,-0.0773643,0.0437094,-0.11397,-0.0478167,-0.0953613,0.0213211,-0.0102335,0.0239249,-0.0034608,0.058785,0.0331138,-0.057868,0.104877,-0.0252783,-0.0346386,-0.0316611,-0.00759326,0.0830103,0.00944673,0.073639,0.00301915,-0.00538282,0.0586043,-0.0552688,0.122817
-0.0369127,-0.0153308,0.0062142,-0.00558495,0.017089,0.0435379,0.0890163,0.0380232,0.00485341,0.00718967,-0.0184123,-0.0318192,-0.0820465,0.00980831,-0.0503081,0.056284,-0.0341362,-0.103227,-0.0182642,-0.0017931,-0.0257474,0.0500277,-0.017409,0.0582861,-0.0518667,0.0107968,0.0570645,0.0421351,-0.0832267,0.0670464,0.0846488,-0.0434402,-0.0011111,0.00062578,0.0177442,-0.0683301,0.0377929,0.0543572,-0.0131787,-0.046185,-0.0401019,0.0980193,0.0243802,-0.0908413,-0.0983037,0.045825,-0.0512441,0.0458091,-0.0131896,0.0898196,-0.0140874,0.0233283,0.0415956,0.0489608,0.0338813,-0.0262216,0.0166138,-0.0843275,0.0318743,0.00131533
0.0760569,0.020339,0.0316668,0.1048,-0.000996828,-0.0793964,-0.027125,-0.0271711,0.0234981,0.0055103,0.0969693,0.00704643,-0.00886112,-0.0318807,-0.0333313,0.0390924,0.0929925,-0.0101186,0.0112285,0.0589862,-0.0446906,0.107118,0.0659882,-0.133181,0.00514234,-0.0237001,0.0154085,0.0704802,-0.0396403,0.153864,-0.0293917,-0.00291685,-0.0983332,0.00112512,-0.0539295,0.0396144,-0.0281686,0.0575046,-0.0631275,-0.0479197,-0.0641846,0.00778306,-0.0136307,-0.0647717,0.0112902,0.0313345,0.000390016,-0.041941,-0.0489173,0.0132534,-0.046379,-0.036275,0.0280453,-0.0368191,-0.0480936,0.0490265,0.0249635,0.0448537,0.00990809,-0.0776283
0.0187239,-0.076247,0.0952699,-0.0092702,0.00551124,0.116317,-0.0660589,0.140676,-0.00985829,-0.0638803,0.00699378,-0.050485,-0.0296147,0.0419501,0.0729457,0.051889,0.0767699,0.00582029,0.0976428,0.062367,0.0164958,-0.0207117,-0.0164588,0.049989,0.00526735,-0.00282635,0.0120361,0.0594742,0.0275709,0.0213904,-0.0121857,-0.025003,0.0163046,-0.0494216,-0.0190413,0.0165531,0.0267041,-0.0235676,0.010002,0.0826201,0.00899596,0.0312569,-0.00538016,-0.0544566,-0.0212435,-0.0599134,0.0129517,-0.0177804,-0.0810724,0.0779629,0.0836282,-0.0413009,-0.074526,-0.0360349,-0.0415119,0.0763661,-0.0843613,-0.0540932,0.118403,0.0502234
0.0105225,-0.00895992,0.0165876,0.0138252,0.0772483,0.0108161,0.0137577,0.01056,-0.0718941,0.00583412,0.0103537,-0.00109795,-0.0617659,0.0491647,-0.0914887,-0.061327,-0.0383007,0.0449431,0.154012,0.000158158,-0.0460773,0.0923471,-0.0873647,0.0554962,-0.107528,0.025722,-0.0324361,0.126772,-0.0853518,0.0799551,-0.00558749,0.0162071,-0.0305074,0.143529,0.00378396,0.0286336,-0.0360016,-0.067426,-0.0052279,0.0825011,-0.0286848,0.0185769,-0.0793303,0.0476378,0.00469532,-0.0920899,0.0799075,0.0971836,-0.0795101,0.109984,0.117786,0.0139883,-0.0440678,0.043685,-0.0102042,-0.0927474,0.0411095,-0.0385337,0.0041413,-0.0145935
-0.0072281,0.0907625,0.0869026,0.0290316,0.0482108,-0.0617554,-0.0163624,-0.0507227,-0.0438412,-0.0337371,0.0260939,-0.00185602,0.0236142,0.0972504,0.0374016,-0.0319374,-0.0467669,0.0933724,0.0221888,0.0307211,-0.0183409,-0.0123976,0.039497,-0.0102427,0.00385089,-0.0538991,-0.0181338,-0.0752293,0.0444236,-0.0172446,0.0684436,-0.0294612,0.0678407,-0.0470123,0.0783297,0.0270002,-0.0320568,-0.0616192,-0.00544648,0.105722,0.0402419,0.0979506,-0.0207273,-0.0329111,-0.11742,-0.11071,-0.0439925,-0.010796,-0.0703829,0.0225023,0.000628876,0.00549171,0.105606,0.0211287,0.0610009,-0.0509437,-0.0330261,0.0137757,0.0456782,0.0207889
0.124498,0.0784799,-0.0339151,0.0297188,-0.0510851,-0.0122444,0.066212,0.09466,0.0137258,-0.112409,-0.0837855,0.0744919,0.079145,-0.108631,0.0265266,0.0799246,-0.0398278,0.0158628,0.0866903,-0.0752821,-0.00424649,0.0252943,0.000923725,-0.0402192,0.071351,-0.0406173,0.0744851,0.0922138,-0.00756704,-0.0208844,0.0256905,-0.0234844,-0.0372937,-0.098963,-0.093611,-0.0467049,-0.0677265,-0.0302516,-0.0285524,-0.0345643,-0.0138384,0.0642904,-0.0756255,-0.0171353,0.0321303,-0.0937007,-0.117789,-0.0225336,-0.0620783,-0.0375788,0.0459784,-0.00392766,-0.0486332,-0.00207532,-0.0156758,0.00325598,0.0534843,0.00167496,0.0599854,-0.0437129
0.015052,0.0354185,0.0654961,0.0562205,-0.0400064,0.0143497,0.0414734,-0.0489506,-0.105315,-0.0291733,0.0464965,0.0345726,-0.0624105,0.00575099,-0.103157,0.00569563,0.0208132,-0.0493369,-0.0334286,-0.100523,-0.047054,0.0020575,-0.0284892,-0.0111629,0.0703064,0.0418855,-0.00710683,-0.00758532,0.0439279,-0.00849184,0.0344535,-0.0295004,0.00528499,-0.0798056,-0.0650955,-0.0536736,0.046853,-0.0794472,-0.052867,-0.0961537,0.0629037,0.00938289,0.0910453,-0.0950182,-0.103671,0.0989039,0.0703464,0.0689388,0.0259193,0.0223264,0.0814398,0.0483182,0.0531713,0.0279126,-0.0661454,-0.0803684,-0.0352716,0.0939185,0.00016394,0.0105619
0.0518739,0.038856,0.0472406,-0.167078,0.0832871,0.000316741,-0.0158708,-0.0351253,0.0463074,-0.0727969,-0.0530896,0.0337081,-0.0299119,0.0446675,0.00171562,-0.0527039,-0.0111478,0.176437,-0.0503481,0.056787,0.0527063,0.0712136,-0.0502899,-0.0184236,0.017437,-0.0481765,-0.106167,-0.0264435,-0.0613151,-0.0362948,0.0336259,-0.0763702,-0.0295398,-0.0597514,0.0646957,-0.0192485,0.0109042,0.0576086,-0.0225452,0.0780297,0.0419078,-0.06386,0.0421478,-0.0752914,0.0454731,-0.0458557,0.0286956,0.12926,-0.0363547,0.0716628,-0.0482022,-0.0397092,-0.0858056,0.0561844,-0.0206115,0.056295,-0.0229668,-0.00400527,0.101136,0.0169359
-0.0227267,-0.035956,-0.0124675,0.00996143,0.109991,-0.0409355,0.00880912,0.0982797,-0.0812417,0.00559638,-0.0300842,0.0479002,0.136605,0.0531538,-0.0385278,-0.022861,-0.0323947,0.0428099,0.00054728,-0.0576014,-0.0352754,0.0570875,-0.0987704,-0.0056342,-0.00908375,0.00782242,-0.0360271,0.0630709,0.0378138,0.0624013,0.052451,0.086457,-0.0371812,0.0545843,-0.0122631,0.0239995,0.0543091,-0.0282297,-0.0367514,-0.00831165,-0.0421479,0.00601852,0.071725,-0.0256053,0.0812851,-0.0867292,0.0130078,0.0888278,0.0116287,-0.0502359,0.0336934,0.00872029,0.0590927,0.0401274,0.0138348,0.00671088,0.0155323,0.0237519,-0.126645,-0.0224351
0.0419815,-0.0265751,-0.0352374,0.0870181,0.00105503,0.0486298,-0.0420188,-0.107525,-0.0449162,-0.0578243,-0.115,0.0360323,-0.0222769,-0.0658493,-0.0550066,0.100534,-0.0178762,0.0167696,0.013483,0.0520162,0.0974243,-0.0106691,-0.00536507,-0.078991,0.0317508,-0.043134,0.043675,0.0337759,-0.0379788,0.0461549,-0.00297127,-0.0258023,-0.0133808,0.0249941,-0.000493612,-0.0543099,0.0594771,3.56377e-05,-0.0979017,-0.0401812,-0.0123554,-0.0183676,-0.122122,-0.0371813,0.0102916,0.0291161,0.0478532,-0.0921527,-0.0427737,-0.0676728,-0.02152,0.046094,0.0594515,-0.0438279,-0.0149081,0.00840786,-0.0183445,-0.0470146,0.0153942,-0.10978
0.124747,-0.15357,-0.0451366,-0.0335682,-0.0174728,-0.0526905,0.102034,0.0846073,0.0757982,0.00184424,-0.152846,-0.0590846,0.0151594,0.0236432,0.0392376,0.000997064,0.0731986,-0.00153569,0.0482643,-0.14768,-0.0131106,-0.0161309,0.00527123,0.016271,-0.0023494,0.0351614,0.0900052,-0.00274084,0.00907942,-0.0567388,0.0207706,0.0439429,-0.0392863,0.117421,0.0726004,-0.0355458,0.0348005,0.00728596,-4.87764e-05,-0.0208862,-0.0278572,0.0106444,-0.00385196,-0.0243775,-0.0653357,0.15753,-0.0484049,0.00803764,0.00743089,-0.00134354,0.0123124,-0.0260007,-0.0156251,0.0425706,0.0191716,-0.0596706,-0.018138,0.0479037,-0.0637941,-0.0590383
0.0424724,0.0014831,-0.0329077,-0.0431541,0.0272565,0.0749734,0.0162438,-0.0300013,-0.132303,-0.0193356,0.0271891,-0.0546522,0.0187531,-0.0480465,0.0121568,-0.0485943,0.0364573,-0.00521163,0.060769,-0.101355,0.0033935,-0.0149781,0.105922,-0.0243601,-0.0152679,-0.0206372,-0.094427,-0.015864,-0.0329774,-0.0553654,-0.0237706,-0.0713069,0.0363658,0.0281081,0.0735619,-0.102873,-0.0808093,0.0803348,0.0578148,0.032578,0.0261381,0.0212156,0.0200134,-0.00425937,-0.0265706,-0.0131952,0.034473,-0.0181857,0.0363365,0.0329483,-0.00733811,-0.0155401,-0.0986242,-0.0177379,-0.0435463,0.0622071,-0.147712,-0.0915358,0.024065,0.0914684
-0.00318705,0.0370861,-0.0239971,-0.0691731,-0.0228006,0.0682712,0.0682581,0.0449213,0.0201717,-0.0393767,0.131189,0.0447389,-0.0489254,0.0151099,0.0100637,-0.11304,-0.0593863,-0.04217,0.0515897,0.0229297,-0.0441304,-0.000930616,-0.0288998,-0.0480417,0.0471674,-0.00891886,0.138529,0.0626436,-0.0156945,-0.0560396,0.0512475,-0.0677943,0.0302125,0.0754048,0.0790543,0.0480293,0.0281295,-0.0462291,0.0204273,0.153718,0.0546775,0.0346338,0.137414,0.0734258,0.0231106,-0.0959377,-0.0407811,0.0111776,-0.00975738,-0.0647467,-0.0390875,0.0660431,0.0605779,0.0323781,0.00422905,-0.0272475,-0.0371925,-0.013328,-0.0377019,-0.0195078
-0.0156027,0.0988999,0.0348296,0.0490926,-0.0971189,0.0328692,-0.0312038,0.10192,0.0283376,-0.0177575,0.0194701,0.0169744,-0.032512,-0.0301721,0.000413583,-0.171057,0.00279074,-0.0247796,-0.0541811,-0.00134667,0.0557236,0.0319774,0.111748,0.0350057,-0.0280989,-0.0508518,0.0778948,-0.0199621,0.121754,-0.0153165,-0.127811,0.113355,0.00650183,-0.0977368,0.0687615,0.0675926,-0.00966452,0.0658862,0.111664,0.0152536,0.0707048,0.00741457,0.0086013,-0.0153838,0.101527,-0.121263,0.183505,-0.032326,-0.0584433,0.0369344,-0.0426249,0.0353112,-0.0767778,-0.0164622,-0.152005,-0.0293757,-0.0328446,-0.0388513,-0.0611996,0.00334244
0.00831998,0.111451,-0.0366308,0.113548,-0.00182428,0.017924,0.023696,-0.0470473,-0.0134497,0.107613,-0.0577093,-0.015327,-0.00457718,-0.00218912,0.0467009,0.0513831,-0.0968789,-0.0552121,0.00579293,0.0936004,0.096083,-0.0482433,-0.000390899,0.0279175,-0.0349257,0.0946601,-0.0664201,0.0396696,0.0136626,0.0235567,0.0151607,0.0606877,0.0638378,-0.0315831,-0.0518608,0.0509709,-0.0420239,-0.0112916,0.120069,0.11138,-0.0368625,-0.00257099,-0.111925,0.048804,0.118633,0.00892661,-0.0252454,-0.0109224,-0.109577,-0.0906735,-0.0735912,0.0439446,0.0360237,-0.0115098,-0.0275206,0.000968396,0.0015906,0.0916984,-0.0519247,0.0434553
-0.00431618,-0.0698903,-0.0184152,0.0106728,-0.0114793,-0.0565708,-0.000657455,0.0270225,0.00829842,0.00207171,0.0304651,-0.0228622,-0.0632392,0.0515219,0.0410802,-0.0598037,0.0434432,-0.0716608,-0.0134525,-0.0108898,0.0303619,-0.102802,0.104419,0.0283082,-0.0650681,0.0408168,0.0328006,-0.0219397,0.0370593,-0.056741,-0.0574458,0.0473549,-0.0100111,-0.0456618,-0.0105904,0.0476119,0.039227,0.0159588,0.0528966,-0.0306931,-0.00902957,0.141116,-0.0221671,-0.0234345,0.0306919,0.0685628,0.0845721,0.00801977,-0.0305679,0.0475755,0.0578989,-0.121451,0.0689533,-0.0860998,-0.128905,-0.0153037,-0.0428858,0.0598816,0.000808469,0.0440548
0.103775,-0.0194858,0.0166394,-0.0106096,0.118362,0.0863456,0.017297,-0.00858691,0.00721465,0.0509704,-0.0955958,-0.0803577,-0.0356919,0.0108258,-0.123484,-0.0378787,-0.00738698,-0.0458783,-0.0293361,-0.0432896,-0.0506305,0.0725249,0.00219913,0.00169032,-0.0700278,-0.0855765,0.0470733,0.0410747,0.0892554,0.0361579,0.078986,-0.0190615,-0.0617912,0.0365357,0.0783395,0.0163902,0.0387955,-0.0643747,-0.123709,-0.0258735,-0.0567196,0.0486276,0.0123724,0.0708047,0.0376704,-0.00716166,0.0439045,0.0213946,0.0703013,0.0602626,0.016173,0.0513547,0.0239715,-0.0552534,0.049755,-0.0271775,0.0407788,-0.0102113,-0.121739,-0.0980334
0.106664,0.0264065,0.0275865,-0.0304125,-0.0224648,0.0275081,0.0474459,-0.0595719,-0.0136632,-0.0444097,0.0501919,-0.00629151,-0.0132337,0.0931915,-0.0600896,0.0383366,-0.0257299,0.0729755,0.0145094,-0.0712174,0.0136469,0.0844486,-0.0540125,-0.00627138,0.0597236,-0.00284951,0.0155211,0.0353877,0.0410934,0.0429586,-0.0458061,-0.0110782,-0.0554877,-0.0687432,-0.0972753,-0.0991653,0.0339202,-0.0525914,-0.0231947,-0.0343836,0.0736218,-0.0302165,-0.0135624,0.061662,0.0801116,0.0419739,-0.0190516,0.00571606,0.0259658,0.0792742,-0.010191,-0.0118113,0.0611957,-0.0244261,0.0811757,-0.0113071,0.132374,-0.0174271,-0.0586784,-0.0161701
0.032382,-0.0628702,-0.0443232,-0.118819,-0.0477082,-0.0705231,0.0425052,-0.0117607,-0.153089,0.00864274,0.0209503,-0.0807043,-0.0160802,-0.020414,0.0116046,0.0511006,-0.0781326,0.0460699,0.0172522,-0.0562957,-0.0594053,-0.0177517,0.00798749,-0.0240635,-0.0466202,0.0149923,-0.0343052,-0.0532857,0.149041,0.00674751,0.0211068,-0.0237667,0.113354,0.0117779,0.00223502,-0.133894,-0.0538348,0.0305736,0.00580875,0.0870104,0.0274554,0.0175616,-0.075389,0.0654326,0.0325317,0.120588,-0.0456134,-0.0416091,0.0454557,-0.00704176,-0.0341513,-0.0635505,0.106869,-0.116056,-0.0781899,0.12774,0.0730657,-0.0427907,-0.0384238,0.00381541
0.0236734,-0.128339,-0.000744522,0.00377395,0.197993,-0.0644761,0.01231,-0.0189975,0.0185876,0.0871805,-0.00735408,0.0214899,0.0484396,-0.010996,0.0433348,-0.0933785,0.0280769,-0.0237281,-0.0118479,0.0270932,-0.122667,-0.0222041,0.119461,-0.0202721,-0.017363,0.0419715,0.0386732,0.0421244,0.038749,0.0120976,-0.033928,0.0321834,0.0742547,-0.0999037,-0.0152346,-0.0232007,-0.0269175,-0.0504967,0.00464407,0.1225,-0.0176554,-0.00694778,-0.015928,-0.00115896,0.037313,0.0551655,-0.0518397,0.148185,0.0407138,-0.0547056,0.0490325,0.112374,-0.102818,-0.0592524,-0.0576802,-0.0557311,-0.111831,-0.108645,0.0823167,0.103541
0.0641205,0.0437215,0.0501487,0.0241395,-0.0344624,0.101155,0.02669,0.101959,-0.00411304,-0.0473421,0.0263416,0.0866271,-0.0234327,-0.0761534,0.0660045,0.0421246,0.00765429,-0.0426509,0.038209,0.0217464,-0.0835222,0.0110588,0.0407423,0.0340495,0.00131492,0.0297526,-0.0428307,-0.0231424,-0.0258427,0.010592,0.0689436,0.040908,0.0387885,-0.0517944,-0.0707535,-0.0319698,0.0232512,-0.00372196,-0.0821838,0.000183256,-0.087066,-0.0333057,-0.0955275,0.0979205,-0.056977,-0.040974,-0.0397713,0.00559369,-0.0298208,0.0536925,-0.0731436,-0.0492833,-0.00580116,-0.0432402,-0.122509,-0.00353333,-0.0377596,0.0453937,0.00488657,-0.052265
0.0710546,0.0384104,0.042532,-0.066625,0.0506669,0.00102741,0.0212092,0.0219643,0.0620542,0.114801,0.0398977,-0.130738,0.0647025,0.183489,-0.0145839,0.0886947,-0.0324841,0.0461306,0.0321086,-0.055212,-0.0595022,-0.0381542,0.105212,-0.084925,0.0441235,-0.0581102,-0.0687129,-0.00172953,-0.0825796,-0.105929,0.00229482,-0.0696208,0.0603338,-0.071217,-0.076086,-0.0664102,-0.0427036,-0.0411247,-0.0369274,-6.91912e-05,-0.133957,0.0954384,0.0234103,0.0586309,0.0433339,-0.0095407,-0.0453295,-0.0345422,0.0146844,0.0164351,0.0527497,0.0337824,-0.0901097,-0.0443398,-0.0147507,0.0213989,0.00793234,-0.0123046,0.104884,-0.0392332

max: 1
min: -0.188429
avg: 0.00163819
