0.0559863,-0.054492,0.0932788,-0.0753651,-0.0554234,0.0322627,-0.0102573,-0.0627526,-0.0335594,0.0156336,-0.099474,-0.06923,0.0678746,0.00903521,-0.0315224,0.017848,0.0922424,-0.0178358,-0.0541179,0.0101401,-0.0541703,-0.00211738,-0.114723,-0.0763178,0.0259772,-0.0160768,0.0289655,0.0645822,0.0366154,0.0296145,0.0634907,-0.0757856,-0.0372212,0.0182427,-0.0660659,0.0531791,-0.00687909,0.0419127,-0.0944827,0.140787,-0.0110126,0.00308411,0.00681108,0.0691163,-0.0818272,-0.0456618,-0.0100071,0.0525551,-0.0117067,-0.0223597,0.0144454,-0.0747064,0.0481572,-0.0290338,0.00914295,0.0762427,-0.00618329,-0.0153737,0.0325946,-0.0388334
0.0344364,0.0442649,0.0602744,-0.0351729,0.0612617,0.00223439,0.183466,-0.0243475,0.0553042,-0.0813395,0.102769,-0.0157807,0.0685496,0.116365,0.00202782,0.0585895,0.0306188,-0.0335955,-0.0336425,0.172117,-0.0237159,0.0899364,-0.0362309,-0.0273437,0.0288717,0.0531293,-0.0523977,-0.061374,-0.00480485,0.0376227,0.0789773,0.0705851,-0.0178064,-0.0289246,0.00865089,0.00597302,0.0577414,-0.0365171,-0.0343997,0.0300789,-0.0051125,-0.0199749,-0.0776192,-0.010737,-0.028234,-0.00780951,0.015522,0.073633,0.0890869,-0.00126821,-0.0687915,-0.00954801,-0.00820475,0.0494151,-0.0618093,0.0595844,-0.0570608,0.0199433,0.00136486,-0.0437536
-0.0180467,0.0179171,-0.00811795,0.062031,-0.0568547,-0.0122505,0.0250626,-0.0034823,0.0906248,-0.00344802,-0.0324939,-0.0154271,0.0729009,-0.0369208,-0.0107328,0.0914965,-0.0340338,0.0541903,-0.00424071,0.0931682,0.0541253,-0.00205748,-0.0505622,0.00795623,0.0955026,-0.055253,-0.00673553,-0.0433983,-0.0328017,0.0629527,-0.0193543,-0.0327101,-0.0212838,-0.0407354,0.0909471,-0.0844078,0.0272449,0.0690595,-0.0239652,-0.101275,-0.0278823,-0.124768,-0.120138,-0.0672359,-0.145083,0.044839,0.0571538,0.00523869,-0.0749029,-0.0287725,0.0504691,0.0210335,-0.029455,-0.025275,-0.0259561,0.0401643,-0.0913457,0.0383424,-0.0331324,-0.133303
0.132272,-0.0666825,0.0310838,0.0963222,-0.00805165,-0.0315034,-0.042116,-0.0585501,0.0956917,0.18686,-0.00534966,0.0272996,-0.00171729,-0.0149469,-0.0374548,0.0761492,-0.00297525,-0.0666832,0.00114464,-0.0625884,0.0711344,0.0152435,0.0440905,-0.0542935,-0.0378753,0.0432241,-0.146617,0.0352431,0.0606919,-0.00951405,0.0446669,0.0113174,-0.0534702,-0.0192728,0.0611659,0.063431,0.0380448,-0.00791496,0.0223736,-0.0874168,-0.0506933,-0.0334725,-0.0784781,0.0393262,0.00265926,-0.0395436,-0.075089,0.000987313,-0.0536352,-0.0570134,0.0416064,0.0335623,-0.150741,0.00181184,-0.0219361,0.090518,-0.0564447,0.0141226,-0.072503,-0.0845259
0.134666,0.0216638,-0.019083,0.004207,-0.00482295,-0.0708465,-0.0658247,-0.0865194,0.0513996,0.0331446,0.0749453,0.0179507,-0.010621,0.0344931,0.0515189,0.0495962,-0.010208,0.00972569,0.068874,-0.0879007,-0.117532,0.0720437,-0.0312619,0.015957,-0.00863047,0.00071815,-0.0102832,0.139749,0.0279426,0.00248353,-0.147014,-0.0266745,0.00909793,-0.0387385,0.00106189,-0.038218,0.0294448,-0.0800297,0.0178879,-0.163386,-0.0494757,-0.000203402,0.0705832,-0.0402165,-0.0357724,0.0128879,-0.00389312,0.0593993,0.0144213,-0.00216559,-0.0556895,0.0412114,0.106173,-0.106436,0.0891414,0.0505237,0.0137498,0.0571536,0.0515425,0.0248019
0.0129186,-0.0478383,0.0261022,0.0171766,-0.0158947,-0.0383112,-0.0128124,0.0244056,0.131185,-0.00649259,-0.0227206,-0.0516116,-0.0225712,-0.0115089,-0.0769866,-0.0161033,0.0580013,-0.008923,-0.0090417,-0.0494571,-0.110775,0.0452606,0.0181842,-0.0454402,0.0975892,0.0289148,-0.0294658,-0.03189,0.0726213,0.0655177,-0.0407888,0.0232789,-0.0902333,0.123978,0.0442395,-0.0622165,-0.00992766,-0.0593297,-0.0602104,-0.0411373,-0.0375468,-0.0218743,-0.0268074,-0.0404306,-0.0633207,0.0612462,-0.0199916,0.0956509,-0.0550088,0.111371,0.0996226,0.0370703,-0.0361297,0.0487919,0.0152328,-0.00988575,-0.00673656,-0.0298896,0.0463899,0.013616
0.0768515,0.0408054,0.0517091,0.0170505,0.16528,0.0499761,0.0546537,0.0702123,-0.0452599,-0.0233187,0.0225998,-0.0747241,0.00875934,-0.00854682,-0.0806194,-0.000250554,0.0129618,0.0886391,-0.0343891,-0.0119467,-0.0854672,-0.0829519,-0.00926784,-0.109741,-0.00368158,0.138168,0.0129349,0.0883527,-0.0507514,-0.0580819,-0.0264647,-0.0238073,0.00907846,0.00259367,-0.0340044,0.0369424,-0.0566583,-0.0369717,-0.049656,-0.0687413,0.0984675,0.0046956,-0.0168054,-0.0143265,-0.0609137,-0.0585065,-0.0721574,0.0320819,0.0524654,-0.0437922,0.00621628,-0.025538,0.00593711,-0.0506252,-0.0190929,-0.0229536,-0.0786712,-0.0319044,-0.122448,0.0276304
-0.083421,0.0181501,-0.000552771,0.0831241,0.0665871,-0.0165441,-0.0588958,0.0424068,-0.0588492,0.0202086,0.0775338,-0.0689184,-0.0271607,0.0904571,-0.0122267,0.0653356,-0.0356693,0.000700888,0.109209,-0.0911274,-0.0569491,0.066604,0.0613345,0.0306812,-0.0102087,0.0137137,0.0202169,0.0417426,0.140056,0.0899225,0.108011,0.0300112,-0.0775994,0.0308503,-0.0452677,0.0487061,-0.154724,-0.0886532,0.0444114,-0.0572476,0.0252516,-0.0129542,0.0705202,0.128844,-0.0613997,0.0781617,-0.1179,0.0575585,0.0457951,-0.057319,-0.0956213,-0.102556,-0.0311261,-0.0348004,0.00530465,-0.069922,0.0343651,0.0344821,-0.0572308,-0.0262261
-0.0366192,0.012983,0.0576555,0.016704,0.0143802,-0.0221911,-0.0482056,0.0176164,0.0885276,0.0265739,0.0590861,0.0332728,0.0451208,0.00487904,0.140384,-0.00110179,0.0325014,-0.0248086,-0.0461635,-0.0123457,0.00109645,0.0379596,-0.0958661,0.101315,0.030865,0.0524092,-0.0139903,-0.0981268,-0.0291546,0.0661546,0.116541,-0.011078,0.0368044,-0.0235924,-0.0612731,0.0190279,0.00168143,-0.0495674,0.0834082,-0.0017361,0.0241125,0.0664358,0.0140299,-0.0105635,0.0141181,0.172715,-0.00684751,-0.0608967,-0.0068054,0.0155581,0.0669571,-0.00153905,0.0343007,0.0460225,-0.0218321,0.0150547,-0.0573813,-0.0276747,0.0509882,-0.0251816
0.0815058,-0.0566329,0.0341512,-0.0790947,0.0346046,-0.0700564,-0.0270152,-0.0658816,-0.0339393,0.00237929,-0.0568442,0.00703668,0.0205457,0.0371755,0.0680403,0.0591581,-0.0679557,0.0191839,-0.0506178,-0.0398171,-0.0606538,-0.0715596,-0.0111592,0.00351903,-0.0816775,0.053151,0.0339296,0.0274607,-0.0903096,-0.0233327,0.0173696,0.0362928,-0.0885214,-0.0462666,0.0179744,0.0379868,-0.0539415,-0.00381951,0.00157284,0.0390964,-0.0323008,0.0494408,0.024397,-0.0103683,0.0515617,-0.0101069,-0.0514019,0.00347511,0.0212618,0.00835603,0.00059951,-0.0690036,0.038534,0.0401163,0.02831,0.0342461,0.0853049,0.133355,-0.0141685,-0.0243776
0.0177106,0.0146581,-0.0979282,-0.0280147,0.0109303,0.0590331,0.0330886,-0.0281118,0.0320912,-0.0258677,0.0275469,0.0212953,0.0520856,0.0157092,0.0860711,0.0110065,0.0574573,-0.108416,-0.0474492,0.00834275,-0.055973,-0.0389755,-0.020622,0.0372558,-0.100865,0.061198,-0.02278,0.0133284,-0.0769963,0.0308777,0.105204,-0.0530214,0.027608,-0.0307145,0.117916,0.0790394,0.0670366,-0.0666532,-0.0087349,-0.0235986,-0.0441808,0.0645775,0.0277934,0.0999051,0.00867832,0.0275533,0.0491013,-0.158495,-0.0077218,-0.0222538,0.0512918,-0.0315967,0.0204748,-0.00476916,0.0523101,-0.0542734,-0.109151,-0.0792653,0.10057,-0.0564955
0.0527254,-0.0380875,0.0960054,0.0485321,0.0160827,-0.023721,-0.0250046,0.00461926,0.0694004,-0.118878,0.0280771,0.00310023,-0.0448158,-0.00255804,-0.0311819,0.0259803,-0.0419855,-0.142458,-0.0382582,0.0533006,-0.125027,0.0590201,-0.0196318,0.00904513,-0.0143189,-0.0179779,-0.0526038,-0.00644753,-0.0362811,-0.0569441,-0.0150001,-0.0262726,0.123903,-0.0050181,-0.0672677,0.084214,0.0229176,0.0695255,-0.0139106,-0.074392,0.0167853,0.0338062,0.00231075,0.154245,-0.123588,0.0194037,-0.0710432,0.00981701,0.00197491,-0.0428278,0.0571729,0.0596638,-0.0807164,0.00411905,-0.0859401,-0.0774395,0.0489206,0.0936343,-0.0213368,-0.0805057
0.0655659,0.05657,0.0733105,-0.0135246,0.0412518,0.0858355,-0.00720113,0.010416,0.0989889,0.0331097,-0.0291517,0.0314178,-0.00607582,-0.0101777,0.0536594,-0.00317533,-0.0666202,-0.0137718,0.047072,-0.0328376,0.00524271,0.00188959,0.0400765,-0.00454435,0.0864719,0.0260584,-0.0163503,0.110833,-0.035174,0.0106892,-0.0216974,0.0507384,-0.022784,-0.0640089,-0.0741655,-0.0755209,0.0578266,-0.0130682,0.0490642,0.0396756,0.0112715,0.0167935,-0.0319207,0.0188347,0.165993,0.000699552,-0.0107518,-0.0670502,0.0162703,-0.0331837,-0.0131123,0.0321238,-0.118511,0.0240701,0.00324781,-0.023704,-0.017088,-0.0378145,0.00798179,0.0194153
-0.0613066,0.0649273,0.00625679,0.065082,-0.00116387,0.0103273,-0.11202,-0.00695716,0.00348759,-0.0139192,-0.0390251,0.0386617,0.0376043,-0.0143076,0.0919611,0.0991273,-0.000955752,-0.0723983,-0.0304461,0.0311965,-0.0527833,0.0367851,-0.00979045,0.078219,0.0551797,-0.000324689,0.0357345,0.0700341,-0.0141353,0.0735201,0.0381602,0.0217341,-0.0808046,-0.0090547,0.074895,-0.0194438,-0.0247009,-0.0955084,-0.0499066,-0.13515,-0.00827388,0.0301869,0.0592818,-0.0568057,0.0091288,-0.0782385,0.00109143,0.0613272,0.0126634,0.0785922,0.0342394,-0.0112791,8.80223e-05,0.0158975,-0.104013,-0.0412608,-0.0882791,-0.0185485,0.00572593,0.0507668
0.129326,0.00185499,-0.0170525,-0.0512971,0.0503235,0.0224239,0.19021,0.030311,0.0368199,-0.0530121,0.0669866,-0.0233695,0.0549967,0.0058016,0.0481313,-0.121806,-0.0956228,-0.0227232,-0.000702542,0.0165762,0.0683015,0.0579787,0.00858244,-0.027646,0.035625,-0.122303,-0.021789,-0.0173172,0.0204283,-0.0564458,0.0490188,0.00724411,0.0284343,-0.0967778,-0.027141,-0.0348193,0.0344384,0.0155873,0.0525699,0.0520517,0.161468,-0.0596282,-0.0386805,-0.0105857,-0.0243812,0.0139002,0.0314704,-0.086705,0.0405767,-0.0124166,-0.0491907,-0.00119222,0.0546639,-0.0151515,0.06494,0.0174595,-0.00128826,0.00486386,0.136003,0.0384429
-0.0283803,0.0550489,-0.0234415,-0.0356873,-0.111393,-0.103819,-0.0875669,-0.0723172,-0.00144258,-0.0566523,0.0123113,0.00529126,-0.0142974,0.0137327,-0.0901229,0.0150895,0.0276516,-0.0484703,0.104231,0.080503,-0.0797963,-0.0558754,0.0167097,-0.0503905,-0.0973358,0.0595963,-0.0723533,-0.017105,-0.00792308,-0.0164692,0.0393279,0.015995,-0.00193297,-0.00993965,0.0166435,-0.0254922,0.0892866,0.0542878,-0.0695053,0.0804812,-0.102323,0.0506885,0.0211681,-0.050765,0.0161791,-0.0393758,0.0386794,-0.0808359,-0.0354339,0.0224842,-0.0793389,-0.0768769,-0.149582,-0.0860666,-0.00714077,-0.0824358,-0.00513801,-0.0308713,0.0191648,0.0389921
-0.142143,-0.0525894,0.0220756,0.0361937,0.0209539,0.00832493,-0.0513076,0.0203266,-0.0936477,0.00163097,-0.0115911,-0.0326328,0.0630228,0.0174698,0.0484051,-0.0244821,0.0181914,0.0345061,0.0692196,0.0123886,-0.00520469,0.0576183,-0.0705529,0.0516072,-0.0289852,0.105062,-0.0401313,-0.0453368,0.00975086,0.0280478,0.0217698,-0.0185372,-0.033543,-0.0923305,0.0137985,0.047732,-0.00680438,0.0983765,0.0103621,-0.0154931,-0.0678091,0.00315765,0.0231951,-0.0394219,-0.0295497,-0.0375299,-0.00469647,-0.0135267,0.0377099,0.153205,-0.0651306,0.015123,-0.00977488,-0.0163721,0.0448873,0.0817792,-0.00310007,-0.0013017,-0.0495468,0.0751146
-0.0485549,-0.057821,-0.0505793,0.0805759,-0.000172648,-0.0876012,-0.0740366,0.039067,-0.00919969,0.0394776,-0.00372893,0.0141764,0.0567684,-0.0317697,0.0322684,0.0271882,0.0604841,-0.0140877,0.00442792,0.109906,0.0278896,0.026902,-0.0582385,0.0944492,-0.0038502,0.0432645,-0.037799,-0.0157577,-0.0349868,-0.0233486,0.0435026,-0.0678676,-0.00449337,-0.010675,-0.00500315,-0.0763706,-0.00645323,0.0788952,0.0176098,-0.0184961,0.0586777,-0.0841291,0.0569589,0.00190362,-0.0215993,0.0377087,0.0154267,-0.00408268,0.0118453,0.0503891,0.0331089,-0.0119394,-0.0489835,0.0769275,0.00125329,-0.0080425,-0.0597873,0.0255227,-0.0555707,-0.0535882
0.0382396,0.0448988,-0.042028,-0.011969,-0.0167493,0.0391711,0.0846438,-0.0256153,0.158426,-0.0285506,-0.0188917,-0.0748056,-0.13942,-0.0484167,0.00746714,0.0168609,-0.0454503,-0.0523754,0.00153154,-0.00378966,-0.120832,0.0481147,-0.107838,-0.0344631,-0.00705723,0.0883161,-0.11933,-0.105493,0.0150805,0.11795,0.0508892,-0.0367618,0.0272653,0.0392945,0.0642438,-0.00159992,0.098442,-0.0411981,-0.0784324,0.0599781,0.0067645,-0.0970366,0.0234552,0.030184,-0.0489409,0.035706,-0.149687,-0.0558366,-0.011456,0.0974832,-0.00340676,-0.043244,-0.068215,0.120925,0.034638,0.0265448,-0.0412865,-0.0548012,-0.0136582,-0.00270683
0.0700627,-0.0148705,0.0710839,0.0280969,0.00245189,0.00372463,-0.136083,0.0396498,-0.0675267,0.0152915,-0.172185,-0.0173853,-0.13117,0.0411039,0.00842752,-0.0364342,-0.0155841,-0.0948973,0.152694,-0.117018,-0.0715956,-0.0653863,-0.00685226,-0.038162,-0.0224949,0.0461967,0.0550933,-0.12524,-0.0489138,-0.0294173,0.0813336,0.0199102,-0.032034,0.0281968,-0.0205257,0.000956481,0.0566881,0.00674238,0.0279619,-0.0198898,0.0237009,-0.0057908,-0.00303209,0.0602688,-0.0563442,-0.0326405,-0.0149856,-0.0106426,0.103618,-0.0707542,-0.0191006,0.0810043,-0.155914,0.0396481,-0.0114569,0.00358351,-0.0284385,0.0852801,0.046143,-0.0091784
0.0662417,0.0174696,0.0287678,0.063379,0.141691,0.0653395,0.0336462,-0.0832256,-0.0178716,-0.0694311,-0.105587,0.125452,0.000367235,-0.0929944,-0.000118,0.0260968,-0.0195947,-0.0064567,-0.074539,0.0622301,-0.0335033,0.00601302,-0.0516791,0.0575707,-0.0785595,0.0572069,0.0333638,0.0100068,-0.0658157,0.000627437,0.00724565,-0.0207686,0.112104,-0.0138964,-0.0491373,0.092082,0.0676354,-0.106523,0.0311581,-0.0338215,-0.0921107,-0.00419029,-0.00281017,0.014084,0.00702492,-0.00999222,-0.0633934,-0.0861459,0.0889623,-0.00280025,0.00168268,-0.0120517,0.0242186,-0.0955066,0.0287441,0.00253135,-0.0990558,-0.0420929,-0.0397366,0.0172814
0.0869577,-0.0294794,0.140607,-0.00801682,0.0252225,0.0514799,0.0972568,0.0472889,-0.0132315,0.0159582,0.0212142,-0.00738832,0.0490581,0.00701322,-0.00394582,-0.0368147,0.0636191,-0.0574656,0.0069226,0.106731,0.0743849,0.0303093,-0.0725465,-0.12107,8.79715e-05,0.0372557,-0.0377027,0.0240669,0.103621,-0.112401,-0.0103715,0.0491275,-0.00319671,0.105174,0.00921811,-0.02157,0.0568941,-0.0117907,0.0384694,0.059873,0.00312228,0.0738732,-0.093281,-0.0770026,0.021915,0.037825,-0.0395987,-0.0513521,0.0812404,0.0770524,0.0862413,0.0432348,-0.0201314,0.0925302,0.0145773,-0.020586,-0.0907856,-0.00796387,-0.0361034,-0.0358352
-0.0439602,-0.00520899,0.0293299,-0.00362973,0.120947,0.0137905,-0.127039,-0.0676231,0.00488547,-0.00344371,-0.0601462,0.0408631,-0.0133925,0.0701814,0.00241661,-0.0613633,-0.0489592,-0.0280287,-0.0404738,0.054123,0.044257,-0.0161029,0.0978408,-0.0415825,-0.00421074,-0.0224934,0.0034739,0.0849556,0.0201155,0.0183463,-0.0127069,-0.00421214,-0.012982,-0.0244685,0.100925,-0.00520649,0.0317325,-0.0197203,0.00764486,0.0312683,-0.0385633,0.119857,0.0509038,0.018144,-0.101689,-0.0178485,-0.0247342,-0.0631147,0.0955822,0.0440034,-0.0208406,0.00617641,-0.0408059,-0.0845401,0.0933397,0.0897483,0.0336419,-0.130859,0.0289052,0.0292225
0.030723,0.0233044,0.0173976,-0.005895,0.0374046,0.0725664,-0.00113848,-0.0436556,0.0308817,0.0467842,0.0133865,-0.0693264,0.00032882,0.0472664,-0.0527541,-0.0248261,-0.0208461,-0.00664303,0.0125667,0.0643539,0.122314,0.012827,-0.0136382,0.114721,0.0305654,-0.00722916,0.0197588,-0.00792942,-0.0379112,0.0150481,-0.0577738,0.0100396,-0.0629609,-0.0140827,-0.130109,0.039154,-0.0165591,-0.0500139,0.0382268,-0.0654469,-0.0788395,0.0752689,0.0430493,-0.0971146,0.0222278,0.045185,0.0193535,-0.00175738,0.073566,-0.0159854,0.0356443,0.073789,-0.0303323,0.0223165,0.064675,0.0479023,-0.132455,-0.0699148,0.0274721,0.0090341
-0.00178649,-0.0543904,0.0169677,0.0869218,-0.0981471,0.0236234,0.0429092,0.0149029,-0.0648112,-0.000541048,0.0351821,0.0227438,0.0119305,0.0118492,-0.0992308,-0.0143579,-0.0094197,-0.0925605,0.142325,0.00780915,-0.00961124,-0.0994345,-0.0291363,-0.0252794,-0.0546836,0.0565755,0.00266909,0.0858326,0.023926,0.0148453,-0.103219,0.01586,0.045756,-0.0351673,-0.00207921,-0.0115524,-0.0836412,0.00362774,0.0696224,0.0826692,-0.0524094,0.101059,-6.17383e-05,0.0755172,0.015038,-0.0594446,0.00834814,-0.0320243,-0.126424,-0.0715302,-0.0626157,-0.0022507,0.0216504,0.0238349,0.0209765,0.0218338,-0.0681671,-0.0242113,0.0106392,0.0159285
-0.0792634,0.00355318,-0.10262,0.0432778,0.00573584,0.00403196,-0.0496863,0.0160166,0.0643253,-0.0542563,0.0520841,0.0420714,-0.0523302,-0.0232045,0.0349705,-0.0292136,-0.0065768,0.0807217,0.0684314,-0.0484102,-0.107788,-0.0151735,0.00412743,0.042046,0.0550078,-0.078196,0.0275418,-0.00974779,-0.0609331,-0.105323,-0.1078,0.143407,0.0603781,0.0197955,0.0155584,0.0443274,-0.00347838,-0.0760227,0.00981108,0.0200196,0.022893,-0.00616608,-0.0383882,-0.061965,0.0232588,0.00586811,0.0219513,-0.070273,-0.0246251,0.00301052,-0.0676846,0.0614058,-0.057534,-0.0340859,-0.120855,0.0858573,0.0115693,0.0531245,0.0266955,-0.0197348
-0.030332,0.0581141,0.0214847,-0.000534328,0.0575768,-0.0186226,0.027988,-0.0882804,-0.00480399,-0.00690213,-0.03613,0.0105863,0.0858727,0.0668693,-0.0482756,0.018032,0.0457485,0.176984,0.0873853,-0.0601254,0.111383,0.0709256,-0.0221404,-0.0437885,-0.0164066,0.0132063,-0.0957632,-0.0517547,-0.125817,-0.0648134,-0.111557,0.142327,-0.0366605,-0.0348315,-0.0128077,0.0216428,-0.0866725,0.0317734,-0.00583699,-0.0195342,0.0301812,0.0327684,0.00591102,-0.0239435,0.00362861,-0.0411918,0.051478,0.0872027,-0.180081,-0.046704,0.0845226,0.0709964,0.0636667,0.0535221,-0.0320915,-0.0439786,0.0709548,0.0562478,-0.0745701,0.0133488
0.0272651,-0.100429,0.0123722,-0.125674,0.170692,0.0644841,0.129723,-0.0298825,0.0605801,-0.0126451,-0.035968,-0.0484266,-0.0155104,0.00325465,0.0443581,0.0132856,-0.0275553,0.0149222,0.084684,-0.0102004,-0.0701447,-0.110738,-0.0236929,-0.0711531,0.0587653,-0.0208952,0.00282791,0.0242819,0.0604542,0.0260308,-0.0264905,0.000281444,0.0748819,-0.0902675,0.0166897,-0.0309526,0.0298385,0.0305301,-0.0721244,-0.0670948,0.0462768,-0.0502099,-0.0605589,-0.0165142,0.0414892,0.0452875,-0.119556,-0.0291947,0.0457881,-0.0654716,-0.0678616,0.0301826,-0.0672656,-0.0618967,-0.073051,0.00631894,0.0201597,0.0525986,-0.0218892,-0.0620599
0.0731321,-0.0515685,0.0065264,-0.0328334,0.0256151,0.0468385,-0.0324368,-0.00380973,0.010971,0.069785,-0.0665467,0.0627383,0.113715,0.00661244,-0.0011427,0.03506,0.0107254,0.043163,-0.066393,0.00301054,-0.0179684,-0.0948489,-0.0390168,0.0599502,0.0872224,0.0612118,-0.18333,0.120955,-0.0627128,-0.0475257,-0.0472144,-0.0611274,-0.0493073,-0.0250714,-0.0149493,-0.00563834,0.0927789,0.0763586,0.036036,-0.048888,0.132393,-0.0468923,-0.0208705,0.0625332,0.0108538,-0.0663522,0.00385706,0.126112,0.0362266,0.057367,-0.00717495,-0.0645853,0.0810021,-0.0484094,0.0321485,0.0421616,0.000184481,-0.000829447,-0.0547831,-0.0517078
0.012841,-0.0661275,-0.0284163,0.0522219,0.000346403,0.0994421,-0.0851216,0.102161,0.0466214,-0.0400094,-0.0513589,0.0440801,0.0124666,-0.0141744,-0.036914,0.0216976,-0.0840887,-0.0439679,-0.0201531,0.0495276,-0.0834798,-0.0175744,-0.0805437,-0.107525,-0.0007167,-0.0251172,0.00723238,0.0605658,-0.00664125,0.0809768,-0.0557882,-0.00111037,-0.0435536,-0.0555878,0.00429802,-0.0473284,-0.107831,0.0373751,-0.0119474,0.0015455,0.00549197,0.0192483,-0.0176319,-0.00398438,0.0842226,-0.0265634,-0.160902,0.124329,0.055649,0.0425035,-0.0440486,0.0223734,-0.0166959,0.111858,0.0289981,-0.0626493,-0.0434337,0.00149477,-0.130014,-0.0232766
-0.00429683,0.0208108,0.0139009,0.0354904,0.0258328,0.00820496,0.0291866,0.0227736,-0.0610902,-0.0391121,0.0318933,0.0215355,0.130715,0.0191777,0.0113147,0.00283001,0.00364979,0.0126653,-0.0545454,0.0148751,-0.023592,-0.00663018,-0.042328,0.0118152,-0.0066736,-0.0217887,0.0546445,0.00596862,0.0172753,-0.118827,1,-0.146388,0.0371991,0.0259453,-0.0570959,0.0192371,-0.0339702,0.0161662,-0.0289419,0.0298824,0.0714623,0.00296396,0.0910061,-0.0513432,0.0493901,-0.0767181,0.0528133,-0.0290851,0.0272003,-0.0636655,-0.110265,0.050561,-0.0417693,0.0434204,-0.0367617,0.0518174,-0.00511248,-0.0625759,0.0159187,-0.0277072
-0.014836,0.136619,0.0136383,-0.0985614,0.0197785,-0.0584936,0.000931592,0.0763172,0.0401821,0.0402695,0.0795274,-0.0388444,-0.0372195,-0.141741,-0.0172953,-0.0313575,-0.036022,-0.0542826,-0.0496623,0.0106316,0.112146,0.00869176,0.0250817,-0.0288692,0.0707356,-0.0957758,-0.0873907,-0.0933984,0.0593163,0.0295014,0.053131,-0.0951251,-0.0338238,-0.033347,-0.0130112,-0.0955157,0.0497408,0.067685,0.0188391,-0.0548134,-0.0403753,-0.00994337,0.0666341,-0.0279622,-0.00196994,-0.0381775,-0.00595688,-0.0218784,-0.0395158,-0.0135714,-0.0368454,0.0925458,-0.00504987,0.0510618,0.0787279,0.0483859,0.0261775,-0.0836769,-0.0644245,0.0338727
0.000444463,-0.047813,0.0336294,0.0309946,0.00415782,-0.0612032,0.0937586,0.0541009,-0.00208454,-0.0602277,-0.0470116,0.120709,-0.00153228,0.0458457,0.0805901,0.0204274,0.038359,-0.0710278,0.0898958,0.0331811,-0.0759274,0.000954628,-0.0280888,-0.0745916,-0.0358176,0.0926384,0.0319479,0.0891787,0.0768314,0.0255007,-0.00281506,-0.109807,-0.039028,0.009221,-0.0619205,0.0208352,-0.0033883,-0.0356446,-0.0456889,0.0727363,0.110564,0.0348366,-0.00581034,-0.0613563,-0.0170766,0.0534993,-0.0193335,-0.0339273,0.0088094,0.0466099,0.00529407,-0.0233582,-0.00223795,-0.0553435,-0.0288742,-0.123152,0.0777836,-0.00953928,-0.0510884,0.0326066
0.0609947,0.0691694,-0.0506461,-0.0566248,-0.0581518,-0.0492763,-0.037813,-0.0498377,-0.0212145,0.00577905,0.0336773,-0.0645341,0.0048716,-0.0312387,-0.0182684,-0.00853665,0.0334969,-0.0412183,0.00952768,-0.0572496,-0.0268594,-0.00632785,0.00710109,-0.0840011,0.00346286,-0.0481224,-0.04846,0.0442627,-0.0107698,-0.0145837,0.0254028,-0.0142853,-0.0365587,-0.0409311,-0.0689342,0.0456088,-0.043828,-0.0168784,0.0528962,0.0014347,-0.0229568,-0.0124053,0.0306816,-0.0609184,0.0164626,-0.00466766,-0.125744,0.0141211,0.0180479,-0.00393989,-0.0232387,-0.00211545,-0.108912,-0.0504552,0.0533577,-0.0142213,-0.130801,0.0950428,-0.0432736,0.0289753
-0.0176032,0.00907117,-0.122204,0.0728913,0.0463094,-0.0593385,-0.0504613,0.0395106,-0.066623,-0.0821633,0.105424,-0.0674569,-0.0526472,-0.0655959,0.0366683,0.0563229,0.0671602,0.063712,0.108811,-0.0431889,-0.0528576,0.10872,0.0831488,0.0237073,-0.051357,0.0019432,-0.019303,-0.100382,-0.0318102,-0.0502247,-0.0316158,-0.0514574,0.0584895,0.0138236,-0.0262974,0.00375404,0.0855582,0.0218652,0.0533359,-0.0372636,-0.0429335,-0.0240777,-0.0451554,0.0340032,-0.0709738,0.00914916,-0.118053,-0.000314917,-0.0199182,0.0386181,0.0644514,0.0489429,-0.0595539,0.0971766,0.0150713,0.0180006,-0.00746377,0.0355601,-0.0421284,0.0178069
0.0375061,0.0424596,-0.107636,0.0783143,-0.0489197,0.104027,-0.0835073,-0.099823,0.00946873,-0.0317378,0.0446808,0.0780041,0.0141977,0.00735428,-0.00950962,-0.01114,0.0807848,0.066006,-0.142133,-0.0661277,-0.0156802,0.0102324,-0.0217153,0.0865648,0.00830599,-0.0555479,-0.0586984,-0.0395488,0.0183951,0.0568647,0.0720627,0.0503517,0.0508516,-0.0529047,0.125531,0.0305597,0.0565895,-0.00273427,-0.0868077,-0.0103343,-0.0140047,-0.0622888,0.0750003,0.047903,-0.0127348,0.0201511,0.0424311,0.0583593,0.0800047,-0.0418274,-0.126431,0.0200575,-0.0121346,-0.0452104,0.0172292,0.0397856,0.0644963,-0.0312039,-0.00593598,0.0219671
-0.0231937,-0.0228204,0.0568542,0.0174559,-0.00418289,0.0711851,-0.0103836,-0.0509669,0.0488703,-0.00990997,0.074394,0.0139698,-0.0933003,0.0559124,0.0663156,-0.047402,0.0133298,-0.076127,0.109187,-0.128316,0.0135651,0.0334338,0.0175907,-0.0118976,0.0315781,0.063093,0.0158903,-0.0312977,0.0286886,0.0679181,0.111333,-0.0430904,0.094041,0.0587557,0.0222338,-0.018179,-0.0600121,-0.13277,-0.0985463,-0.067791,-0.00377402,-0.0134588,-0.0529162,0.0600696,0.0226956,-0.0245374,-0.0362592,0.0926022,-0.0298259,-0.0135613,-0.0592358,-0.0219267,-0.134343,0.0761383,0.0121316,-0.0422517,0.0266763,-0.00376839,0.00178719,-0.102155
0.0154316,-0.0443125,-0.0457631,0.0301261,0.0252188,0.0685139,0.0861906,0.0359939,-0.0862463,-0.0268608,-0.0577518,-0.0421101,-0.0633414,0.108337,-0.00350003,0.0934308,-0.0666467,-0.032798,0.0533255,0.00320056,-0.00202573,-0.0295413,-0.0553303,-0.052969,-0.000604447,-0.0350818,0.072818,0.0121586,0.00495322,0.0885198,-0.101151,0.0414372,-0.080885,0.0883242,0.0347419,-0.072114,-0.117128,-0.0763651,0.0202968,-0.0843549,0.0246366,0.049684,0.0134244,0.0216519,0.0829075,0.0522905,0.0525774,-0.0368509,0.0711788,0.0690007,0.03083,0.0175268,0.0516754,-0.0420904,-0.0800313,0.0269055,-0.0642936,0.055394,-0.0198814,-0.0425553
0.0406292,0.0398865,-0.0951624,-0.011061,0.0512959,0.0448799,0.0428556,0.0654005,-0.076129,-0.1284,-0.0658669,-0.00785787,-0.0563056,0.0384424,-0.0360786,-0.000937937,0.0230819,-0.0232511,0.0434367,-0.0508348,0.0498322,0.0669619,-0.0517965,0.0536982,0.00826513,-0.0420188,-0.0268592,0.0937074,0.0380443,0.0292585,0.0428479,-0.0605185,0.0618641,0.0617525,0.0371436,-0.0137937,-0.0401441,0.0996416,0.00602356,0.0741509,-0.0516129,0.0345609,-0.0209097,-0.0282728,-0.00528463,0.00405818,-0.0413394,0.00954357,-0.016136,0.0888272,0.0274932,-0.0311599,-0.0775332,0.0593409,-0.0118876,-0.0499061,0.0104282,-0.0381116,0.0697573,0.103018
-0.0588023,0.0796031,-0.0739735,-0.0427855,-0.0293251,-0.00736525,0.00640008,0.0795036,-0.0285576,0.0448974,-0.0411374,-0.1012,-0.0784598,-0.029645,0.00384595,-0.0320949,0.0291485,0.0101837,0.0375245,-0.0575424,-0.0314539,0.0734657,0.0497852,-0.113721,-0.0879767,-0.0185711,-0.00568601,0.0274503,-0.0250306,0.0861578,-0.0492297,-0.0422238,0.0109883,-0.00692115,0.0531731,-0.0666909,0.00375043,-0.019032,-0.0689975,-0.0114895,-0.072432,-0.0190713,-0.0116089,-0.00777351,-0.00179449,-0.0240845,0.0384999,-0.00327929,0.0454983,-0.0484171,-0.00220386,-0.0252841,0.0336796,0.00058792,-0.00829416,-0.0375364,0.062398,0.0482191,-0.154613,-0.025774
-0.00422845,0.016833,-0.0291579,0.0197653,0.00242984,0.0544978,-0.0119232,-0.0279579,0.0499161,0.128393,0.00703783,0.0342284,-0.0113554,-0.0667467,0.0535101,0.00518031,-0.0865302,-0.145205,-0.0567911,0.0238367,0.00316324,0.114925,0.000458349,-0.0214687,0.0217453,0.0753359,0.0948594,0.064029,0.0678286,0.118528,0.00205115,-0.00677112,-0.028763,0.0427752,0.00965106,0.013967,0.0530565,-0.000836228,0.0712397,-0.0766167,-0.0552362,0.00474613,-0.0688474,-0.0877291,-0.0132564,0.0345459,0.0468007,0.0633049,0.0936944,-0.0781702,0.0120856,-0.0169364,0.0590664,0.160902,0.0301146,-0.00740479,0.0291828,0.113052,-0.0233589,-0.0879323
-0.0194101,0.0441573,-0.0583203,-0.0128429,0.0140879,0.0276372,0.0752605,0.104693,-0.0663052,0.0153849,-0.016468,0.0741808,0.00195201,0.0849325,-0.00662228,-0.0473619,-0.0243159,0.0394811,0.00709,-0.024285,-0.128843,0.0221332,0.0278023,-0.117114,0.110235,-0.0081688,-0.0284525,-0.00344851,-0.0199283,-0.125798,-0.118445,-0.0491878,-0.0207009,-0.00263566,0.0554294,0.0236795,0.0427184,0.0268621,0.0079564,0.131415,0.0425616,0.0265646,-0.0120512,-0.0347923,0.0379766,-0.00926956,0.0229586,0.0195884,-0.00672983,-0.040156,0.0475828,0.0175374,-0.0785413,0.0614809,0.00611088,-0.106317,-0.0331335,0.00135131,-0.0687531,0.0171267
0.0198563,-0.0393553,0.058403,0.0520433,-0.029602,-0.0170007,0.0414301,-0.0172704,0.0480728,0.0375978,0.0281008,-0.0252029,-0.00692728,-0.0762734,-0.0719718,-0.029847,0.063141,0.0165189,-0.0510173,-0.00279737,-0.00514456,0.00676613,0.140459,-0.00194482,0.0608935,0.0700593,0.128676,0.0708274,0.00227854,0.00828231,0.0366028,-0.033182,0.0582153,0.0671313,0.0209343,-0.0526794,0.000236801,-0.0478107,0.0422123,-0.0247092,-0.122557,-0.0645688,0.101792,-0.0387748,0.0767932,-0.0408689,-0.117388,0.0892395,0.0808719,-0.0940636,-0.0886989,0.02367,-0.0221021,0.0230722,-0.0346383,-0.0555721,0.0082496,-0.0266284,-0.00724298,-0.022118
0.0637248,-0.00956727,-0.019567,-0.096937,0.00408328,0.00202154,-0.0175619,0.105993,0.035919,-0.0938706,0.00729883,0.0241708,-0.0188428,-0.020915,0.021685,-0.0119593,-0.00250218,-0.0847581,0.014973,-0.0338637,0.195223,-0.075174,0.000825087,0.0110373,-0.0318335,0.0618273,-0.0023882,-0.166389,0.0360236,0.0168838,-0.0565326,0.115523,0.0611243,0.0335037,0.124602,-0.00869995,-0.100422,0.00860705,0.0134591,0.0269083,0.0489265,-0.100093,-0.0482859,0.0318952,-0.0412548,-0.0184832,0.00273583,0.162284,0.048892,0.0300529,0.0531268,-0.068701,0.0129078,-0.00529432,0.00342752,-0.0196001,0.0186237,0.0521703,-0.0383192,-0.0138601
0.00167446,-0.000453931,-0.0782233,-0.0205609,-0.0214118,-0.00442905,0.00804084,0.114041,-0.0747171,0.0695421,0.0948127,0.133471,-0.00352847,0.0213642,-0.097774,0.0227499,0.0332673,0.013546,-0.0365023,0.0641192,-0.100335,-0.0123159,-0.0218564,0.0139334,0.0350013,-0.0232696,-0.0729863,-0.106555,0.107461,-0.179271,0.0237566,-0.0887421,0.0203778,-0.039641,-0.0382516,0.0288513,-0.0868119,-0.0506022,-0.0117288,-0.0471561,-0.0786904,-0.0854164,-0.0747173,0.0386386,0.0566793,-0.0311744,-0.0169503,0.0534614,-0.01833,0.0203677,0.0531204,0.0026985,-0.0643782,0.12131,-0.0110423,0.0243973,0.117533,-0.0246582,-0.0310637,-0.0442901
-0.0127486,0.0721329,0.0577004,0.0226853,0.0386528,-0.0148382,0.108862,-0.00585815,-0.0517294,-0.0278054,-0.0142518,0.0516868,0.119904,0.0628465,0.0804361,-0.00179448,0.0337815,-0.00830847,0.168861,0.00892211,0.0163974,-0.0405992,-0.0951614,-0.0590974,-0.0706537,0.0476898,0.00362368,-0.0166432,0.0306014,-0.00739507,0.0368284,0.0740883,-0.0350717,0.0468378,-0.029797,-0.0161698,0.00811897,0.0159282,0.00437099,0.0310365,0.0216901,0.0420047,0.0334176,2.01898e-05,0.0380292,0.00657891,-0.00550944,0.00399597,-0.0759899,0.0614531,-0.0471011,-0.027068,0.0156005,-0.0104293,0.0434276,-0.00963602,0.00913013,-0.0316255,-0.0346394,-0.00679948
0.0636115,-0.00424754,0.0493933,0.0184827,0.0310108,0.0145149,0.0444354,-0.00752603,0.0579454,0.0423724,0.057632,-0.000856382,-0.078384,0.0417854,0.0910913,-0.012018,-0.0139426,-0.0101358,-0.0302785,-0.00981861,0.07473,0.0976675,-0.0673984,0.0437304,-0.0268822,0.0173527,0.0972289,-0.0307743,0.0327589,-0.0933795,-0.0481034,-0.0250223,-0.045443,0.0123605,-0.0104386,-0.0309738,0.0642698,0.0817314,0.00719531,-0.0479656,0.00389079,0.0511073,0.0479948,0.0365959,-0.0470118,0.0023141,0.0600287,0.00223325,0.112606,-0.0252752,-0.0232943,0.0899796,0.0319178,-0.0943876,-0.0450965,0.0280006,0.0097747,-0.0145335,0.0833584,0.0282715
0.00776011,0.0457202,0.0550308,0.066289,-0.0107479,0.0823857,-0.0505461,0.0930879,0.0212877,-0.068058,0.0167815,-0.0151712,-0.0947508,-0.00426718,-0.0825165,-0.0419395,0.0556117,0.0114748,-0.1059,0.0123534,0.036125,0.0334411,0.0587632,-0.023627,0.047154,-0.0230106,0.107528,-0.0450127,-0.110997,-0.0379557,-0.141135,-0.0476163,-0.0155015,0.0345068,0.00997756,0.0554715,0.0793046,-0.0765756,-0.0161716,-0.0306285,-0.0282418,0.0517649,-0.0263044,0.033266,0.00391243,-0.0737706,0.0298415,0.0339671,0.0529553,-0.00251318,-0.0668518,0.0523267,0.0130219,0.00823808,0.0130951,0.103883,-0.00854304,-0.0630143,0.120451,-0.0174839
-0.0490703,-0.0412699,0.11144,0.106534,-0.0601105,-0.0108344,0.00649028,0.0152144,-0.0189181,0.0904572,0.0284265,0.086557,0.100179,-0.066818,0.0193754,0.0166833,0.119118,-0.141655,-0.107329,0.0493321,-0.00127784,-0.0439916,-0.02236,0.0571127,-0.0340928,-0.0291344,0.0423683,0.0196555,0.0548336,0.0577801,0.163888,-0.0311214,-0.0521191,0.0102479,0.1084,0.0383795,-0.0408913,-0.0311153,-0.0709779,0.124769,-0.116413,0.0425355,-0.00467758,-0.0525702,-0.0115267,-0.0426931,-0.0439155,0.0183729,0.0495247,0.121405,-0.0137895,-0.0370443,0.019443,0.0242608,-0.0321519,0.0294189,-0.051359,0.032165,-0.0859638,-0.0397964
0.0741016,-0.0469299,-0.0162134,0.0188178,0.0570014,0.0948365,-0.0156722,0.0899079,0.0167532,0.0635159,-0.0244164,-0.0046022,0.0727074,-0.0604333,0.00918153,0.0221524,-0.0381991,0.0589937,0.0520875,-0.0374253,-0.0738476,0.0213869,-0.0341137,-0.0525145,0.0364419,0.0414957,-0.0541579,-0.0639602,-0.118118,0.0221317,-0.0469696,-0.0783439,0.0988677,0.0160898,-0.00605396,-0.0569105,-0.0422589,0.186159,-0.0163421,-0.0125585,0.0358198,0.0394043,-0.0156344,-0.0755909,0.0609561,0.0792418,0.0501661,0.0612805,0.0642385,-0.00232668,-0.000436727,-0.0365433,0.0307438,-0.00104181,0.0437392,-0.0290031,0.0691831,-0.102127,-0.0495347,-0.0146294
-0.00191385,0.0487966,-0.0114603,0.0288708,0.0355221,0.104425,-0.0841255,-0.0450854,-0.0530298,-0.0117976,0.0809926,0.068027,-9.60425e-05,0.0657777,-0.00723574,-0.0339779,-0.0255899,-0.04359,-0.0337331,0.00766354,0.069135,0.0985634,0.0121972,0.0144264,0.0448727,0.0525661,-0.0645101,0.0909803,-0.0212792,-0.0492403,-0.0470662,-0.0125758,0.0176767,0.0390568,-0.0595461,-0.0710065,-0.0811693,0.0378392,-0.0414875,-0.0952669,-0.0276864,-0.0478068,0.127289,0.0363622,0.0270283,-0.0186034,0.0306869,0.0408433,-0.106878,-0.050076,0.000813351,-0.0784127,0.0390901,-0.00354091,-0.000320996,0.0740508,0.0434496,-0.0319536,-0.0131323,0.0165954
-0.00811037,0.0122826,-0.106682,0.0397401,0.141788,0.0747371,0.110142,-0.0260343,-0.0879642,0.0332275,0.0667504,-0.0209435,0.0602607,0.0887023,-0.0705321,-0.0715176,-0.0426273,0.0205154,-0.117654,-0.0375531,-0.0568545,-0.0502666,0.0248433,0.0689377,0.071316,0.0290316,0.0254275,0.0210127,-0.0352922,-0.0160517,-0.0701896,-0.00263401,-0.0171682,0.00602294,-0.0418354,0.0224337,-0.0554395,-0.0165881,-0.0191627,0.0380417,-0.0144576,0.026396,-0.0482834,-0.0261277,-0.054754,-0.0183116,-0.0185012,-0.0498874,0.0382041,-0.0713076,0.0252446,-0.0382325,-0.0138752,0.0304945,0.0191006,0.0195823,-0.0522255,0.0262426,-0.0399136,-0.0951473
-0.050531,-0.0272697,0.0466358,-0.0206568,0.0378043,0.0842853,-0.0899133,0.10622,-0.0823814,0.0567889,0.0577496,0.0352074,-0.0668126,-0.00583617,-0.023974,0.00960883,-0.0560866,-0.0819298,0.0282265,0.0620911,0.0859762,-0.00838684,0.00381972,-0.00763084,-0.0409976,-0.0365508,0.0653396,-0.0613267,0.0603151,0.0228965,-0.0434675,0.00183519,0.0356797,0.0527742,-0.13961,0.0090753,0.0214528,0.0132886,0.0654251,0.0235421,0.0316959,-0.0138162,-0.0028713,-0.0404933,-0.00248958,-0.0387974,-0.0169649,0.000416001,-0.0114283,0.0408272,0.00910276,0.0368366,-0.00429509,-0.0239211,-0.00257426,0.0385726,-0.0199721,0.0546166,0.0759187,-0.0760601
0.00309167,-0.118273,0.0270935,-0.000241547,-0.0697619,0.00788003,-0.00777121,-0.0782762,-0.0195491,0.00223622,0.0150108,0.0372644,0.0178484,-0.00436364,0.0644879,0.0535851,-0.0218699,-0.0142414,0.0159016,-0.0938779,-0.0945077,0.0561763,-0.0610443,-0.00637593,0.0789775,0.0441802,0.0279589,-0.0273853,0.00585694,-0.0254389,0.0137265,-0.0585974,-0.0206338,0.0216208,-0.090737,0.015557,-0.0349066,0.122094,-0.127674,0.0150796,-0.0883869,0.00272387,-0.00951299,0.114592,0.0145897,0.0296651,0.0271569,0.0373076,0.0264274,-0.0196662,-0.0125049,0.0359876,0.0216582,0.101801,0.067889,0.0638712,0.0533528,0.082128,-0.0444417,0.090999
0.0481437,-0.0880369,-0.0187611,-0.099011,0.0738509,0.11511,-0.0135786,-0.0349175,0.0656566,0.0208266,-0.0383973,-0.0727103,0.0213741,-0.0198716,0.0709098,-0.0208057,0.148813,0.124675,0.0282494,0.0614047,-0.0551828,0.0568177,0.0250465,0.00623798,0.0547378,-0.0546148,-0.111592,-0.00120546,-0.00847359,-0.0212292,0.0787397,-0.00559408,0.0792829,0.00396987,0.0852331,-0.09582,-0.0216846,0.00176605,-0.0937537,0.0772893,-0.0351953,0.119737,0.0441378,0.00520733,0.0648068,-0.0477175,-0.0297102,0.0746763,-0.0234707,0.00855536,-0.0184901,-0.0330059,-0.0625982,-0.104901,0.113015,-0.0521332,0.0908255,-0.0134626,0.0705566,-0.00765697
-0.0451308,0.0436666,0.0410696,0.0156092,-0.0229024,-0.0615443,-0.00939546,0.00278938,-0.00701539,0.0600759,0.0249906,0.0947343,-0.0577154,-0.0122104,0.00306581,0.0509641,0.0948761,0.0233025,-0.0708988,-0.0334877,-0.0664077,-0.025017,-0.0892801,0.00102356,0.0390839,0.0553949,-0.0279953,0.0364782,-0.010015,0.0427562,0.0374219,0.0192421,-0.0597484,-0.0601872,-0.076248,0.0464278,-0.0553161,-0.00428469,0.0798238,0.0631493,0.116552,-0.0109973,-0.00628822,-0.0748607,0.0525453,-0.0290448,-0.0299633,0.0825616,-0.0228259,0.0218765,-0.0120722,0.0583402,0.0948299,-0.0695646,0.0122634,-0.0284726,0.0294335,-0.0114367,0.0160161,-0.00452152
0.0721716,-0.0258129,0.037023,-0.0366263,0.0288892,0.0751646,0.0459512,0.0667389,0.0156042,0.0732595,-0.0357975,-0.0446587,-0.0793954,0.0672215,-0.0436434,-0.0276792,-0.0458616,-0.120554,0.0696993,-0.0795414,-0.113884,0.0238516,-0.125048,0.111588,0.00396678,-0.0129115,-0.00326827,-0.0319499,-0.101763,0.00921695,0.0337003,0.0439445,0.0396723,-0.020014,0.0107227,0.0393293,0.012349,-0.0603392,0.0398692,-0.0271176,0.00417005,0.0294304,0.0335808,-0.00806567,0.00621021,0.0592221,0.0477692,-0.0368336,-0.0868256,-0.073563,-0.0237874,-0.0296841,0.0527363,0.218189,0.0401389,0.0422428,0.00729965,-0.0405935,-0.0338494,-0.0261653
0.00724672,0.0130187,0.0648091,0.025332,-0.122692,0.0977233,0.0174615,-0.0230791,-0.0298136,-0.0754892,-0.00470896,-0.0256082,0.0771529,0.0281102,0.0260936,-0.0120687,-0.0696106,-0.042851,0.10841,-0.040737,0.0202083,-1.34176e-05,-0.00494789,0.0198483,0.00805338,0.0487732,0.0275136,0.00341079,0.0637151,0.0745831,0.0945985,0.0459964,0.00167303,0.13016,0.0177668,0.0469858,-0.0179528,0.00328027,0.0132822,0.00389012,0.102339,-0.0599901,0.0177438,0.0566946,0.076219,-0.0546425,0.0333838,-0.0298641,0.0231817,-0.00557409,-0.0718839,0.0388633,-0.0614077,-0.126579,0.0291284,0.0603621,-0.0137252,0.0691923,0.0183386,0.0416421
-0.0287629,0.0607957,-0.0263835,0.110204,0.111189,0.0278001,0.0416305,-0.107627,-0.106114,0.0648866,0.0347037,0.0490583,-0.0500858,0.0243178,0.0200918,0.0374279,0.093982,0.0589329,0.0995709,0.0160299,-0.0614863,-0.0809533,0.0464057,0.110899,-0.0503201,-0.0861609,0.0207308,-0.0353726,-0.00375523,0.0402283,-0.093363,-0.0884449,-0.126269,-0.0619317,0.128616,0.00625631,0.0659065,0.0543471,-0.0320971,0.0954371,0.00471143,-0.0148984,-0.00797157,-0.0338095,0.0176209,0.00380401,0.00286015,0.0957313,0.0349027,0.0428471,-0.00597871,-0.0318689,0.00804331,-0.0564056,-0.0162124,-0.0845098,-0.0286931,0.00800754,0.0438642,0.0263885
0.0971343,-0.126122,0.0349272,0.126281,0.0464934,0.0338084,-0.0148215,0.068872,-0.0142773,0.0415869,0.0135475,-0.0097408,0.108216,0.0646756,0.0327302,0.0806334,0.0468677,-0.124136,0.00803109,0.0403913,0.057257,-0.0469973,-0.0679681,0.0527975,-0.0613023,0.00222567,-0.0977025,-0.00740273,0.0289438,-0.138993,0.00221699,-0.00640462,0.0020577,-0.0731083,0.0700377,-0.0505112,0.0423332,0.134732,0.0432092,-0.0607631,-0.0430177,-0.0747154,-0.0893419,-0.0175846,0.000825151,-0.0121355,0.0459761,-0.0570895,0.0124605,0.0184483,-0.0442104,-0.0338298,0.130931,-0.0701475,0.0224739,-0.120425,0.0145213,0.0435698,0.0312942,0.0284585

max: 1
min: -0.18333
avg: 0.00130942
