0.0512922,-0.0592987,-0.0245864,-0.0172487,0.0308549,-0.0565121,-0.0826777,0.00992597,0.0458114,0.0457033,-0.0246054,0.0544426,0.0451848,0.0249279,0.0751896,0.0316683,-0.0520438,0.0169277,-0.102213,0.0433754,0.0913008,0.0699451,0.0349613,0.00938973,0.0680737,-0.0600745,-0.0232617,0.0410282,-0.0409392,-0.0266724,-0.0612283,-0.0688915,-0.0666319,0.0442958,-0.0803214,-0.104249,0.0289281,0.0318475,0.00853128,0.0512917,0.10518,0.094101,-0.0689213,0.00349964,-0.012861,-0.0488788,0.0590022,0.0562575,0.0366284,0.00782514,0.00996758,-0.0108189,-0.0219898,-0.000278701,0.0955411,0.0524123,-0.0307223,0.0378761,-0.0393241,0.0494996
0.0609631,0.0778728,0.0447839,0.0261069,0.04455,0.00177317,0.0577293,0.0368745,0.0237222,0.0424256,0.0637972,0.075275,-0.070514,0.0494245,-0.0615435,0.0208239,0.0955555,0.0861155,-0.000390754,-0.0330435,0.0486653,0.0623619,0.0484969,-0.0522188,0.0112154,-0.035685,-0.0440069,0.0423275,0.0160404,0.0460391,-0.0160039,-0.00740271,-0.00366339,0.0236311,-0.00275031,0.0614783,-0.0344582,-0.0321435,0.0115135,-0.0945675,0.0600607,0.00242639,0.0821978,0.0649104,-0.0116414,-0.0232155,-0.0266171,-0.098987,0.0687021,-0.0594687,0.106745,0.0707988,-0.0616632,0.00768404,0.0134321,0.065689,-0.0692804,0.157181,-0.0374064,0.0119248
-0.0494768,-0.0311311,0.0163378,-0.0186832,0.0176185,-0.0219864,0.073638,-0.00802161,-0.0146998,-0.0541165,0.00499174,0.0941762,0.02886,0.0436128,-0.0196688,0.0954625,0.0861042,0.0536954,-0.0912161,-0.00348233,0.0709304,0.0993035,-0.0292591,0.0455379,-0.0324794,0.0505101,0.0576494,0.0510934,-0.0116887,-0.00237778,0.0669122,-0.0825826,-0.048872,0.108518,-0.0719958,0.0529228,0.0514288,0.061232,-0.0239101,0.0376281,0.087906,-0.0668231,0.0653134,0.0735976,-0.151125,0.0150619,-0.0535056,-0.120711,0.0520431,0.116873,0.0550744,0.0247776,0.00907465,-0.0137716,0.0168902,0.0450772,0.0608271,-0.0501569,-0.0264874,-0.0107841
-0.0583928,0.061868,0.0210021,0.038104,0.0131194,-0.0266252,-0.0402704,-0.0796759,-0.10153,0.118095,-0.0154492,-0.0141008,0.0601385,0.0812283,-0.0474786,0.0106195,0.0403819,-0.0667291,-0.0593766,0.0495561,0.0154948,-0.0178214,-0.0561204,0.0635852,-0.0520332,-0.0682331,-0.0749533,0.0674331,0.0217349,0.0144431,-0.0924322,0.00664733,0.0146464,0.0483452,-0.00892593,-0.061333,0.144399,0.027528,-0.0233593,-0.0217274,0.0103199,-0.0497949,-0.0051345,0.120088,0.118889,0.0483382,-0.0417055,-0.00454076,0.0706999,-0.0147743,0.0136293,0.0491946,0.0558952,0.0917569,0.0493353,-0.0212186,-0.0561925,-0.0126237,0.0904295,-0.0141861
0.048029,-0.0347911,0.0107472,-0.0236073,0.0103984,0.0179793,0.0423218,0.118402,0.0105811,0.0134599,-0.039549,-0.0474346,-0.0376286,0.0665311,-0.0153607,0.061768,0.0870896,0.0381156,0.0759551,0.154167,-0.12087,-0.111868,-0.0047474,0.0893739,-0.0585902,-0.0405046,-0.000819809,-0.0700091,-0.123693,-0.071427,0.0199226,0.0229637,0.0755687,0.0137883,0.0168148,-0.017625,0.0113377,0.0953473,0.0184951,0.0359405,0.0814953,0.0373369,0.169826,-0.0298016,0.0301806,0.0619259,0.0249393,0.0395675,-0.0339312,0.0866792,0.119317,0.0584017,0.00640812,-0.0469553,-0.0959226,-0.0110605,-0.00749969,0.0796752,0.135937,0.0149388
-0.0316038,0.0480895,0.0748598,0.0642299,0.0115779,-0.0200904,0.0657541,-0.0553094,0.0574925,0.111139,0.0910621,0.092354,-0.000223386,-0.0405792,0.0116813,0.0439429,-0.0132887,-0.0128019,-0.100745,0.061737,0.0833987,-0.0058476,0.013072,0.017153,0.135914,-0.0254999,-0.0260134,-0.0518805,0.0201582,0.0621071,-0.0671466,0.0988648,0.0925263,0.0243258,-0.0312634,-0.0390626,0.0683479,-0.0618413,-0.060322,-0.0699597,0.0330633,0.0458192,0.017576,-0.0212796,-0.0523698,-0.00513772,0.0451755,0.0697945,-0.0505793,0.0508724,0.0566932,0.0175727,-0.0949858,0.0490169,0.0514164,-0.0084103,0.151822,-0.0336644,0.033116,0.117134
-0.00705514,0.0542149,0.020378,0.00773152,0.115755,-0.0345112,0.00295922,0.0221777,0.0463366,0.0494911,-0.0679464,-0.042729,0.0310293,0.0525851,-0.0735197,0.102074,0.010873,0.0610157,0.019655,0.0466789,0.0446279,0.0744597,0.00414387,-0.0458614,-0.0783033,-0.0862709,0.102901,-0.0130699,0.0792461,0.0622084,-0.0641197,0.0272884,0.106456,-0.0265513,-0.165607,0.0123826,0.0495538,0.0121329,-0.000620097,0.146102,-0.00535051,0.0752928,-0.00447199,0.104218,-0.03915,0.0365733,-0.0369555,0.141178,-0.00657319,0.0922119,-0.0466611,0.0137095,0.0678946,0.10017,0.0242485,0.0574211,0.0461927,0.101566,0.111184,-0.04837
-0.0170875,0.0116789,0.0474131,-0.00375779,-0.0655718,0.0369199,0.0291153,0.00780891,0.120771,0.0581781,0.0719733,0.010561,0.0515423,-0.0312974,0.0709817,-0.0705554,-0.0108236,-0.0073907,-0.00521496,0.0913716,0.0016576,-0.0265533,0.00832734,-0.0959794,0.0058115,-0.142542,0.11846,-0.0403066,0.0339805,-0.110887,0.0471829,0.0450189,0.0626183,0.050814,0.00591592,-0.0624845,0.061633,-0.0101169,0.0464335,-0.0135279,-0.0943904,-0.0803304,-0.0431927,-0.0623516,-0.0145359,0.0571051,-0.0612784,-0.127781,0.0121969,0.10276,-0.0698675,-0.0461386,-0.00227224,-0.0545955,0.0513413,0.0851122,-0.0377939,0.070273,0.0147856,0.0173423
-0.0161805,-0.0157852,-0.110796,0.125222,0.0399945,-0.00811821,0.0240303,0.000764403,-0.0830514,0.0241606,0.0397415,0.0949632,0.0570047,0.0067073,-0.0372782,-0.0321545,0.0522891,0.00696166,0.0349882,-0.0268482,-0.0332426,-0.101836,-0.0582441,-0.0503694,-0.0803168,-0.0165007,-0.00314836,-0.0910446,-0.0729616,0.0664661,0.0403889,-0.0565801,0.0358177,-0.00875323,-0.0091896,-0.0264081,0.0513526,-0.0321839,0.0360638,0.0669529,-0.00333622,0.0291622,0.0136294,-0.0259459,0.0427747,-0.0102625,-0.044542,0.0105233,-0.0128003,0.0821023,-0.0934851,0.018866,0.132336,0.129917,0.0479951,-0.0642332,0.101447,-0.122632,0.0397439,-0.0175666
0.0571257,0.0106626,0.0467839,-0.00508827,0.0390392,0.00983611,-0.0700924,-0.00667992,-0.00139333,-0.116826,-0.0895178,-0.0138654,0.0532442,-0.0824202,-0.0107028,0.0712985,0.0395369,-0.129002,0.0984698,0.106393,0.0668097,0.0282253,0.0303071,-0.00284771,0.074111,0.0983149,-0.040101,-0.0327708,0.0109767,0.0527322,0.0572587,0.000275098,0.0697278,-0.0782569,-0.00285622,-0.0710825,0.0390056,-0.00415881,0.0119838,0.0449674,-0.0199899,0.00100025,0.0184874,0.129674,-0.0491758,-0.00652584,-0.0677812,-0.0652031,0.0183389,0.0569034,0.0316209,-0.0611444,-0.0287372,-0.0535262,-0.00999443,0.0703831,0.038895,0.00152824,0.00624578,-0.0110295
-0.0110453,0.0798546,0.0313615,0.110715,0.00950807,0.0465109,0.00325784,-0.0402058,0.00423158,0.0451995,0.0142494,0.00543418,-0.0720816,0.0172049,-0.0753848,0.0620621,-0.00960318,0.00542004,-0.0614489,-0.0681669,-0.0115091,-0.0531325,0.0124846,-0.0286332,-0.157817,0.0253239,-0.0168,0.0146535,-0.0336711,-0.0515443,-0.0022576,-0.0539331,-0.0486546,0.0805981,-0.0402316,-0.0680986,-0.01849,-0.0694526,0.107716,0.00442783,-0.118904,0.0403984,0.0136502,-0.114098,-0.0703681,-0.0267453,-0.00302395,-0.0324078,-0.037141,-0.00271298,-0.0388918,-0.0143229,0.0305132,0.0599772,0.00205859,-0.0348498,0.0217382,-0.055478,0.0262687,0.0043999
-0.0821092,-0.0565909,0.0515275,-0.0449103,-0.0432443,0.0356783,0.0308153,-0.00655263,-0.0705105,0.0248868,0.0179749,0.0795982,0.0013642,0.0153957,0.00535603,0.0448734,-0.0438956,0.0205345,0.0184376,0.0404885,-0.0293752,0.01583,-0.059332,0.0329491,0.0747564,0.0900409,-0.0820894,0.128261,-0.0255309,0.0334413,0.0199454,0.0276901,0.0777287,0.00664105,0.0241255,0.0751239,0.0100469,-0.0570099,-0.0854952,0.0388261,0.00702484,-0.074369,-0.0036605,-0.107511,0.0174073,0.0140215,0.0286017,-0.0604474,0.0222104,-0.044434,-0.0766885,0.0292811,0.0441243,-0.0222805,0.00762253,-0.0046133,0.0350967,-0.0472254,-0.0447841,0.075392
0.0633373,-0.0806918,-0.0263591,-0.0556235,0.116548,0.0577362,-0.0204555,-0.0299669,0.0508117,0.117164,-0.0187117,0.0480097,0.115829,0.0146125,-0.132568,0.0654412,0.0369001,0.0192137,-0.0145742,0.108238,0.098581,0.0501176,0.0202523,0.0526871,0.050442,0.00224932,-0.0279711,-0.0485277,-0.00529624,-0.0257386,0.00620815,-0.14307,0.00421748,-0.0270047,0.0458448,-0.10582,0.0338912,-0.0360909,0.037443,0.1603,0.0326114,-0.0142244,0.0359068,-0.00163815,0.0863919,0.146013,-0.0474711,0.0647211,0.0628783,0.167335,-0.0146779,-0.0136826,-0.00151828,-0.0428541,0.100591,0.0210042,-0.00124812,-0.134367,-0.0345899,0.0945967
0.0230265,0.0320761,0.0363104,0.0893384,0.0305213,0.0222097,0.0724934,-0.0521199,-0.0272711,-0.00512329,-0.113681,0.0217982,0.0973839,-0.0212612,0.084555,0.0106201,0.00541477,-0.0719334,0.0614675,-0.119256,0.056314,0.0223492,-0.00726465,0.0206114,-0.0131699,-0.048927,0.0752727,0.0157554,0.0864285,0.0746643,0.124328,-0.067393,0.102421,-0.0630636,-0.025559,-0.0978738,-0.0137985,-0.0309505,0.0289834,-0.0260814,-0.120552,0.0287248,-0.0537982,-0.0993758,-0.0547997,0.0138115,0.0320994,0.0203222,0.103751,-0.0153008,0.00959529,0.103096,-0.0166664,0.0105632,0.0276785,-0.0157666,-0.0377494,0.058901,0.0514737,0.0444694
-0.024681,0.0129697,0.0654004,-0.0715749,0.0272348,-0.0557129,-0.0861022,-0.00113626,-0.00399529,0.128816,0.0416363,-0.0530825,0.0154493,0.157921,0.0390005,-0.0220849,0.0221643,-0.0588778,0.119911,0.112099,-4.71049e-05,0.129492,0.0795271,0.0366256,-0.0189934,-0.0389033,0.0791665,-0.0147126,-0.117775,-0.031046,0.00429704,0.0182447,0.109663,0.0378738,-0.0163815,0.0537916,0.112301,0.0336692,0.055978,0.0514819,-0.0581978,0.0577827,0.0666235,-0.0230298,-0.0320033,0.044515,-0.00607771,-0.0108068,-0.0166388,0.183487,0.0805166,0.00970005,-0.0636773,-0.0374516,-0.0599683,-0.0139188,0.0112264,-0.0265225,0.100917,0.0485319
-0.0276494,0.0176824,-0.0509857,0.0231715,-0.0253399,0.065794,-0.00257154,0.0875323,0.0209801,0.0332383,0.0133712,-0.0179312,0.0579406,0.119195,0.0491253,-0.0350257,0.0923726,0.00166839,-0.0315478,-0.00675299,-0.0240015,0.0900803,-0.0151937,0.0359914,0.0425136,0.089073,0.0501302,0.0419652,0.0504004,0.052392,-0.0126234,-0.0553648,0.0220839,0.0447868,0.0579855,-0.014996,-0.020282,-0.118444,0.0475284,0.109299,0.0481702,0.0206273,0.0362043,0.00108416,-0.0260658,0.00547084,0.0642951,-0.105525,0.0673216,0.0894795,-0.0160218,-0.00626483,0.0413826,0.00342218,0.0793137,0.00802089,0.000592528,-0.0297291,0.0271129,-0.0207522
0.00836152,0.0662996,-0.028303,0.0482078,0.0481247,-0.0809472,0.0680228,-0.0113288,0.0507848,-0.0903643,0.0959327,0.0121684,0.0228944,0.0602063,0.0556353,-0.0571142,-0.0274862,0.0449473,-0.0184718,-0.042907,-0.0162894,-0.0978856,0.151402,0.0324712,-0.0130323,-0.0551403,0.0248181,-0.0442489,-0.00294074,0.0510268,-0.0219402,0.0399349,-0.0285629,0.0407023,0.180404,0.0124692,-0.0714846,0.015401,-0.0676047,0.0003649,-0.0798035,0.068735,-0.0208799,-0.098048,-0.000492597,-0.0104366,0.000927383,0.034102,0.00115274,0.0592961,0.051045,0.0622813,-0.026113,0.0673659,-0.0208201,0.056406,0.0147784,0.0721828,-0.0923564,-0.0765827
-0.083905,0.0182565,0.0431091,-0.013859,0.0237589,0.019353,-0.0267126,0.0250423,0.0137121,0.0241364,0.0265288,-0.0408058,0.104029,0.0208092,0.0364263,-0.0707739,0.0444434,0.0292038,-0.0719387,0.026513,0.0623297,0.0783704,-0.0151071,-0.0740369,-0.022041,0.0150545,-0.10455,0.0271977,-0.0467374,0.0549314,-0.116541,0.0162964,-0.0286442,-0.0878127,-0.0564886,0.00669375,0.0115443,0.0589993,-0.0378602,-0.0548052,-0.0207502,-0.0266196,-0.0752913,0.130487,0.0289584,-0.0627324,0.089293,-0.107569,-0.146823,-0.0342505,0.0256551,-0.0565827,0.0400159,-0.0432772,-0.00738649,-0.0831406,0.0569365,0.0440455,0.0226676,-0.04317
0.0917358,0.0919038,-0.041996,0.0163952,-0.0558566,0.0596798,-0.00604767,-0.121582,-0.0750685,-0.0309477,0.0708446,-0.00465168,0.0112188,-0.0411457,0.0430621,-0.0770304,0.0360961,0.0863515,-0.0377362,0.0122554,0.0223924,-0.00140224,0.0330197,-0.0306975,-0.0908417,0.0111024,0.116482,0.00583689,0.0851535,0.0500904,0.0509128,-0.0965,0.083533,-0.0365107,0.0124998,0.0705895,0.055069,0.0247949,-0.0193456,0.0179965,0.0267707,-0.0483039,0.0831649,0.0656448,0.00767175,-0.0535189,0.0472658,0.0980938,-0.0270569,0.100919,-0.0128306,0.0901306,0.0245859,0.0797769,-0.000949161,-0.0740823,0.0368355,-0.00692216,0.059061,0.0241622
-0.107438,0.0726107,0.0484303,0.00616867,-0.00904641,-0.0136159,0.0269874,-0.0926928,-0.00397523,0.030822,0.0272451,-0.0215894,0.0205167,-0.109073,-0.0196749,-0.0364984,0.0386603,-0.0086631,0.0255999,0.00803769,0.013879,-0.0556066,0.0230437,0.0894744,0.0390419,0.0249152,-0.00134252,0.0281126,-0.0353299,0.0970227,0.0355958,0.0155435,0.0910283,0.0676948,0.0196652,0.032344,0.00839327,-0.127034,0.0160712,0.0154995,-0.0697824,0.0706811,-0.0317784,-0.00696614,-0.0311675,0.0508456,0.0630353,-0.00809953,-0.0190646,0.0560659,0.0579521,-0.0597245,0.00109734,0.0842631,-0.0379974,0.0130068,0.0625496,-0.00221092,0.0106167,-0.131153
0.062449,-0.0799577,-0.0934863,0.0130627,-0.0383838,-0.00086513,0.0278254,0.0369514,0.0260119,0.00151547,0.124975,0.0174609,0.062444,0.0081709,-0.052713,-0.0307967,-0.0478076,0.0872703,-0.0484495,-0.0697622,0.040063,-0.0125452,0.0462262,-0.0710206,0.0343242,0.0204025,0.015844,0.0120375,-0.0416152,0.0745815,0.0207484,0.00312163,0.0503153,0.104538,0.0184612,0.0398923,-0.0309902,-0.0534048,0.0210421,0.0428577,0.035343,-0.0317105,-0.0173212,0.0969825,-0.107976,0.0795639,-0.0314211,-0.0191954,0.055207,0.00913804,0.0229796,0.0374124,0.0654206,-0.043792,0.0338914,-0.0119844,0.00178156,-0.0786514,-0.00268135,-0.0554143
0.0218907,0.189389,-0.0213536,-0.00860128,0.0372139,0.035426,-0.00851166,0.149586,0.0472933,0.00980652,0.068913,0.0145488,0.0206756,-0.00962348,0.00361279,-0.100446,-0.0538122,0.0311335,0.090889,0.0403057,0.0149655,0.0972348,0.0825434,0.0313667,-0.120027,-0.0871357,0.0431629,0.0421474,0.0156261,-0.0391403,-0.000557463,-0.0580029,0.101726,-0.0100703,0.0883152,0.0467609,0.0346126,-0.000772391,0.0758183,0.0304196,-0.000673573,-0.0208676,-0.12434,-0.0122349,-0.0684084,0.0544097,0.0130362,-0.00558425,0.134113,-0.0327899,0.0361181,0.00707599,-0.0168975,-0.0297792,0.135946,-0.0293864,-0.098868,-0.0398672,-0.0572477,0.0291277
-0.0579384,0.018118,0.0308635,-0.0289986,-0.0295764,0.00933162,-0.035435,0.0172499,-0.0110554,0.00917997,0.13482,-0.100238,0.00965037,0.000753276,-0.0405416,-0.0380549,0.0727761,0.0442103,-0.0740834,0.0802424,-0.073243,-0.00497698,0.0742606,-0.0629714,-0.00197716,0.0570985,0.0953382,-0.00987159,-0.00393464,0.0263214,0.0433197,-0.0146197,-0.0086052,-0.122953,-0.030496,0.0377634,-0.0198626,0.000424256,0.0731636,-0.0035849,-0.0156131,-0.0213762,0.028544,-0.0431355,0.023076,0.11697,0.164478,-0.0264609,0.0474177,-0.0103635,-0.129088,0.000435085,-0.0880952,-0.0828305,0.0485063,0.0562808,-0.057703,0.000214298,0.0426401,0.0167246
-0.131628,0.0244615,0.0264651,0.0422318,0.0743424,0.0474095,-0.00198405,0.125246,-0.0182582,-0.0287391,-0.033281,0.0227882,-0.114144,0.0190452,0.0382885,0.0073634,0.0134096,-0.0318858,0.0112589,0.00437184,0.0168617,-0.0435252,0.0604895,0.0375381,-0.0147139,-0.0499673,-0.029455,-0.110639,0.0938442,0.0494815,-0.0167108,-0.0144642,-0.0681487,0.0347474,0.0503629,-0.0613323,0.0449307,0.0460756,0.129401,-0.0337566,0.0128851,0.0421399,0.033798,0.0586306,0.00850044,-0.0609587,0.0433611,0.044437,0.051494,-0.0314308,-0.0527038,0.111685,0.0320061,-0.0117723,0.119022,0.103943,0.0129613,-0.0474604,0.0738299,0.0252866
0.00720619,-0.0637984,-0.02204,-0.0331596,0.00657963,0.0251845,0.0283037,0.00217537,0.0618295,-0.0382125,-0.0964634,0.0814646,0.0592969,0.0700344,-0.0306928,-0.0379651,-0.0661923,0.0782962,-0.00791003,-0.00429161,-0.020695,-0.0287002,0.074508,0.0597438,-0.0418689,0.0750333,-0.101614,-0.0677422,0.0385861,-0.0278233,-0.0211624,-0.0278408,-0.0218659,0.0149514,0.0134176,-0.0424032,0.013955,0.036336,0.0772681,0.0528299,0.0582554,0.0263192,0.0555697,-0.0340451,-0.0063144,0.0634262,0.0890124,-0.0655012,-0.0542678,0.0427321,0.0356248,-0.0896388,-0.114702,0.102647,0.0682151,0.0156508,0.0458303,-0.0655105,0.133595,-0.00676634
0.0946542,0.0316656,-0.0417606,-0.0417129,0.0606524,-0.118718,0.0834939,0.108446,-0.0668351,0.0432032,-0.082527,0.0609954,0.0241129,0.0725069,0.0237754,-0.0321064,0.0855418,-0.0368484,-0.0719708,-0.00423306,0.0164149,0.091455,0.0412507,-0.00630882,0.0596125,-0.0129736,0.00530343,-0.0166743,-0.0326964,-0.00492939,0.0235883,-0.0419702,0.0146744,-0.0422355,0.0262733,0.0824328,-0.0374687,0.0342763,0.0621602,0.11744,-0.0930376,0.112907,-0.0496131,0.0604313,0.0807806,0.032472,0.0219221,0.0394983,0.0444933,0.0542162,0.0318251,0.0495241,0.0113137,-0.00910531,-0.0597378,0.0518599,0.0253522,0.112,-0.0180409,0.0315669
0.0209431,-0.0129998,-0.0611155,-0.000313559,0.0428949,0.0205098,-0.0439851,0.0420041,0.0813744,0.063303,-0.0696754,-0.0232856,-0.0042244,0.0445034,-0.0291246,0.0276075,0.0127288,-0.0347052,0.0169473,0.010663,0.0634717,0.0202074,-0.0544545,-0.0878479,0.0200275,0.0249099,0.0280061,-0.0253763,0.018831,0.0642795,-0.0368201,0.00553741,-0.0634948,0.0693571,0.0158319,0.0113206,0.10011,0.00872861,0.0707861,-0.0385505,-0.0153162,0.0342805,0.074288,-0.013978,-0.0319405,0.0729688,0.0445372,-0.057476,0.0363981,0.0406371,-0.0160198,0.18187,0.0600283,0.0161653,0.0591389,0.036705,-0.0233825,0.0230217,-0.0716932,-0.110999
0.00536058,-0.0244899,0.0230234,-0.0605875,-0.00475188,-0.0443189,-0.0195284,-0.0464585,0.0535187,-0.0123532,0.0107331,-0.0333421,-0.0612764,0.047018,0.0468135,-0.00147863,0.0584521,-0.0736433,0.0783352,-0.0815413,0.00474548,0.0671153,0.0263189,0.0398899,0.136422,-0.0160554,0.00353423,0.0147997,0.169425,-0.0478154,-0.0324626,0.048312,0.0155096,-0.0841365,0.0409574,0.0391616,-0.0113446,-0.0584555,0.00256521,-0.0207135,0.0245201,0.00740411,0.114355,-0.108328,0.019326,0.0458959,-0.0377723,0.0615947,0.0993445,-0.0377272,0.034513,-0.0256218,-0.0189613,0.0444025,0.01525,-0.0731069,-0.0422039,0.100491,0.179651,0.0421448
-0.0988867,0.0157876,-0.000818625,0.0459579,-0.0398175,-0.0546639,-0.0318388,-0.00940638,-0.0372006,-0.0897236,0.0589838,0.0189205,0.117811,-0.0435151,-0.00742491,-0.0456936,-0.0699538,-0.00137031,0.0628147,-0.0798618,-0.0228473,0.0918719,-0.00737518,-0.0216536,0.0782375,-0.0759525,-0.0235204,-0.0366224,-0.0692967,-0.0580743,0.0102221,0.0378935,0.0309311,0.00145976,0.122668,0.00426591,-0.0728748,0.00681813,0.015799,-0.0408813,-0.00649271,0.109858,0.0770293,0.0339965,0.0550455,-0.00698375,0.0716217,-0.0710319,0.0647665,-0.116561,-0.000153777,-0.0266064,0.016361,-0.0398763,-0.0574905,0.00357755,-0.0105579,0.044438,-0.00292438,0.0344464
-0.00414081,0.0190386,0.0565119,0.000844661,0.0176102,-0.0374256,0.105903,-0.00759944,0.00284733,-0.0240127,-0.0217904,-0.006456,0.00316092,0.0333202,-0.0106696,0.0324195,0.0772288,-0.00395813,-0.0638544,-0.0703859,-0.0272446,0.0152699,-0.0782209,0.0235391,-0.0526456,-0.00759076,-0.0191805,-0.0516511,-0.031322,-0.0474009,-0.033753,0.0431892,0.0710228,0.030906,0.0388561,0.0574891,0.0143308,0.0623161,-0.0440444,0.0406945,-0.00636052,0.0608326,0.0013189,0.0202142,-0.0421487,0.038731,0.0157953,0.126619,0.107684,-0.00690624,0.0143024,0.00146791,-0.0294054,0.0159486,0.0676171,-0.00421715,0.0863485,0.0886281,0.0532242,-0.0416666
0.0437988,0.0196768,0.0621096,0.206475,0.043559,-0.0981414,0.0381874,-0.0302857,0.083872,-0.00132656,0.0601333,0.00794671,0.00568751,0.0638033,-0.0310556,0.0261453,0.0632373,0.0209828,0.0184625,-0.00478475,-0.0174637,0.0263263,-0.0653583,0.0607123,-0.0104691,0.0951551,-0.00949121,-0.0758498,-0.0605006,0.0379177,1,-0.0118988,0.196219,0.0892159,0.00370927,-0.0586931,-0.0514028,0.0581219,0.0403821,-0.0206504,0.0289811,-0.101477,-0.028163,-0.021245,0.0564073,0.0145204,0.0156561,0.0847807,0.00113144,0.0833645,-0.0245597,0.0065171,0.114906,0.121532,-0.120396,0.0090354,0.0478315,0.0113113,0.00608733,0.0235084
-0.0638812,0.0233551,-0.0162406,0.0727793,0.101513,0.00488995,0.0893794,0.0784129,0.0973004,0.0891148,-0.0246567,-0.0206491,-0.064104,0.107802,0.109131,-0.0212578,-0.00962286,-0.0016036,-0.0630053,0.0873027,-0.0353029,0.0495825,0.0563561,0.0283154,0.0520722,0.0683464,0.0345555,0.0664513,-0.0304702,-0.0498921,-0.0197278,0.0057885,0.0657787,-0.108166,-0.02708,-0.0395533,0.0111514,0.0372872,-0.006236,0.0242245,0.0559216,-0.0522402,0.0520904,-0.0689022,0.0204314,0.033385,0.0387583,-0.00370884,-0.0437813,-0.112857,0.075034,-0.0431264,0.0504812,-0.0716994,-0.0606813,0.0830817,-0.0610246,-0.0561237,-0.064271,0.00789917
0.0527182,0.00284605,-0.0443243,-0.137524,0.0838944,0.0731856,0.0589933,-0.0460597,-0.022962,0.0152202,-0.0157295,0.0022193,0.0703398,0.0302529,0.019337,-0.0190543,0.00552231,-0.0366134,0.0249459,0.123078,0.00159181,0.0077064,-0.0197243,0.0298932,0.0426336,0.064726,0.0304696,0.0820394,0.0287919,0.104939,0.0838205,0.131365,0.0383368,0.0803622,0.0472429,0.0139764,-0.020636,0.0915212,-0.0167396,-0.0210982,-0.0220913,-0.0400688,0.0406663,0.0478567,-0.0492124,-0.0101402,0.0643398,-0.124119,-0.0641162,0.0502145,0.0317752,-0.0755923,-0.0999455,0.0613851,0.0364435,-0.0196886,-0.0348637,-0.0671732,0.0369981,0.0976977
-0.0122956,-0.0250581,-0.0123225,-0.0399183,-0.011156,-0.0105544,0.021518,0.101518,-0.0108834,-0.0707847,-0.0388348,-0.0748562,-0.0487887,-0.00267175,-0.142117,-0.0431203,-0.118891,-0.0313458,0.105847,-0.0044556,-0.0792244,-0.00118505,0.0796194,0.126364,0.000959205,0.00148684,0.0297561,-0.028595,-0.0196484,0.0340869,0.0101445,-0.00479073,-0.0657344,0.0275612,-0.049023,-0.0129539,0.0675741,0.0104534,-0.0879069,-0.00714974,0.0255741,0.201937,0.123554,-0.0102102,0.0280625,0.08438,0.0267304,-0.0375285,-0.0183601,-0.0304653,0.0315631,-0.0377417,0.0883027,0.0457411,0.0740697,-0.044325,0.015691,-0.0171854,0.0135764,0.00964262
0.0491854,0.0362712,0.00135501,-0.0619543,-0.022012,0.023811,-0.00602572,0.00482843,0.0562492,-0.0541124,0.0100811,0.0562562,0.0643672,0.0659874,0.0550914,0.046446,-0.0618909,-0.033055,-0.0594889,0.0822549,-0.0349957,0.0142025,0.0193038,0.0183383,0.00763694,0.050488,0.0442206,0.0523255,-0.0815181,0.0339449,-0.0181549,0.0859083,0.00361986,-0.0348244,-0.0710818,-0.0128648,0.0181159,0.12304,0.0651033,0.0104071,0.0790796,-0.0117069,-0.0352437,-0.0164697,-0.0739974,0.0498961,-0.103859,-0.0265563,-0.0663348,0.0261356,0.0455574,-0.0224049,-0.00292439,0.126214,-0.122857,0.0364881,-0.08442,0.0715354,-0.0899909,-0.0225267
0.0275512,0.0660587,-0.0799197,-0.0406293,0.0878179,-0.0348167,-0.0234985,0.036639,0.0607994,-0.0544634,-0.0395641,-0.0263643,-0.0290416,0.00537661,-0.00899578,-0.142692,-0.0217695,0.115757,0.155703,-0.0107252,-0.0788565,0.0298372,0.0211658,-0.0860096,0.137915,-0.0448363,0.00656363,0.00937869,0.0549645,-0.0455895,0.0876414,-0.0675562,0.0202609,-0.0203351,0.0513167,-0.0531397,-0.026013,0.0184163,0.0266772,-0.0282788,-0.0176791,0.036106,0.0308934,0.0695544,-0.00227598,-0.0244888,-0.00732141,0.0860712,0.0694723,-0.0702865,-0.0294672,0.0414492,0.00447474,0.00764164,0.0167433,-0.0452418,0.0124967,0.00354381,0.0394414,0.137613
-0.0164795,-0.00767213,-0.0328277,0.05573,-0.0797614,0.0457651,0.0216039,-0.0437867,0.0902078,0.00812849,-0.103064,0.0159655,-0.0258927,-0.0671529,0.11486,0.0066384,0.0503586,0.020171,-0.0777536,0.0996626,0.0541893,0.105083,-0.0572242,0.066685,-0.0435825,-0.0564135,0.0401576,-0.00318929,-0.041067,-0.0419756,0.000382527,0.0013761,-0.0062761,-0.0595228,0.0235223,0.0352197,0.0155179,-0.0034822,-0.0449539,-0.0302183,-0.0575317,-0.0368443,0.0597706,-0.058998,0.0331851,-0.0981626,0.0559471,0.110774,0.0161239,0.048401,-0.050181,0.12467,-0.00112651,-0.0314535,-0.0114429,-0.0112786,-0.171235,0.0684686,-0.048193,0.0717417
-0.0191686,-0.0236335,-0.0585947,0.127847,-0.0250275,0.133881,0.0447908,0.0744021,0.0155247,0.00844039,0.00144541,-0.0564882,-0.0673105,-0.00605623,-0.0142769,0.0166741,0.0439157,0.0785227,0.0519111,-0.0555974,-0.0232516,0.0844405,-0.0331884,0.0373595,0.00466282,-0.0322434,0.0567312,0.0893975,0.0609987,-0.0717015,0.086466,0.0583497,-0.0188749,-0.00862312,0.00426727,-0.121695,0.0899302,0.172464,0.0594621,0.00632995,-0.0744224,-0.0423939,0.0977007,-0.074445,0.0559832,-0.0277727,0.107872,-0.0705511,-0.0216551,-0.0116072,0.135895,-0.0177321,-0.0232794,0.019536,-0.0236167,0.0262142,0.0487279,0.0279208,-0.00648,-0.0390894
-0.0119231,0.0260349,0.0182,0.0249289,0.121464,-0.0512018,0.00438298,0.149272,0.0144452,-0.0270534,0.0377313,-0.0169063,-0.00381329,0.0107101,-0.0157012,0.0363027,-0.0651631,0.0124805,-0.0250763,-0.0128406,-0.0530481,0.0957468,0.00401902,0.12292,0.0840227,-0.0877884,0.130518,0.0394774,0.0957124,0.035809,-0.0162971,-0.0296271,-0.0235627,0.0219557,0.0205659,0.0246195,-0.0110538,-0.096616,-0.0892472,0.0457367,0.1576,-0.0648569,-0.0301419,0.0624033,-0.0820382,-0.058587,-0.0167163,-0.00574668,0.0447783,0.0343922,0.0979338,-0.0210255,-0.0652374,0.0418369,-0.108499,-0.0366932,-0.0390801,0.132698,-0.0212138,0.0585869
-0.0137306,0.0769703,0.00292709,-0.0667853,0.0725179,0.0351102,0.0263348,0.0191964,-0.0282638,0.00191322,0.034297,-0.0287882,0.012643,-0.0168135,-0.0104443,0.0151777,-0.00205887,-0.0191717,0.0821043,0.0898131,-0.0695632,-0.0861428,0.0363226,0.0576298,0.0124237,0.0267044,0.0109567,-0.105125,0.134833,-0.0184974,0.0842823,0.0477322,0.0682099,0.0303757,-0.0330723,-0.00365974,-0.142787,0.0548019,-0.0744301,-0.029634,-0.052906,0.0790957,-0.00984254,0.0467138,-0.0787682,0.0587492,0.000800009,-0.0406584,0.10399,-0.0413575,0.00387125,0.0125179,-0.0558203,-0.00823565,-0.0362744,-0.0360931,0.0142515,0.00450555,-0.0234254,0.0148625
0.0130173,-0.00526821,0.0838195,-0.065572,0.00295008,-0.0022247,-0.0249045,0.129723,-0.054321,-0.0180788,-0.0231025,0.0588312,0.0749976,-0.0475633,-0.0338691,0.12626,0.0609144,0.0665613,0.0469624,-0.0424067,-0.0135205,-0.0956961,0.039445,0.0282347,0.0152147,-0.0619575,0.0802939,0.0262679,-0.0290429,0.111113,0.0286161,0.0789834,-0.0289679,0.0101231,0.0583975,0.0190383,-0.0544111,-0.137122,0.0640084,-0.00831487,-0.0113257,0.0323621,-0.0457254,-0.0678473,-0.040248,0.0228911,0.0437382,0.0155024,-0.0535095,0.0384096,-0.0206759,0.0552871,-0.0236049,0.00209275,0.0519996,-0.0246357,0.0249576,-0.0659173,0.00624662,0.157918
-0.0777571,0.0943262,0.0650391,0.0525998,0.109283,-0.0459935,0.004357,0.0484545,0.145102,0.0441925,0.0557005,0.147037,0.00805596,0.0986979,0.0117087,0.0584446,-0.00315715,-0.0153454,0.0671774,-0.0411406,0.0948789,0.0999249,0.028269,0.000409391,-0.0350042,0.0311659,0.000150029,-0.0455419,-0.113875,-0.00974985,-0.0234994,0.0378492,-0.116001,0.0113823,0.0421111,0.136572,-0.0404851,0.109524,0.0100008,0.0823551,0.0325664,-0.0419607,-0.0851271,-0.0283268,0.00805817,0.041721,0.0685309,0.0356539,-0.0173383,-0.00185952,-0.019107,0.0623466,0.110417,0.0432343,-0.046283,0.113732,-0.107825,-0.0142551,0.0836817,0.0449801
-0.0281235,0.0336892,0.026393,0.0203922,-0.062463,0.0326478,0.109637,0.0658347,-0.00239369,0.0886295,-0.0402442,0.0410733,0.0644294,-0.0737121,0.00731462,0.0369133,0.0451666,0.0284018,-0.106099,0.107823,0.00636983,0.0673048,0.103277,0.037972,-0.0164075,0.0316073,-0.0359897,-0.0122394,-0.00332228,-0.0199777,0.0356293,-0.0628149,0.0555959,-0.0168772,-0.0697895,0.124425,0.102963,0.0463238,0.0307796,0.0874075,0.0780537,0.0767165,0.00442177,-0.0250978,-0.0030711,0.0960946,-0.163202,-0.0428727,0.0069704,-0.046031,0.047086,-0.0716298,0.0161395,0.0452122,0.050181,0.102738,0.0313445,0.0114007,-0.0294996,0.00625755
0.0553286,0.00543199,0.0631997,0.0385761,0.0139953,0.060791,0.00313192,-0.10935,-0.00487841,0.100532,0.0356759,0.13336,0.0646552,0.0890985,-0.0934032,-0.0771817,0.0527294,-0.027682,0.0137263,0.0769921,-0.0249221,-0.0476994,0.159795,0.0930981,0.0771489,0.0664685,-0.102922,-0.0281938,0.0301354,0.0229635,0.0398032,0.0934071,-0.0289585,0.0293188,-0.0990165,-0.0230256,-0.0464241,-0.0280925,0.130779,0.00418026,0.0172392,-0.139357,0.122618,0.0447395,-0.00862422,-0.0134144,0.0286524,0.0710632,0.120071,0.0838108,-0.0805854,-0.0856072,-0.0391982,0.0737715,0.0211506,0.0706608,0.0165169,0.0243924,0.0212662,-0.0660182
0.0467614,0.0181769,0.0516465,0.0712168,0.0694144,-0.0658931,-0.00910911,0.0632174,-0.0573455,0.0103158,-0.105603,-0.0468229,-0.0737537,0.0337941,-0.0561163,0.0688328,0.0581295,0.099851,0.037928,0.0108023,-0.0461372,0.0673318,0.00377433,-0.0262702,-0.0160035,-0.0206907,0.0618626,-0.057016,0.061087,-0.0680651,-0.0104573,-0.0776842,0.00306682,-0.0959836,0.0659765,-0.0540005,0.00527316,-0.0332609,0.102115,0.0168251,0.0342634,-0.087524,-0.0293569,-0.0337582,0.0065276,0.0694413,0.0560234,-0.137936,-0.0213964,-0.00994202,-0.0118759,0.0521128,-0.00591786,-0.00344661,0.0730739,0.0223618,-0.00172641,-0.0470087,-0.0188038,0.0394486
-0.06333,-0.0257151,0.00693124,0.0759451,0.00870724,-0.110882,0.0384449,0.052722,0.062096,-0.0547458,-0.0130222,0.0222531,-0.00174455,0.059833,0.0257587,-0.0224756,0.0089397,-0.014176,0.047153,0.0137916,-0.0345465,0.0833913,-0.01856,-0.00504099,-0.0576854,-0.0131635,-0.03196,0.00392467,-0.00452292,0.00783592,0.0690136,-0.0234634,0.0538517,-0.0282189,-0.0111361,-0.0267262,0.0399912,-0.00890059,-0.0460817,0.0779676,0.0894611,-0.00296076,-0.0557684,0.0273826,-0.0967491,0.00734173,-0.0163444,0.0134665,-0.0955948,0.129921,0.00319547,-0.0631845,-0.00823802,-0.00826176,0.00110711,0.0686512,0.0680294,0.0107249,0.116917,0.0180865
0.0432327,0.0349348,-0.0265039,-0.0748411,0.0513652,-0.00123948,0.0774709,0.156543,0.0219718,-0.0160269,0.0691717,-0.000947555,-0.00349513,-0.106839,0.0604922,-0.0462795,0.135474,-0.0852811,0.00630124,-0.0539754,0.0083762,-0.0473632,0.0598375,-0.0211205,-0.00773712,-0.0878354,0.00382763,-0.0188418,-0.0327611,0.05172,0.0112145,-0.0457606,0.00572179,0.0268465,-0.107501,-0.039914,0.123868,-0.0448616,-0.0879876,0.0140636,0.100542,0.00455717,0.00437678,0.00371071,-0.0931026,0.156601,0.000504654,0.0584749,0.087764,-0.0828767,0.0776531,-0.0419092,-0.0032952,-0.0398238,-0.0533055,-0.0491291,0.0671715,0.00576677,0.0896897,0.155924
-0.106691,-0.0436604,-0.0171507,-0.0290265,-0.0207994,-0.0826388,-0.0649074,0.00820329,-0.0880367,0.00429545,0.00103028,0.00254557,0.123729,-0.0315474,0.0396855,0.0607459,-0.0114247,0.0301911,0.0496527,-0.0175851,-0.00225664,0.0351584,0.0295773,-0.00299429,0.0741245,0.0460318,0.0408691,0.0213779,0.0504093,0.0398328,0.0873734,0.0436604,-0.0378406,0.0521743,0.113394,-0.0298967,-0.149563,-0.0846679,0.0405652,0.0110641,-0.0260558,-0.0265823,0.00837608,0.130473,0.0508559,-0.0157519,-0.00499949,-0.0579193,-0.0282715,0.091233,0.023898,0.000806479,-0.00895492,0.14542,-0.0201693,0.0626443,-0.0515048,0.00956453,-0.0313901,0.0587407
-0.0894378,0.037243,0.0772457,-0.0684741,0.0178761,-0.00271593,0.101923,-0.0249878,-0.0229043,-0.0271074,0.0155387,0.0272218,-0.00609999,-0.0765982,0.0474871,-0.00531896,0.0135054,-0.0719015,-0.0217752,0.0962666,0.120171,0.080347,0.066436,-0.0288446,-0.032396,0.0318718,-0.0951543,0.0944438,-0.0115265,0.0157435,-0.0173234,-0.00530127,-0.0134581,-0.0317215,-0.028974,-0.0142973,0.0621263,0.0087476,-0.0616523,-0.0738098,0.0498157,-0.104116,-0.0161482,-0.132548,0.00502504,-0.0475316,-0.0657076,-0.0319388,0.0560165,-0.0139305,-0.0814997,-0.0662153,0.0841345,0.0243146,0.0791218,-0.122963,0.00723573,0.00763607,-0.025927,0.0695624
0.0290491,-0.00748993,0.10029,0.0667157,-0.151619,-0.109735,-0.0182153,0.0994156,0.0787538,0.0153903,0.0839243,-0.0310404,-0.0113034,-0.0930246,0.0183987,0.0462768,0.0438442,-0.047113,0.0531947,-0.0532297,0.0983719,-0.0392293,0.0340061,-0.00219018,0.110581,-0.0749225,0.065071,-0.000647146,0.165665,-0.00433221,0.0534496,-0.0277514,0.0609372,-0.0815218,0.0896943,-0.0792444,0.00307268,-0.00140787,0.106545,-0.0685976,-0.0865042,0.0611214,-0.000319859,-0.0124385,0.00621742,0.0877729,0.053124,-0.18077,0.0765047,0.0254603,-0.0431874,-0.0468684,-0.0780859,0.054103,0.0253462,-0.0263056,-0.0889474,-0.0578544,-0.0152121,-0.0302369
-0.0453814,0.0499604,0.0130945,-0.0426277,0.0289254,-0.0735708,0.0191771,0.014631,0.0639726,-0.0153826,-0.0589695,0.0212114,-0.0355841,-0.0593145,-0.0298945,0.0271704,-0.00548669,0.0821561,-0.0497562,0.0351739,0.0554394,-0.0736456,0.0248625,-0.0439054,0.0558377,-0.0656317,0.00526219,0.0284964,0.0439791,0.00319832,0.122512,0.0137134,-0.0768087,-0.0233452,0.0201538,-0.0478089,0.0421039,0.00890172,-0.0347272,0.0168311,-0.0960202,-0.0593812,-0.0595493,0.104518,0.0358603,-0.0154329,-0.00378316,-0.0728644,0.0797287,-0.00607827,0.0903715,-0.0108139,0.0769694,-0.0318949,0.0935042,0.0441172,-0.00910613,0.0232179,0.0453897,0.0377077
0.0244364,0.0393589,-0.0351286,-0.0807074,-0.01028,0.142403,-0.0332628,0.00773554,0.0628104,0.0359126,-0.0260311,0.120101,0.0220086,-0.029364,0.0499965,-0.00275794,0.0194006,-0.0356868,0.0518161,0.00548297,-0.00432665,0.0256089,-0.123964,0.0277413,0.0154039,-0.100518,0.0104405,-0.0242366,0.0752495,0.105526,0.00742119,0.116797,-0.0706464,-0.0343198,0.0401055,0.0638636,0.0548636,-0.00714774,-0.0153016,0.076028,0.0514116,-0.0242299,-0.0558461,0.0346909,-0.00885208,-0.0626965,0.0671718,0.102644,-0.0214495,-0.0544065,0.0259073,-0.0199756,0.0882659,0.0726847,0.0558866,0.0456303,0.0363646,-0.0148123,0.030875,-0.0366258
0.0848352,-0.0205376,0.0197822,0.116667,0.0345932,0.0815586,0.0912434,0.181829,0.0957967,-0.026114,0.0250723,0.142362,-0.0233096,-0.00398417,0.0743059,0.119832,0.0420735,-0.0478446,-0.0704141,0.0235873,-0.0178532,0.0598807,-0.109611,0.0325652,-0.0698877,-0.0332958,-0.0566978,-0.00125369,0.0290623,0.0244039,-0.0719163,-0.0275868,0.0552094,0.0305536,-0.0499843,-0.0232101,-0.0963757,0.0390203,0.0102427,-0.023448,-0.0408735,-0.00728071,0.0177586,0.0152905,-0.038128,0.0818758,-0.0105728,-0.0300178,0.00999405,-0.00728908,0.0834295,0.00348256,0.0396544,-0.0323627,-0.0835605,0.00809828,0.0674931,0.0512018,-0.0561728,0.0169368
0.0125834,0.0189568,-0.00492464,0.0526782,0.00584762,0.0625544,0.0417779,-0.0177127,0.0580031,0.00243156,0.0127092,0.0163973,-0.0335869,-0.0840005,-0.0237441,0.00966953,-0.00446273,0.00202258,0.0273989,-0.0575284,-0.0658411,0.122447,0.0146757,0.0485921,0.0230736,-0.101936,-0.0101301,-0.0591403,0.0293363,0.0776427,0.0497952,0.00133023,0.0327584,-0.0152549,-0.0650402,-0.00886283,0.0452886,0.0753548,0.0184795,-0.0848398,0.0076778,0.0499795,-0.0662695,-0.0512165,-0.0404817,0.0012656,0.00170346,-0.0484853,-0.0427903,-0.0956471,0.0554485,0.00824495,0.0394686,-0.076291,-0.024203,0.100215,0.0201797,-0.000441219,0.0624351,0.0585333
0.031314,-0.0259716,0.0161606,0.0426952,-0.0441104,0.033547,-0.0310569,-0.0405186,0.081387,-0.0181445,-0.0597356,0.0393061,0.0882901,0.0182163,0.0300168,-0.0642254,-0.00512958,0.0484463,-0.110707,0.0352597,0.00109525,0.0041374,-0.0409237,-0.0906874,0.0841731,0.023639,-0.148568,-0.039061,-0.027916,0.0266571,0.039879,0.0883252,-0.00365817,0.0458986,-0.120561,0.0328618,0.0395739,0.0487577,0.0331827,-0.113976,0.0528034,0.0226565,-0.0333365,-0.0502852,-0.0382234,-0.00620007,0.0210316,0.0202615,0.090011,0.0894575,0.0505927,0.0287066,0.00383188,0.040494,-0.0239766,-0.00581783,0.00268375,0.096216,-0.0098952,-0.0478186
0.00338933,-0.0243144,-0.0645402,-0.0621767,0.0109723,-0.0221904,0.0466586,-0.0426242,-0.0127659,-0.0203267,0.0643382,0.0728789,-0.00372376,-0.0236516,0.0396647,0.0895626,0.0620525,-0.0871013,-0.000607789,-0.00187895,-0.00400526,-0.047841,0.0362786,0.0578508,0.154091,-0.00884901,0.0485252,0.117754,0.0520337,0.0419634,0.024088,0.0212124,0.123753,0.140346,0.0410486,-0.0645391,0.0462467,0.0283081,0.0471294,-0.0906103,-0.0157488,0.10694,-0.0259141,-0.0443502,-0.0163049,-0.0541705,0.0786266,0.012585,-0.0690723,0.0545124,0.00293296,-0.0591173,-0.045222,-0.00204541,0.0669485,0.0744117,-0.0516795,-0.0377204,0.0542946,-0.0355131
0.0341879,-0.088836,0.046238,-0.00359728,0.00503707,-0.0153476,0.0118354,-0.110504,0.00564015,-0.0633354,0.0240258,0.0024318,0.0305355,0.072652,0.0075644,-0.0649363,0.0180104,0.0281949,0.00970883,0.0414374,-0.034842,0.0142068,-0.0774723,0.0563896,-0.0300698,-0.021736,0.0999912,-0.00241842,-0.047648,0.0664373,0.000432392,0.00526446,-0.0114183,0.0345182,-0.0326179,-0.0249501,0.00435939,0.0232833,-0.000293686,-0.0635697,0.0534038,0.0864002,-0.000579769,0.00100046,-0.0125663,0.107595,0.126992,0.00252049,0.0359143,-0.0311903,-0.0472662,0.0474202,-0.0416124,-0.02756,0.145203,0.0225423,0.00149707,-0.00390126,0.0581552,0.0684104
0.0252989,-0.128395,-0.0596171,-0.0096691,-0.0150189,-0.0298119,-0.0806154,-0.157068,-0.0013534,0.0490059,-0.0155739,-0.0216217,0.022503,-0.102781,0.0922774,-0.063168,-0.0243075,0.0943574,0.0381517,0.0185292,-0.038271,0.0687359,0.0859509,-0.046313,0.000512013,0.0212948,-0.0849604,-0.0184698,-0.056173,-0.0654267,-0.0252113,-0.023282,-0.0284086,-0.0462172,-0.055673,0.0248948,-0.0100067,-0.0297832,-0.0741364,-0.0713468,0.0295218,0.0942227,-0.0164824,0.0237687,0.0416831,0.0671901,-0.104214,-0.0376109,-0.0470825,0.0405249,-0.0236401,0.07587,-0.0320946,0.100825,-0.0757323,0.0512178,-0.102339,0.160852,-0.0811272,-0.0413815
-0.0802447,-0.0349087,0.0452259,0.0104256,-0.0411799,0.0142955,-0.0849145,-0.142282,0.0748824,-0.0277869,0.118998,0.135554,-0.00645602,0.0146743,-0.0588413,0.0397729,-0.0170126,0.0620499,-0.00859988,-0.062029,-0.0216498,-0.0184194,0.0743183,0.0258708,0.0111265,0.0256084,-0.000653486,-0.00256084,0.141689,-0.105836,-0.0130242,0.0561282,0.066934,-0.0157893,-0.0378193,0.0778013,0.0977938,-0.0106171,0.0429948,-0.0615628,-0.0442261,0.0318284,0.0909916,-0.055646,-0.0258112,-0.0293282,0.0530713,0.00352691,0.0220849,0.0136378,0.0402445,-0.0778738,0.177494,-0.0149454,-0.0544582,-0.00404936,0.146322,0.0798629,0.0017257,-0.0177381
0.00934321,-0.090857,0.000695446,-0.0948176,-0.0614552,-0.0811909,-0.0307869,0.0723806,0.0364569,-0.0908344,0.0532344,-0.161179,0.0366363,-0.00627193,0.0432094,0.0770119,-0.0803167,0.0110035,-0.0354656,0.113406,0.0469795,-0.181753,-0.0564807,0.0556783,-0.0647068,0.0627671,0.00856471,-0.0366417,-0.0912016,0.0378585,-0.0347314,-0.0947352,-0.00793043,-0.0166636,-0.0407441,-0.134084,0.0262003,0.0182076,0.0479078,-0.067619,0.0658372,-0.0313329,0.0265445,-0.0114671,0.0398908,-0.00577551,0.0860514,-0.0167776,0.066632,-0.053475,0.0373235,-0.0293664,-0.00620116,-0.0291976,0.0479461,-0.0554122,-0.0105997,-0.0548431,0.00420864,-0.00934746

max: 1
min: -0.181753
avg: 0.00870561
