0.0318418,-0.0189116,0.0792971,0.0720622,0.0227546,-0.0229633,0.0320438,-0.0255508,-0.0406149,-0.0209389,0.0392495,-0.135986,0.0162839,-0.00964161,0.0666029,0.0177808,0.0824561,-0.099551,0.0416332,-0.00594032,-0.0226072,-0.0262073,-0.0869304,0.0638647,0.0366084,-0.0238928,0.0109546,0.0254879,-0.00106832,-0.0257591,-0.0466,-0.079004,-0.0655939,0.0542381,0.105964,-0.0586682,-0.0807553,-0.100191,-0.0570528,0.0174656,-0.0664142,-0.0405621,0.0139752,-0.0420061,0.0762759,0.0127919,-0.0614998,0.00375443,-0.0475929,0.0247386,-0.0100228,0.0427535,-0.0668325,0.145811,-0.0164037,-0.00854649,-0.0514005,-0.0296376,0.0915462,0.0256435
-0.00306768,-0.00211266,0.0419338,-0.0182641,0.129714,-0.0593945,0.0578326,-0.0196472,-0.00582809,-0.030653,-0.0626733,-0.0110311,0.0750939,-0.0158081,-0.0254057,-0.0670731,-0.0783559,0.0146144,-0.0585364,0.0226574,0.0909378,0.0435833,-0.0189196,0.0988092,0.0515738,0.000541539,-0.0148176,-0.0345569,0.0453289,0.0183129,0.013316,-0.0812167,-0.107161,-0.0802418,0.0330599,-0.0864452,-0.0050222,-0.065675,-0.0176251,0.0560392,-0.0573691,-0.00960859,0.0184577,-0.0255213,-0.0096316,-0.0967043,-0.104013,-0.107557,0.00861962,0.0745007,0.0343304,0.0660287,0.0107082,0.0484725,0.0804477,-0.0670998,-0.028231,0.00126224,-0.111255,-0.0312487
0.0754133,-0.0802425,0.0177051,0.0606175,-0.0847323,0.0179662,0.0231165,-0.0309416,0.0253966,0.0195185,0.0277905,0.0804635,-0.0223157,-0.0714569,0.0525642,-0.0222895,0.00550253,-0.0103349,0.0612924,-0.0249425,-0.0297873,0.10739,0.0950083,0.0217146,0.00110945,-0.0637718,0.0952177,-0.0152423,-0.0734695,0.0515653,0.00274121,-0.0198303,-0.0511249,-0.0756374,0.0729797,0.0414718,-0.0234023,-0.00410499,0.0520419,0.0343536,0.00103995,0.0325645,-0.0870954,0.0373479,-0.0632511,0.000486401,-0.0973475,0.0333,-0.0648237,0.118719,0.0132877,0.011891,-0.0199553,0.158554,-0.0221203,-0.0257809,-0.0310755,0.00734504,0.0683326,-0.0237839
0.0529682,0.0256666,-0.0122363,-0.0102301,0.156553,-0.0115285,-0.0633962,-0.0408264,0.024824,0.0395842,0.00657236,-0.048174,-0.109684,-0.000958952,0.0591117,-0.0845873,0.027779,0.0358211,-0.0221379,-0.0180552,0.0515391,-0.119386,0.0310668,0.0420418,-0.0426921,-0.120371,-0.111049,-0.0686294,0.0711088,-0.0593213,-0.0855968,-0.0706199,0.00143141,0.0323057,0.159789,-0.0504965,-0.00178371,0.0661771,-0.0740282,0.0304889,0.060292,-0.106031,-0.0338265,-0.027402,0.0385608,-0.0184358,0.0492493,-0.0117714,0.00323301,-0.115689,0.0280886,0.00878984,-0.00548117,-0.0635925,0.0397122,0.0314658,0.00636646,0.0309445,0.00239906,-0.0442476
-0.0422048,0.074504,-0.011804,-0.11508,0.0799521,-0.0290885,0.0710991,0.0260674,0.0288018,-0.116306,0.0373558,0.117285,-0.05503,0.0366201,-0.0470702,-0.0195565,0.0230404,0.0134102,0.00522564,0.0093714,-0.00745724,0.130741,-0.0689003,0.0578825,-0.0328622,-0.0231272,-0.0208683,-0.0761514,-0.021416,0.0128828,-0.096497,0.0410756,0.000278874,0.0292836,-0.0436972,-0.0463269,0.0633673,-0.0195906,-0.132334,-0.00333524,0.0264159,0.0355065,-0.0260564,-0.0680459,-0.0302529,0.0335249,0.00964112,-0.00285882,0.0055203,0.0455641,-0.0709533,0.0210627,0.145195,-0.0454105,0.0318573,0.0539017,-0.0369994,0.0726733,0.0651353,-0.00726299
0.0837555,0.00510561,0.106512,-0.00247045,0.0402491,0.0584882,-0.0553478,0.0136958,0.0284633,0.0588473,-0.0209605,-0.0248181,0.0352832,0.0303149,0.0791827,-0.00897887,0.00781124,0.0186052,0.0498505,0.083889,0.0388953,-0.0638635,-0.0302998,0.0572027,-0.00119862,0.00189559,0.101421,0.110332,-0.1341,0.0633324,-0.0199075,0.0222411,0.064332,0.0173176,0.00784566,0.0604614,-0.0426538,0.0332701,0.00493211,0.106498,0.0764721,-0.00339297,0.0771732,0.120293,0.0346062,-0.0175344,-0.0553431,-0.117822,0.00310032,0.039213,0.0616486,0.0492663,-0.0222456,-0.0132954,-0.0271312,0.0252931,0.0434671,0.0777446,0.0707278,0.0396699
0.0678622,-0.0885124,-0.0623432,-0.047197,-0.144556,0.0259252,0.0529159,-4.52392e-05,0.031819,0.107935,-0.0452232,-0.136467,0.027339,0.204672,0.0424559,0.013597,-0.0338098,0.0846873,-0.00305962,0.0768208,0.0329122,-0.126096,-0.0157414,0.100731,-0.016396,-0.0766317,-0.0672813,0.0444888,-0.00669677,0.097512,-0.0548169,-0.0321738,0.0528168,0.066195,-0.00017462,-0.029692,-0.0371499,-0.0276475,0.069937,-0.0554985,0.0746244,0.0715261,-0.0825748,-0.0581348,0.0218141,-0.0280145,-0.0335186,-0.0188602,0.0371507,-0.0438166,0.00658905,0.0521141,-0.0263498,0.0146307,-0.00411557,0.0234862,0.0169505,-0.0478665,-0.00913948,0.0411937
0.0273344,-0.00334532,-0.0593708,-0.0514915,-0.055906,-0.0679831,0.0503895,-0.0126815,-0.125377,-0.0230372,-0.0427895,0.0674956,-0.0147917,-0.0153915,0.102337,-0.0603118,-0.0095391,-0.0993988,0.0210249,0.0497641,-0.0294511,-0.00437001,-0.0381986,0.106788,0.017743,-0.00534646,-0.129788,-0.0484772,0.0520726,0.0330998,0.00781995,0.0790516,-0.0524985,0.0569569,0.0220752,-0.00736369,-0.0155682,-0.00393358,-0.0684259,0.0690307,0.064286,-0.0500326,0.00480756,-0.00616367,0.0149444,0.0133886,0.00368586,0.00623182,0.0333538,-0.024332,-0.0216653,0.0748444,-0.0203021,0.0215277,0.00110415,0.0645661,-0.0217932,-0.0264831,0.0456233,-0.0399059
-0.0429899,-0.092095,-0.0837525,-0.0185771,0.115139,-0.0307116,-0.06378,-0.0187715,0.0646039,-0.0805697,-0.0305202,0.0381568,-0.0132089,-0.00899404,0.0629803,0.0338481,0.107993,-0.0158305,0.0145815,-0.0210321,-0.081707,0.0205903,0.0206255,-0.079964,0.0314712,-0.00762868,0.0175612,-0.0496162,-0.0317627,0.0328647,-0.00469065,0.0737345,-0.0758725,-0.0126974,0.0151301,0.0301549,0.022141,-0.0463903,-0.0459259,-0.0483902,0.0177895,0.0251822,-0.0706807,-0.0184156,-0.166631,-0.0103905,-0.0463128,-0.0671493,-0.0349107,-0.0158891,0.189483,-0.0526111,0.0429175,0.112853,0.0855587,0.0449668,0.0255186,0.0190621,-0.0186664,0.0781264
0.0816554,-0.0877819,0.0343259,-0.0104853,-0.0650387,-0.0363448,0.0372905,0.0372702,-0.0715436,-0.0518105,0.139621,0.0224033,-0.0312999,-0.00339712,0.0248082,-0.0192733,-0.0253356,-0.037258,0.0794397,-0.0920465,-0.00341698,0.0923086,-0.0324769,0.0838681,0.0277842,0.0220186,0.0307835,-0.0852859,-0.0452131,0.0647851,0.016621,0.0133829,-0.0266915,-0.0250072,0.0294354,-0.161192,-0.0164485,0.0254717,-0.00968076,-0.0357242,0.00221951,0.0635503,-0.0503963,0.0521788,-0.000472824,0.0218426,-0.0644277,0.0626845,0.0441431,-0.03913,-0.0370621,-0.00201625,-0.0638977,0.0055508,0.0862201,0.113079,-0.0194478,0.0213415,-0.0159296,0.0186701
0.0340972,0.0361924,0.019682,-0.0877012,-0.00816312,0.0543628,0.0848481,0.0191826,-0.0313523,0.000774369,0.0868348,-0.0010657,-0.0335894,0.0288505,-0.0762678,-0.111081,-0.0104384,-0.0524609,-0.0521856,-0.130733,-0.0189699,-0.0541284,-0.113412,-0.0579523,-0.0594212,-0.0612662,-0.0160555,-0.0704751,0.0329535,-0.0155383,-0.0659685,0.00500146,-0.0181663,-0.0768367,-0.0245744,-0.0431361,-0.0236032,0.0139174,-0.117325,0.0207109,-0.0162112,-0.0113826,0.0798475,0.00631073,0.0127417,0.0681557,-0.0262293,-0.0133421,-0.0199468,-0.0449639,-0.0189889,0.0432495,-0.138253,0.0163203,-0.0424646,-0.0543466,-0.116034,0.00620162,-0.0782761,0.0126271
-0.072321,-0.102387,0.100593,0.0464839,-0.0597337,-0.0383538,0.0253544,-0.0862726,-0.0395139,-0.00603737,-0.0125483,-0.0303294,-0.0216449,0.0856061,-0.0580691,0.0266705,0.0429069,-0.0139719,-0.0101157,-0.0986685,0.0211071,-0.0613807,-0.0336564,0.0836576,-0.0251678,0.0223792,-0.0738803,-0.00630367,0.0752358,-0.0550773,0.103908,0.0277498,-0.100318,-0.0423073,0.0806254,0.055552,0.061815,-0.0439049,-0.0386788,0.0892857,-0.0115806,0.0142084,-0.00978906,0.00385755,0.0216868,-0.0322923,-0.0107258,0.0653785,0.0283771,-0.0162006,0.0121498,0.0220829,-0.0512273,0.0180126,-0.038834,-0.024624,-0.0449601,0.13896,-0.0728337,0.00974984
-0.0103652,0.0744703,-0.0654797,0.0330022,-0.186653,-0.0487989,-0.03915,-0.0362298,-0.00837051,-0.0595189,0.0434962,-0.0303894,0.0904078,-0.0517169,-0.10144,-0.0081055,-0.0479184,0.0259289,0.0431925,0.0352918,0.0521396,0.0531503,0.0243556,-0.0710219,-0.0228622,-0.0109499,0.0151581,0.0635105,0.00786166,-0.0329229,0.0779557,-0.0673104,0.0459517,-0.0204735,0.0693631,0.0315248,-0.0657437,-0.018218,-0.0659423,-0.0828197,0.00544439,0.0961954,0.00736096,0.0139895,0.0221416,-0.0860088,0.0191357,0.0373395,-0.0183684,-0.0784841,0.0207373,0.0573695,-0.0799572,-0.0295858,-0.00585573,-0.0369725,0.0670326,-0.0211135,0.0210861,0.12602
-4.37714e-05,-0.0359067,-0.0309778,0.0866096,0.0596269,0.0984052,0.0635232,-0.0271511,-0.031616,-0.116396,0.0245741,0.0546284,0.00179627,0.00784515,-0.0615293,0.118008,0.109092,0.0264679,-0.0160578,-0.0493441,-0.127934,-0.0348824,0.0167745,-0.0591344,-0.119958,0.0110089,-0.0470268,-0.0444817,0.0337178,-0.0475596,-0.0887812,-0.0245122,-0.0130052,-0.00883532,0.0297987,-0.0120665,0.0161964,-0.0126267,0.0795091,0.074235,0.0799971,-0.0140479,-0.0111272,-0.0474344,-0.120022,-0.0530637,0.109142,-0.0524865,0.0663547,-0.0116975,0.0132143,-0.0198284,0.103852,0.135037,-0.0232108,0.00926178,-0.0606464,0.0884488,-0.0449632,-0.0312746
-0.13047,-0.0597073,-0.00255817,-0.0936221,-0.1043,-0.0397262,-0.0146183,0.0475486,-0.0978043,-0.123078,0.153752,0.0595314,-0.0988124,-0.0263486,-0.200826,0.00845597,-0.080579,0.0186114,0.0230786,-0.0914562,-0.0939569,-0.0483713,0.00734538,-0.0570248,0.0528496,0.00221404,-0.0569729,-0.0973491,0.146374,0.00582663,0.105936,-0.079636,-0.0154254,0.0507962,-0.0548419,0.0159712,-0.0241188,0.0012641,-0.0206076,-0.020569,-0.049099,-0.0174748,0.0123437,-0.059681,-0.116998,0.0676967,0.00474064,-0.0839244,0.0751563,0.00165896,0.0541257,-0.00214964,0.141544,0.0276521,-0.0551773,-0.0871829,-0.0215264,-0.0421779,-0.00193956,-0.0689904
-0.00282942,-0.0459327,-0.0720013,0.0347771,-0.00497194,0.0300911,-0.0675979,-0.00899787,0.0612883,-0.0658356,-0.0654219,-0.0623485,0.028501,-0.072031,0.12457,-0.0864751,0.0267056,-0.0226663,-0.00849946,0.000615944,0.0901942,-0.0591152,-0.0109229,0.0921757,0.038736,-0.0874351,-0.0162299,0.0482963,-0.087501,0.0230962,0.0745384,-0.00392308,-0.0494276,-0.0511348,0.0683915,-0.0347912,-0.0531486,0.00499938,-0.00552216,0.044121,0.0295904,-0.0473657,-0.113384,0.130423,0.0865312,-0.0354892,-0.04232,0.0896324,-0.0356791,0.023659,-0.0379586,-0.0615366,-0.0708691,0.0119931,0.0080808,-0.0668312,0.0414752,0.0164129,-0.0170142,-0.0455386
0.0722783,0.0401246,0.0243427,-0.00185198,-0.0715965,0.0836142,-0.00167548,-0.0687414,-0.00245581,0.0430266,-0.0455772,-0.00971271,-0.0137108,0.00406185,-0.154781,-0.0875277,-0.0135918,0.0720524,0.0276069,-0.0482223,-0.024652,-0.0375783,0.0023267,-0.014808,-0.056423,0.126391,-0.0167683,0.133701,-0.143602,-0.125691,0.0121671,-0.101655,0.02923,-0.114446,-0.0249228,0.0495284,-0.0248391,-0.0949684,-0.00302331,-0.0877504,0.0585448,0.100902,0.0424045,0.0334489,-0.0410137,0.000732317,0.00949236,0.00456931,0.0520516,-0.0077596,-0.00747111,0.0173043,0.0935684,-0.034647,0.0484166,-0.0142217,0.0537738,-0.0481672,-0.102285,-0.036253
0.0109135,0.00969917,-0.0204318,0.0768942,-0.0165417,-0.0223331,-0.0312522,-0.0134773,-0.0497284,-0.00608682,0.000907869,-0.00419862,-0.0219577,0.0134735,-0.00925169,-0.0575352,0.0233356,-0.00257811,-0.0765348,-0.0208974,-0.0172652,-0.0702323,0.0941808,0.0399157,-0.0109271,0.0412835,-0.0890837,0.0223016,-0.00739053,0.00776943,-0.0173928,-0.0334949,0.0257425,0.019324,0.0069102,-0.00304366,-0.0540045,0.00124689,0.0988183,-0.000858667,-0.0855424,0.0558011,0.0360333,-0.119573,-0.044733,0.00345887,0.112396,0.00956629,0.140849,0.0319856,-1.65702e-05,-0.0191669,-0.0450461,0.0179656,0.0272484,-0.0396119,-0.00903659,0.071088,0.0170329,-0.0587573
0.0347966,-0.0341628,0.0360068,-0.046085,0.172157,0.0169459,0.00994838,0.0661977,-0.0474846,-0.0442866,-0.0322607,0.0498407,0.0737998,-0.00375404,0.0044059,0.0940129,-0.063927,-0.070768,0.00567072,0.0133464,0.0428029,-0.0926626,-0.0345507,0.0345569,-0.0757486,-0.0705211,0.00857887,-0.0994231,0.0399034,-0.0257866,-0.045081,-0.0665775,-0.0436018,0.0674343,-0.0344444,-0.0216366,-0.118711,-0.0818078,0.118185,0.00390224,0.01091,-0.105452,2.06769e-07,-0.0555389,-0.0818627,0.0230942,-0.0212658,-0.0529974,0.0153735,-0.115169,0.0988327,0.000610954,0.0307439,-0.0227439,-0.0166385,0.000830331,-0.0146725,-0.0669844,0.118829,0.091631
0.116518,-0.0275084,0.0278704,-0.0477174,0.0454718,0.0259829,-0.0242222,-0.0499767,0.0640147,0.0326638,-0.0357979,-0.0595668,0.0318564,0.0238278,0.040931,0.0181382,0.00429308,-0.0499665,-0.0473521,0.0332384,0.00736943,-0.127951,-0.0619966,-0.0778411,-0.0665111,-0.0431436,0.0716079,-0.0104938,0.00485042,-0.0416214,0.00868477,0.075974,-0.093079,-0.110487,-0.079767,0.0277938,0.0562458,0.111972,0.0794367,0.00567424,0.0540017,-0.0528135,-0.082438,0.0232536,-0.12618,-0.155433,0.0613279,-0.0561504,-0.00428416,0.164711,-0.0515696,-0.0364936,0.0244622,0.0670646,-0.030243,0.021423,0.0192797,0.126759,-0.0646558,0.00680496
-0.152223,-0.059586,-0.0138939,0.155727,-0.062242,0.0783522,0.00617267,0.0155302,0.107042,-0.0396631,-0.0266035,0.00824597,0.0901211,-0.0514734,-0.00477366,0.0506801,0.0137725,-0.0727937,-0.104828,0.0688776,0.026255,0.0428198,-0.0564912,-0.0368947,-0.0265989,-0.0221983,0.019461,-0.0430806,-0.119634,0.0389673,-0.0315123,0.0608063,0.00836242,0.0851239,0.0733247,-0.119959,-0.0396341,0.0208463,-0.0957543,0.0510518,-0.0493201,-0.0330903,-0.03234,-0.124701,0.0326684,0.0488634,0.00543853,-0.0470419,0.028152,0.0091052,-0.0597845,-0.0202863,0.0837597,-0.106172,0.0707968,0.0974998,0.0502991,0.00445983,0.0575972,0.0472054
-0.0439966,0.0394543,-0.0127298,0.098483,-0.0330595,0.00812542,0.0272685,0.000794531,-0.0642217,-0.0238955,0.0290619,0.0466061,-0.027073,0.0114993,0.107918,-0.0338544,0.0237827,-0.00533715,-0.0296893,0.0760944,0.0157145,0.014209,-0.0262517,0.0641326,-0.00517223,0.0143143,0.0500165,0.00637412,-0.0135071,0.0769853,-0.0679761,0.0217536,0.044058,-0.082523,0.0601977,-0.0513064,0.0499466,-0.00695724,-0.139551,-0.103182,0.0348392,-0.0824075,0.01681,-0.051228,-0.0826488,0.0638481,0.0850243,-0.0861081,0.00200049,0.0789726,-0.0615329,0.0173935,-0.0433024,0.053308,-0.0218873,-0.0103783,0.0285147,0.113028,0.00339402,-0.0492643
0.0668338,-0.0632339,-0.0185574,-0.0248047,-0.0561964,-0.0067005,-0.0210194,-0.0283843,0.0148689,0.100411,0.0632629,-0.0198013,0.00121408,0.091968,-0.00294207,0.0105668,0.0107353,0.118336,-0.0776351,0.0754468,-0.00192686,0.0362526,0.0111159,-0.0161012,-0.0564572,-0.0489652,-0.0478577,-0.0596403,-0.0525765,-0.153975,0.107279,-0.0104183,0.0086724,-0.0734385,0.038843,-0.0410915,0.0248896,-0.0262008,-0.00836847,0.00672666,0.0694526,-0.0587093,0.059262,0.024007,-0.0180182,0.0578783,-0.0789448,0.0452468,0.0365211,0.0330875,-0.0083639,0.0712619,0.00662676,0.00436571,0.0112092,-0.092772,0.0528729,0.0291075,-0.0319474,-0.0157986
0.00646011,-0.0508004,0.172214,0.00726179,0.0591885,0.0116677,-0.0200879,0.0831549,0.0280294,0.0881316,0.0118888,-0.0703901,0.0408967,0.00510403,0.0028255,0.00995072,-0.0684116,-0.0656326,0.0817296,-0.0246179,-0.0529408,0.0107168,0.0473277,0.0222973,-0.00779509,0.025895,0.0394454,-0.0443703,0.0500445,0.144148,-0.059919,0.0341311,-0.0480723,0.00469546,-0.0519476,-0.052153,-0.0788864,-0.000427402,0.115009,-0.0433359,-0.036507,0.0744575,0.0679412,-0.00328286,-0.0321833,-0.0911106,0.00608576,0.0420805,-0.00228356,-0.0318767,-0.0742431,-0.0652079,-0.0593506,-0.00788705,0.0268916,0.0632507,-0.078936,0.0156963,0.0686174,-0.0803842
0.0396963,-0.100409,-0.0343742,-0.00431826,0.0395117,-0.00371133,-0.0590957,-0.0460701,-0.0410761,-0.0614196,-0.0015776,-0.0218748,0.0431742,-0.0594162,0.0305415,0.00609072,-0.0244357,0.00434718,-0.0402071,-0.0158334,0.0148926,0.115961,0.206013,-0.00875624,0.0495944,0.0352273,-0.0827006,-0.0162295,0.111331,0.0633228,-0.0547262,0.00612984,-0.0188413,-0.0533537,-0.038026,0.0242117,-0.0252126,0.0593814,-0.0115286,0.0528116,0.0337043,0.0853381,0.0784974,0.00321703,0.0255002,-0.0142115,-0.125409,0.0723705,0.000984718,-0.00696719,0.0621285,0.0214486,-0.0800222,-0.0399978,-0.0169025,-0.0671075,-0.0966708,0.00943042,0.0048773,0.0177837
0.00789154,-0.00193725,0.0457797,0.0305195,0.00478412,0.0174871,-0.000774759,-0.0776764,0.0295141,-0.0170264,-0.0153403,-0.0903402,0.0225158,-0.024281,-0.0638916,0.0691657,-0.00134034,-0.0490447,-0.0459164,-0.0679134,0.0284086,0.0210781,-0.0776127,0.0161007,-0.0347323,0.00384956,-0.0758571,-0.0382646,-0.0684513,-0.04499,0.0601395,0.0108012,0.0479868,-0.0723869,-0.00709794,0.035936,0.00838461,0.00674314,0.0394686,0.118676,0.0208636,0.13281,0.0363535,0.0547624,-0.0570888,-0.00161358,0.0138993,-0.0341013,-0.0959926,0.0142569,0.0511048,0.0843107,-0.0145417,-0.043733,0.0535417,-0.0734824,0.0343802,0.00121932,-0.00046611,0.027486
0.0435149,0.0927005,0.0365678,-0.00292927,0.0417009,-0.130115,0.0367858,-0.0302824,0.108284,0.0556592,0.00761592,-0.0388849,-0.0598628,0.00757365,-0.0322039,-0.0567015,0.169815,-0.112001,0.104673,0.0672928,0.0040641,0.104949,0.000588874,0.0974729,-0.049247,-0.0932579,0.0830608,0.0612182,-0.0525922,0.152617,0.00239907,0.0815145,0.0105974,0.00999026,-0.10208,-0.0590476,-0.0106542,0.00468463,0.0185345,-0.0130284,-0.00531257,-0.059724,-0.0284285,0.0295504,0.00465442,-0.000815309,0.0263178,0.00658664,0.0192743,-0.0701197,-0.117568,-0.0383577,-0.0701292,-0.0471885,-0.0655266,-0.0465769,0.0483926,0.0412067,0.0279081,-0.045235
-0.0581516,0.0296427,0.0719914,0.0711513,0.0688862,0.0365126,-0.00160096,-0.115623,-0.00716184,-4.35637e-05,-0.0143139,0.0198434,0.0193326,0.0532382,0.0821525,-0.0285912,-0.0581997,0.0402387,-0.0997588,-0.0524068,0.00331296,-0.0473513,0.00140597,-0.0182744,-0.0776657,-0.0311425,-0.00283605,-0.0653574,-0.0174031,-0.0254999,0.102735,0.0187247,-0.00893956,0.0779139,-0.00874848,0.022429,-0.0390261,-0.119619,-0.0600814,-0.061296,0.0187712,-0.025588,0.0205324,0.0628949,-0.00269156,-0.0588594,-0.024052,-0.0405041,-0.0162647,-0.0412685,-0.0246975,0.0242997,-0.0166407,-0.00685467,-0.0401826,0.00403066,0.0413714,-0.125398,0.0760911,0.0062497
0.0412341,-0.0105496,-0.0469235,0.0936093,-0.0341768,0.00868021,-0.0171168,-0.0329351,0.0618998,0.0285235,-0.00905677,0.00712376,-0.0410789,0.0427181,-0.00277831,0.0426196,-0.160592,-0.0802769,0.0343037,-0.0719481,-0.0281436,-0.0982447,0.0580981,-0.0506158,0.112576,0.0264808,0.033051,0.06663,0.0406406,-0.0913156,-0.0474579,0.0075439,-0.0359352,-0.0362992,0.0723176,-0.00697658,0.041313,-0.00229007,-0.0558889,-0.145812,0.0225047,-0.0154524,-0.0490775,0.13333,-0.0775432,0.0141827,0.0225265,0.0371542,-0.0313093,0.0268047,-0.0760749,0.0322833,-0.0279049,-0.0717291,0.0172877,-0.0236208,-0.0786788,-0.0417277,0.0706899,0.108119
-0.00148508,0.00233009,0.0294573,-0.0069196,-0.00416164,0.0710584,-0.0511367,0.0780917,0.0565302,-0.0309764,-0.0659574,0.117323,-0.140987,-0.0373623,0.0442331,0.0608691,-0.0672273,-0.0544766,-0.0685405,0.0824569,0.0435741,0.0069274,-0.0220938,0.0404276,0.0454203,-0.0571945,0.0050004,0.0121208,0.0517847,0.0382203,-0.148558,-0.0722559,-0.0623459,0.0263253,-0.0568917,-0.158759,0.00321947,0.18434,-0.102568,0.0640511,0.0203509,0.0833373,0.020754,-0.031655,0.0676516,0.0104975,-0.056905,-0.0709829,0.0753076,0.0323361,0.0645955,-0.0110256,0.0825407,0.0593198,-0.0520174,-0.0837306,0.0421985,-0.0381273,0.0601256,-0.0136699
-0.032995,0.161357,0.00993792,-0.0599949,0.0781278,0.0197709,-0.0659066,-0.0912097,-0.0220665,0.0473759,0.0500415,0.0705315,-0.0259374,0.0763835,0.047894,0.0418299,-0.0380771,-0.00616985,-0.118331,0.0432522,0.0707508,0.0453971,0.256726,0.146888,0.0371474,0.0110396,-0.0533131,-0.071822,0.13813,0.0283714,1,-0.111123,-0.0402301,0.0623745,-0.0516063,0.0205221,0.0133913,-0.0481964,0.0661929,0.00599983,-0.189945,-0.0838264,0.0285632,-0.0298867,0.0645177,0.0100705,0.108081,0.0059393,0.0421346,0.00904014,0.0546862,-0.028195,0.0962399,0.0689724,-0.15019,0.0216637,-0.00289996,-0.00212714,-0.0397843,0.0165857
0.0178425,-0.00435014,-0.00585514,-0.0375214,-0.0757519,0.0579283,-0.00623081,0.0181106,0.0270132,0.088134,-0.000557483,0.0228082,0.0260242,0.0373554,0.00834567,0.0160899,-0.0241477,-0.0446888,-0.0816744,-0.00787877,-0.12031,0.0800403,0.0316303,-0.132291,0.0100701,-0.0286106,0.163324,0.0033985,-0.0319384,-0.0836646,-0.0117795,-0.0164918,0.00491549,-0.047699,0.0278605,-0.11585,-0.0889269,-0.00914402,0.0162078,0.0212435,0.01289,-0.0685998,0.008654,-0.0598394,-0.0230127,0.0961041,-0.157043,0.0741528,0.1152,0.043566,0.0620756,0.0196582,0.0130084,0.0244409,0.00278033,-0.0553301,-0.012858,-0.00366579,0.0165811,-0.0723353
0.136341,-0.0482552,0.0256301,0.0636718,0.0189428,0.0571533,-0.0388483,0.00566095,-0.0350513,0.00302293,-0.0199132,-0.0335757,0.0567924,-0.023709,0.072449,0.0392718,0.06911,-0.0685565,-0.101016,0.115391,0.0646108,0.0673929,0.0250881,0.0537391,0.0273006,-0.0536282,-0.000503124,-0.0664525,0.0234456,0.0364314,-0.0474443,0.054768,0.147923,-0.0211713,-0.0334248,0.0280631,0.0230384,-0.0658821,-0.0519361,-0.0427497,-0.0199341,-0.112679,-0.000392644,-0.0455553,-0.0645373,0.0740744,0.0706115,0.108749,0.0166191,-0.0503436,-0.0166153,0.0363259,0.0141493,-0.0862711,0.052057,-0.0718462,-0.0455242,0.0696296,0.0430107,-0.0443432
-0.051719,-0.0651643,-0.00776407,-0.0749705,0.0895654,-0.0212349,-0.00639618,0.0509072,0.0291509,-0.0237379,0.103946,0.0435676,-0.0237791,-0.0303569,0.0455297,0.0614581,0.0067019,0.0507914,-0.0352174,-0.0640851,-0.0483084,-0.0353493,0.0144806,-0.044523,0.151837,0.00702915,0.0655701,-0.0863527,-0.0506215,-0.0614132,-0.0925466,-0.0560768,-0.00597238,0.0884481,-0.0349481,-0.00744794,0.0774594,0.00287748,0.0520882,-0.00333326,0.0411002,0.129949,0.0342799,-0.063902,0.0651835,0.0538173,-0.0139665,-0.00796296,0.0516713,0.0411096,0.0882706,0.0422515,0.0822756,-0.0194449,0.0879016,0.0371366,0.0219851,-0.0106885,-0.0132623,-0.021686
-0.0653489,0.0500709,0.0565799,-0.0622847,-0.0310048,-0.0476325,-0.058088,-0.00855895,-0.00048793,-0.004666,-0.0157825,0.0483746,0.0704765,-0.0319158,-0.113767,0.0404506,-0.0083734,0.0632959,0.119069,-0.0396056,-0.0939422,0.0252305,0.0294977,0.0252465,0.0455979,-0.0111749,0.053516,0.0763011,0.0637405,-0.096176,-0.0197735,0.0170958,0.0969012,0.0447821,0.09092,-0.0245731,-0.0123508,0.0211949,-0.0718589,0.00969216,0.0789476,-0.0692867,-0.0509046,-0.0538035,0.0879862,-0.0186739,-0.0125326,-0.00279173,-0.0719257,-0.0119162,0.0163643,0.047142,-0.0913404,0.0646453,-0.0198599,-0.00620336,-0.0397438,0.0855062,0.0603962,-0.0207481
0.00624783,-0.0640451,-0.110482,0.0465179,0.0239292,-0.00828061,-0.0221432,0.00601956,0.00557936,0.058864,0.0498706,0.0128642,-0.0517346,-0.0802083,-0.0307488,-0.00762338,0.0349737,0.177803,-0.0437047,0.0706774,-0.0727139,-0.0282302,0.0310696,-0.0226145,-0.0366114,-0.140244,-0.051529,0.101024,-0.0266174,0.124346,-0.0766962,0.0959663,0.0241259,-0.0746616,0.0961421,0.0290978,-0.000743308,0.100377,-0.0212259,0.0284576,-0.0309991,0.0446174,-0.0200224,-0.0129533,0.06713,-0.0816001,-0.0303286,0.072607,0.0498444,-0.052538,0.0184402,0.00271412,-0.0853798,0.149709,-0.0548326,-0.0569537,-0.0381683,0.0670709,-0.0428801,0.0608034
0.083569,-0.0121049,0.0400024,0.121431,0.00384095,0.080093,-0.0678889,0.0536311,-0.125021,-0.0717934,0.00639806,-0.0888444,0.0419058,-0.0145383,0.0573291,-0.0306824,-0.117401,-0.0231936,0.0898627,-0.0532858,-0.00828673,0.0758351,0.00829181,-0.00863578,-0.0334397,0.0281628,-0.0284726,-0.0286999,0.0109997,-0.00461668,0.0559855,-0.0221949,0.0422633,0.0282154,-0.085009,0.112203,0.00125569,0.0497893,0.0350597,-0.0546,0.0507803,0.00447659,0.0808711,-0.099222,-0.00982512,-0.0842688,-0.0553769,-0.0423048,-0.0787149,-0.0227212,0.0739376,0.0438241,0.106373,0.0238328,-0.000571077,0.0165479,-0.0373452,0.0651934,0.0335772,-0.102662
-0.02318,-0.00502106,-0.0287453,-0.0119375,-0.109823,0.0451767,0.02446,-0.00207468,-0.121078,0.0441964,0.0833434,0.0229587,-0.0933987,0.0137421,-0.042572,0.0776452,0.0502514,0.0787547,0.0209305,0.0641923,-0.000167592,-0.0667278,0.0545046,0.0575997,0.0637655,-0.0344858,-0.0603134,0.0777157,-0.00562039,0.00749547,0.0483238,0.0530535,-0.032596,-0.0671724,0.104823,-0.00377048,0.0266734,-0.0551577,-0.0120538,-0.038907,0.0234098,-0.027652,-0.0169149,-0.00842571,-0.0349313,-0.0426367,0.116955,-0.00576396,0.0158851,0.0497001,-0.0268965,-0.0702712,-0.0684172,0.103497,0.0766648,0.0176247,-0.00344102,0.0135266,-0.0447413,0.0158989
0.0437361,0.0737737,-0.0513123,0.0341088,-0.0991715,0.0304643,-0.0571521,-0.0643632,0.0849878,-0.0283603,-0.0453644,-0.0284456,-0.0677665,-0.000361187,-0.0199697,0.0952545,0.0303154,-0.0869338,-0.0118431,0.00942702,-0.0119807,0.00444936,0.0297367,0.0157373,0.0011559,-0.0242024,0.111989,0.111877,0.00615992,0.10461,-0.0506415,-0.105468,0.123367,-0.0128341,0.018673,-0.0116206,0.00859414,0.0113398,0.0219226,0.0112653,0.00738328,0.0358177,0.102775,-0.0298536,0.00312291,0.0332416,-0.0282493,0.0254693,-0.0324402,0.0895028,0.0278601,0.00135275,-0.0847977,0.0109145,0.0198515,-0.0506835,0.014394,-0.0356168,0.0780468,-0.0492374
0.0482916,0.123143,0.0538244,0.0706115,0.0387164,0.124479,-0.0589613,-0.030847,0.0976598,0.0287659,-0.115918,0.0444925,-0.0137708,-0.0221198,-0.048512,0.03246,-0.0133728,-0.0949775,0.0165044,-0.0538219,0.00298373,0.0219842,0.0150035,0.0839317,0.00703183,0.0430348,0.0121443,0.0790661,0.118481,-0.052078,0.0900441,0.0569783,-0.0885751,0.0524772,0.0289178,0.000194009,-0.0102676,0.0578747,-0.0238325,-0.0449945,0.116129,-0.00838303,0.0707077,0.00677455,-0.052863,0.0902309,0.02558,-0.0280631,0.0251284,-0.055529,-0.00766686,0.0153133,-0.0142619,0.0411868,-0.00111004,-0.108462,-0.131112,0.038825,-0.0370027,0.0488921
-0.0945174,0.072773,-0.027275,0.000793659,-0.0344357,-0.073542,-0.0737108,-0.0729176,-0.0403736,0.023506,0.0817463,-0.0522675,0.0604726,0.0205702,-0.0423457,-0.0559536,0.00238678,0.0649126,-0.0626071,-0.0267157,0.0176031,0.0969006,0.0284431,0.116516,0.0528326,-0.0108334,-0.0748814,0.0518906,-0.0652698,-0.0507265,-0.0747095,-0.106711,-0.0954391,0.155412,0.0957609,-0.0605682,0.0227598,-0.00692234,-0.0378715,0.00955025,-0.0267759,0.149693,0.0695324,0.0166908,-0.107733,0.0488641,0.0297381,-0.0632029,0.0196267,-0.0341723,-0.0366699,-0.000405259,0.00913939,-0.00271066,0.0384043,-0.00873023,0.0444969,0.00667135,0.0180174,0.0245106
0.0281248,-0.100556,-0.00761075,0.0612405,0.00506094,-0.010042,-0.114135,0.116714,0.0916923,0.0799087,-0.0311273,0.0883139,0.00816246,0.107052,0.00943367,0.0849272,0.0274536,0.045849,-0.00120997,0.0299031,0.0902104,0.0189432,-0.0860257,0.0801668,0.000220719,-0.0344574,-0.0360965,0.00835327,-0.0288044,-0.0421887,0.0311892,0.0302834,-0.00815431,0.0173109,0.0342108,0.00463412,-0.114449,-0.0212611,0.0577792,-0.046914,-0.0571882,0.045858,0.00211422,-0.0310243,0.0430781,0.0151677,0.0373352,-0.0530711,-0.129118,-0.0288487,0.0122291,0.132193,-0.162869,0.0371167,0.0193737,-0.212459,-0.0119477,0.0193829,0.051043,0.0383678
0.0449911,0.03053,-0.155697,-0.0493467,-0.0613233,-0.101534,0.0345379,0.0152776,-0.0972592,-0.031338,-0.0301604,-0.0588551,-0.0937175,-0.00974275,0.0895988,0.0317181,0.0164305,-0.0637705,-0.00728497,-0.0928751,-0.0246244,-0.03368,0.0599661,0.132622,0.0413687,-0.114145,-0.0687102,0.060834,-0.0116793,0.0980967,0.0636789,0.00394108,0.0091501,0.151271,-0.0240437,0.0831448,0.0101897,0.0413569,-0.0897986,-0.0528788,-0.0329479,-0.0631956,-0.0145311,-0.0503154,-0.0533776,-0.0458552,-0.0818683,0.0268487,-0.0858353,-0.0371691,-0.0631428,-0.0985727,0.0454279,-0.00497726,-0.0390937,0.0961354,0.0147963,-0.0510859,-0.0350054,0.00972567
-0.0164407,0.0371287,0.023762,-0.124903,-0.0765543,-0.0208416,0.00558525,0.0500509,-0.0702256,0.0182508,-0.0496824,0.0697508,-0.126707,-0.0665527,0.0154144,0.0459618,-0.0105496,-0.000171128,-0.0450343,-0.0765128,0.0781325,0.0526123,0.043578,0.00924022,-0.0492755,-0.0423698,-0.108989,-0.0975685,0.0315907,-0.0315224,-0.0117747,0.0211501,0.000430078,-0.0628772,0.00664984,0.107562,0.0106104,0.0787718,0.0758215,0.0277724,0.00174681,0.028666,0.00544347,-0.00367755,0.0341432,0.0712302,0.137668,0.0983893,0.0422522,-0.0113272,0.0763588,-0.018064,-0.0316143,-0.0684921,-0.034548,-0.0285421,-0.00127622,0.0304943,0.0512341,-0.0467909
0.0244195,0.122455,0.085049,-0.0694415,-0.100377,0.0150302,0.00990981,-0.0135191,-0.0362503,0.00875287,0.013698,0.00581747,-0.0198893,-0.0373014,0.0166985,-0.0382214,-0.0803332,0.0320293,-0.011537,0.0840605,-0.0302662,-0.0500116,0.00876879,0.0702316,0.0965948,-0.024311,0.0772112,0.0070824,-0.0120353,0.0134029,-0.0013338,0.148231,-0.105263,0.0994169,0.0352444,-0.0288227,-0.000821734,0.108777,0.00886005,0.000887316,0.0493678,-0.0355629,-0.0547443,-0.0393139,0.108264,-0.0165217,0.0109798,0.0131561,0.0141916,-0.0996129,0.0421875,0.0132667,-0.0275668,-0.0215519,0.0245844,-0.0701299,-0.00681227,-0.0565922,-0.0922412,-0.034087
0.00984048,-0.0166828,-0.0544787,-0.0383402,-0.0105259,-0.0139785,0.00768915,-0.0400566,0.00303313,-0.0479309,-0.0333639,-0.0423131,-0.0144688,-0.0765726,0.0318144,0.0170517,-0.119228,-0.00919562,-0.0627772,-0.113083,-0.0701021,-0.185888,0.0372584,0.0283047,0.00306573,-0.0617915,0.0467509,0.055004,0.00656207,-0.000692953,-0.0526028,-0.00759022,-0.0923193,-0.0322043,-0.0943576,0.0667084,0.0322596,0.0383603,-0.108079,0.0200072,0.0699219,-0.0359645,0.0182772,-0.0662215,0.0581978,0.0478698,0.0222791,0.140554,-0.0567456,0.0774691,0.0671031,-0.0234263,-0.0913964,-0.00442388,-0.0850458,-0.0338811,-0.0476566,-0.0321832,-0.000625752,-0.00484342
0.0678806,0.127032,-0.0691039,0.0630957,-0.0835694,0.030776,0.00145222,0.0452684,-0.00210427,-0.0130498,0.0209569,0.0859793,0.118032,-0.0427608,0.0407536,0.069552,0.125281,0.0389545,0.0665872,-0.0523985,-0.0248452,-0.0592943,-0.0133065,0.0324871,0.040003,-0.00843787,-0.0626712,-0.0290111,-0.0434433,-0.0425728,0.00532042,0.0669287,-0.0271064,0.0133832,-0.0513592,0.0914739,-0.0191503,0.0232263,-0.0188644,-0.0377838,0.024642,0.0497773,-0.00657568,0.0575618,-0.0156058,0.0463193,0.0330954,-0.0510968,-0.0507833,-0.0418423,-0.0590938,0.0451174,-0.00287328,0.038072,0.0589371,-0.00728021,-0.0217893,-0.064875,-0.0754182,-0.0618834
0.0567721,-0.0251566,0.0225338,0.0511547,-0.0334344,-0.0142356,0.013061,0.099719,0.0235341,-0.0814199,-0.154743,0.162238,0.108588,0.0252137,0.0572317,-0.044871,0.0587497,-0.0168375,0.0808674,-0.00159505,0.0975279,-0.0502661,-0.0391149,0.0073305,0.0257976,-0.0401001,-0.0176823,0.0394647,-0.0376156,-0.0194769,-0.0331464,0.0458005,0.0555704,-0.00317535,0.0333631,0.0200605,-0.135672,0.00811692,0.0593087,-0.00797795,0.0247672,0.0743453,0.0375296,0.0132688,-0.0212959,0.0137514,-0.0220138,0.0203705,-0.00269524,0.0267934,0.0560824,0.00839508,0.0202804,0.113846,0.0437615,-0.00517612,-0.0776003,-0.057832,-0.0022776,0.0237437
-0.0296005,-0.0251305,0.0281108,0.0901043,0.129714,0.0167133,0.0269137,-0.0183997,0.0276951,-0.093211,0.0541393,0.0364042,0.0174262,-0.0418933,-0.0353554,0.0214794,-0.0434529,-0.0805479,0.145815,0.0297536,-0.0699119,0.0115606,0.0283405,0.0287973,-0.0199102,-0.0321395,0.0593308,0.0307287,-0.114835,0.0338309,-0.0139565,0.0579414,-0.118384,-0.114372,-0.0234063,-0.0192148,0.0152503,0.0239458,0.0428167,-0.0151853,0.0251571,0.0746861,0.0150914,-0.0804894,-0.0593923,-0.0454135,0.0549184,-0.0593229,-0.019935,0.0835302,-0.0949964,0.0149112,-0.0580634,0.0281383,-0.0230086,-0.00275162,-0.0697069,0.0336004,-0.102598,-0.0293275
0.0226581,-0.0460609,0.0428892,-0.011842,0.112232,0.0371396,-0.0213019,-0.013082,0.0198329,-0.0443668,0.0875796,0.0412506,0.0702383,-0.0245262,0.00898633,-0.016836,-0.0615068,-0.0340289,0.00970076,0.0403442,-0.0587943,-0.0542701,0.0355648,-0.0377188,-0.0688101,-0.0150041,0.00214582,0.039127,0.100475,0.0756472,0.0380931,0.0351035,0.00728822,0.0343475,0.0730876,-0.00918101,-0.043999,0.00849192,0.0130154,0.0701271,0.0108922,0.0526099,0.0629251,-0.0305201,-0.0454539,-0.0204254,-0.037528,-0.00842961,-0.0580614,0.0412677,0.0677638,-0.0623647,0.0949755,-0.0328814,0.0142651,0.0379995,0.005603,0.0340734,-0.0259951,0.0692217
0.027877,0.0248463,0.0634761,0.00317866,-0.102868,-0.0135411,0.0562405,0.0250537,0.00516812,-0.0359193,0.0710894,0.0105431,-0.0570728,-0.0692855,0.0348344,-0.0400176,0.0336441,-0.042714,-0.0507873,-0.0596474,0.0584565,-0.00174904,0.0988133,-0.106091,-0.0378417,0.0362279,0.0282595,0.0797726,0.0315541,-0.040684,0.00983202,-0.0611872,0.0418243,0.083535,-0.0205693,-0.0672835,0.0722349,0.0477931,-0.0548437,-0.121799,-0.00693249,0.0590165,-0.0177267,-0.0585788,0.139147,0.037632,-0.0394408,-0.0308318,-0.000953827,0.0462879,0.0653583,-0.0497487,0.0344468,0.029846,-0.0285985,0.0308255,-0.0194332,0.0295666,0.0838599,0.00172142
-0.0461867,-0.0426708,0.0677557,0.00481249,0.0635373,-0.00734133,0.120465,0.0605055,-0.0129122,0.0802084,-0.0271944,-0.0704703,0.0712984,-0.051242,-0.0876142,0.014868,-0.016861,0.0235209,0.0855815,-0.00848819,-0.0957853,0.049062,0.0593536,-0.0907229,0.056816,-0.00927547,-0.117076,-0.0229728,0.0852041,0.152698,0.0341751,-0.0236945,-0.0037434,0.118729,0.0986781,0.0376407,-0.051393,-0.119617,0.0470738,0.0143766,0.00908469,-0.0592285,-0.00760005,0.0945109,-0.0989754,-0.0369297,0.00874584,0.0079427,-0.0425309,-0.0604051,-0.0154101,0.0390391,0.0298318,0.00972712,0.0394361,-0.0586048,0.0811034,-0.0969705,-0.0839467,-0.0641531
-0.0189113,-0.139262,0.033408,-0.0306189,0.0968114,0.0595421,0.0830205,0.0344551,0.0224846,0.0214587,0.081703,0.0547432,-0.0448226,-0.0857845,0.112205,0.0297075,0.0349059,-0.0600405,0.0996601,0.0053686,-0.0560325,-0.0350387,0.131328,-0.085753,0.0138013,-0.0458527,-0.0260524,0.0851702,-0.0343854,-0.00141255,-0.0331148,0.0344541,-0.0739017,0.0698389,-0.034613,-0.0425534,0.0229014,-0.0419337,0.0314726,-0.0940618,0.00970305,0.0333038,-0.0970743,0.00830472,0.01476,0.0715433,-0.0789201,0.0495081,0.0246219,-0.00964224,-0.00957777,0.0494909,0.0292173,0.034856,0.0907264,0.0177332,0.0059209,-0.0860808,-0.10548,-0.0208369
-0.0267184,-0.0662956,0.0549347,0.00495546,-0.151462,0.0462276,-0.000811224,0.0709496,0.115267,-0.00647738,0.00554961,-0.00399675,0.00200862,0.029433,-0.0425257,0.020854,-0.0147363,-0.0352148,0.0984227,0.0506507,-0.0427355,0.0450836,-0.0526442,-0.0295982,0.0699477,0.0476033,-0.0321478,-0.105187,-0.0385198,-0.0244764,0.00252626,-0.0220754,-0.000519166,0.0442634,-0.0985176,-0.0107325,-0.0119298,0.0273362,0.0457325,-0.00281792,0.0295777,0.121576,0.0142555,0.0916924,-0.0434258,0.0608172,-0.098208,-0.00877713,-0.0150075,0.000886887,0.0259708,-0.036099,0.0299918,-0.0343653,-0.0640356,-0.0961247,-0.0283501,0.000612447,-0.0488111,-0.0510549
-0.00668755,-0.0119498,0.0110799,-0.000716033,0.0107318,-0.0223049,-0.0251758,-0.0477188,0.0926363,-0.0898086,0.0744038,-0.0352353,-0.0360781,-0.101944,-0.092307,-0.0630517,-0.0331945,-0.0361122,-0.0444421,-0.0476098,0.0762734,-0.0487659,0.0463662,-0.00671494,0.0352464,0.0482531,0.0805628,-0.0281087,0.0843531,-0.0452719,0.0619716,0.0327113,0.0261107,-0.167191,-0.029493,0.00217948,0.0203902,0.0118452,-0.0433675,-0.109146,0.0146592,-0.0292636,0.0735834,-0.0586219,0.150955,0.074211,0.0789542,0.0567659,0.0935406,0.0411527,-0.121559,0.0702999,-0.0279727,0.00894944,-0.0629303,-0.0615773,-0.028236,0.134278,0.0227785,-0.0241505
-0.0353866,0.0167791,-0.124644,-0.0670211,-0.181793,0.00293883,0.043659,-0.0296581,0.0305164,0.0179289,-0.00113962,-0.00674407,-0.0224471,0.0510816,0.0212034,-0.035546,-0.0955926,0.0411349,0.0100149,0.0621122,-0.0334787,-0.0471704,-0.0409559,0.0826967,0.067507,-0.0633849,0.023074,0.0261897,-0.0593169,-0.0929039,-0.00218151,0.0614378,-0.0522301,-0.0139486,-0.023081,-0.0323044,-0.0132401,0.0291371,-0.138311,0.0429912,0.00204038,0.0301578,0.0472865,-0.0465305,-0.00759296,0.00660256,-0.0842733,-0.0019985,0.00223926,0.110714,0.0125756,-0.0212897,0.0571475,-0.048678,0.0184029,-0.09516,-0.0183102,-0.0620087,0.0483984,-0.0900325
-0.0650746,0.032808,0.037607,0.0196461,-0.0589306,-0.0128085,0.0819342,0.10261,-0.0218268,-0.0169122,0.0431806,-0.104755,0.103951,0.0794756,0.0550679,0.0815533,-0.0694458,-0.0520442,0.0283682,0.0557942,-0.0665986,0.130609,-0.0544728,0.0974394,0.0484664,-0.0503244,-0.0667749,0.157903,-0.0852842,0.00905102,-0.0489292,-0.0215834,0.107185,-0.0464192,0.0207842,-0.0745742,0.0229949,-0.0162458,-0.120506,0.0582021,0.00574097,0.0299532,0.0266794,0.00977764,-0.0222663,0.0546276,-0.0203778,-0.00792635,0.0888971,0.0203521,-0.0165873,0.0767189,0.0118074,-0.0628899,0.0907032,-0.0687091,-0.0594169,-0.0629669,0.0622251,0.00350262
0.0078886,0.0136965,-0.0530476,-0.0173927,-0.0884545,-0.0139394,-0.0412935,0.00844148,0.0761832,0.0190647,0.0144585,0.00184901,-0.0873351,-0.0565029,-0.000969632,-0.00328523,0.0343838,0.0306472,0.0188311,0.0293287,0.0967608,-0.00691709,0.0194969,-0.0581327,0.00271065,0.0904584,-0.0204344,-0.0538304,-0.143844,-0.00175739,0.0495751,-0.0711592,-0.0205712,0.0036593,0.0445474,-0.0971637,-0.0279013,0.0546261,0.00795589,-0.134194,0.0220518,-0.0460636,0.0269929,-0.0556409,0.0123921,-0.0498719,-0.00521111,-0.0274982,-0.107738,-0.0418366,-0.0900765,0.00434889,0.0366154,0.00904455,-0.0195698,0.0809754,0.0317598,-0.0274353,0.0483948,0.0425752
-0.0408535,0.11748,0.00397102,-0.0543301,-0.0226465,0.0785327,-0.0340127,-0.0446982,0.133118,-0.0565874,-0.0143906,0.0360494,-0.0016242,-0.0698985,0.0582095,0.0594938,0.024214,0.00325726,0.0411526,-0.00633845,0.104664,0.0661022,0.0221934,-0.133865,-0.104413,-0.0325633,0.0404137,0.0697092,0.00311318,0.0746795,-0.00267222,-0.0381177,0.102218,-0.0601687,-0.00464926,0.0380602,-0.00882262,-0.0600225,0.0652047,0.0215931,-0.015523,0.068867,0.0906021,-0.0270529,-0.0319792,0.0265347,-0.0335401,0.0570003,-0.0339652,0.0605888,0.0314599,0.0957685,-0.0478868,-0.054857,-0.0643406,0.0568914,0.0644828,-0.00110474,0.0149307,0.000514182
0.0253437,0.052662,-0.10005,0.00198023,-0.0629862,-0.0669447,-0.00359934,-0.0395637,-0.0256777,0.0605916,-0.014904,0.084071,-0.147325,-0.0438628,-0.0175991,0.0889936,0.127193,0.0573263,0.00158399,-0.00916579,-0.0230439,0.0292964,-0.0796272,0.0298138,0.024236,-0.0676684,-0.0065851,0.0251234,0.00712253,-0.142634,0.0022895,0.0139232,-0.0374405,-0.0112872,0.0297873,-0.00137411,0.00883965,-0.0273213,-0.0382726,-0.00393203,-0.00221182,-0.000791709,0.0016413,-0.0888762,0.0396189,0.130851,-0.0308164,0.0207783,-0.0141918,0.0379372,-0.0773472,0.00774211,0.0614404,0.0175166,0.00708344,0.0069911,-0.00916758,-0.0426943,0.00332472,-0.139211

max: 1
min: -0.212459
avg: 2.65265e-05
