File Name,exposure, SOCF
,,Min,Max,Avg
QRNG_Data/Experiment_7/TLHG/60x60/,0,1.03169,1.52898,1.04834
QRNG_Data/Experiment_7/TLHG/60x60/,10,1.03122,1.43151,1.04453
QRNG_Data/Experiment_7/TLHG/60x60/,20,1.03154,1.36788,1.04698
QRNG_Data/Experiment_7/TLHG/60x60/,30,1.03321,1.40953,1.04854
QRNG_Data/Experiment_7/TLHG/60x60/,40,1.03327,1.47587,1.04881
QRNG_Data/Experiment_7/TLHG/60x60/,50,1.03043,1.42639,1.04803
QRNG_Data/Experiment_7/TLHG/60x60/,60,1.02459,1.18736,1.03409
QRNG_Data/Experiment_7/TLHG/60x60/,70,1.02428,1.20067,1.03372
QRNG_Data/Experiment_7/TLHG/60x60/,80,1.02015,1.11394,1.02735
QRNG_Data/Experiment_7/TLHG/60x60/,90,1.02119,1.12919,1.02815
QRNG_Data/Experiment_7/TLHG/60x60/,100,1.0194,1.12036,1.02816
QRNG_Data/Experiment_7/TLHG/60x60/,110,1.01719,1.08237,1.02321
QRNG_Data/Experiment_7/TLHG/60x60/,120,1.01764,1.08572,1.0238
QRNG_Data/Experiment_7/TLHG/60x60/,130,1.01579,1.06935,1.02101
QRNG_Data/Experiment_7/TLHG/60x60/,140,1.01541,1.06526,1.02052
QRNG_Data/Experiment_7/TLHG/60x60/,150,1.01555,1.06721,1.02051
QRNG_Data/Experiment_7/TLHG/60x60/,160,1.01434,1.05204,1.01836
QRNG_Data/Experiment_7/TLHG/60x60/,170,1.01423,1.0493,1.01872
QRNG_Data/Experiment_7/TLHG/60x60/,180,1.01448,1.04822,1.01869
QRNG_Data/Experiment_7/TLHG/60x60/,190,1.01266,1.04278,1.01706
QRNG_Data/Experiment_7/TLHG/60x60/,200,1.01321,1.04044,1.0169
QRNG_Data/Experiment_7/TLHG/60x60/,210,1.01206,1.03419,1.01551
QRNG_Data/Experiment_7/TLHG/60x60/,220,1.01246,1.03693,1.01576
QRNG_Data/Experiment_7/TLHG/60x60/,230,1.01217,1.03591,1.01572
QRNG_Data/Experiment_7/TLHG/60x60/,240,1.01133,1.03597,1.0146
QRNG_Data/Experiment_7/TLHG/60x60/,250,1.01126,1.03219,1.01448
QRNG_Data/Experiment_7/TLHG/60x60/,260,1.01095,1.02666,1.0138
QRNG_Data/Experiment_7/TLHG/60x60/,270,1.01119,1.02655,1.01376
QRNG_Data/Experiment_7/TLHG/60x60/,280,1.01108,1.02824,1.01363
QRNG_Data/Experiment_7/TLHG/60x60/,290,1.01046,1.02638,1.01309
QRNG_Data/Experiment_7/TLHG/60x60/,300,1.01083,1.02446,1.01307
QRNG_Data/Experiment_7/TLHG/60x60/,310,1.00991,1.02196,1.01238
QRNG_Data/Experiment_7/TLHG/60x60/,320,1.01015,1.0238,1.01247
QRNG_Data/Experiment_7/TLHG/60x60/,330,1.01007,1.02344,1.01241
QRNG_Data/Experiment_7/TLHG/60x60/,340,1.00973,1.01953,1.01184
QRNG_Data/Experiment_7/TLHG/60x60/,350,1.00948,1.01906,1.01192
QRNG_Data/Experiment_7/TLHG/60x60/,360,1.00954,1.01821,1.0114
QRNG_Data/Experiment_7/TLHG/60x60/,370,1.00883,1.01856,1.01136
QRNG_Data/Experiment_7/TLHG/60x60/,380,1.00944,1.01753,1.01145
QRNG_Data/Experiment_7/TLHG/60x60/,390,1.009,1.01716,1.01108
QRNG_Data/Experiment_7/TLHG/60x60/,400,1.00932,1.01936,1.01108
QRNG_Data/Experiment_7/TLHG/60x60/,410,1.00914,1.01909,1.01101
QRNG_Data/Experiment_7/TLHG/60x60/,420,1.00886,1.01574,1.01071
QRNG_Data/Experiment_7/TLHG/60x60/,430,1.00889,1.01871,1.0107
QRNG_Data/Experiment_7/TLHG/60x60/,440,1.00871,1.01471,1.01036
QRNG_Data/Experiment_7/TLHG/60x60/,450,1.00862,1.01513,1.01037
QRNG_Data/Experiment_7/TLHG/60x60/,460,1.00838,1.01494,1.01038
QRNG_Data/Experiment_7/TLHG/60x60/,470,1.00843,1.01468,1.01009
QRNG_Data/Experiment_7/TLHG/60x60/,480,1.0085,1.01601,1.01009
QRNG_Data/Experiment_7/TLHG/60x60/,490,1.00841,1.01469,1.00989
QRNG_Data/Experiment_7/TLHG/60x60/,500,1.00822,1.01366,1.00988
QRNG_Data/Experiment_7/TLHG/60x60/,510,1.00852,1.01285,1.00988
QRNG_Data/Experiment_7/TLHG/60x60/,520,1.00813,1.01441,1.00961
QRNG_Data/Experiment_7/TLHG/60x60/,530,1.00816,1.01372,1.00963
QRNG_Data/Experiment_7/TLHG/60x60/,540,1.00799,1.01251,1.00941
QRNG_Data/Experiment_7/TLHG/60x60/,550,1.00788,1.01336,1.0094
QRNG_Data/Experiment_7/TLHG/60x60/,560,1.00818,1.01257,1.00945
QRNG_Data/Experiment_7/TLHG/60x60/,570,1.00771,1.01314,1.00922
QRNG_Data/Experiment_7/TLHG/60x60/,580,1.00747,1.01245,1.00921
QRNG_Data/Experiment_7/TLHG/60x60/,590,1.00792,1.01245,1.00923
QRNG_Data/Experiment_7/TLHG/60x60/,600,1.00785,1.01097,1.00907
QRNG_Data/Experiment_7/TLHG/60x60/,610,1.00779,1.01241,1.00904
QRNG_Data/Experiment_7/TLHG/60x60/,620,1.00763,1.01137,1.00891
QRNG_Data/Experiment_7/TLHG/60x60/,630,1.00778,1.01182,1.0089
QRNG_Data/Experiment_7/TLHG/60x60/,640,1.00767,1.01207,1.00895
QRNG_Data/Experiment_7/TLHG/60x60/,650,1.00751,1.01065,1.00879
QRNG_Data/Experiment_7/TLHG/60x60/,660,1.00759,1.01144,1.00879
QRNG_Data/Experiment_7/TLHG/60x60/,670,1.00746,1.01057,1.00863
QRNG_Data/Experiment_7/TLHG/60x60/,680,1.00719,1.01068,1.00862
QRNG_Data/Experiment_7/TLHG/60x60/,690,1.00749,1.01077,1.00864
QRNG_Data/Experiment_7/TLHG/60x60/,700,1.00735,1.01041,1.00851
QRNG_Data/Experiment_7/TLHG/60x60/,710,1.00731,1.01077,1.00852
QRNG_Data/Experiment_7/TLHG/60x60/,720,1.00737,1.01015,1.00839
QRNG_Data/Experiment_7/TLHG/60x60/,730,1.00725,1.01049,1.00839
QRNG_Data/Experiment_7/TLHG/60x60/,740,1.00738,1.01128,1.00842
QRNG_Data/Experiment_7/TLHG/60x60/,750,1.00719,1.01025,1.00827
QRNG_Data/Experiment_7/TLHG/60x60/,760,1.00726,1.01059,1.00828
QRNG_Data/Experiment_7/TLHG/60x60/,770,1.00717,1.01048,1.00819
QRNG_Data/Experiment_7/TLHG/60x60/,780,1.00714,1.00997,1.00819
QRNG_Data/Experiment_7/TLHG/60x60/,790,1.00715,1.00989,1.00818
QRNG_Data/Experiment_7/TLHG/60x60/,800,1.00715,1.01026,1.00808
QRNG_Data/Experiment_7/TLHG/60x60/,810,1.00704,1.01026,1.00809
QRNG_Data/Experiment_7/TLHG/60x60/,820,1.00715,1.00972,1.00808
QRNG_Data/Experiment_7/TLHG/60x60/,830,1.00707,1.00944,1.00799
QRNG_Data/Experiment_7/TLHG/60x60/,840,1.00707,1.00931,1.008
QRNG_Data/Experiment_7/TLHG/60x60/,850,1.00698,1.00973,1.00792
QRNG_Data/Experiment_7/TLHG/60x60/,860,1.00687,1.00927,1.00791
QRNG_Data/Experiment_7/TLHG/60x60/,870,1.00693,1.01034,1.00792
QRNG_Data/Experiment_7/TLHG/60x60/,880,1.0069,1.00934,1.00784
QRNG_Data/Experiment_7/TLHG/60x60/,890,1.00695,1.00969,1.00783
QRNG_Data/Experiment_7/TLHG/60x60/,900,1.00682,1.00911,1.00775
QRNG_Data/Experiment_7/TLHG/60x60/,910,1.00689,1.00917,1.00776
QRNG_Data/Experiment_7/TLHG/60x60/,920,1.0068,1.00892,1.00775
QRNG_Data/Experiment_7/TLHG/60x60/,930,1.00674,1.00921,1.00769
QRNG_Data/Experiment_7/TLHG/60x60/,940,1.00684,1.00928,1.00767
QRNG_Data/Experiment_7/TLHG/60x60/,950,1.00681,1.0086,1.00761
QRNG_Data/Experiment_7/TLHG/60x60/,960,1.00682,1.00929,1.0076
QRNG_Data/Experiment_7/TLHG/60x60/,970,1.00677,1.00879,1.00761
QRNG_Data/Experiment_7/TLHG/60x60/,980,1.00679,1.0088,1.00755
QRNG_Data/Experiment_7/TLHG/60x60/,990,1.00677,1.00845,1.00755
QRNG_Data/Experiment_7/TLHG/60x60/,1000,1.00661,1.00869,1.00749
