1.00112,1.0007,1.00153,1.00543,1.00483,1.00261,1.00382,1.00108,1.00569,1.00598,1.00299,1.0043,1.00388,0.999909,1.00309,1.0033,1.00315,1.00252,1.00695,1.00141,1.00473,0.999509,0.997625,1.00183,1.0051,1.00212,1.00839,1.00058,1.00281,1.00322,1.00308,1.00518,1.00283,1.00642,1.0047,1.00519,1.00396,1.00233,1.00433,1.00542,1.00329,1.00369,1.0029,1.0039,1.00603,1.00314,1.00034,1.00492,1.00378,1.00173,1.00361,1.00455,1.00277,1.00244,1.00184,1.00315,1.00316,1.00211,1.00394,1.00234
1.0013,1.00375,1.00238,1.00611,1.00432,1.00023,1.00337,1.00455,1.00472,1.00522,1.00322,1.00195,1.00295,1.00271,1.00406,1.00399,1.00228,1.00451,1.0018,1.00387,1.00518,1.00355,1.00222,1.00432,1.0041,1.00369,1.00877,1.00317,1.0014,1.00446,1.00201,1.0038,1.00413,1.00449,1.00281,1.00515,1.00805,1.00517,1.00431,1.00582,1.00624,1.0015,1.00194,1.0012,1.00354,1.0061,1.0056,1.00251,1.00402,1.00012,1.00449,1.00253,1.00324,1.00347,1.0033,1.00259,1.008,1.00435,1.00148,1.00525
1.0009,1.00209,1.00284,1.00494,1.00308,1.00219,1.00161,1.00226,1.00206,1.00288,1.00417,1.00317,1.00122,1.00328,1.00514,1.00535,1.00422,1.00273,1.00283,1.00395,1.00271,1.00554,1.00534,1.00089,1.00579,1.00315,1.00712,1.00041,1.00069,1.00224,1.00409,1.00065,1.00277,1.00164,1.00221,1.00449,1.00541,1.00316,1.00724,1.00291,1.00296,1.00487,1.00115,1.00434,1.00064,1.00439,1.00333,0.999968,1.00121,1.0025,1.00209,1.00318,1.0044,1.00706,1.00192,1.00317,1.00125,1.0067,1.00404,1.00187
1.00472,1.0052,0.997685,1.00384,1.00226,1.00413,1.00512,1.00402,1.00384,1.00159,1.0031,1.00113,1.00434,1.00331,1.00109,1.00376,1.00398,1.00291,1.00516,0.998154,1.00151,1.00184,1.00217,1.00151,1.00613,1.0071,0.999279,1.00367,1.00693,1.00154,1.00153,1.00341,1.00335,1.00439,1.00171,1.0058,1.00447,1.00385,1.00319,1.00604,1.00443,1.00169,1.00383,1.00643,0.999943,1.00225,1.00562,1.00634,1.00482,1.00159,1.00666,1.00393,1.00411,1.0038,1.00293,1.00533,1.00338,1.00426,1.00267,1.00313
1.00662,1.00253,1.00185,1.00336,1.0019,1.00028,1.00287,1.00188,1.0032,1.00501,1.00259,1.00381,1.00236,1.00289,1.00494,1.00333,1.0034,1.00189,1.00197,1.00796,1.00603,1.0039,1.0045,1.00345,1.00348,1.00059,1.00387,1.00137,1.00544,1.00303,1.00576,1.00186,1.00344,1.00417,1.00323,1.00477,0.998463,1.00159,1.00449,1.00427,0.999914,1.00111,1.00267,1.00514,1.00391,1.00296,1.00121,1.00423,1.0001,1.00093,1.00326,1.0043,1.00275,1.00033,1.00408,1.00532,1.00061,1.00133,1.00285,0.998959
1.00204,1.00155,1.00675,1.0045,1.00137,1.00241,1.0043,1.00566,1.00394,1.00141,1.00458,1.00529,1.0046,1.00361,1.00708,1.00175,1.00439,1.00441,1.00254,1.0073,1.00157,1.00217,1.00309,1.00161,1.00191,1.00482,1.00314,1.00635,1.00673,1.0073,0.999672,1.00404,1.00512,1.00593,1.00257,1.00595,1.00042,1.00267,1.00246,1.00422,1.00358,1.00496,1.0047,1.00427,1.00173,0.999292,1.00268,1.00412,1.00126,1.00252,1.00248,1.00478,1.00501,0.999611,1.00114,1.00468,1.00179,0.999016,1.00701,1.00281
1.00486,1.00186,1.00553,1.00517,1.00231,1.00466,1.00874,1.00516,1.00422,0.999237,0.998699,1.00402,0.997353,1.00082,1.00155,1.00458,1.00261,1,1.00224,1.00455,1.00342,0.999492,1.0046,1.00045,1.0036,1.00358,1.00308,1.00302,1.00483,1.00502,1.0074,1.00303,1.0042,1.00419,1.00034,1.00064,1.00546,1.00161,1.00578,1.00206,1.00187,1.00441,1.00088,1.0026,1.00473,0.999618,0.99898,1.00346,1.00141,1.00307,1.00045,1.00362,1.00374,1.00348,1.00529,1.00365,1.00234,1.00164,1.00721,0.999567
1.00017,1.00366,1.0016,1.00739,1.00279,1.00607,1.00155,1.00533,1.00541,1.00615,1.00402,0.999324,0.999468,1.0025,0.999056,1.00369,0.999432,1.00747,1.00264,1.00529,1.00068,1.00407,1.00548,1.00283,1.00291,1.006,0.998966,1.00155,1.0015,1.00297,1.00317,1.00374,1.00399,1.00334,1.00211,1.00611,1.00306,1.00589,1.00247,1.00208,1.00098,1.00331,1.00194,1.00477,1.00117,1.00495,1.00463,1.00506,1.00698,1.00103,1.00399,1.00634,1.00612,1.00434,1.00473,1.00147,1.00349,1.00209,1.00566,1.00159
1.00337,1.00192,1.00335,1.00171,1.00071,1.0033,1.00659,1.00562,1.00512,1.00088,1.00205,1.00434,1.00341,1.00201,1.00299,1.00618,1.00474,1.00545,1.00373,1.00409,1.00329,1.00185,1.00279,1.00038,1.00144,1.0029,1.00412,1.00084,1.00316,1.00531,1.00508,1.00225,1.00427,1.00234,1.00319,1.00479,1.00375,1.00241,1.00685,1.00503,1.00599,1.00363,1.00063,1.00137,1.00431,1.00535,1.00535,1.00367,1.003,1.0021,1.00308,1.0017,1.00218,1.00508,1.00135,1.00335,1.00523,1.0056,1.00325,1.00536
1.0028,1.00379,1.00111,1.00428,1.00378,1.00621,1.00433,1.00334,1.00351,1.00413,0.999839,1.00359,1.00117,1.00207,1.00194,1.00114,1.00725,1.00515,1.00305,1.00194,1.00322,1.00519,1.00213,1.00231,1.00929,1.00455,1.00255,1.00465,1.00273,1.00572,1.00314,1.00263,1.0056,1.0005,1.00317,1.00747,1.00139,1.00299,1.00293,1.0055,1.00508,1.0021,1.00095,1.0058,1.00428,1,1.00513,1.00167,1.00487,1.00283,1.00121,1.0036,1.0049,1.0071,1.00394,1.00241,1.00227,1.00423,1.00444,1.00316
1.00545,1.00376,1.00121,1.00454,1.0022,1.00746,1.0032,1.00439,1.00238,1.00853,1.00478,1.00245,1.00451,1.00188,1.0045,1.00331,1.00437,1.00268,1.00217,1.00357,1.00265,1.00476,1.00367,1.00344,1.0029,1.00122,1.00332,1.00402,1.00434,1.00422,1.00662,1.00791,1.00335,1.0046,1.00366,1.00442,1.00313,1.00163,1.00114,1.00215,1.00307,1.00665,1.00062,1.0042,1.00418,1.00315,0.999758,1.00613,1.00457,1.00252,1.00018,1.00349,1.00275,1.00444,1.00405,1.00255,1.0056,1.00219,1.0044,1.00524
1.0034,1.00366,1.00379,1.00276,1.00121,1.0003,0.999241,1.00421,1.00069,1.0021,1.00087,1.00517,1.00264,1.00314,1.0053,1.0053,1.00402,1.00409,1.00203,1.00204,1.00118,1.00386,1.00412,1.00312,1.00383,1.0011,1.00486,1.00513,1.00402,1.00354,1.00518,1.00498,1.00219,1.0036,1.00205,1.00413,1.00016,0.999242,1.00487,1.0051,1.00368,1.00556,1.00159,1.00496,1.00341,1.00506,1.00381,1.0054,1.00356,1.0038,1.00678,1.00076,1.00222,1.00558,1.00491,1.0059,1.00379,1.00146,1.0021,1.00821
1.00403,1.00363,0.999298,1.00375,1.00062,1.00455,1.00233,1.00532,1.00297,1.00608,1.00445,1.00284,1.00413,0.999985,1.00386,1.00118,1.0051,1.00388,1.00493,1.00331,1.00257,1.00371,1.00381,1.00394,1.00661,0.991281,1.00484,1.00577,1.00361,1.00665,1.00159,1.00278,1.00169,1.00151,1.00446,1.00464,1.00365,1.00407,1.00493,1.00081,1.0028,1.0022,1.00394,1.00562,1.00273,1.00105,1.00273,1.00366,1.00327,1.0034,1.00474,0.999858,1.0053,1.00171,1.00493,1.00168,1.00195,1.0044,1.00143,1.00632
1.00149,1.00251,1.0022,1.00497,1.00196,1.00655,1.00421,1.00339,1.00569,1.00483,1.00618,1.00403,1.00435,1.00374,1.00649,1.002,1.00288,1.0038,1.00366,1.00487,1.00179,1.00181,1.00359,1.00194,1.00435,1.00355,1.00398,1.00535,1.0043,1.00436,1.00742,1.00196,1.00167,1.00182,1.00355,1.00564,1.00627,1.00362,1.00472,1.00776,1.00634,1.00158,1.0006,1.0027,1.00724,1.00448,1.00479,1.00495,1.00103,1.00323,1.00637,1.00638,1.00533,1.00414,1.00577,0.999267,1.00423,1.0021,1.00026,1.00186
1.00386,1.00006,0.997781,1.00492,1.00531,1.00353,1.00353,1.00349,1.00146,1.00408,1.00071,0.999729,1.00128,1.00416,1.00442,1.00621,1.00158,1.00418,1.00334,1.00127,1.00158,1.00437,1.00112,1.00414,1.00483,1.00347,1.0017,1.00431,1.00444,1.00353,1.00324,1.00393,1.00354,1.00091,1.00273,1.00411,1.00302,1.0033,1.00093,1.00383,1.00412,1.00057,1.00375,1.00386,1.00285,1.00334,1.00579,1.00057,1.00675,1.00439,1.00624,1.0061,1.00487,1.00202,1.00066,1.00419,1.00727,1.00309,1.00441,1.00389
1.00421,1.00496,1.00227,1.00229,1.00078,1.00526,1.00225,1.00418,1.00486,0.998045,1.00231,1.00495,1.00503,1.00088,1.00239,1.00334,1.00011,1.00231,1.00295,1.00241,1.00442,1.00472,1.00143,1.00291,0.999511,1.00444,1.0056,1.00498,1.00418,1.00332,1.00457,1.00213,1.00463,1.00324,1.00445,1.00189,1.00545,1.00528,1.00143,1.00171,1.00461,1.00385,1.00586,1.00247,1.00419,1.00174,1.00662,1.00224,1.0045,1.00211,0.99921,1.00465,1.00368,1.00429,1.00517,1.00588,1.00233,1.00168,1.0029,1.00121
1.00416,1.00299,1.00225,1.0022,1.00171,1.00413,1.00301,1.00208,1.00354,1.00415,1.00255,1.00406,1.00309,1.00429,1.00436,1.00442,1.00434,1.00208,1.00015,0.999691,1.00249,1.0036,1.00359,1.00591,1.00068,1.00201,1.00256,1.00461,1.00303,1.00639,1.00112,1.00278,1.00399,1.00326,1.00478,1.00253,1.0053,1.00151,1.00638,1.00565,1.00227,1.00249,1.00447,1.00137,1.00429,1.00468,1.0029,1.00278,1.00237,1.00205,1.0023,1.00427,1.004,1.00608,1.00568,1.0033,1.00616,1.00114,1.00163,1.00535
1.0052,1.00192,1.00207,1.00211,1.00422,1.00559,1.00491,1.00389,1.00192,1.00318,1.00601,1.0027,1.00399,1.00166,1.00019,1.00353,1.00587,1.00243,1.00455,1.00244,0.999919,1.00554,1.00248,1.00372,1.0009,1.00311,1.00155,1.00385,1.00493,0.999959,1.00273,1.00228,1.00344,1.00164,1.00229,1.00164,1.00559,1.0036,1.0036,1.0019,1.00515,1.00277,1.00099,1.00236,1.00332,1.00092,1.00203,1.00016,1.00322,1.00558,1.00034,1.00486,1.00261,1.00351,1.00221,0.998955,1.00414,1.00286,1.00289,1.0019
1.00296,1.00534,1.00285,1.00324,1.00445,1.00325,1.00149,1.00431,1.0012,1.00348,1.00432,1.00262,1.00443,1.00278,1.00395,1.00639,1.0029,1.00548,1.00555,1.00109,1.00223,0.999699,1.00357,1.0027,1.00226,1.00433,1.00515,1.00237,1.00158,1.00514,1.00429,1.00293,1.00352,1.00249,1.00231,1.0029,1.00526,1.00309,1.00556,1.00384,0.999802,1.00152,1.00527,1.00596,1.00214,1.00382,1.00716,1.0033,1.00621,1.0012,1.00464,1.00227,1.00201,1.00052,1.00151,1.00465,1.00544,1.00436,1.0049,1.00182
1.00321,1.00284,1.00291,1.00185,1.00459,1.00458,1.0049,1.00278,1.00297,1.00149,1.00469,0.999965,1.00392,1.00225,1.00289,1.00637,1.00205,1.00572,1.00453,1.00074,1.00188,1.00196,1.00575,1.00008,1.00254,1.00339,1.00388,1.00299,1.00436,1.00282,1.00297,1.00641,0.999665,1.00386,1.00313,1.00496,0.99925,1.00204,1.00432,1.00273,1.00373,1.0036,1.00479,1.00663,1.00211,1.00327,1.00338,1.00323,1.00252,1.0018,1.00652,0.998654,1.00091,1.00456,1.00492,1.00414,1.003,1.00264,1.00305,1.00169
1.00261,1.00413,1.00494,1.0014,1.00647,1.00414,1.00517,1.00374,1.00667,1.00452,1.00174,1.00458,1.00371,1.00421,1.00434,1.0033,1.0017,1.00078,1.00409,1.0029,1.00291,1.00452,1.00301,1.00311,0.999809,1.00377,1.00464,1.00173,1.00368,1.00444,1.00398,1.00233,1.00458,1.00131,1.00158,1.00574,1.00413,1.00656,1.00456,1.00508,1.00332,1.00476,1.00453,0.998804,1.00635,1.00563,1.00295,1.00535,0.9995,1.00183,1.00246,1.00154,1.00453,1.00409,1.00102,1.00319,1.00093,1.00355,1.0025,1.00454
1.00423,1.00516,1.00391,1.00582,1.00368,1.00308,1.00267,1.00681,1.00492,1.00143,1.00253,1.00374,1.00151,1.00473,1.00145,1.00442,1.00244,1.00559,1.00372,1.00225,1.00353,0.999986,1.0024,1.00274,1.0049,1.00296,1.00356,1.00294,0.999276,1.0038,1.00342,1.00535,1.00172,1.00209,1.00212,1.00192,1.00451,1.00453,1.00496,1.00658,1.00005,1.00618,1.00553,1.00305,1.00437,1.00405,1.00303,1.00188,1.00139,1.0015,1.00312,1.0086,1.00202,0.999403,1.00205,1.00196,1.00355,1.00355,1.00384,1.0041
1.00203,0.999633,1.00622,1.00532,1.0011,1.00211,1.00382,1.00278,1.00525,1.00398,1.00223,1.00414,1.00452,1.00666,1.00405,0.999869,1.00383,1.00327,1.00216,1.00074,1.00182,1.00501,1.00338,1.00495,1.0003,1.0031,0.998976,1.00487,0.999915,1.00439,1.00483,1.00629,1.00765,1.00619,1.00331,1.00669,1.00348,1.00308,1.00039,1.00417,1.00634,1.00353,1.00155,1.00229,1.00317,1.00268,1.00085,1.005,1.00193,1.00429,1.00178,1.00432,1.00121,1.00342,1.00604,1.00522,1.00321,1.00276,1.00526,1.00446
1.00434,1.0025,1.00492,1.00417,1.00145,1.00531,1.00365,1.00315,1.00633,1.00482,1.00245,1.00093,1.00465,1.00227,1.00447,1.00224,1.00337,1.00332,1.00493,1.00271,1.00339,1.00449,1.00405,1.00215,1.00345,1.00766,1.00214,1.00594,1.00536,1.00252,1.00403,1.00121,1.00255,1.00299,1.00275,1.00584,1.00475,1.00179,1.00445,1.00246,1.0052,1.00333,1.00451,1.00488,1.00371,1.00373,1.00553,1.00103,1.00635,1.00393,1.00585,1.00781,1.00208,1.00451,1.00514,1.00192,1.00737,1.00039,1.00064,1.00277
1.00361,1.00512,1.00092,1.00489,1.00574,1.00725,1.00431,1.00337,1.00039,1.00133,1.00327,1.00325,1.004,1.00386,1.00129,1.00322,1.00343,1.00153,1.00201,1.0033,1.00233,1.00288,1.00356,1.00233,1.00495,1.0007,1.00328,1.00387,1.00392,1.00224,1.00229,1.00361,1.00153,1.00504,1.00158,1.00227,1.00457,1.00557,1.0013,1.00221,1.00178,1.0037,1.00382,1.00549,1.00234,1.0058,1.00161,1.00393,1.00304,1.00082,1.00287,1.00185,1.00397,1.00365,1.0052,1.00401,0.999726,1.0027,1.00502,1.004
1.00371,1.00028,1.00575,1.00479,1.00247,1.00321,1.00186,1.0035,1.00308,1.00349,1.00479,1.00526,1.00659,0.999762,1.00335,1.00386,1.00476,1.00236,1.00264,1.0039,1.0029,1.00373,1.00243,1.00065,1.00266,1.00454,1.00321,1.00541,1.00214,1.00206,1.00489,1.00151,1.00346,1.00465,1.00299,1.0034,1.0038,1.00161,1.00358,1.0048,1.00236,1.00394,1.00417,1.00322,1.00476,1.00026,1.00377,1.00193,1.00236,1.00181,1.00385,1.00337,1.00325,1.00347,1.00588,1.00388,1.00156,1.00206,1.00137,1.00448
1.00097,1.00422,1.00536,1.00436,1.00263,1.00264,1.00396,1.00346,1.00643,1.00354,1.00374,1.00458,1.00454,1.0049,1.00204,1.00282,1.00361,1.00178,1.00411,1.00341,0.999013,1.00421,1.00454,1.00456,0.998904,1.00263,1.00407,1.00469,1.00319,1.00252,1.00102,1.00655,1.00354,1.00442,1.00228,0.998393,1.00488,1.00691,1.00603,1.00562,1.00286,1.00288,1.00302,1.00439,1.00306,1.00449,1.00481,1.00322,1.00141,1.00022,1.00081,1.00487,1.00275,1.00418,1.00586,1.00397,1.00309,1.00335,1.00282,1.00403
1.00494,1.00745,1.00508,1.00087,1.00524,1.00296,1.00399,1.00328,1.00277,1.00365,1.0035,1.00178,1.00256,1.00084,1.00253,1.00449,1.00338,1.00449,1.00539,1.00272,1.00315,1.00422,1.0035,1.00299,1.00489,1.00316,1.00248,1.00399,1.00538,1.00131,1.00302,1.00514,1.00004,1.00368,1.00558,1.00632,1.00391,1.00348,1.00139,1.00284,1.00212,1.00091,1.00841,1.00507,1.00278,1.00299,1.00441,0.999903,1.00219,1.00045,1.00222,1.00369,1.00345,1.00166,1.00314,1.00579,1.0006,1.00213,0.999891,1.00514
1.00085,1.00639,1.00369,1.00459,1.00321,1.00534,1.00339,1.00252,1.00652,1.00421,1.00251,1.00287,0.999781,1.00569,1.00203,1.00385,1.00178,1.00152,1.00509,1.00637,1.00292,1.00262,1.00541,1.00163,1.00419,1.00166,1.00274,1.00589,1.00289,0.997566,1.00164,1.00277,1.00519,1.00272,1.00567,1.00282,1.00207,1.00646,1.00146,1.00237,1.00199,1.00241,1.00071,1.00141,1.00338,1.00605,1.00516,1.00487,1.0052,1.00185,1.00497,0.998773,1.00496,1.00222,1.00065,1.00464,1.00027,1.0036,1.0049,1.00619
1.00202,1.00432,1.00505,1.00353,1.00442,1.00252,1.00347,1.00242,1.0056,1.00356,1.00419,1.00314,1.0001,1.00133,0.996697,1.00326,1.00266,1.0019,1.00183,1.00098,1.00437,1.00124,1.00631,1.00152,1.00118,1.00276,1.00417,1.00891,1.00255,1.00497,1.0009,1.00381,1.00468,1.00557,1.00143,1.00482,1.0061,1.00285,1.00594,1.00462,1.0052,1.00469,1.00234,1.00102,1.0003,1.00359,1.00271,1.00392,1.00186,1.00521,1.00208,1.00252,1.00622,1.00467,1.00427,1.00698,1.00569,1.00311,1.00379,1.00503
1.00574,1.00264,1.00576,1.00169,1.0034,1.00595,1.0029,1.00438,1.00375,1.00492,1.00668,1.00506,1.00089,1.0071,1.00384,1.00344,1.00284,1.00391,1.00447,1.00296,0.999885,1.00649,1.00453,1.00469,1.00372,1.00373,1.00604,1.00397,1.00377,1.00191,1.03603,1.00235,1.00496,1.00119,1.00237,1.00323,1.00382,1.00563,1.00263,1.00189,1.00267,1.00226,1.00377,1.00255,1.00314,1.00195,1.00114,1.00584,1.00428,1.0008,1.00524,1.00052,1.00373,1.00172,1.00564,1.004,1.00527,1.00336,1.0071,1.00361
1.00256,1.00147,1.00178,1.00801,1.00159,1.00468,1.00194,1.00497,1.00368,1.00615,1.00504,1.00557,1.00311,1.00078,0.999772,1.00566,1.00777,1.00496,1.00231,1.00389,1.00545,1.00493,1.00217,1.00382,1.00541,1.00563,1.00205,1.00801,1.003,1.00337,1.00379,1.00197,1.00833,1.00311,0.999976,1.00535,1.00421,1.00321,1.00309,1.00165,1.00381,1.00254,1.00422,1.0011,1.00396,1.00483,1.00325,1.00184,1.0042,1.00462,1.00283,1.00368,1.00572,1.00176,1.0028,1.0063,1.00534,1.00369,1.00657,1.00563
1.00433,1.00084,1.00124,1.00185,1.00415,1.00045,1.00099,1.00318,1.00384,1.00365,1.00539,1.005,1.00501,1.00326,1.0015,1.00398,1.00703,1.0019,1.0045,1.00345,1.00276,1.00487,1.00217,1.00587,1.00348,1.00451,1.00483,1.00355,1.00086,0.999945,1.0038,1.00285,1.00561,1.00159,1.00119,1.00322,1.00129,0.999306,1.00633,1.00279,1.00581,1.00638,1.00363,1.00264,1.00317,1.00192,1.00256,0.999042,1.00481,1.00271,1.00256,1.00326,1.00309,1.0003,1.00347,1.00388,1.00331,1.00291,1.00346,1.00465
1.00526,1.00067,1.00549,1.0064,1.00016,1.00183,1.00266,1.00027,0.999784,1.00704,1.0042,1.00469,1.0011,1.00617,1.00556,1.00249,1.00114,1.0053,1.00285,1.00199,1.00113,1.00095,1.00452,1.00367,1.00352,1.00557,1.00038,1.0052,1.00437,1.0019,1.00318,1.00579,1.0058,1.00366,1.00332,1.004,1.00551,1.00499,1.00463,1.00283,1.0027,1.0022,1.00206,1.00072,1.00057,1.00214,1.00399,1.00352,1.00314,1.00484,1.0027,1.00615,1.00261,1.0028,1.00445,1.00734,1.0023,1.00433,1.0036,1.00218
1.00592,1.00544,1.00416,1.00323,1.00164,1.00077,1.00378,1.0048,1.00244,1.00464,1.0007,1.00295,1.00144,1.002,1.00402,1.00551,1.0034,1.00227,1.00557,1.00506,1.00474,1.00224,1.00065,1.00387,1.00141,1.00018,1.00551,1.00202,1.00263,1.00329,1.00295,1.00314,1.00296,1.00275,1.00171,1.00429,1.00537,1.0034,1.00427,1.0047,1.0045,1.00519,1.0052,1.00278,1.0053,1.00161,1.00127,1.00192,1.00531,1.00265,1.00609,1.00377,1.00276,1.00769,1.00266,1.00201,1.00297,1.00344,1.0043,1.00281
1.00319,1.00309,1.00226,1.00341,1.00174,1.00186,1.00276,1.00094,1.00589,1.00244,1.00318,1.0044,1.00295,1.00683,1.00317,1.00413,1.0045,1.00614,1.00183,1.00252,1.00385,1.00516,1.00247,1.0028,1.00248,1.0044,1.00191,1.00731,1.00223,1.00235,1.00471,1.00247,1.00492,1.00209,1.00177,1.00586,1.00435,1.00504,1.00509,1.00387,1.00106,1.0052,1.00217,1.00279,0.999815,1.00409,0.999617,1.0033,1.00332,1.00342,1.00252,1.00195,1.00741,1.00436,1.00339,1.00464,1.00202,1.00217,1.00286,1.00236
1.0038,1.00232,1.00218,1.00701,1.00554,1.00349,1.00184,1.00241,1.00128,1.00366,1.00661,1.0042,1.00128,1.00412,1.00193,1.00084,1.00635,1.00344,1.00577,1.00267,1.00447,1.00116,1.00457,1.00282,1.00285,1.00394,1.00452,1.00582,1.0049,1.00192,1.00511,1.00219,1.00623,1.00183,1.00231,1.00191,1.00545,1.00419,1.00281,1.00327,1.00132,1.00118,1.0024,1.00393,1.00535,1.00249,1.00667,1.00595,1.00429,1.00312,1.00602,1.00627,1.00143,1.00579,1.00239,1.00507,1.00366,1.00589,1.00271,1.00456
1.00211,1.00298,1.00507,1.00254,1.00222,1.00212,1.00365,1.00394,1.00255,1.00103,1.00005,1.00179,1.00357,1.0024,1.00206,1.00369,1.00244,1.00157,1.00127,1.00195,1.00307,1.00459,1.00429,1.00402,1.0025,1.00456,0.99996,1.00404,1.00363,1.00246,1.00281,1.00095,1.00252,1.00022,1.00419,1.00498,1.00091,1.00102,1.0068,1.00491,1.0045,1.00472,1.00344,1.00314,1.00393,1.0041,1.00422,1.00333,1.00331,1.00338,1.00396,1.00141,1.00179,1.00199,1.00418,1.00337,1.00441,1.00506,1.00108,1.00435
1.00948,1.00692,1.00345,1.00424,1.00719,1.00026,1.00333,1.00444,1.00371,1.00007,1.00347,1.0044,1.0055,1.00231,0.999716,1.00183,1.00419,1.00748,1.00372,1.00132,1.0004,1.00124,1.00558,1.00496,1.00209,1.00421,1.00161,1.00521,1.00238,1.00219,1.00526,1.00257,1.00168,1.00629,1.00287,1.00224,1.00333,1.00537,1.00371,1.00215,1.00426,1.00241,1.00601,1.0017,1.00362,1.00333,1.00291,1.00211,0.998968,0.999923,1.00146,1.00643,1.00296,1.00338,1.00482,1.00408,1.00305,1.0054,1.00795,1.00386
1.00489,1.00394,1.00229,1.00239,1.00414,1.00461,1.00505,1.00295,0.999235,1.00484,1.006,1.00354,1.00538,1.00406,1.00376,1.00076,1.00231,1.0032,1.00324,1.00298,1.00504,1.002,1.00583,1.00439,1.00321,1.00473,1.00647,1.00154,1.00438,1.00444,1.00297,1.00363,1.00408,1.00299,1.00261,1.00488,1.00193,1.00455,1.0051,1.00447,1.00435,1.00468,1.00295,1.00629,1.00463,1.00467,1.00481,1.00293,1.0038,1.00747,1.00288,1.00544,1.0054,1.00315,1.00271,1.00488,1.0048,1.00145,1.0015,1.00354
1.00246,1.0038,1.00266,1.00289,1.00456,1.00199,1.00503,1.00332,1.00437,1.00041,1.00325,1.00823,1.00349,1.00472,1.00336,1.00188,1.00501,1.00216,1.0047,1.00395,1.00327,1.00192,1.00281,1.00204,1.00175,1.00122,1.00455,1.00252,1.00491,1.00389,1.00418,1.00329,1.00182,1.00313,1.00194,1.00715,1.00282,1.0042,1.00296,1.00089,1.00266,1.00275,1.00142,1.00417,1.00351,1.00194,1.00353,1.00514,1.00226,0.999923,1.00627,1.00506,1.0074,1.00362,1.00297,1.00328,1.00551,1.00608,1.0028,1.00338
1.00298,1.00391,1.00271,1.00326,1.00313,1.00485,1.00547,1.00088,1.00385,1.00431,1.00265,1.00373,1.00524,1.00422,1.00289,1.00399,1.00222,1.00155,1.00355,0.99791,1.00531,1.00174,1.00168,1.00585,1.0032,1.0028,1.00608,1.0052,1.00234,0.999727,1.00592,1.0023,1.00199,1.00097,1.00264,1.00097,0.999183,1.00168,1.00045,1.00191,1.00316,1.00487,1.00259,1.00519,1.00014,1.00262,1.00466,1.00335,1.00108,1.00193,1.00281,1.00295,1.00256,1.00216,1.00583,1.00574,1.00345,1.00341,1.00201,1.00633
1.0027,1.00436,1.00433,1.00422,1.00535,1.0044,1.00645,1.00198,1.00175,1.00301,1.00429,0.998186,1.00375,1.00165,1.0038,1.00153,1.00198,1.00389,1.00371,1.0061,1.00192,1.00428,1.00193,1.00217,1.00596,1.00165,1.00252,1.0017,1.0039,1.00396,1.0048,1.0025,1.00493,1.00307,1.00685,1.00317,1.00589,1.00325,1.00167,1.00353,1.00377,1.00063,1.00282,1.0032,1.00304,1.00605,1.00249,1.00193,1.00437,1.00376,1.00142,1.00265,1.00527,1.00078,1.00623,1.004,0.999176,1.0029,0.999953,1.00381
1.0039,1.00777,1.00794,1.00315,0.998993,0.999917,1.00168,1.00013,1.00226,1.0045,1.00483,1.00126,1.00402,1.00221,1.00722,1.00383,1.00328,1.00392,0.999317,1.00343,1.00318,0.999343,1.00187,1.00268,1.00153,1.00319,1.00588,1.00095,1.00197,1.00163,1.00383,1.00056,1.00335,1.00211,1.00086,1.0016,1.00644,1.00374,1.00489,1.001,1.00508,1.00215,1.00482,1.00141,1.00333,1.00348,1.00504,1.00403,1.00087,1.00034,0.999952,1.00237,1.00528,1.00545,1.00364,1.00689,1.00148,1.00246,1.00616,1.00531
1.00319,1.00457,0.999605,1.00377,1.00601,1.00484,1.00264,1.00103,1.0047,1.00234,0.999142,1.00491,1.00565,1.00318,1.00558,1.0005,1.00323,1.00323,1.0036,1.00186,1.00153,1.00859,1.00203,1.00534,1.00678,1.00154,1.00517,1.0024,1.00478,1.00364,1.00181,1.00639,1.00522,1.00852,1.0048,1.00294,1.00235,1.00182,1.00475,1.00312,1.00711,1.00412,1.00361,0.998392,1.00286,1.00636,1.00217,1.00363,1.00646,1.0033,1.00224,1.00712,1.00197,1.00574,1.00389,1.00084,1.00401,1.00383,1.00305,1.00232
1.00466,1.00476,1.00244,1.00362,1.00564,1.00776,1.00181,1.0019,1.00146,1.00241,1.00124,1.0047,1.00312,1.00299,1.00502,1.00515,1.00532,1.00432,1.00528,1.00146,1.00655,1.00301,1.00186,1.00274,1.00333,1.00311,1.00447,1.00292,1.00479,1.0053,1.00366,1.00257,1.00531,1.00292,1.00405,1.00156,1.00387,1.00394,1.00029,1.00475,1.00181,1.00343,1.00307,1.00435,1.00153,1.00505,1.00165,1.00139,1.00404,1.00232,1.00243,1.0053,1.00398,1.00447,1.00154,1.00311,1.00272,1.0076,1.00616,1.00474
1.00197,1.0043,1.00327,1.00131,1.00239,1.00292,1.0045,1.00444,1.00396,1.00283,1.00728,1.00372,1.00353,1.00591,1.00257,1.00382,1.0063,1.00491,1.00152,1.00522,1.00273,1.00215,1.00308,1.00578,1.00222,1.00675,1.0074,1.00409,1.00369,1.00073,1.00319,1.00125,1.00535,1.00346,1.00046,1.00314,1.00543,1.00153,1.00722,1.00297,1.00285,1.00089,1.0026,1.00747,1.00186,1.00617,1.00371,1.00522,1.00577,0.99914,1.00647,1.00342,1.00264,1.00267,1.00304,1.00108,1.00449,1.00254,1.00119,1.00315
1.00158,1.00198,1.00325,1.00095,1.00009,1.006,1.00351,1.00163,1.00409,1.00711,1.00468,1.00291,1.00671,1.00376,1.00257,1.00402,1.00584,1.00228,1.00614,1.00201,1.00637,1.00085,1.00078,1.00245,1.00311,1.00375,1.00411,1.00122,1.00477,1.00247,1.00524,1.00013,1.00328,1.00509,1.00419,1.00139,1.00531,1.00268,1.00621,1.00458,1.00446,1.00172,1.004,1.00274,1.00498,1.00048,1.00222,1.00266,1.00525,1.00631,1.00267,1.00295,1.00354,1.00345,1.00328,1.00294,1.00366,1.00149,1.0041,1.00354
1.00214,1.00388,1.00476,1.00624,1.00304,1.0071,1.00562,1.00419,1.00505,1.00347,1.00594,1.0022,1.00575,1.00562,0.999798,1.00479,1.00201,1.00694,1.00399,1.00647,1.00558,1.00588,1.00462,1.00483,1.0045,1.0041,1.00361,1.00336,1.00444,1.00234,1.00285,1.00644,1.00525,1.00306,1.00309,1.00551,1.00264,1.00405,1.00404,1.00191,1.00651,1.00187,1.00441,1.00293,0.999754,1.00073,1.00391,1.00368,1.00318,1.00109,1.00404,1.00168,1.00378,1.00413,1.00563,1.00401,1.00117,1.00435,1.00391,0.999405
1.00054,1.00718,1.00203,1.00382,1.00102,1.0036,1.00175,1.00131,1.00392,0.996648,1.00431,1.00622,1.00455,1.00673,1.00662,1.00148,1.00586,1.00466,1.00149,1.00225,1.00243,1.00517,1.00391,1.00557,1.00522,1.00212,1.00255,1.00141,1.00415,1.00722,1.00508,1.00298,1.00568,1.00636,1.0073,1.00229,1.00555,1.00576,1.00239,1.00507,1.0044,1.00437,1.0044,1.00243,1.00271,1.0035,1.00275,1.00456,1.00354,1.00253,1.00342,1.00472,1.00347,1.00502,1.00171,1.00726,1.00602,1.0029,1.00649,1.00572
1.00266,1.00052,1.00283,1.00314,1.00439,1.00299,1.00286,1.00172,1.00731,1.00391,1.0034,1.00345,1.00297,1.00275,1.00272,1.00449,1.00115,1.00407,1.00509,1.00447,1.00666,1.00516,1.00024,1.0026,1.00263,1.0023,1.00192,1.00424,1.00636,1.00321,1.00049,1.00616,1.00211,1.00201,1.0025,1.00352,1.00393,1.00087,1.00271,1.00247,1.00068,0.999292,1.00475,1.00558,1.00198,1.00196,1.00586,1.00331,1.00609,1.00198,0.999058,1.00461,1.00206,1.00282,1.00264,1.00417,1.00598,1.00301,1.00372,1.00046
1.00357,1.00472,1.003,1.00563,1.002,1.00367,1.00365,1.00342,1.004,1.00368,1.00268,1.0018,1.00409,1.00053,1.00956,1.00264,1.004,1.00537,1.00595,1.0031,1.00252,1.00427,1.00235,1.00175,1.00101,1.00099,1.00167,1.00352,1.00522,1.00255,1.00294,1.00391,1.00623,1.00445,1.00443,1.00334,1.00263,1.0014,1.00243,1.00027,1.00476,1.00518,0.999956,1.00525,1.0031,1.00218,1.00491,1.00681,1.00206,1.00157,1.00203,1.00336,1.0054,1.00222,1.0023,1.00546,1.0059,1.00203,1.00242,1.00636
1.00366,0.99984,1.00726,1.00499,1.00266,1.00412,1.00152,1.00306,1.00294,1.00594,1.00254,1.00262,1.00417,1.00242,1.00247,1.0041,1.00385,1.00197,1.006,1.00713,1.00192,1.00316,1.00475,1.00371,1.00167,1.00229,1.00531,1.0045,1.00406,1.0066,1.00366,1.00312,1.00415,1.00465,1.0021,1.0028,1.00274,1.00243,1.00442,1.00369,1.00093,1.00387,1.00555,1.00357,1.00319,1.00249,1.00541,1.0052,1.00083,1.00545,1.00156,1.00549,1.00345,1.00166,1.00083,1.00129,1.00522,1.00139,1.00383,1.00355
1.00058,1.00727,1.00489,1.00601,1.00237,1.00455,1.00272,1.00496,1.00325,1.00148,1.00507,1.002,1.00564,1.0048,1.00145,1.00304,1.00234,1.00343,1.00233,1.00339,1.00448,1.00339,1.00162,1.00329,1.00089,1.00338,1.00116,1.00252,1.00453,1.00669,1.003,1.00313,1.00313,1.00153,1.00515,1.00399,1.00442,1.00749,1.00622,1.00132,1.0037,1.00031,1.00311,1.00208,1.00278,1.00396,1.00145,1.00228,1.00583,1.00376,1.00438,1.00422,1.00156,1.0035,1.00131,1.00065,1.00582,1.00351,1.00384,1.00363
0.999759,1.00229,1.00095,1.00416,1.00563,1.0012,1.00537,1.00277,1.00035,1.00251,1.00379,1.00421,1.00276,1.0031,1.00573,1.00417,1.00583,1.00342,1.00473,1.00065,1.0026,1.00209,1.00247,0.998525,1.00683,1.00366,1.00755,1.00159,1.00461,1.00221,1.00617,1.0063,1.00326,1.00588,1.00092,1.00189,1.0046,1.00322,1.00321,1.00509,1.00709,1.00236,1.00437,1.00361,1.00364,1.00312,1.00221,1.00175,1.00342,1.00441,1.00033,1.00378,1.00423,1.00288,1.00311,1.00595,1.00387,1.00516,1.0022,1.00399
1.00415,1.00204,1.00272,1.00166,1.00633,1.00191,1.00325,1.00307,1.00326,1.00426,1.00526,1.00305,1.00372,1.00276,1.00407,1.00384,1.0048,1.0027,1.00651,1.00512,1.00183,1.0017,1.00304,1.00201,1.00471,1.00342,1.00495,1.00475,1.00387,1.00598,1.00349,1.00204,1.00342,1.00347,1.00324,1.00487,1.00421,1.00556,1.00436,1.0013,1.00877,1.00223,1.00806,1.00373,1.00155,1.00316,1.00082,1.00371,1.0027,1.00047,1.00353,1.00164,1.00224,1.00365,1.00116,1.0018,1.00064,1.00716,1.00602,0.999849
1.00213,1.00414,1.00399,1.00216,1.00283,1.00462,1.0028,1.00149,1.00418,1.00415,1.00104,1.00094,1.00188,1.00497,1.00533,1.00515,1.00248,1.00125,1.00266,1.00074,1.00421,1.00394,1.00224,1.00148,1.00293,1.00504,1.00309,1.00397,1.00354,1.00369,0.998618,1.00327,1.00497,1.00437,1.00342,1.00542,1.00372,1.00637,1.00564,1.00737,1.00444,1.00328,1.00541,1.00268,1.00064,1.00334,1.00467,1.00465,1.00064,1.00538,1.0057,1.00112,1.00418,1.0043,1.00262,1.0026,1.00437,1.00156,1.00166,1.0033
1.00198,1.00561,1.00284,1.00337,1.00349,1.00516,1.00132,1.004,1.00278,1.00213,1.00245,1.00436,1.00623,1.00342,1.00374,1.00117,1.00445,1.00689,1.00314,1.00403,1.00144,1.00239,1.00237,1.00076,1.00266,0.998949,1.00194,1.00252,0.999354,1.00357,1.00445,1.00388,1.00546,1.00268,1.00708,1.0019,1.00431,0.997999,1.00445,1.00455,1.00408,1.00411,1.00091,1.00222,1.00401,1.005,1.00521,1.00513,1.00196,1.00287,1.00372,1.0008,1.00018,1.00669,1.00218,1.00123,1.00291,1.00391,1.00456,1.0036
1.00282,1.00324,1.00366,1.0027,1.00397,1.0045,1.00232,1.00429,1.00366,1.00269,1.00147,1.00135,1.00326,1.00571,1.00228,1.00433,1.00207,1.0045,1.00172,1.00359,1.0058,1.00623,1.00399,1.00246,1.00001,1.00588,1.00623,1.00252,1.00444,1.00478,1.00217,1.00497,1.00168,1.00285,1.00403,1.00745,1.00468,1.00218,1.00487,1.00108,1.00261,1.00408,1.00328,1.00413,1.00423,1.00353,1.0064,1.00262,1.00721,1.00286,1.00437,1.00163,1.00085,1.0043,1.0016,1.00761,1.00307,1.0035,0.999918,1.00205
1.00204,1.0021,1.00447,1.00357,1.00716,1.0095,1.00205,1.00145,1.00185,1.00644,1.00309,1.00247,1.00396,1.00541,1.00138,1.0035,1.00161,1.00506,1.00301,1.00718,1.0028,1.00472,1.00359,1.00284,1.00538,1.00475,1.0037,1.00639,1.00366,1.00544,1.00157,1.00888,1.00221,1.00151,1.00443,0.999022,1.00472,1.00509,1.00546,1.00503,1.00324,1.00622,1.00395,1.00155,1.00571,1.00324,1.00494,1.0012,1.00101,1.00282,1.00186,1.00165,1.00253,1.00465,1.00432,1.00278,1.00323,1.005,1.0027,1.00113

max: 1.03603
min: 0.991281
avg: 1.00343
